fips,name,votes,absentee_votes,reporting,precincts,absentee_method,eevp,tot_exp_vote,eevp_value,eevp_display,eevp_source,turnout_stage,absentee_count_progress,absentee_outstanding,absentee_max_ballots,provisional_outstanding,provisional_count_progress,results_tubervillet,results_jonesd,results_write_ins,results_absentee_tubervillet,results_absentee_jonesd,results_absentee_write_ins,last_updated,leader_margin_value,leader_margin_display,leader_margin_name_display,leader_party_id,state,retrieved_time
01001,Autauga,27578,0,19,19,Released as a precinct as first report of the night,99,27770,>98%,>98% reported,edison,10,unknown,,1896,,,19320,8215,43,0,0,0,2020-11-24T13:23:10Z,40.2676,R+40,Tuberville +40,republican,alabama,2020-11-30T00:51:06.653228Z
01003,Baldwin,108617,0,51,51,"As a precinct in the FIRST cumulative report, along with regular precincts",99,109679,>98%,>98% reported,edison,10,some,,6293,,,79737,28656,224,0,0,0,2020-11-24T13:23:11Z,47.02855,R+47,Tuberville +47,republican,alabama,2020-11-30T00:51:06.653228Z
01005,Barbour,10419,0,15,17,Released as a precinct as first report of the night,99,10518,>98%,>98% reported,edison,10,all,,1554,,,5434,4976,9,0,0,0,2020-11-24T13:23:12Z,4.39582,R+4,Tuberville +4,republican,alabama,2020-11-30T00:51:06.653228Z
01007,Bibb,9559,570,10,10,"As a precinct in the FIRST cumulative report, along with regular precincts",100,9595,>98%,>98% reported,edison,10,unknown,,410,,,7306,2236,17,336,234,0,2020-11-24T13:21:44Z,53.03902,R+53,Tuberville +53,republican,alabama,2020-11-30T00:51:06.653228Z
01009,Blount,27376,0,24,25,"As a precinct in the FIRST cumulative report, along with regular precincts",99,27588,>98%,>98% reported,edison,10,all,,1181,,,24049,3274,53,0,0,0,2020-11-24T13:21:48Z,75.88764,R+76,Tuberville +76,republican,alabama,2020-11-30T00:51:06.653228Z
01011,Bullock,4591,0,14,16,Released as a precinct as first report of the night,100,4613,>98%,>98% reported,edison,10,none,,557,,,1105,3484,2,0,0,0,2020-11-24T13:21:49Z,51.81878,D+52,Jones +52,democrat,alabama,2020-11-30T00:51:06.653228Z
01013,Butler,9414,1045,22,23,Released as a precinct as first report of the night,99,9488,>98%,>98% reported,edison,10,all,,4735,,,5223,4180,11,419,626,0,2020-11-24T13:21:52Z,11.07924,R+11,Tuberville +11,republican,alabama,2020-11-30T00:51:06.653228Z
01015,Calhoun,50578,0,42,45,Released with cumulative results periodically election night,99,50983,>98%,>98% reported,edison,10,unknown,,1917,,,33797,16704,77,0,0,0,2020-11-24T13:21:53Z,33.79533,R+34,Tuberville +34,republican,alabama,2020-11-30T00:51:06.653228Z
01017,Chambers,15219,0,21,21,Released as a precinct as first report of the night,100,15284,>98%,>98% reported,edison,10,unknown,,883,,,8307,6898,14,0,0,0,2020-11-24T13:21:54Z,9.25816,R+9,Tuberville +9,republican,alabama,2020-11-30T00:51:06.653228Z
01019,Cherokee,12224,0,24,24,"As a precinct in the FIRST cumulative report, along with regular precincts",99,12301,>98%,>98% reported,edison,10,all,,800,,,10102,2105,17,0,0,0,2020-11-24T13:21:55Z,65.42048,R+65,Tuberville +65,republican,alabama,2020-11-30T00:51:06.653228Z
01021,Chilton,19179,0,18,19,"As a subtotal in the FIRST cumulative report, along with regular precincts",99,19310,>98%,>98% reported,edison,10,some,,1819,,,15676,3481,22,0,0,0,2020-11-24T13:21:56Z,63.58517,R+64,Tuberville +64,republican,alabama,2020-11-30T00:51:06.653228Z
01023,Choctaw,7413,0,32,35,Released as a separate subtotal in the middle of the tabulation,99,7464,>98%,>98% reported,edison,10,unknown,,1080,,,4187,3223,3,0,0,0,2020-11-24T13:21:56Z,13.00418,R+13,Tuberville +13,republican,alabama,2020-11-30T00:51:06.653228Z
01025,Clarke,13045,0,19,21,Released as a precinct at the end of tabulation,99,13135,>98%,>98% reported,edison,10,all,,1469,,,7044,5992,9,0,0,0,2020-11-24T13:21:58Z,8.06439,R+8,Tuberville +8,republican,alabama,2020-11-30T00:51:06.653228Z
01027,Clay,6885,548,15,16,Released as a separate subtotal as first report of the night,99,6930,>98%,>98% reported,edison,10,all,,950,,,5442,1435,8,353,195,0,2020-11-24T13:22:00Z,58.19898,R+58,Tuberville +58,republican,alabama,2020-11-30T00:51:06.653228Z
01029,Cleburne,7152,0,15,16,Released as a precinct as first report of the night,99,7227,>98%,>98% reported,edison,10,all,,483,,,6308,839,5,0,0,0,2020-11-24T13:22:00Z,76.46812,R+76,Tuberville +76,republican,alabama,2020-11-30T00:51:06.653228Z
01031,Coffee,22083,0,29,31,"As a precinct in the FIRST cumulative report, along with regular precincts",99,22275,>98%,>98% reported,edison,10,all,,1406,,,16335,5723,25,0,0,0,2020-11-24T13:22:01Z,48.05506,R+48,Tuberville +48,republican,alabama,2020-11-30T00:51:06.653228Z
01033,Colbert,24573,1504,31,35,Released as a precinct as first report of the night,88,27886,88%,88% reported,edison,10,all,,1442,,,16482,8041,50,586,911,7,2020-11-24T13:22:02Z,34.35071,R+34,Tuberville +34,republican,alabama,2020-11-30T00:51:06.653228Z
01035,Conecuh,6374,0,24,28,Released as a precinct in the middle of the night,99,6441,>98%,>98% reported,edison,10,all,,526,,,3287,3083,4,0,0,0,2020-11-24T13:22:03Z,3.2005,R+3,Tuberville +3,republican,alabama,2020-11-30T00:51:06.653228Z
01037,Coosa,5460,363,12,13,Released as a precinct as first report of the night,100,5479,>98%,>98% reported,edison,10,all,,288,,,3554,1897,9,198,165,0,2020-11-24T13:22:04Z,30.34799,R+30,Tuberville +30,republican,alabama,2020-11-30T00:51:06.653228Z
01039,Covington,17341,1511,24,25,Released as a precinct as first report of the night,99,17430,>98%,>98% reported,edison,10,all,,1227,,,14114,3208,19,986,523,2,2020-11-24T13:22:08Z,62.89141,R+63,Tuberville +63,republican,alabama,2020-11-30T00:51:06.653228Z
01041,Crenshaw,6589,0,18,19,Released as a precinct as first report of the night,100,6617,>98%,>98% reported,edison,10,unknown,,402,,,4671,1910,8,0,0,0,2020-11-24T13:22:10Z,41.90317,R+42,Tuberville +42,republican,alabama,2020-11-30T00:51:06.653228Z
01043,Cullman,41637,0,49,50,Released as a precinct in the middle of the night,99,41851,>98%,>98% reported,edison,10,none,,1880,,,35878,5666,93,0,0,0,2020-11-24T13:22:12Z,72.56046,R+73,Tuberville +73,republican,alabama,2020-11-30T00:51:06.653228Z
01045,Dale,19603,0,19,20,None,99,19738,>98%,>98% reported,edison,10,all,,1464,,,13633,5938,32,0,0,0,2020-11-24T13:22:13Z,39.2542,R+39,Tuberville +39,republican,alabama,2020-11-30T00:51:06.653228Z
01047,Dallas,17813,0,25,30,Released as a precinct in the middle of the night,100,17864,>98%,>98% reported,edison,10,all,,1571,,,5297,12501,15,0,0,0,2020-11-24T13:22:13Z,40.44237,D+40,Jones +40,democrat,alabama,2020-11-30T00:51:06.653228Z
01049,DeKalb,29213,0,53,53,Released as a precinct as first report of the night,100,29356,>98%,>98% reported,edison,10,all,,1682,,,23920,5240,53,0,0,0,2020-11-24T13:22:14Z,63.94413,R+64,Tuberville +64,republican,alabama,2020-11-30T00:51:06.653228Z
01051,Elmore,40780,0,29,30,"As a precinct in the FIRST cumulative report, along with regular precincts",99,41030,>98%,>98% reported,edison,10,some,,2117,,,29381,11339,60,0,0,0,2020-11-24T13:22:15Z,44.24228,R+44,Tuberville +44,republican,alabama,2020-11-30T00:51:06.653228Z
01053,Escambia,15807,0,31,33,None,99,15910,>98%,>98% reported,edison,10,all,,848,,,10401,5392,14,0,0,0,2020-11-24T13:22:15Z,31.68849,R+32,Tuberville +32,republican,alabama,2020-11-30T00:51:06.653228Z
01055,Etowah,47326,0,31,32,"As a precinct in the FIRST cumulative report, along with regular precincts",99,47728,>98%,>98% reported,edison,10,all,,2245,,,34179,13054,93,0,0,0,2020-11-24T13:22:16Z,44.6372,R+45,Tuberville +45,republican,alabama,2020-11-30T00:51:06.653228Z
01057,Fayette,8741,481,26,28,Released as a precinct as first report of the night,100,8766,>98%,>98% reported,edison,10,unknown,,362,,,7084,1646,11,281,200,0,2020-11-24T13:22:18Z,62.21256,R+62,Tuberville +62,republican,alabama,2020-11-30T00:51:06.653228Z
01059,Franklin,12466,0,23,25,Released as a precinct as first report of the night,99,12578,>98%,>98% reported,edison,10,all,,653,,,9844,2602,20,0,0,0,2020-11-24T13:22:20Z,58.09402,R+58,Tuberville +58,republican,alabama,2020-11-30T00:51:06.653228Z
01061,Geneva,12515,0,27,28,Released separately AFTER election night,100,12545,>98%,>98% reported,edison,10,unknown,,507,,,10378,2119,18,0,0,0,2020-11-24T13:22:21Z,65.99281,R+66,Tuberville +66,republican,alabama,2020-11-30T00:51:06.653228Z
01063,Greene,4775,1565,15,15,"As a precinct in the FIRST cumulative report, along with regular precincts",100,4775,>98%,>98% reported,edison,10,all,,590,,,816,3958,1,92,1473,0,2020-11-24T13:22:22Z,65.80105,D+66,Jones +66,democrat,alabama,2020-11-30T00:51:06.653228Z
01065,Hale,7904,1474,13,15,None,100,7904,>98%,>98% reported,edison,10,all,,982,,,3090,4810,4,171,1302,1,2020-11-24T13:22:24Z,21.76113,D+22,Jones +22,democrat,alabama,2020-11-30T00:51:06.653228Z
01067,Henry,9246,0,15,15,"As a precinct in the FIRST cumulative report, along with regular precincts",99,9298,>98%,>98% reported,edison,10,unknown,,994,,,6384,2853,9,0,0,0,2020-11-24T13:22:24Z,38.18949,R+38,Tuberville +38,republican,alabama,2020-11-30T00:51:06.653228Z
01069,Houston,45608,0,27,28,Released as a precinct as first report of the night,99,46173,>98%,>98% reported,edison,10,all,,3363,,,31225,14307,76,0,0,0,2020-11-24T13:22:25Z,37.09437,R+37,Tuberville +37,republican,alabama,2020-11-30T00:51:06.653228Z
01071,Jackson,23470,0,31,31,Released as a precinct as first report of the night,99,23636,>98%,>98% reported,edison,10,none,,1483,,,18867,4574,29,0,0,0,2020-11-24T13:22:27Z,60.89902,R+61,Tuberville +61,republican,alabama,2020-11-30T00:51:06.653228Z
01073,Jefferson,324335,0,165,173,Released as a precinct as first report of the night,100,325848,>98%,>98% reported,edison,10,some,,15352,,,133931,189854,550,0,0,0,2020-11-24T13:22:28Z,17.24236,D+17,Jones +17,democrat,alabama,2020-11-30T00:51:06.653228Z
01075,Lamar,7154,475,24,26,Released as a precinct as first report of the night,99,7193,>98%,>98% reported,edison,10,some,,790,,,6081,1070,3,343,129,3,2020-11-24T13:22:30Z,70.04473,R+70,Tuberville +70,republican,alabama,2020-11-30T00:51:06.653228Z
01077,Lauderdale,43841,0,32,32,Released as a precinct as first report of the night,99,44339,>98%,>98% reported,edison,10,unknown,,2931,,,29929,13825,87,0,0,0,2020-11-24T13:22:31Z,36.73274,R+37,Tuberville +37,republican,alabama,2020-11-30T00:51:06.653228Z
01079,Lawrence,15880,862,29,30,Released as a precinct in the middle of the night,99,16031,>98%,>98% reported,edison,10,all,,725,,,11655,4192,33,413,446,3,2020-11-24T13:22:34Z,46.99622,R+47,Tuberville +47,republican,alabama,2020-11-30T00:51:06.653228Z
01081,Lee,70788,0,24,24,"As a precinct in the FIRST cumulative report, along with regular precincts",99,71449,>98%,>98% reported,edison,10,unknown,,4032,,,40962,29714,112,0,0,0,2020-11-24T13:22:34Z,15.8897,R+16,Tuberville +16,republican,alabama,2020-11-30T00:51:06.653228Z
01083,Limestone,48560,0,26,26,Released as a precinct as first report of the night,99,49235,>98%,>98% reported,edison,10,unknown,,2880,,,33074,15396,90,0,0,0,2020-11-24T13:22:35Z,36.40445,R+36,Tuberville +36,republican,alabama,2020-11-30T00:51:06.653228Z
01085,Lowndes,6814,0,12,13,Merged into voters' home precincts and released with cumulative results,100,6835,>98%,>98% reported,edison,10,unknown,,576,,,1766,5046,2,0,0,0,2020-11-24T13:22:35Z,48.13619,D+48,Jones +48,democrat,alabama,2020-11-30T00:51:06.653228Z
01087,Macon,8691,0,12,14,Released as a precinct as first report of the night,100,8723,>98%,>98% reported,edison,10,all,,715,,,1478,7201,12,0,0,0,2020-11-24T13:22:36Z,65.84973,D+66,Jones +66,democrat,alabama,2020-11-30T00:51:06.653228Z
01089,Madison,193274,0,73,73,Released as a precinct at the end of tabulation,99,194767,>98%,>98% reported,edison,10,unknown,,14142,,,98814,94021,439,0,0,0,2020-11-24T13:22:36Z,2.4799,R+2,Tuberville +2,republican,alabama,2020-11-30T00:51:06.653228Z
01091,Marengo,10845,0,18,20,None,99,10900,>98%,>98% reported,edison,10,some,,1014,,,5160,5676,9,0,0,0,2020-11-24T13:22:37Z,4.75795,D+5,Jones +5,democrat,alabama,2020-11-30T00:51:06.653228Z
01093,Marion,13739,0,20,21,Merged into voters' home precincts AFTER election night,100,13807,>98%,>98% reported,edison,10,all,,666,,,11882,1841,16,0,0,0,2020-11-24T13:22:39Z,73.08392,R+73,Tuberville +73,republican,alabama,2020-11-30T00:51:06.653228Z
01095,Marshall,39345,0,28,28,Released as a precinct as first report of the night,99,39655,>98%,>98% reported,edison,10,none,,2110,,,31994,7269,82,0,0,0,2020-11-24T13:22:41Z,62.84153,R+63,Tuberville +63,republican,alabama,2020-11-30T00:51:06.653228Z
01097,Mobile,181292,0,82,88,Released as a separate subtotal as first report of the night,99,183164,>98%,>98% reported,edison,10,all,,11133,,,95717,85263,312,0,0,0,2020-11-24T13:22:42Z,5.76639,R+6,Tuberville +6,republican,alabama,2020-11-30T00:51:06.653228Z
01099,Monroe,10595,1257,29,31,Merged into voters' home precincts and released with cumulative results,99,10668,>98%,>98% reported,edison,10,all,,827,,,5890,4689,16,347,910,0,2020-11-24T13:22:44Z,11.33554,R+11,Tuberville +11,republican,alabama,2020-11-30T00:51:06.653228Z
01101,Montgomery,98278,0,45,49,Released as a separate subtotal as first report of the night,99,99139,>98%,>98% reported,edison,10,all,,7544,,,32053,66100,125,0,0,0,2020-11-24T13:22:45Z,34.64356,D+35,Jones +35,democrat,alabama,2020-11-30T00:51:06.653228Z
01103,Morgan,53359,0,39,41,Released as a precinct in the middle of the night,99,53722,>98%,>98% reported,edison,10,all,,3189,,,38126,15122,111,0,0,0,2020-11-24T13:22:45Z,43.11175,R+43,Tuberville +43,republican,alabama,2020-11-30T00:51:06.653228Z
01105,Perry,5202,1203,11,13,"As a precinct in the FIRST cumulative report, along with regular precincts",99,5230,>98%,>98% reported,edison,10,all,,1059,,,1271,3931,0,129,1074,0,2020-11-24T13:22:47Z,51.13418,D+51,Jones +51,democrat,alabama,2020-11-30T00:51:06.653228Z
01107,Pickens,9634,0,18,20,Released as a precinct as first report of the night,100,9668,>98%,>98% reported,edison,10,all,,456,,,5435,4188,11,0,0,0,2020-11-24T13:22:48Z,12.94374,R+13,Tuberville +13,republican,alabama,2020-11-30T00:51:06.653228Z
01109,Pike,13766,1148,33,35,Released as a precinct in the middle of the night,99,13841,>98%,>98% reported,edison,10,all,,910,,,7756,5996,14,430,718,0,2020-11-24T13:22:51Z,12.78512,R+13,Tuberville +13,republican,alabama,2020-11-30T00:51:06.653228Z
01111,Randolph,10759,0,25,27,None,99,10837,>98%,>98% reported,edison,10,unknown,,1038,,,8389,2360,10,0,0,0,2020-11-24T13:22:51Z,56.03681,R+56,Tuberville +56,republican,alabama,2020-11-30T00:51:06.653228Z
01113,Russell,21035,0,19,19,Released as a precinct as first report of the night,99,21329,>98%,>98% reported,edison,10,unknown,,1262,,,9315,11701,19,0,0,0,2020-11-24T13:22:52Z,11.343,D+11,Jones +11,democrat,alabama,2020-11-30T00:51:06.653228Z
01117,Shelby,114163,0,49,49,"As a precinct in the FIRST cumulative report, along with regular precincts",99,114950,>98%,>98% reported,edison,10,all,,5451,,,77579,36350,234,0,0,0,2020-11-24T13:22:53Z,36.11415,R+36,Tuberville +36,republican,alabama,2020-11-30T00:51:06.653228Z
01115,St. Clair,44253,0,31,31,None,100,44441,>98%,>98% reported,edison,10,unknown,,2192,,,35381,8796,76,0,0,0,2020-11-24T13:22:53Z,60.07502,R+60,Tuberville +60,republican,alabama,2020-11-30T00:51:06.653228Z
01119,Sumter,6249,0,11,13,Released as a separate subtotal as first report of the night,99,6291,>98%,>98% reported,edison,10,all,,795,,,1550,4696,3,0,0,0,2020-11-24T13:22:54Z,50.34406,D+50,Jones +50,democrat,alabama,2020-11-30T00:51:06.653228Z
01121,Talladega,35554,12080,26,27,None,100,35663,>98%,>98% reported,edison,10,all,,1602,,,21703,13807,44,5723,6345,12,2020-11-24T13:22:56Z,22.20847,R+22,Tuberville +22,republican,alabama,2020-11-30T00:51:06.653228Z
01123,Tallapoosa,20840,0,26,28,Released as a precinct as first report of the night,99,20991,>98%,>98% reported,edison,10,all,,1203,,,14608,6212,20,0,0,0,2020-11-24T13:22:57Z,40.28791,R+40,Tuberville +40,republican,alabama,2020-11-30T00:51:06.653228Z
01125,Tuscaloosa,89533,0,53,55,Other,99,90172,>98%,>98% reported,edison,10,unknown,,4762,,,49200,40143,190,0,0,0,2020-11-24T13:22:57Z,10.11582,R+10,Tuberville +10,republican,alabama,2020-11-30T00:51:06.653228Z
01127,Walker,30987,0,43,46,None,99,31170,>98%,>98% reported,edison,10,unknown,,1320,,,24958,5964,65,0,0,0,2020-11-24T13:22:58Z,61.29667,R+61,Tuberville +61,republican,alabama,2020-11-30T00:51:06.653228Z
01129,Washington,8791,0,18,20,"As a precinct in the FIRST cumulative report, along with regular precincts",99,8876,>98%,>98% reported,edison,10,all,,592,,,6152,2630,9,0,0,0,2020-11-24T13:22:59Z,40.0637,R+40,Tuberville +40,republican,alabama,2020-11-30T00:51:06.653228Z
01131,Wilcox,5864,0,31,36,Released as a precinct as first report of the night,99,5903,>98%,>98% reported,edison,10,all,,931,,,1771,4088,5,0,0,0,2020-11-24T13:22:59Z,39.51228,D+40,Jones +40,democrat,alabama,2020-11-30T00:51:06.653228Z
01133,Winston,11219,0,18,19,None,99,11284,>98%,>98% reported,edison,10,unknown,,533,,,9907,1299,13,0,0,0,2020-11-24T13:23:00Z,76.72698,R+77,Tuberville +77,republican,alabama,2020-11-30T00:51:06.653228Z
