fips,name,votes,absentee_votes,reporting,precincts,absentee_method,eevp,tot_exp_vote,eevp_value,eevp_display,eevp_source,turnout_stage,absentee_count_progress,absentee_outstanding,absentee_max_ballots,provisional_outstanding,provisional_count_progress,results_bidenj,results_trumpd,results_jorgensenj,results_write_ins,results_hawkinsh,results_la_rivag,results_hammonsb,results_blankenshipd,results_de_la_fuenter,results_absentee_bidenj,results_absentee_trumpd,results_absentee_jorgensenj,results_absentee_write_ins,results_absentee_hawkinsh,results_absentee_la_rivag,results_absentee_hammonsb,results_absentee_blankenshipd,results_absentee_de_la_fuenter,last_updated,leader_margin_value,leader_margin_display,leader_margin_name_display,leader_party_id,margin2020,votes2016,margin2016,votes2012,margin2012,state,retrieved_time
34001,Atlantic,140141,114510,151,151,Released separately AFTER election night,100,134885,>98%,>98% reported,edison,2,some,,14118,,,73624,64326,956,410,367,176,108,102,72,61032,51884,683,294,274,120,88,84,51,2020-11-19T14:38:52Z,6.63475,D+7,Biden +7,democrat,-6.63475,118041,-7,113344,-16.83,new-jersey,2020-11-24T00:47:14.458230Z
34003,Bergen,497160,428024,522,561,Merged into voters' home precincts AFTER election night,100,482190,>98%,>98% reported,edison,2,some,,45653,,,285811,204277,2849,1611,1374,384,284,327,243,250139,171754,2382,1611,1137,289,245,269,198,2020-11-17T19:35:51Z,16.39995,D+16,Biden +16,democrat,-16.39995,422213,-13.2,385990,-11.32,new-jersey,2020-11-24T00:47:14.458230Z
34005,Burlington,265967,203530,365,365,Merged into voters' home precincts and released with cumulative results,100,251784,>98%,>98% reported,edison,2,some,,31397,,,154577,103326,2206,4507,605,174,130,360,82,126131,74502,1449,538,409,114,85,249,53,2020-11-20T18:14:36Z,19.26968,D+19,Biden +19,democrat,-19.26968,221283,-14.7,216339,-18.02,new-jersey,2020-11-24T00:47:14.458230Z
34007,Camden,264912,0,345,345,Released separately AFTER election night,100,260581,>98%,>98% reported,edison,2,unknown,,59568,,,174575,86024,1876,979,780,200,150,217,111,0,0,0,0,0,0,0,0,0,2020-11-17T01:39:50Z,33.42657,D+33,Biden +33,democrat,-33.42657,229047,-32.3,225949,-37.27,new-jersey,2020-11-24T00:47:14.458230Z
34009,Cape May,57933,49516,127,127,Merged into voters' home precincts and released with cumulative results,100,56030,>98%,>98% reported,edison,4,some,,9231,,,23941,33158,311,219,140,19,59,31,55,21159,27756,215,174,105,10,43,20,34,2020-11-19T14:20:10Z,15.90976,R+16,Trump +16,republican,15.90976,49257,19.7,48093,8.58,new-jersey,2020-11-24T00:47:14.458230Z
34011,Cumberland,62575,17519,92,92,Released separately AFTER election night,98,63586,98%,98% reported,edison,4,some,,5984,,,32742,28952,397,167,139,26,71,32,49,11098,6267,63,28,21,7,15,9,11,2020-11-19T02:40:49Z,6.05673,D+6,Biden +6,democrat,-6.05673,54331,-6.1,55369,-24.2,new-jersey,2020-11-24T00:47:14.458230Z
34013,Essex,345311,0,531,550,Released as a separate subtotal as first report of the night,97,357574,97%,97% reported,edison,2,unknown,,24131,,,266820,75475,1296,,978,278,104,116,244,0,0,0,,0,0,0,0,0,2020-11-19T21:40:41Z,55.41237,D+55,Biden +55,democrat,-55.41237,312884,-56.8,303295,-56.78,new-jersey,2020-11-24T00:47:14.458230Z
34015,Gloucester,173453,149317,229,229,Merged into voters' home precincts and released with cumulative results,100,160473,>98%,>98% reported,edison,4,some,,25391,,,86702,83340,1616,799,446,82,149,122,197,76925,69839,1181,589,349,67,122,98,147,2020-11-18T15:20:45Z,1.93828,D+1.9,Biden +1.9,democrat,-1.93828,141254,0.5,135570,-10.74,new-jersey,2020-11-24T00:47:14.458230Z
34017,Hudson,250458,0,450,454,Released as a separate subtotal as first report of the night,99,252281,>98%,>98% reported,edison,2,some,,14745,,,181452,65698,1252,608,782,205,251,102,108,0,0,0,0,0,0,0,0,0,2020-11-18T21:10:35Z,46.21693,D+46,Biden +46,democrat,-46.21693,220542,-52.1,197693,-56.02,new-jersey,2020-11-24T00:47:14.458230Z
34019,Hunterdon,84673,72648,116,116,Released as a separate subtotal as first report of the night,100,81461,>98%,>98% reported,edison,4,some,,13401,,,39457,43153,985,431,410,44,77,77,39,35318,35808,698,326,314,38,59,57,30,2020-11-19T21:19:52Z,4.36503,R+4,Trump +4,republican,4.36503,71660,13.7,66624,17.73,new-jersey,2020-11-24T00:47:14.458230Z
34021,Mercer,177069,0,239,243,None,98,180008,98%,98% reported,edison,4,some,,21542,,,122532,51461,1427,645,564,125,91,88,136,0,0,0,0,0,0,0,0,0,2020-11-20T14:54:04Z,40.13746,D+40,Biden +40,democrat,-40.13746,158058,-37.1,155355,-36.7,new-jersey,2020-11-24T00:47:14.458230Z
34023,Middlesex,375681,0,615,615,Other,100,375017,>98%,>98% reported,edison,4,some,,56703,,,226245,143461,2554,1330,1221,249,198,247,176,0,0,0,0,0,0,0,0,0,2020-11-23T13:16:43Z,22.03572,D+22,Biden +22,democrat,-22.03572,328557,-21.3,301860,-27.58,new-jersey,2020-11-24T00:47:14.458230Z
34025,Monmouth,378390,0,511,511,Merged into voters' home precincts and released with cumulative results,100,361534,>98%,>98% reported,edison,2,some,,47571,,,181291,191808,2708,239,1414,181,340,227,182,0,0,0,0,0,0,0,0,0,2020-11-20T14:40:42Z,2.77941,R+3,Trump +3,republican,2.77941,317750,9.3,284557,5.05,new-jersey,2020-11-24T00:47:14.458230Z
34027,Morris,300917,0,396,396,Merged into voters' home precincts and released with cumulative results,100,287978,>98%,>98% reported,edison,2,unknown,,33525,,,153881,141134,2436,1595,1005,253,224,207,182,0,0,0,0,0,0,0,0,0,2020-11-20T14:00:41Z,4.23605,D+4,Biden +4,democrat,-4.23605,253537,4.3,227885,10.88,new-jersey,2020-11-24T00:47:14.458230Z
34029,Ocean,342746,269888,413,413,Released as a separate subtotal as first report of the night,100,315516,>98%,>98% reported,edison,4,some,,43803,,,119456,217740,2469,1230,1050,49,494,140,118,99692,166501,1562,817,714,33,367,109,93,2020-11-21T00:13:37Z,28.67546,R+29,Trump +29,republican,28.67546,276725,33.2,251853,17.54,new-jersey,2020-11-24T00:47:14.458230Z
34031,Passaic,224330,111703,284,284,None,100,224022,>98%,>98% reported,edison,2,some,,17333,,,129097,92009,1103,623,805,161,108,145,279,67604,42806,422,252,334,65,45,63,112,2020-11-21T00:29:24Z,16.53279,D+17,Biden +17,democrat,-16.53279,196228,-22.4,181988,-28.25,new-jersey,2020-11-24T00:47:14.458230Z
34033,Salem,33969,0,45,45,None,100,33926,>98%,>98% reported,edison,4,some,,3501,,,14452,18781,406,120,93,17,40,40,20,0,0,0,0,0,0,0,0,0,2020-11-19T14:16:03Z,12.74397,R+13,Trump +13,republican,12.74397,29853,15,29622,-1.3,new-jersey,2020-11-24T00:47:14.458230Z
34035,Somerset,186826,0,265,265,Released as a separate subtotal as first report of the night,100,180656,>98%,>98% reported,edison,2,some,,24227,,,111113,71994,1641,1029,620,116,133,115,65,0,0,0,0,0,0,0,0,0,2020-11-21T00:09:42Z,20.93873,D+21,Biden +21,democrat,-20.93873,157092,-12.8,143180,-5.58,new-jersey,2020-11-24T00:47:14.458230Z
34037,Sussex,88148,76645,119,119,Merged into voters' home precincts and released with cumulative results,100,85245,>98%,>98% reported,edison,4,some,,9122,,,34417,51566,1090,390,351,90,91,103,50,30875,44055,859,306,281,71,75,82,41,2020-11-16T17:11:11Z,19.45478,R+19,Trump +19,republican,19.45478,75158,29.9,68194,21.29,new-jersey,2020-11-24T00:47:14.458230Z
34039,Union,254041,122637,428,431,Merged into voters' home precincts and released with cumulative results,100,147759,>98%,>98% reported,edison,6,all,,25247,,,170245,80002,1427,1050,792,57,61,116,291,88914,32365,480,398,292,21,19,45,103,2020-11-20T20:20:43Z,35.52301,D+36,Biden +36,democrat,-35.52301,223570,-35.5,210088,-34,new-jersey,2020-11-24T00:47:14.458230Z
34041,Warren,61057,53340,22,22,Merged into voters' home precincts and released with cumulative results,100,56621,>98%,>98% reported,edison,4,some,,7469,,,24901,34769,655,270,263,41,91,40,27,22315,29867,546,227,211,34,82,36,22,2020-11-20T18:18:20Z,16.16195,R+16,Trump +16,republican,16.16195,49683,25.3,45415,15.41,new-jersey,2020-11-24T00:47:14.458230Z
