fips,name,votes,absentee_votes,reporting,precincts,absentee_method,eevp,tot_exp_vote,eevp_value,eevp_display,eevp_source,turnout_stage,absentee_count_progress,absentee_outstanding,absentee_max_ballots,provisional_outstanding,provisional_count_progress,results_roundsm,results_ahlersd,results_absentee_roundsm,results_absentee_ahlersd,last_updated,leader_margin_value,leader_margin_display,leader_margin_name_display,leader_party_id,state,retrieved_time
46003,Aurora,1405,0,5,5,Merged into voters' home precincts and released with cumulative results,100,1405,>98%,>98% reported,edison,10,unknown,,349,,,1002,403,0,0,2020-11-24T13:22:32Z,42.63345,R+43,Rounds +43,republican,south-dakota,2020-11-25T00:47:46.435918Z
46005,Beadle,7090,0,10,10,Merged into voters' home precincts and released with cumulative results,100,7090,>98%,>98% reported,edison,10,unknown,,3675,,,5104,1986,0,0,2020-11-24T13:22:32Z,43.97743,R+44,Rounds +44,republican,south-dakota,2020-11-25T00:47:46.435918Z
46007,Bennett,1166,0,4,4,Merged into voters' home precincts and released with cumulative results,99,1183,>98%,>98% reported,edison,10,unknown,,352,,,729,437,0,0,2020-11-24T13:22:33Z,25.04288,R+25,Rounds +25,republican,south-dakota,2020-11-25T00:47:46.435918Z
46009,Bon Homme,2990,0,5,5,Merged into voters' home precincts and released with cumulative results,100,3001,>98%,>98% reported,edison,10,unknown,,656,,,2156,834,0,0,2020-11-24T13:22:34Z,44.21405,R+44,Rounds +44,republican,south-dakota,2020-11-25T00:47:46.435918Z
46011,Brookings,14538,0,9,9,Released as a separate subtotal as first report of the night,100,14567,>98%,>98% reported,edison,10,all,,11464,,,8792,5746,0,0,2020-11-24T13:22:34Z,20.95199,R+21,Rounds +21,republican,south-dakota,2020-11-25T00:47:46.435918Z
46013,Brown,17451,0,12,12,Other,99,17547,>98%,>98% reported,edison,10,all,,7536,,,11168,6283,0,0,2020-11-24T13:22:34Z,27.99267,R+28,Rounds +28,republican,south-dakota,2020-11-25T00:47:46.435918Z
46015,Brule,2491,0,5,5,Merged into voters' home precincts and released with cumulative results,100,2491,>98%,>98% reported,edison,10,unknown,,987,,,1735,756,0,0,2020-11-24T13:22:35Z,39.30149,R+39,Rounds +39,republican,south-dakota,2020-11-25T00:47:46.435918Z
46017,Buffalo,545,0,3,3,Merged into voters' home precincts and released with cumulative results,99,549,>98%,>98% reported,edison,10,unknown,,347,,,223,322,0,0,2020-11-24T13:22:35Z,18.16514,D+18,Ahlers +18,democrat,south-dakota,2020-11-25T00:47:46.435918Z
46019,Butte,4770,0,16,16,Merged into voters' home precincts and released with cumulative results,99,4802,>98%,>98% reported,edison,10,unknown,,2926,,,3809,961,0,0,2020-11-24T13:22:36Z,59.7065,R+60,Rounds +60,republican,south-dakota,2020-11-25T00:47:46.435918Z
46021,Campbell,867,0,5,5,Merged into voters' home precincts and released with cumulative results,99,873,>98%,>98% reported,edison,10,unknown,,146,,,745,122,0,0,2020-11-24T13:22:37Z,71.85698,R+72,Rounds +72,republican,south-dakota,2020-11-25T00:47:46.435918Z
46023,Charles Mix,3801,0,13,13,Merged into voters' home precincts and released with cumulative results,100,3801,>98%,>98% reported,edison,10,unknown,,1029,,,2542,1259,0,0,2020-11-24T13:22:37Z,33.75428,R+34,Rounds +34,republican,south-dakota,2020-11-25T00:47:46.435918Z
46025,Clark,1847,0,12,12,Merged into voters' home precincts and released with cumulative results,100,1850,>98%,>98% reported,edison,10,unknown,,539,,,1397,450,0,0,2020-11-24T13:22:39Z,51.27233,R+51,Rounds +51,republican,south-dakota,2020-11-25T00:47:46.435918Z
46027,Clay,5664,0,7,7,Merged into voters' home precincts and released with cumulative results,99,5698,>98%,>98% reported,edison,10,all,,2845,,,2857,2807,0,0,2020-11-24T13:22:40Z,0.88277,R+0.88,Rounds +0.88,republican,south-dakota,2020-11-25T00:47:46.435918Z
46029,Codington,13105,0,24,24,Merged into voters' home precincts and released with cumulative results,100,13161,>98%,>98% reported,edison,10,unknown,,7499,,,9479,3626,0,0,2020-11-24T13:22:41Z,44.66234,R+45,Rounds +45,republican,south-dakota,2020-11-25T00:47:46.435918Z
46031,Corson,1264,0,14,14,Merged into voters' home precincts and released with cumulative results,99,1283,>98%,>98% reported,edison,10,unknown,,179,,,681,583,0,0,2020-11-24T13:22:42Z,7.75316,R+8,Rounds +8,republican,south-dakota,2020-11-25T00:47:46.435918Z
46033,Custer,5456,0,10,10,Merged into voters' home precincts and released with cumulative results,99,5494,>98%,>98% reported,edison,10,unknown,,2883,,,3973,1483,0,0,2020-11-24T13:22:43Z,45.63783,R+46,Rounds +46,republican,south-dakota,2020-11-25T00:47:46.435918Z
46035,Davison,8433,0,7,7,Merged into voters' home precincts and released with cumulative results,100,8454,>98%,>98% reported,edison,10,all,,4008,,,5893,2540,0,0,2020-11-24T13:22:43Z,39.76046,R+40,Rounds +40,republican,south-dakota,2020-11-25T00:47:46.435918Z
46037,Day,2964,0,14,14,Merged into voters' home precincts and released with cumulative results,100,2964,>98%,>98% reported,edison,10,unknown,,2443,,,1895,1069,0,0,2020-11-24T13:22:43Z,27.86775,R+28,Rounds +28,republican,south-dakota,2020-11-25T00:47:46.435918Z
46039,Deuel,2342,0,10,10,Merged into voters' home precincts and released with cumulative results,100,2350,>98%,>98% reported,edison,10,unknown,,606,,,1714,628,0,0,2020-11-24T13:22:44Z,46.37062,R+46,Rounds +46,republican,south-dakota,2020-11-25T00:47:46.435918Z
46041,Dewey,1946,0,11,11,Merged into voters' home precincts and released with cumulative results,99,1966,>98%,>98% reported,edison,10,unknown,,477,,,884,1062,0,0,2020-11-24T13:22:44Z,9.14697,D+9,Ahlers +9,democrat,south-dakota,2020-11-25T00:47:46.435918Z
46043,Douglas,1704,0,6,6,Merged into voters' home precincts and released with cumulative results,100,1707,>98%,>98% reported,edison,10,unknown,,126,,,1469,235,0,0,2020-11-24T13:22:45Z,72.41784,R+72,Rounds +72,republican,south-dakota,2020-11-25T00:47:46.435918Z
46045,Edmunds,1987,0,6,6,Merged into voters' home precincts and released with cumulative results,100,1987,>98%,>98% reported,edison,10,unknown,,475,,,1539,448,0,0,2020-11-24T13:22:47Z,54.90689,R+55,Rounds +55,republican,south-dakota,2020-11-25T00:47:46.435918Z
46047,Fall River,4002,0,9,9,Merged into voters' home precincts and released with cumulative results,99,4042,>98%,>98% reported,edison,10,unknown,,2019,,,3009,993,0,0,2020-11-24T13:22:48Z,50.37481,R+50,Rounds +50,republican,south-dakota,2020-11-25T00:47:46.435918Z
46049,Faulk,1188,0,7,7,Merged into voters' home precincts and released with cumulative results,100,1188,>98%,>98% reported,edison,10,unknown,,141,,,975,213,0,0,2020-11-24T13:22:48Z,64.14141,R+64,Rounds +64,republican,south-dakota,2020-11-25T00:47:46.435918Z
46051,Grant,3749,0,18,18,Merged into voters' home precincts and released with cumulative results,100,3749,>98%,>98% reported,edison,10,unknown,,1406,,,2723,1026,0,0,2020-11-24T13:22:49Z,45.2654,R+45,Rounds +45,republican,south-dakota,2020-11-25T00:47:46.435918Z
46053,Gregory,2254,0,3,3,Merged into voters' home precincts and released with cumulative results,100,2258,>98%,>98% reported,edison,10,unknown,,571,,,1766,488,0,0,2020-11-24T13:22:50Z,56.6992,R+57,Rounds +57,republican,south-dakota,2020-11-25T00:47:46.435918Z
46055,Haakon,1138,0,6,6,Merged into voters' home precincts and released with cumulative results,100,1138,>98%,>98% reported,edison,10,unknown,,520,,,1032,106,0,0,2020-11-24T13:22:14Z,81.37083,R+81,Rounds +81,republican,south-dakota,2020-11-25T00:47:46.435918Z
46057,Hamlin,3070,0,7,7,Merged into voters' home precincts and released with cumulative results,100,3083,>98%,>98% reported,edison,10,unknown,,994,,,2413,657,0,0,2020-11-24T13:22:15Z,57.1987,R+57,Rounds +57,republican,south-dakota,2020-11-25T00:47:46.435918Z
46059,Hand,1858,0,12,12,Merged into voters' home precincts and released with cumulative results,100,1858,>98%,>98% reported,edison,10,unknown,,693,,,1480,378,0,0,2020-11-24T13:22:15Z,59.31109,R+59,Rounds +59,republican,south-dakota,2020-11-25T00:47:46.435918Z
46061,Hanson,2360,0,5,5,Merged into voters' home precincts and released with cumulative results,99,2388,>98%,>98% reported,edison,10,unknown,,2016,,,1796,564,0,0,2020-11-24T13:22:16Z,52.20339,R+52,Rounds +52,republican,south-dakota,2020-11-25T00:47:46.435918Z
46063,Harding,800,0,8,8,Merged into voters' home precincts and released with cumulative results,98,813,98%,98% reported,edison,10,unknown,,251,,,727,73,0,0,2020-11-24T13:21:47Z,81.75,R+82,Rounds +82,republican,south-dakota,2020-11-25T00:47:46.435918Z
46065,Hughes,8763,0,6,6,Merged into voters' home precincts and released with cumulative results,100,8763,>98%,>98% reported,edison,10,all,,5670,,,6217,2546,0,0,2020-11-24T13:21:48Z,41.89205,R+42,Rounds +42,republican,south-dakota,2020-11-25T00:47:46.435918Z
46067,Hutchinson,3754,0,7,7,Merged into voters' home precincts and released with cumulative results,100,3767,>98%,>98% reported,edison,10,unknown,,776,,,2982,772,0,0,2020-11-24T13:21:49Z,58.87054,R+59,Rounds +59,republican,south-dakota,2020-11-25T00:47:46.435918Z
46069,Hyde,711,0,1,1,Merged into voters' home precincts and released with cumulative results,100,711,>98%,>98% reported,edison,10,unknown,,208,,,568,143,0,0,2020-11-24T13:21:50Z,59.77496,R+60,Rounds +60,republican,south-dakota,2020-11-25T00:47:46.435918Z
46071,Jackson,1113,0,8,8,Merged into voters' home precincts and released with cumulative results,100,1115,>98%,>98% reported,edison,10,unknown,,240,,,756,357,0,0,2020-11-24T13:21:51Z,35.84906,R+36,Rounds +36,republican,south-dakota,2020-11-25T00:47:46.435918Z
46073,Jerauld,997,0,5,5,Merged into voters' home precincts and released with cumulative results,99,1006,>98%,>98% reported,edison,10,unknown,,304,,,720,277,0,0,2020-11-24T13:21:52Z,44.4333,R+44,Rounds +44,republican,south-dakota,2020-11-25T00:47:46.435918Z
46075,Jones,596,0,3,3,Merged into voters' home precincts and released with cumulative results,99,599,>98%,>98% reported,edison,10,unknown,,197,,,497,99,0,0,2020-11-24T13:21:53Z,66.77852,R+67,Rounds +67,republican,south-dakota,2020-11-25T00:47:46.435918Z
46077,Kingsbury,2779,0,7,7,Merged into voters' home precincts and released with cumulative results,100,2779,>98%,>98% reported,edison,10,unknown,,618,,,1970,809,0,0,2020-11-24T13:21:53Z,41.77762,R+42,Rounds +42,republican,south-dakota,2020-11-25T00:47:46.435918Z
46079,Lake,5885,0,10,10,Merged into voters' home precincts and released with cumulative results,100,5885,>98%,>98% reported,edison,10,unknown,,3936,,,3816,2069,0,0,2020-11-24T13:21:54Z,29.68564,R+30,Rounds +30,republican,south-dakota,2020-11-25T00:47:46.435918Z
46081,Lawrence,13743,0,11,11,Released as a precinct in the middle of the night,99,13828,>98%,>98% reported,edison,10,all,,6941,,,9385,4358,0,0,2020-11-24T13:21:54Z,36.57862,R+37,Rounds +37,republican,south-dakota,2020-11-25T00:47:46.435918Z
46083,Lincoln,32234,0,31,31,Merged into voters' home precincts and released with cumulative results,99,32396,>98%,>98% reported,edison,10,all,,8870,,,21221,11013,0,0,2020-11-24T13:21:54Z,31.66842,R+32,Rounds +32,republican,south-dakota,2020-11-25T00:47:46.435918Z
46085,Lyman,1599,0,7,7,Merged into voters' home precincts and released with cumulative results,100,1599,>98%,>98% reported,edison,10,unknown,,136,,,1066,533,0,0,2020-11-24T13:21:55Z,33.33333,R+33,Rounds +33,republican,south-dakota,2020-11-25T00:47:46.435918Z
46091,Marshall,2187,0,9,9,Merged into voters' home precincts and released with cumulative results,100,2187,>98%,>98% reported,edison,10,unknown,,680,,,1334,853,0,0,2020-11-24T13:21:58Z,21.9936,R+22,Rounds +22,republican,south-dakota,2020-11-25T00:47:46.435918Z
46087,McCook,2907,0,6,6,Merged into voters' home precincts and released with cumulative results,100,2907,>98%,>98% reported,edison,10,unknown,,744,,,2072,835,0,0,2020-11-24T13:21:55Z,42.55246,R+43,Rounds +43,republican,south-dakota,2020-11-25T00:47:46.435918Z
46089,McPherson,1321,0,6,6,Merged into voters' home precincts and released with cumulative results,100,1324,>98%,>98% reported,edison,10,unknown,,683,,,1086,235,0,0,2020-11-24T13:21:56Z,64.42089,R+64,Rounds +64,republican,south-dakota,2020-11-25T00:47:46.435918Z
46093,Meade,13531,0,37,37,Merged into voters' home precincts and released with cumulative results,99,13670,>98%,>98% reported,edison,10,unknown,,3994,,,10355,3176,0,0,2020-11-24T13:21:59Z,53.05595,R+53,Rounds +53,republican,south-dakota,2020-11-25T00:47:46.435918Z
46095,Mellette,771,0,4,4,Merged into voters' home precincts and released with cumulative results,100,771,>98%,>98% reported,edison,10,unknown,,290,,,468,303,0,0,2020-11-24T13:22:01Z,21.40078,R+21,Rounds +21,republican,south-dakota,2020-11-25T00:47:46.435918Z
46097,Miner,1146,0,8,8,Merged into voters' home precincts and released with cumulative results,100,1146,>98%,>98% reported,edison,10,unknown,,322,,,807,339,0,0,2020-11-24T13:22:01Z,40.8377,R+41,Rounds +41,republican,south-dakota,2020-11-25T00:47:46.435918Z
46099,Minnehaha,91572,0,71,71,Merged into voters' home precincts and released with cumulative results,99,92326,>98%,>98% reported,edison,10,none,,25270,,,52773,38799,0,0,2020-11-24T13:22:03Z,15.26012,R+15,Rounds +15,republican,south-dakota,2020-11-25T00:47:46.435918Z
46101,Moody,3220,0,6,6,Merged into voters' home precincts and released with cumulative results,100,3220,>98%,>98% reported,edison,10,unknown,,768,,,1877,1343,0,0,2020-11-24T13:22:03Z,16.58385,R+17,Rounds +17,republican,south-dakota,2020-11-25T00:47:46.435918Z
46102,Oglala Lakota,3201,0,9,9,None,100,3201,>98%,>98% reported,edison,10,unknown,,1106,,,510,2691,0,0,2020-11-24T13:22:10Z,68.13496,D+68,Ahlers +68,democrat,south-dakota,2020-11-25T00:47:46.435918Z
46103,Pennington,56878,0,47,47,Merged into voters' home precincts and released with cumulative results,99,57518,>98%,>98% reported,edison,10,all,,8515,,,37694,19184,0,0,2020-11-24T13:22:04Z,32.54334,R+33,Rounds +33,republican,south-dakota,2020-11-25T00:47:46.435918Z
46105,Perkins,1644,0,10,10,Merged into voters' home precincts and released with cumulative results,99,1669,>98%,>98% reported,edison,10,unknown,,453,,,1395,249,0,0,2020-11-24T13:22:04Z,69.70803,R+70,Rounds +70,republican,south-dakota,2020-11-25T00:47:46.435918Z
46107,Potter,1384,0,3,3,Released as a precinct in the middle of the night,100,1384,>98%,>98% reported,edison,10,unknown,,454,,,1160,224,0,0,2020-11-24T13:22:07Z,67.63006,R+68,Rounds +68,republican,south-dakota,2020-11-25T00:47:46.435918Z
46109,Roberts,4296,0,12,12,Merged into voters' home precincts and released with cumulative results,100,4307,>98%,>98% reported,edison,10,unknown,,966,,,2529,1767,0,0,2020-11-24T13:22:08Z,17.73743,R+18,Rounds +18,republican,south-dakota,2020-11-25T00:47:46.435918Z
46111,Sanborn,1179,0,4,4,Merged into voters' home precincts and released with cumulative results,99,1185,>98%,>98% reported,edison,10,unknown,,237,,,898,281,0,0,2020-11-24T13:22:09Z,52.33249,R+52,Rounds +52,republican,south-dakota,2020-11-25T00:47:46.435918Z
46115,Spink,3164,0,9,9,Merged into voters' home precincts and released with cumulative results,100,3164,>98%,>98% reported,edison,10,unknown,,856,,,2178,986,0,0,2020-11-24T13:22:11Z,37.67383,R+38,Rounds +38,republican,south-dakota,2020-11-25T00:47:46.435918Z
46117,Stanley,1652,0,3,3,Merged into voters' home precincts and released with cumulative results,100,1652,>98%,>98% reported,edison,10,unknown,,144,,,1274,378,0,0,2020-11-24T13:22:12Z,54.23729,R+54,Rounds +54,republican,south-dakota,2020-11-25T00:47:46.435918Z
46119,Sully,927,0,4,4,Released as a separate subtotal at the end of tabulation,100,930,>98%,>98% reported,edison,10,unknown,,234,,,759,168,0,0,2020-11-24T13:22:13Z,63.75405,R+64,Rounds +64,republican,south-dakota,2020-11-25T00:47:46.435918Z
46121,Todd,2502,0,9,9,Merged into voters' home precincts and released with cumulative results,99,2539,>98%,>98% reported,edison,10,unknown,,358,,,706,1796,0,0,2020-11-24T13:22:14Z,43.56515,D+44,Ahlers +44,democrat,south-dakota,2020-11-25T00:47:46.435918Z
46123,Tripp,2690,0,13,13,Merged into voters' home precincts and released with cumulative results,100,2696,>98%,>98% reported,edison,10,unknown,,750,,,2188,502,0,0,2020-11-24T13:22:14Z,62.67658,R+63,Rounds +63,republican,south-dakota,2020-11-25T00:47:46.435918Z
46125,Turner,4542,0,8,8,Merged into voters' home precincts and released with cumulative results,100,4548,>98%,>98% reported,edison,10,unknown,,906,,,3416,1126,0,0,2020-11-24T13:22:15Z,50.41832,R+50,Rounds +50,republican,south-dakota,2020-11-25T00:47:46.435918Z
46127,Union,8771,0,13,13,Merged into voters' home precincts and released with cumulative results,99,8855,>98%,>98% reported,edison,10,all,,2523,,,6364,2407,0,0,2020-11-24T13:22:15Z,45.11458,R+45,Rounds +45,republican,south-dakota,2020-11-25T00:47:46.435918Z
46129,Walworth,2565,0,10,10,None,99,2580,>98%,>98% reported,edison,10,unknown,,573,,,2040,525,0,0,2020-11-24T13:22:16Z,59.06433,R+59,Rounds +59,republican,south-dakota,2020-11-25T00:47:46.435918Z
46135,Yankton,10842,0,7,7,Released as a precinct at the end of tabulation,99,10900,>98%,>98% reported,edison,10,none,,6408,,,6994,3848,0,0,2020-11-24T13:22:16Z,29.01679,R+29,Rounds +29,republican,south-dakota,2020-11-25T00:47:46.435918Z
46137,Ziebach,908,0,6,6,Merged into voters' home precincts and released with cumulative results,100,908,>98%,>98% reported,edison,10,unknown,,130,,,450,458,0,0,2020-11-24T13:22:18Z,0.88106,D+0.88,Ahlers +0.88,democrat,south-dakota,2020-11-25T00:47:46.435918Z
