fips,name,votes,absentee_votes,reporting,precincts,absentee_method,eevp,tot_exp_vote,eevp_value,eevp_display,eevp_source,turnout_stage,absentee_count_progress,absentee_outstanding,absentee_max_ballots,provisional_outstanding,provisional_count_progress,results_mcconnellm,results_mcgratha,results_barronb,results_write_ins,results_absentee_mcconnellm,results_absentee_mcgratha,results_absentee_barronb,results_absentee_write_ins,last_updated,leader_margin_value,leader_margin_display,leader_margin_name_display,leader_party_id,state,retrieved_time
21001,Adair,8724,0,16,16,Merged into voters' home precincts and released with cumulative results,99,8768,>98%,>98% reported,edison,10,all,,904,,,6753,1623,348,0,0,0,0,0,2020-11-24T13:25:21Z,58.8033,R+59,McConnell +59,republican,kentucky,2020-11-29T00:51:37.210218Z
21003,Allen,9301,6516,13,13,"As a subtotal in the FIRST cumulative report, along with regular precincts",99,9364,>98%,>98% reported,edison,10,all,,661,,,6949,1919,433,0,4751,1524,241,0,2020-11-24T13:25:21Z,54.08021,R+54,McConnell +54,republican,kentucky,2020-11-29T00:51:37.210218Z
21005,Anderson,13235,2494,14,14,Released as a precinct as first report of the night,100,13254,>98%,>98% reported,edison,10,all,,690,,,9021,3663,551,0,914,1494,86,0,2020-11-24T13:25:21Z,40.48357,R+40,McConnell +40,republican,kentucky,2020-11-29T00:51:37.210218Z
21007,Ballard,4227,0,13,13,Released as a separate subtotal as first report of the night,100,4227,>98%,>98% reported,edison,10,all,,208,,,3155,936,136,0,0,0,0,0,2020-11-24T13:25:21Z,52.49586,R+52,McConnell +52,republican,kentucky,2020-11-29T00:51:37.210218Z
21009,Barren,20022,16018,25,25,Merged into voters' home precincts and released with cumulative results,100,20064,>98%,>98% reported,edison,10,all,,1384,,,13341,5600,1081,0,10594,4740,684,0,2020-11-24T13:25:22Z,38.66247,R+39,McConnell +39,republican,kentucky,2020-11-29T00:51:37.210218Z
21011,Bath,5610,0,12,12,Released as a precinct as first report of the night,100,5627,>98%,>98% reported,edison,10,unknown,,570,,,3537,1827,246,,0,0,0,,2020-11-24T13:25:22Z,30.48128,R+30,McConnell +30,republican,kentucky,2020-11-29T00:51:37.210218Z
21013,Bell,9947,0,25,30,Merged into voters' home precincts and released with cumulative results,99,10044,>98%,>98% reported,edison,10,all,,963,,,7346,2159,442,,0,0,0,,2020-11-24T13:25:22Z,52.14638,R+52,McConnell +52,republican,kentucky,2020-11-29T00:51:37.210218Z
21015,Boone,66957,39442,60,63,"As a precinct in the FIRST cumulative report, along with regular precincts",100,66998,>98%,>98% reported,edison,10,all,,5563,,,41729,22450,2778,0,23039,15239,1164,0,2020-11-24T13:25:22Z,28.79311,R+29,McConnell +29,republican,kentucky,2020-11-29T00:51:37.210218Z
21017,Bourbon,9648,0,14,16,Merged into voters' home precincts and released with cumulative results,100,9648,>98%,>98% reported,edison,10,some,,674,,,5807,3477,364,,0,0,0,,2020-11-24T13:25:22Z,24.15008,R+24,McConnell +24,republican,kentucky,2020-11-29T00:51:37.210218Z
21019,Boyd,21755,0,42,48,Merged into voters' home precincts and released with cumulative results,100,21755,>98%,>98% reported,edison,10,all,,1979,,,12909,7915,931,,0,0,0,,2020-11-24T13:25:22Z,22.95564,R+23,McConnell +23,republican,kentucky,2020-11-29T00:51:37.210218Z
21021,Boyle,14466,10580,23,25,Merged into voters' home precincts and released with cumulative results,100,14478,>98%,>98% reported,edison,10,some,,1078,,,8418,5445,603,,5958,4272,350,,2020-11-24T13:25:22Z,20.55164,R+21,McConnell +21,republican,kentucky,2020-11-29T00:51:37.210218Z
21023,Bracken,4232,1971,8,8,"As a precinct in the FIRST cumulative report, along with regular precincts",100,4246,>98%,>98% reported,edison,10,some,,493,,,3042,987,203,,1285,617,69,,2020-11-24T13:25:23Z,48.5586,R+49,McConnell +49,republican,kentucky,2020-11-29T00:51:37.210218Z
21025,Breathitt,5613,1443,17,21,Released as a separate subtotal as first report of the night,99,5661,>98%,>98% reported,edison,10,all,,454,,,3738,1652,223,0,603,793,47,0,2020-11-24T13:25:23Z,37.16373,R+37,McConnell +37,republican,kentucky,2020-11-29T00:51:37.210218Z
21027,Breckinridge,10199,7218,15,16,None,100,10201,>98%,>98% reported,edison,10,all,,874,,,6937,2764,497,1,4699,2246,273,0,2020-11-24T13:24:38Z,40.91578,R+41,McConnell +41,republican,kentucky,2020-11-29T00:51:37.210218Z
21029,Bullitt,41882,0,45,47,Released as a precinct as first report of the night,100,41998,>98%,>98% reported,edison,10,all,,1784,,,28040,11896,1946,0,0,0,0,0,2020-11-24T13:24:38Z,38.54639,R+39,McConnell +39,republican,kentucky,2020-11-29T00:51:37.210218Z
21031,Butler,6123,1022,11,12,Merged into voters' home precincts and released with cumulative results,100,6125,>98%,>98% reported,edison,10,all,,483,,,4471,1239,413,0,523,470,29,0,2020-11-24T13:24:39Z,52.78458,R+53,McConnell +53,republican,kentucky,2020-11-29T00:51:37.210218Z
21033,Caldwell,6425,0,12,13,None,100,6434,>98%,>98% reported,edison,10,all,,518,,,4452,1675,298,,0,0,0,,2020-11-24T13:24:39Z,43.22179,R+43,McConnell +43,republican,kentucky,2020-11-29T00:51:37.210218Z
21035,Calloway,17479,0,21,23,Merged into voters' home precincts and released with cumulative results,100,17475,>98%,>98% reported,edison,10,all,,1198,,,10635,6180,664,0,0,0,0,0,2020-11-24T13:24:39Z,25.48773,R+25,McConnell +25,republican,kentucky,2020-11-29T00:51:37.210218Z
21037,Campbell,48882,0,64,67,Released as a precinct as first report of the night,100,48880,>98%,>98% reported,edison,10,all,,3285,,,26327,20600,1954,1,0,0,0,0,2020-11-24T13:24:39Z,11.71597,R+12,McConnell +12,republican,kentucky,2020-11-29T00:51:37.210218Z
21039,Carlisle,2642,0,5,6,Released as a precinct as first report of the night,100,2642,>98%,>98% reported,edison,10,unknown,,274,,,2009,541,92,,0,0,0,,2020-11-24T13:24:39Z,55.56397,R+56,McConnell +56,republican,kentucky,2020-11-29T00:51:37.210218Z
21041,Carroll,4115,890,11,11,Merged into voters' home precincts and released with cumulative results,99,4136,>98%,>98% reported,edison,10,unknown,,261,,,2560,1299,256,0,313,546,31,0,2020-11-24T13:25:23Z,30.64399,R+31,McConnell +31,republican,kentucky,2020-11-29T00:51:37.210218Z
21043,Carter,11548,0,24,26,Released as a separate subtotal as first report of the night,100,11586,>98%,>98% reported,edison,10,all,,899,,,7725,3253,570,,0,0,0,,2020-11-24T13:24:39Z,38.72532,R+39,McConnell +39,republican,kentucky,2020-11-29T00:51:37.210218Z
21045,Casey,7152,0,14,15,Released as a precinct as first report of the night,98,7295,98%,98% reported,edison,10,all,,677,,,5775,1027,350,0,0,0,0,0,2020-11-24T13:22:31Z,66.38702,R+66,McConnell +66,republican,kentucky,2020-11-29T00:51:37.210218Z
21047,Christian,23790,0,37,41,Released as a precinct as first report of the night,100,23863,>98%,>98% reported,edison,10,all,,1462,,,13523,9130,1136,1,0,0,0,0,2020-11-24T13:22:34Z,18.46574,R+18,McConnell +18,republican,kentucky,2020-11-29T00:51:37.210218Z
21049,Clark,18128,0,26,26,Released as a precinct as first report of the night,100,18139,>98%,>98% reported,edison,10,unknown,,1064,,,11120,6312,695,1,0,0,0,0,2020-11-24T13:22:37Z,26.52251,R+27,McConnell +27,republican,kentucky,2020-11-29T00:51:37.210218Z
21051,Clay,7568,0,18,20,Merged into voters' home precincts and released with cumulative results,100,7591,>98%,>98% reported,edison,10,unknown,,659,,,6242,1016,310,,0,0,0,,2020-11-24T13:22:40Z,69.05391,R+69,McConnell +69,republican,kentucky,2020-11-29T00:51:37.210218Z
21053,Clinton,4902,0,12,13,Other,99,4932,>98%,>98% reported,edison,10,unknown,,808,,,3969,729,204,0,0,0,0,0,2020-11-24T13:22:43Z,66.09547,R+66,McConnell +66,republican,kentucky,2020-11-29T00:51:37.210218Z
21055,Crittenden,4236,3452,10,12,Released as a precinct as first report of the night,100,4242,>98%,>98% reported,edison,10,all,,362,,,3163,869,204,,2567,743,142,,2020-11-24T13:22:48Z,54.15486,R+54,McConnell +54,republican,kentucky,2020-11-29T00:51:37.210218Z
21057,Cumberland,3277,0,9,10,Merged into voters' home precincts and released with cumulative results,99,3309,>98%,>98% reported,edison,10,unknown,,507,,,2446,610,221,,0,0,0,,2020-11-24T13:22:51Z,56.02685,R+56,McConnell +56,republican,kentucky,2020-11-29T00:51:37.210218Z
21059,Daviess,49289,0,51,57,Released as a separate subtotal as first report of the night,100,49287,>98%,>98% reported,edison,10,all,,3053,,,28087,18383,2819,0,0,0,0,0,2020-11-24T13:22:54Z,19.68796,R+20,McConnell +20,republican,kentucky,2020-11-29T00:51:37.210218Z
21061,Edmonson,6123,0,8,8,Merged into voters' home precincts and released with cumulative results,100,6132,>98%,>98% reported,edison,10,unknown,,496,,,4408,1383,332,,0,0,0,,2020-11-24T13:22:58Z,49.40389,R+49,McConnell +49,republican,kentucky,2020-11-29T00:51:37.210218Z
21063,Elliott,2966,595,6,7,None,99,2995,>98%,>98% reported,edison,10,some,,344,,,1958,868,140,,227,338,30,,2020-11-24T13:23:01Z,36.74983,R+37,McConnell +37,republican,kentucky,2020-11-29T00:51:37.210218Z
21065,Estill,6537,0,15,15,Merged into voters' home precincts and released with cumulative results,100,6540,>98%,>98% reported,edison,10,some,,485,,,4783,1515,239,,0,0,0,,2020-11-24T13:23:05Z,49.99235,R+50,McConnell +50,republican,kentucky,2020-11-29T00:51:37.210218Z
21067,Fayette,153214,83633,266,286,Released as a precinct as first report of the night,100,153150,>98%,>98% reported,edison,10,all,,8515,,,58919,90137,4141,17,21889,60092,1652,0,2020-11-24T13:23:10Z,20.37542,D+20,McGrath +20,democrat,kentucky,2020-11-29T00:51:37.210218Z
21069,Fleming,7039,0,17,18,None,100,7068,>98%,>98% reported,edison,10,all,,496,,,5041,1743,255,,0,0,0,,2020-11-24T13:23:14Z,46.85325,R+47,McConnell +47,republican,kentucky,2020-11-29T00:51:37.210218Z
21071,Floyd,16284,4088,34,42,Released as a precinct as first report of the night,100,16353,>98%,>98% reported,edison,10,all,,981,,,10737,4924,623,,1562,2402,124,,2020-11-24T13:23:18Z,35.69762,R+36,McConnell +36,republican,kentucky,2020-11-29T00:51:37.210218Z
21073,Franklin,26116,0,40,44,Other,100,26113,>98%,>98% reported,edison,10,all,,1779,,,11990,13091,1034,1,0,0,0,0,2020-11-24T13:23:21Z,4.21581,D+4,McGrath +4,democrat,kentucky,2020-11-29T00:51:37.210218Z
21075,Fulton,2408,380,9,11,Released as a separate subtotal as first report of the night,99,2426,>98%,>98% reported,edison,10,all,,237,,,1489,810,109,0,148,215,17,0,2020-11-24T13:23:25Z,28.19767,R+28,McConnell +28,republican,kentucky,2020-11-29T00:51:37.210218Z
21077,Gallatin,3844,0,8,8,Merged into voters' home precincts and released with cumulative results,100,3849,>98%,>98% reported,edison,10,all,,299,,,2653,974,217,,0,0,0,,2020-11-24T13:23:27Z,43.67846,R+44,McConnell +44,republican,kentucky,2020-11-29T00:51:37.210218Z
21079,Garrard,8693,0,13,14,Other,100,8706,>98%,>98% reported,edison,10,unknown,,571,,,6371,1959,363,,0,0,0,,2020-11-24T13:25:23Z,50.75348,R+51,McConnell +51,republican,kentucky,2020-11-29T00:51:37.210218Z
21081,Grant,11082,0,21,22,"As a precinct in the FIRST cumulative report, along with regular precincts",100,11108,>98%,>98% reported,edison,10,unknown,,739,,,7957,2544,581,,0,0,0,,2020-11-24T13:25:23Z,48.84497,R+49,McConnell +49,republican,kentucky,2020-11-29T00:51:37.210218Z
21083,Graves,16962,0,25,30,"As a precinct in the FIRST cumulative report, along with regular precincts",100,17019,>98%,>98% reported,edison,10,all,,998,,,12334,3938,690,,0,0,0,,2020-11-24T13:25:23Z,49.49888,R+49,McConnell +49,republican,kentucky,2020-11-29T00:51:37.210218Z
21085,Grayson,11962,3637,21,22,Released as a separate subtotal as first report of the night,100,11985,>98%,>98% reported,edison,10,unknown,,773,,,8571,2633,758,,1845,1666,126,,2020-11-24T13:25:24Z,49.64053,R+50,McConnell +50,republican,kentucky,2020-11-29T00:51:37.210218Z
21087,Green,5892,0,9,10,Released as a precinct as first report of the night,100,5892,>98%,>98% reported,edison,10,all,,848,,,4471,1169,252,0,0,0,0,0,2020-11-24T13:25:24Z,56.04209,R+56,McConnell +56,republican,kentucky,2020-11-29T00:51:37.210218Z
21089,Greenup,18136,13078,27,29,Released as a precinct as first report of the night,100,18176,>98%,>98% reported,edison,10,some,,1344,,,11622,5673,841,,8042,4552,484,,2020-11-24T13:25:24Z,32.80216,R+33,McConnell +33,republican,kentucky,2020-11-29T00:51:37.210218Z
21091,Hancock,4578,0,9,10,Released as a separate subtotal as first report of the night,100,4587,>98%,>98% reported,edison,10,unknown,,474,,,2729,1580,269,,0,0,0,,2020-11-24T13:25:24Z,25.0983,R+25,McConnell +25,republican,kentucky,2020-11-29T00:51:37.210218Z
21093,Hardin,48949,0,55,59,Released as a separate subtotal as first report of the night,100,48949,>98%,>98% reported,edison,10,unknown,,2776,,,27448,19221,2280,,0,0,0,,2020-11-24T13:25:24Z,16.80729,R+17,McConnell +17,republican,kentucky,2020-11-29T00:51:37.210218Z
21095,Harlan,10922,0,27,32,None,100,10971,>98%,>98% reported,edison,10,unknown,,586,,,8637,1892,393,,0,0,0,,2020-11-24T13:25:24Z,61.75609,R+62,McConnell +62,republican,kentucky,2020-11-29T00:51:37.210218Z
21097,Harrison,8844,0,18,19,Merged into voters' home precincts and released with cumulative results,100,8859,>98%,>98% reported,edison,10,some,,542,,,5911,2565,368,,0,0,0,,2020-11-24T13:25:24Z,37.83356,R+38,McConnell +38,republican,kentucky,2020-11-29T00:51:37.210218Z
21099,Hart,8348,0,18,19,Other,100,8370,>98%,>98% reported,edison,10,unknown,,614,,,5805,2123,420,,0,0,0,,2020-11-24T13:25:25Z,44.10637,R+44,McConnell +44,republican,kentucky,2020-11-29T00:51:37.210218Z
21101,Henderson,20683,0,39,45,Released as a precinct as first report of the night,100,20697,>98%,>98% reported,edison,10,unknown,,1430,,,11510,8256,917,,0,0,0,,2020-11-24T13:25:25Z,15.73273,R+16,McConnell +16,republican,kentucky,2020-11-29T00:51:37.210218Z
21103,Henry,8092,0,19,20,Merged into voters' home precincts and released with cumulative results,100,8110,>98%,>98% reported,edison,10,unknown,,421,,,5259,2431,402,,0,0,0,,2020-11-24T13:25:25Z,34.9481,R+35,McConnell +35,republican,kentucky,2020-11-29T00:51:37.210218Z
21105,Hickman,2192,1556,5,6,None,100,2199,>98%,>98% reported,edison,10,unknown,,141,,,1610,512,70,,1130,385,41,,2020-11-24T13:25:25Z,50.09124,R+50,McConnell +50,republican,kentucky,2020-11-29T00:51:37.210218Z
21107,Hopkins,21468,16217,44,50,Merged into voters' home precincts and released with cumulative results,100,21512,>98%,>98% reported,edison,10,all,,1408,,,14247,6066,1155,,10571,4968,678,,2020-11-24T13:25:25Z,38.10788,R+38,McConnell +38,republican,kentucky,2020-11-29T00:51:37.210218Z
21109,Jackson,6094,1188,13,14,Released as a separate subtotal as first report of the night,100,6113,>98%,>98% reported,edison,10,all,,666,,,5165,689,229,11,783,363,40,2,2020-11-24T13:25:25Z,73.44929,R+73,McConnell +73,republican,kentucky,2020-11-29T00:51:37.210218Z
21111,Jefferson,386961,0,564,623,Merged into voters' home precincts and released with cumulative results,100,386961,>98%,>98% reported,edison,10,unknown,,21806,,,145525,230679,10757,,0,0,0,,2020-11-24T13:25:26Z,22.00584,D+22,McGrath +22,democrat,kentucky,2020-11-29T00:51:37.210218Z
21113,Jessamine,26326,0,34,36,Merged into voters' home precincts and released with cumulative results,100,26326,>98%,>98% reported,edison,10,some,,1824,,,16488,8861,977,,0,0,0,,2020-11-24T13:25:26Z,28.97136,R+29,McConnell +29,republican,kentucky,2020-11-29T00:51:37.210218Z
21115,Johnson,10160,2265,27,31,Released as a separate subtotal as first report of the night,100,10192,>98%,>98% reported,edison,10,some,,992,,,7896,1865,385,14,1262,926,77,0,2020-11-24T13:25:26Z,59.36024,R+59,McConnell +59,republican,kentucky,2020-11-29T00:51:37.210218Z
21117,Kenton,82185,0,100,106,Released as a precinct as first report of the night,100,82198,>98%,>98% reported,edison,10,unknown,,4501,,,44694,34455,3030,6,0,0,0,0,2020-11-24T13:25:26Z,12.45848,R+12,McConnell +12,republican,kentucky,2020-11-29T00:51:37.210218Z
21119,Knott,6200,0,27,30,Other,99,6252,>98%,>98% reported,edison,10,some,,376,,,4330,1664,206,,0,0,0,,2020-11-24T13:25:26Z,43,R+43,McConnell +43,republican,kentucky,2020-11-29T00:51:37.210218Z
21121,Knox,13240,2471,27,30,"Released as first report, then NOT included in cumulative results",100,13273,>98%,>98% reported,edison,10,unknown,,1179,,,10291,2413,536,,1327,1058,86,,2020-11-24T13:25:26Z,59.50151,R+60,McConnell +60,republican,kentucky,2020-11-29T00:51:37.210218Z
21123,LaRue,7291,4647,11,12,None,100,7301,>98%,>98% reported,edison,10,all,,507,,,5137,1747,407,,3551,862,234,,2020-11-24T13:25:26Z,46.49568,R+46,McConnell +46,republican,kentucky,2020-11-29T00:51:37.210218Z
21125,Laurel,28136,0,42,45,Released as a precinct as first report of the night,100,28136,>98%,>98% reported,edison,10,unknown,,2752,,,22037,4882,1217,,0,0,0,,2020-11-24T13:23:55Z,60.97171,R+61,McConnell +61,republican,kentucky,2020-11-29T00:51:37.210218Z
21127,Lawrence,6922,0,17,18,None,100,6955,>98%,>98% reported,edison,10,unknown,,506,,,5089,1520,313,,0,0,0,,2020-11-24T13:23:56Z,51.56024,R+52,McConnell +52,republican,kentucky,2020-11-29T00:51:37.210218Z
21129,Lee,2564,0,8,10,Merged into voters' home precincts and released with cumulative results,92,2801,92%,92% reported,edison,10,unknown,,299,,,1954,520,90,,0,0,0,,2020-11-24T13:23:56Z,55.92824,R+56,McConnell +56,republican,kentucky,2020-11-29T00:51:37.210218Z
21131,Leslie,4792,773,15,17,Released as a separate subtotal as first report of the night,100,4813,>98%,>98% reported,edison,10,all,,445,,,4061,562,169,,541,207,25,,2020-11-24T13:23:57Z,73.01753,R+73,McConnell +73,republican,kentucky,2020-11-29T00:51:37.210218Z
21133,Letcher,9077,5857,25,30,Merged into voters' home precincts and released with cumulative results,99,9135,>98%,>98% reported,edison,10,all,,618,,,6441,2245,391,,3972,1685,200,,2020-11-24T13:23:57Z,46.22673,R+46,McConnell +46,republican,kentucky,2020-11-29T00:51:37.210218Z
21135,Lewis,5857,5851,13,14,Merged into voters' home precincts and released with cumulative results,100,5883,>98%,>98% reported,edison,10,some,,400,,,4500,991,366,,4499,988,364,,2020-11-24T13:23:58Z,59.91122,R+60,McConnell +60,republican,kentucky,2020-11-29T00:51:37.210218Z
21137,Lincoln,10893,2444,16,17,Other,100,10914,>98%,>98% reported,edison,10,some,,846,,,7820,2521,552,,1092,1284,68,,2020-11-24T13:23:58Z,48.64592,R+49,McConnell +49,republican,kentucky,2020-11-29T00:51:37.210218Z
21139,Livingston,4997,0,9,10,Released as a precinct as first report of the night,100,5004,>98%,>98% reported,edison,10,unknown,,274,,,3701,1110,186,,0,0,0,,2020-11-24T13:23:59Z,51.85111,R+52,McConnell +52,republican,kentucky,2020-11-29T00:51:37.210218Z
21141,Logan,12323,0,19,20,None,100,12350,>98%,>98% reported,edison,10,unknown,,738,,,8180,3503,640,,0,0,0,,2020-11-24T13:23:59Z,37.95342,R+38,McConnell +38,republican,kentucky,2020-11-29T00:51:37.210218Z
21143,Lyon,4229,3589,5,6,Released as a precinct as first report of the night,100,4229,>98%,>98% reported,edison,10,some,,624,,,2884,1204,141,,2420,1074,95,,2020-11-24T13:24:00Z,39.7257,R+40,McConnell +40,republican,kentucky,2020-11-29T00:51:37.210218Z
21151,Madison,44015,0,46,47,Released as a precinct as first report of the night,100,44015,>98%,>98% reported,edison,10,some,,2725,,,26065,16267,1683,,0,0,0,,2020-11-24T13:24:01Z,22.26059,R+22,McConnell +22,republican,kentucky,2020-11-29T00:51:37.210218Z
21153,Magoffin,5426,1527,12,14,Merged into voters' home precincts and released with cumulative results,100,5447,>98%,>98% reported,edison,10,all,,1374,,,3857,1392,177,,658,832,37,,2020-11-24T13:24:02Z,45.42941,R+45,McConnell +45,republican,kentucky,2020-11-29T00:51:37.210218Z
21155,Marion,8892,0,15,17,Released as a separate subtotal as first report of the night,100,8928,>98%,>98% reported,edison,10,unknown,,666,,,5274,3144,474,,0,0,0,,2020-11-24T13:24:02Z,23.95412,R+24,McConnell +24,republican,kentucky,2020-11-29T00:51:37.210218Z
21157,Marshall,17607,0,22,25,Released as a precinct as first report of the night,100,17607,>98%,>98% reported,edison,10,all,,1222,,,12384,4532,691,,0,0,0,,2020-11-24T13:24:02Z,44.5959,R+45,McConnell +45,republican,kentucky,2020-11-29T00:51:37.210218Z
21159,Martin,3925,0,11,14,Merged into voters' home precincts AFTER election night,100,3930,>98%,>98% reported,edison,10,unknown,,578,,,3348,497,80,,0,0,0,,2020-11-24T13:24:02Z,72.63694,R+73,McConnell +73,republican,kentucky,2020-11-29T00:51:37.210218Z
21161,Mason,7929,1780,13,13,Merged into voters' home precincts and released with cumulative results,100,7958,>98%,>98% reported,edison,10,unknown,,669,,,4999,2601,329,0,643,1088,49,0,2020-11-24T13:24:02Z,30.24341,R+30,McConnell +30,republican,kentucky,2020-11-29T00:51:37.210218Z
21145,McCracken,33557,7810,48,54,Released as a precinct as first report of the night,100,33557,>98%,>98% reported,edison,10,unknown,,2509,,,20883,11623,1051,,2967,4662,181,,2020-11-24T13:24:00Z,27.59484,R+28,McConnell +28,republican,kentucky,2020-11-29T00:51:37.210218Z
21147,McCreary,6390,0,16,18,None,99,6438,>98%,>98% reported,edison,10,some,,715,,,5179,889,322,,0,0,0,,2020-11-24T13:24:01Z,67.13615,R+67,McConnell +67,republican,kentucky,2020-11-29T00:51:37.210218Z
21149,McLean,4775,0,7,8,Merged into voters' home precincts AFTER election night,100,4782,>98%,>98% reported,edison,10,unknown,,374,,,3211,1241,323,,0,0,0,,2020-11-24T13:24:01Z,41.25654,R+41,McConnell +41,republican,kentucky,2020-11-29T00:51:37.210218Z
21163,Meade,14065,0,18,19,Released as a separate subtotal as first report of the night,100,14113,>98%,>98% reported,edison,10,unknown,,904,,,9069,4225,771,,0,0,0,,2020-11-24T13:24:03Z,34.4401,R+34,McConnell +34,republican,kentucky,2020-11-29T00:51:37.210218Z
21165,Menifee,3076,2201,5,6,None,99,3102,>98%,>98% reported,edison,10,some,,560,,,2071,882,123,,1415,713,73,,2020-11-24T13:24:03Z,38.6541,R+39,McConnell +39,republican,kentucky,2020-11-29T00:51:37.210218Z
21167,Mercer,11704,0,16,17,Merged into voters' home precincts and released with cumulative results,100,11735,>98%,>98% reported,edison,10,all,,813,,,7956,3247,501,,0,0,0,,2020-11-24T13:24:03Z,40.23411,R+40,McConnell +40,republican,kentucky,2020-11-29T00:51:37.210218Z
21169,Metcalfe,4969,769,11,12,Other,99,5012,>98%,>98% reported,edison,10,some,,362,,,3538,1129,302,,342,389,38,,2020-11-24T13:24:03Z,48.48058,R+48,McConnell +48,republican,kentucky,2020-11-29T00:51:37.210218Z
21171,Monroe,5274,0,10,12,Merged into voters' home precincts and released with cumulative results,99,5330,>98%,>98% reported,edison,10,unknown,,517,,,4320,763,191,,0,0,0,,2020-11-24T13:24:04Z,67.44407,R+67,McConnell +67,republican,kentucky,2020-11-29T00:51:37.210218Z
21173,Montgomery,12816,0,17,18,Released as a precinct as first report of the night,100,12842,>98%,>98% reported,edison,10,all,,776,,,8345,3983,488,,0,0,0,,2020-11-24T13:24:04Z,34.03558,R+34,McConnell +34,republican,kentucky,2020-11-29T00:51:37.210218Z
21175,Morgan,5518,0,11,12,Merged into voters' home precincts and released with cumulative results,100,5544,>98%,>98% reported,edison,10,unknown,,523,,,3915,1375,228,,0,0,0,,2020-11-24T13:25:27Z,46.03117,R+46,McConnell +46,republican,kentucky,2020-11-29T00:51:37.210218Z
21177,Muhlenberg,14158,0,22,25,Released as a separate subtotal as first report of the night,99,14235,>98%,>98% reported,edison,10,unknown,,1022,,,9221,4174,763,,0,0,0,,2020-11-24T13:25:27Z,35.64769,R+36,McConnell +36,republican,kentucky,2020-11-29T00:51:37.210218Z
21179,Nelson,23204,0,22,24,Merged into voters' home precincts and released with cumulative results,100,23256,>98%,>98% reported,edison,10,some,,1342,,,14219,7943,1042,,0,0,0,,2020-11-24T13:25:27Z,27.04706,R+27,McConnell +27,republican,kentucky,2020-11-29T00:51:37.210218Z
21181,Nicholas,3388,2656,5,5,Other,100,3396,>98%,>98% reported,edison,10,all,,296,,,2150,1087,149,2,1580,983,91,2,2020-11-24T13:21:55Z,31.37544,R+31,McConnell +31,republican,kentucky,2020-11-29T00:51:37.210218Z
21183,Ohio,11078,0,17,19,None,100,11129,>98%,>98% reported,edison,10,unknown,,790,,,7619,2765,694,,0,0,0,,2020-11-24T13:22:01Z,43.81657,R+44,McConnell +44,republican,kentucky,2020-11-29T00:51:37.210218Z
21185,Oldham,38066,0,36,38,Released as a precinct as first report of the night,100,38066,>98%,>98% reported,edison,10,some,,2488,,,22023,14713,1330,,0,0,0,,2020-11-24T13:22:03Z,19.20349,R+19,McConnell +19,republican,kentucky,2020-11-29T00:51:37.210218Z
21187,Owen,5446,0,11,12,Merged into voters' home precincts and released with cumulative results,100,5458,>98%,>98% reported,edison,10,unknown,,485,,,3958,1235,253,,0,0,0,,2020-11-24T13:22:05Z,50,R+50,McConnell +50,republican,kentucky,2020-11-29T00:51:37.210218Z
21189,Owsley,1876,0,7,8,Released as a precinct as first report of the night,99,1896,>98%,>98% reported,edison,10,unknown,,350,,,1516,280,80,,0,0,0,,2020-11-24T13:22:10Z,65.88486,R+66,McConnell +66,republican,kentucky,2020-11-29T00:51:37.210218Z
21191,Pendleton,6913,4466,11,12,Merged into voters' home precincts and released with cumulative results,100,6925,>98%,>98% reported,edison,10,some,,635,,,4993,1570,350,,3106,1176,184,,2020-11-24T13:22:15Z,49.51541,R+50,McConnell +50,republican,kentucky,2020-11-29T00:51:37.210218Z
21193,Perry,10533,0,30,37,Released as a separate subtotal as first report of the night,99,10626,>98%,>98% reported,edison,10,all,,659,,,7381,2781,371,,0,0,0,,2020-11-24T13:22:20Z,43.67227,R+44,McConnell +44,republican,kentucky,2020-11-29T00:51:37.210218Z
21195,Pike,25258,11173,48,57,Released as a precinct as first report of the night,99,25395,>98%,>98% reported,edison,10,all,,1274,,,18362,6013,883,,8888,1941,344,,2020-11-24T13:22:24Z,48.89144,R+49,McConnell +49,republican,kentucky,2020-11-29T00:51:37.210218Z
21197,Powell,5493,0,10,11,Merged into voters' home precincts and released with cumulative results,100,5505,>98%,>98% reported,edison,10,unknown,,602,,,3642,1591,260,,0,0,0,,2020-11-24T13:22:28Z,37.33843,R+37,McConnell +37,republican,kentucky,2020-11-29T00:51:37.210218Z
21199,Pulaski,31513,0,52,56,Merged into voters' home precincts and released with cumulative results,100,31557,>98%,>98% reported,edison,10,unknown,,2258,,,23899,6118,1496,,0,0,0,,2020-11-24T13:22:32Z,56.42433,R+56,McConnell +56,republican,kentucky,2020-11-29T00:51:37.210218Z
21201,Robertson,1139,0,5,5,Merged into voters' home precincts and released with cumulative results,99,1146,>98%,>98% reported,edison,10,none,,150,,,796,288,55,,0,0,0,,2020-11-24T13:22:59Z,44.60053,R+45,McConnell +45,republican,kentucky,2020-11-29T00:51:37.210218Z
21203,Rockcastle,7755,0,14,15,Merged into voters' home precincts and released with cumulative results,100,7784,>98%,>98% reported,edison,10,some,,541,,,6194,1225,336,,0,0,0,,2020-11-24T13:22:38Z,64.07479,R+64,McConnell +64,republican,kentucky,2020-11-29T00:51:37.210218Z
21205,Rowan,10042,0,17,18,Merged into voters' home precincts and released with cumulative results,100,10065,>98%,>98% reported,edison,10,unknown,,749,,,5403,4175,464,,0,0,0,,2020-11-24T13:22:42Z,12.22864,R+12,McConnell +12,republican,kentucky,2020-11-29T00:51:37.210218Z
21207,Russell,8916,0,14,16,Released as a separate subtotal as first report of the night,100,8955,>98%,>98% reported,edison,10,unknown,,904,,,6911,1548,457,,0,0,0,,2020-11-24T13:23:01Z,60.15029,R+60,McConnell +60,republican,kentucky,2020-11-29T00:51:37.210218Z
21209,Scott,28967,0,46,46,Released as a precinct as first report of the night,100,28967,>98%,>98% reported,edison,10,none,,1632,,,16405,11248,1314,,0,0,0,,2020-11-24T13:23:05Z,17.80302,R+18,McConnell +18,republican,kentucky,2020-11-29T00:51:37.210218Z
21211,Shelby,23591,0,32,34,Merged into voters' home precincts and released with cumulative results,100,23591,>98%,>98% reported,edison,10,unknown,,1437,,,14111,8332,1148,,0,0,0,,2020-11-24T13:23:08Z,24.49663,R+24,McConnell +24,republican,kentucky,2020-11-29T00:51:37.210218Z
21213,Simpson,8699,0,12,13,Released as a precinct as first report of the night,100,8732,>98%,>98% reported,edison,10,some,,538,,,5302,2976,421,,0,0,0,,2020-11-24T13:23:11Z,26.73871,R+27,McConnell +27,republican,kentucky,2020-11-29T00:51:37.210218Z
21215,Spencer,11407,0,14,14,Merged into voters' home precincts and released with cumulative results,100,11433,>98%,>98% reported,edison,10,unknown,,654,,,8026,2827,554,,0,0,0,,2020-11-24T13:23:14Z,45.57728,R+46,McConnell +46,republican,kentucky,2020-11-29T00:51:37.210218Z
21217,Taylor,12496,0,18,20,Released as a precinct as first report of the night,100,12517,>98%,>98% reported,edison,10,some,,1142,,,8637,3277,582,,0,0,0,,2020-11-24T13:23:16Z,42.89373,R+43,McConnell +43,republican,kentucky,2020-11-29T00:51:37.210218Z
21219,Todd,5332,0,12,13,Released as a separate subtotal as first report of the night,99,5363,>98%,>98% reported,edison,10,unknown,,282,,,3565,1460,307,,0,0,0,,2020-11-24T13:23:18Z,39.47862,R+39,McConnell +39,republican,kentucky,2020-11-29T00:51:37.210218Z
21221,Trigg,7368,6233,14,15,Merged into voters' home precincts and released with cumulative results,100,7376,>98%,>98% reported,edison,10,some,,707,,,5000,2034,334,,4192,1790,251,,2020-11-24T13:23:23Z,40.25516,R+40,McConnell +40,republican,kentucky,2020-11-29T00:51:37.210218Z
21223,Trimble,4302,683,11,12,None,100,4320,>98%,>98% reported,edison,10,some,,312,,,2889,1183,230,,275,387,21,,2020-11-24T13:23:28Z,39.65597,R+40,McConnell +40,republican,kentucky,2020-11-29T00:51:37.210218Z
21225,Union,6553,0,14,16,Merged into voters' home precincts and released with cumulative results,100,6577,>98%,>98% reported,edison,10,unknown,,426,,,4351,1803,399,,0,0,0,,2020-11-24T13:23:31Z,38.88295,R+39,McConnell +39,republican,kentucky,2020-11-29T00:51:37.210218Z
21227,Warren,55430,45199,114,121,Other,100,55430,>98%,>98% reported,edison,10,all,,3734,,,29718,23345,2367,,24214,19398,1587,,2020-11-24T13:23:22Z,11.49738,R+11,McConnell +11,republican,kentucky,2020-11-29T00:51:37.210218Z
21229,Washington,6193,0,13,14,None,99,6225,>98%,>98% reported,edison,10,all,,418,,,4107,1769,317,,0,0,0,,2020-11-24T13:23:24Z,37.7523,R+38,McConnell +38,republican,kentucky,2020-11-29T00:51:37.210218Z
21231,Wayne,9150,0,18,19,Other,99,9240,>98%,>98% reported,edison,10,unknown,,1027,,,6689,1978,483,,0,0,0,,2020-11-24T13:23:26Z,51.48634,R+51,McConnell +51,republican,kentucky,2020-11-29T00:51:37.210218Z
21233,Webster,5976,0,12,14,Released as a precinct as first report of the night,100,5993,>98%,>98% reported,edison,10,unknown,,325,,,4029,1600,347,,0,0,0,,2020-11-24T13:23:29Z,40.64592,R+41,McConnell +41,republican,kentucky,2020-11-29T00:51:37.210218Z
21235,Whitley,15298,0,33,36,Merged into voters' home precincts and released with cumulative results,100,15356,>98%,>98% reported,edison,10,unknown,,1038,,,11634,2887,777,,0,0,0,,2020-11-24T13:23:31Z,57.17741,R+57,McConnell +57,republican,kentucky,2020-11-29T00:51:37.210218Z
21237,Wolfe,2985,2022,7,8,None,100,2985,>98%,>98% reported,edison,10,unknown,,195,,,1912,943,124,6,1210,735,71,6,2020-11-24T13:23:33Z,32.46231,R+32,McConnell +32,republican,kentucky,2020-11-29T00:51:37.210218Z
21239,Woodford,15249,0,18,19,Released separately AFTER election night,100,15249,>98%,>98% reported,edison,10,all,,949,,,8119,6612,518,,0,0,0,,2020-11-24T13:23:34Z,9.88262,R+10,McConnell +10,republican,kentucky,2020-11-29T00:51:37.210218Z
