fips,name,votes,absentee_votes,reporting,precincts,absentee_method,eevp,tot_exp_vote,eevp_value,eevp_display,eevp_source,turnout_stage,absentee_count_progress,absentee_outstanding,absentee_max_ballots,provisional_outstanding,provisional_count_progress,results_cornynj,results_hegarm,results_mckennonk,results_collinsda,results_write_ins,results_absentee_cornynj,results_absentee_hegarm,results_absentee_mckennonk,results_absentee_collinsda,results_absentee_write_ins,last_updated,leader_margin_value,leader_margin_display,leader_margin_name_display,leader_party_id,state,retrieved_time
48001,Anderson,19072,14360,20,23,Released as a precinct as first report of the night,95,20048,95%,95% reported,edison,2,none,,15380,,,14943,3792,249,88,,11036,3089,168,67,,2020-11-28T14:38:59Z,58.46791,R+58,Cornyn +58,republican,texas,2020-11-29T00:52:25.426800Z
48003,Andrews,5800,4734,5,5,Released as a precinct as first report of the night,99,5837,>98%,>98% reported,edison,2,unknown,,4805,,,4894,779,107,20,,4005,642,73,14,,2020-11-27T13:43:52Z,70.94828,R+71,Cornyn +71,republican,texas,2020-11-29T00:52:25.426800Z
48005,Angelina,34357,28462,38,43,Released as a precinct as first report of the night,97,35322,97%,97% reported,edison,2,unknown,,28954,,,24955,8765,460,160,17,20639,7361,335,118,9,2020-11-28T14:21:50Z,47.12286,R+47,Cornyn +47,republican,texas,2020-11-29T00:52:25.426800Z
48007,Aransas,12164,10900,5,6,Released as a precinct as first report of the night,98,12414,98%,98% reported,edison,2,unknown,,10783,,,9189,2729,178,68,,8227,2479,140,54,,2020-11-27T13:45:02Z,53.10753,R+53,Cornyn +53,republican,texas,2020-11-29T00:52:25.426800Z
48009,Archer,4724,3581,10,12,Released as a precinct as first report of the night,89,5288,89%,89% reported,edison,2,unknown,,2737,,,4178,467,65,14,,3165,368,35,13,,2020-11-28T14:55:25Z,78.55631,R+79,Cornyn +79,republican,texas,2020-11-29T00:52:25.426800Z
48011,Armstrong,1106,842,7,8,Released as a precinct as first report of the night,88,1260,88%,88% reported,edison,2,unknown,,777,,,1025,64,12,5,,779,51,8,4,,2020-11-28T14:55:29Z,86.88969,R+87,Cornyn +87,republican,texas,2020-11-29T00:52:25.426800Z
48013,Atascosa,17894,14598,25,25,Released as a precinct as first report of the night,100,17775,>98%,>98% reported,edison,2,unknown,,10647,,,11906,5588,258,142,,9734,4589,188,87,,2020-11-27T13:47:09Z,35.30792,R+35,Cornyn +35,republican,texas,2020-11-29T00:52:25.426800Z
48015,Austin,14478,11498,16,18,Released as a precinct as first report of the night,96,15153,96%,96% reported,edison,2,some,,9966,,,11454,2752,215,57,,9047,2260,153,38,,2020-11-28T14:41:56Z,60.10499,R+60,Cornyn +60,republican,texas,2020-11-29T00:52:25.426800Z
48017,Bailey,1822,1266,4,5,Released as a precinct as first report of the night,77,2361,77%,77% reported,edison,2,unknown,,1464,,,1400,383,28,11,,1016,233,12,5,,2020-11-27T13:48:57Z,55.81778,R+56,Cornyn +56,republican,texas,2020-11-29T00:52:25.426800Z
48019,Bandera,12537,10936,10,11,Released as a precinct as first report of the night,99,12614,>98%,>98% reported,edison,2,unknown,,10011,,,9957,2291,234,55,,8619,2101,179,37,,2020-11-27T13:49:40Z,61.147,R+61,Cornyn +61,republican,texas,2020-11-29T00:52:25.426800Z
48021,Bastrop,36504,31197,23,23,Released as a precinct as first report of the night,100,33601,>98%,>98% reported,edison,2,unknown,,25791,,,20468,15071,757,208,,16975,13505,561,156,,2020-11-28T14:42:17Z,14.78468,R+15,Cornyn +15,republican,texas,2020-11-29T00:52:25.426800Z
48023,Baylor,1678,1355,4,5,Released as a precinct as first report of the night,89,1880,89%,89% reported,edison,2,unknown,,1554,,,1462,177,30,9,,1196,137,18,4,,2020-11-28T14:55:33Z,76.57926,R+77,Cornyn +77,republican,texas,2020-11-29T00:52:25.426800Z
48025,Bee,9045,7260,15,18,Released as a precinct as first report of the night,90,10020,90%,90% reported,edison,2,some,,7301,,,5713,3103,171,58,,4520,2572,126,42,,2020-11-27T13:52:35Z,28.85572,R+29,Cornyn +29,republican,texas,2020-11-29T00:52:25.426800Z
48027,Bell,126799,102525,49,49,Released as a precinct as first report of the night,100,117276,>98%,>98% reported,edison,4,all,,89466,,,68934,54413,2725,727,,54424,45741,1840,520,,2020-11-27T13:54:21Z,11.45198,R+11,Cornyn +11,republican,texas,2020-11-29T00:52:25.426800Z
48029,Bexar,752935,660134,753,767,Released as a precinct as first report of the night,98,766539,98%,98% reported,edison,2,all,,609654,,,320095,411328,15205,6307,,277734,365778,11794,4828,,2020-11-27T13:56:13Z,12.11698,D+12,Hegar +12,democrat,texas,2020-11-29T00:52:25.426800Z
48031,Blanco,7408,6405,7,7,Released as a precinct as first report of the night,100,7019,>98%,>98% reported,edison,2,unknown,,4204,,,5457,1816,105,30,,4635,1667,81,22,,2020-11-27T13:57:05Z,49.14957,R+49,Cornyn +49,republican,texas,2020-11-29T00:52:25.426800Z
48033,Borden,411,302,7,8,Released as a precinct as first report of the night,87,475,87%,87% reported,edison,2,unknown,,320,,,390,18,1,2,,290,11,0,1,,2020-11-27T13:58:21Z,90.51095,R+91,Cornyn +91,republican,texas,2020-11-29T00:52:25.426800Z
48035,Bosque,9038,6473,11,12,Released as a precinct as first report of the night,98,9256,98%,98% reported,edison,2,unknown,,4229,,,7367,1490,121,60,,5228,1130,77,38,,2020-11-27T13:59:15Z,65.02545,R+65,Cornyn +65,republican,texas,2020-11-29T00:52:25.426800Z
48037,Bowie,37931,29781,36,43,Released as a precinct as first report of the night,91,41804,91%,91% reported,edison,4,all,,32487,,,26908,10406,474,143,,20577,8772,336,96,,2020-11-28T14:28:07Z,43.50531,R+44,Cornyn +44,republican,texas,2020-11-29T00:52:25.426800Z
48039,Brazoria,153362,138188,65,67,Released as a precinct as first report of the night,100,149605,>98%,>98% reported,edison,2,some,,131649,,,90705,58759,3019,879,,81451,53556,2447,734,,2020-11-27T14:01:40Z,20.83045,R+21,Cornyn +21,republican,texas,2020-11-29T00:52:25.426800Z
48041,Brazos,84149,71230,95,99,Released as a precinct as first report of the night,99,84753,>98%,>98% reported,edison,6,all,,57474,,,49346,32098,2243,462,,41430,27828,1635,337,,2020-11-27T14:02:44Z,20.49698,R+20,Cornyn +20,republican,texas,2020-11-29T00:52:25.426800Z
48043,Brewster,4768,3945,8,9,Released as a precinct as first report of the night,99,4805,>98%,>98% reported,edison,6,all,,4467,,,2453,2167,113,35,,1986,1858,77,24,,2020-11-27T14:03:23Z,5.99832,R+6,Cornyn +6,republican,texas,2020-11-29T00:52:25.426800Z
48045,Briscoe,715,448,4,6,Released as a precinct as first report of the night,75,957,75%,75% reported,edison,2,unknown,,503,,,625,79,6,5,,392,52,2,2,,2020-11-28T14:55:37Z,76.36364,R+76,Cornyn +76,republican,texas,2020-11-29T00:52:25.426800Z
48047,Brooks,2356,1745,4,6,Released as a precinct as first report of the night,70,3375,70%,70% reported,edison,2,unknown,,1853,,,859,1425,39,33,,566,1130,31,18,,2020-11-27T14:04:45Z,24.02377,D+24,Hegar +24,democrat,texas,2020-11-29T00:52:25.426800Z
48049,Brown,15755,12376,16,19,Released as a precinct as first report of the night,95,16564,95%,95% reported,edison,2,some,,14372,,,13482,1965,250,58,,10582,1577,174,43,,2020-11-28T14:48:48Z,73.1006,R+73,Cornyn +73,republican,texas,2020-11-29T00:52:25.426800Z
48051,Burleson,8489,6592,13,14,Released as a precinct as first report of the night,100,8219,>98%,>98% reported,edison,2,unknown,,5572,,,6596,1709,142,42,,5076,1393,97,26,,2020-11-27T14:06:09Z,57.56862,R+58,Cornyn +58,republican,texas,2020-11-29T00:52:25.426800Z
48053,Burnet,24540,20701,21,21,Released as a precinct as first report of the night,100,23708,>98%,>98% reported,edison,2,unknown,,17630,,,18687,5323,438,92,,15666,4659,318,58,,2020-11-27T14:07:00Z,54.45803,R+54,Cornyn +54,republican,texas,2020-11-29T00:52:25.426800Z
48055,Caldwell,14868,12248,30,32,Released as a precinct as first report of the night,100,14280,>98%,>98% reported,edison,2,unknown,,10580,,,8044,6449,272,103,,6604,5369,199,76,,2020-11-27T14:07:50Z,10.72774,R+11,Cornyn +11,republican,texas,2020-11-29T00:52:25.426800Z
48057,Calhoun,7745,5621,22,26,Released as a precinct as first report of the night,94,8225,94%,94% reported,edison,2,unknown,,5674,,,5531,2092,100,22,,3847,1701,61,12,,2020-11-27T14:08:30Z,44.40284,R+44,Cornyn +44,republican,texas,2020-11-29T00:52:25.426800Z
48059,Callahan,6719,5411,7,8,Released as a precinct as first report of the night,100,6589,>98%,>98% reported,edison,2,unknown,,4184,,,5892,680,106,41,,4745,564,77,25,,2020-11-28T14:48:51Z,77.57107,R+78,Cornyn +78,republican,texas,2020-11-29T00:52:25.426800Z
48061,Cameron,111220,93558,97,104,Released as a precinct as first report of the night,93,119703,93%,93% reported,edison,4,some,,71585,,,46482,61508,1797,1433,,38954,52212,1361,1031,,2020-11-27T14:10:10Z,13.51016,D+14,Hegar +14,democrat,texas,2020-11-29T00:52:25.426800Z
48063,Camp,5035,4279,4,5,Released as a precinct as first report of the night,94,5364,94%,94% reported,edison,2,unknown,,4295,,,3597,1359,57,22,,3106,1123,36,14,,2020-11-28T14:37:44Z,44.44886,R+44,Cornyn +44,republican,texas,2020-11-29T00:52:25.426800Z
48065,Carson,3110,1890,7,9,Released as a precinct as first report of the night,85,3659,85%,85% reported,edison,2,unknown,,1767,,,2756,286,63,5,,1657,204,28,1,,2020-11-28T14:55:42Z,79.42122,R+79,Cornyn +79,republican,texas,2020-11-29T00:52:25.426800Z
48067,Cass,13813,10581,16,19,Released as a precinct as first report of the night,95,14577,95%,95% reported,edison,2,unknown,,8478,,,10796,2672,153,192,,8294,2154,99,34,,2020-11-28T14:29:10Z,58.81416,R+59,Cornyn +59,republican,texas,2020-11-29T00:52:25.426800Z
48069,Castro,2041,1103,7,9,Released as a precinct as first report of the night,74,2755,74%,74% reported,edison,2,unknown,,1417,,,1572,432,24,13,,845,244,8,6,,2020-11-24T13:26:44Z,55.85497,R+56,Cornyn +56,republican,texas,2020-11-29T00:52:25.426800Z
48071,Chambers,21342,18832,15,15,Released as a precinct as first report of the night,100,19823,>98%,>98% reported,edison,2,some,,17808,,,17027,3786,418,111,0,15164,3250,330,88,0,2020-11-27T15:02:56Z,62.04198,R+62,Cornyn +62,republican,texas,2020-11-29T00:52:25.426800Z
48073,Cherokee,19331,15337,22,25,Released as a precinct as first report of the night,97,19827,97%,97% reported,edison,2,unknown,,16073,,,14945,4058,269,59,,11742,3359,194,42,,2020-11-28T14:39:02Z,56.31887,R+56,Cornyn +56,republican,texas,2020-11-29T00:52:25.426800Z
48075,Childress,2259,1776,4,5,Released as a precinct as first report of the night,92,2461,92%,92% reported,edison,2,unknown,,1817,,,1936,283,29,11,,1531,217,19,9,,2020-11-28T14:55:45Z,73.17397,R+73,Cornyn +73,republican,texas,2020-11-29T00:52:25.426800Z
48077,Clay,5694,4133,15,17,Released as a precinct as first report of the night,95,5971,95%,95% reported,edison,2,unknown,,3005,,,4955,632,69,27,11,3588,474,45,16,10,2020-11-28T14:55:51Z,75.92202,R+76,Cornyn +76,republican,texas,2020-11-29T00:52:25.426800Z
48079,Cochran,978,661,3,4,Released as a precinct as first report of the night,82,1192,82%,82% reported,edison,2,unknown,,604,,,765,183,22,8,,521,125,10,5,,2020-11-24T13:26:44Z,59.5092,R+60,Cornyn +60,republican,texas,2020-11-29T00:52:25.426800Z
48081,Coke,1754,1223,5,5,Released as a precinct as first report of the night,100,1681,>98%,>98% reported,edison,2,unknown,,1206,,,1557,171,23,3,,1084,128,10,1,,2020-11-27T14:19:03Z,79.01938,R+79,Cornyn +79,republican,texas,2020-11-29T00:52:25.426800Z
48083,Coleman,4065,3507,4,5,Released as a precinct as first report of the night,94,4302,94%,94% reported,edison,2,some,,3691,,,3586,426,37,16,,3096,369,28,14,,2020-11-28T14:48:56Z,77.73678,R+78,Cornyn +78,republican,texas,2020-11-29T00:52:25.426800Z
48085,Collin,481462,446747,240,240,Released as a precinct as first report of the night,99,486391,>98%,>98% reported,edison,6,unknown,,368567,,,263074,207005,8495,2721,167,242650,194460,7189,2308,140,2020-11-28T14:29:47Z,11.64557,R+12,Cornyn +12,republican,texas,2020-11-29T00:52:25.426800Z
48087,Collingsworth,1192,824,6,8,Released as a precinct as first report of the night,87,1365,87%,87% reported,edison,2,unknown,,1021,,,1032,145,10,4,1,713,104,5,2,0,2020-11-28T14:55:53Z,74.41275,R+74,Cornyn +74,republican,texas,2020-11-29T00:52:25.426800Z
48089,Colorado,9888,7966,4,5,Released as a precinct as first report of the night,98,10053,98%,98% reported,edison,2,some,,6404,,,7367,2362,116,43,,5851,2006,78,31,,2020-11-28T14:45:16Z,50.61691,R+51,Cornyn +51,republican,texas,2020-11-29T00:52:25.426800Z
48091,Comal,88268,79099,30,30,Released as a precinct as first report of the night,100,87942,>98%,>98% reported,edison,6,all,,64101,,,63545,22552,1753,418,,56921,20474,1382,322,,2020-11-24T13:26:45Z,46.44152,R+46,Cornyn +46,republican,texas,2020-11-29T00:52:25.426800Z
48093,Comanche,6004,4618,13,15,Released as a precinct as first report of the night,97,6184,97%,97% reported,edison,2,unknown,,4034,,,5053,831,90,30,,3888,656,59,15,,2020-11-28T14:49:01Z,70.31979,R+70,Cornyn +70,republican,texas,2020-11-29T00:52:25.426800Z
48095,Concho,1247,777,8,9,Released as a precinct as first report of the night,99,1261,>98%,>98% reported,edison,2,unknown,,569,,,1029,193,20,5,,634,128,13,2,,2020-11-28T14:49:06Z,67.0409,R+67,Cornyn +67,republican,texas,2020-11-29T00:52:25.426800Z
48097,Cooke,18877,13566,27,30,Released as a precinct as first report of the night,100,18842,>98%,>98% reported,edison,2,some,,10395,,,15516,2999,277,85,,10978,2354,190,44,,2020-11-28T14:55:58Z,66.30821,R+66,Cornyn +66,republican,texas,2020-11-29T00:52:25.426800Z
48099,Coryell,23248,19089,16,16,Released as a precinct as first report of the night,100,21555,>98%,>98% reported,edison,2,some,,16701,,,15372,7118,609,149,,12445,6094,439,111,,2020-11-24T13:26:45Z,35.50413,R+36,Cornyn +36,republican,texas,2020-11-29T00:52:25.426800Z
48101,Cottle,656,488,4,5,Released as a precinct as first report of the night,68,963,68%,68% reported,edison,2,unknown,,690,,,534,110,7,5,,397,84,5,2,,2020-11-28T14:56:02Z,64.63415,R+65,Cornyn +65,republican,texas,2020-11-29T00:52:25.426800Z
48103,Crane,1479,1067,3,4,Released as a precinct as first report of the night,82,1799,82%,82% reported,edison,2,unknown,,1280,,,1213,229,24,13,,886,157,16,8,,2020-11-24T13:26:46Z,66.53144,R+67,Cornyn +67,republican,texas,2020-11-29T00:52:25.426800Z
48105,Crockett,1493,1153,4,5,Released as a precinct as first report of the night,79,1894,79%,79% reported,edison,2,unknown,,1379,,,1146,314,21,12,,897,240,12,4,,2020-11-24T13:26:46Z,55.72672,R+56,Cornyn +56,republican,texas,2020-11-29T00:52:25.426800Z
48107,Crosby,1881,1186,4,5,Released as a precinct as first report of the night,89,2110,89%,89% reported,edison,2,unknown,,1368,,,1356,486,25,14,,862,305,13,6,,2020-11-24T13:26:46Z,46.25199,R+46,Cornyn +46,republican,texas,2020-11-29T00:52:25.426800Z
48109,Culberson,778,516,5,6,Released as a precinct as first report of the night,68,1143,68%,68% reported,edison,2,unknown,,681,,,367,385,19,6,1,239,264,9,3,1,2020-11-24T13:26:46Z,2.31362,D+2,Hegar +2,democrat,texas,2020-11-29T00:52:25.426800Z
48111,Dallam,1595,1020,8,10,Released as a precinct as first report of the night,87,1823,87%,87% reported,edison,2,unknown,,954,,,1369,200,21,5,,878,127,12,3,,2020-11-28T14:56:07Z,73.29154,R+73,Cornyn +73,republican,texas,2020-11-29T00:52:25.426800Z
48113,Dallas,916556,798361,1086,1170,Released as a precinct as first report of the night,93,986665,93%,93% reported,edison,4,some,,739551,,,330851,560603,15905,8282,915,284784,495068,12133,6376,0,2020-11-28T14:39:07Z,25.06688,D+25,Hegar +25,democrat,texas,2020-11-29T00:52:25.426800Z
48115,Dawson,3641,2822,8,10,Released as a precinct as first report of the night,85,4301,85%,85% reported,edison,2,unknown,,3346,,,2827,738,60,14,2,2260,518,36,8,0,2020-11-28T14:49:10Z,57.37435,R+57,Cornyn +57,republican,texas,2020-11-29T00:52:25.426800Z
48123,De Witt,7887,6079,9,10,Released as a precinct as first report of the night,98,8082,98%,98% reported,edison,2,unknown,,5965,,,6399,1384,84,20,0,4888,1104,70,17,0,2020-11-24T13:26:47Z,63.58565,R+64,Cornyn +64,republican,texas,2020-11-29T00:52:25.426800Z
48117,Deaf Smith,4533,3583,4,5,Released as a precinct as first report of the night,81,5602,81%,81% reported,edison,2,some,,739,,,3273,1151,73,36,,2678,837,48,20,,2020-11-28T14:56:12Z,46.81227,R+47,Cornyn +47,republican,texas,2020-11-29T00:52:25.426800Z
48119,Delta,2534,1790,7,8,Released as a precinct as first report of the night,94,2693,94%,94% reported,edison,2,unknown,,1505,,,2111,370,31,22,,1452,303,19,16,,2020-11-28T14:38:24Z,68.7056,R+69,Cornyn +69,republican,texas,2020-11-29T00:52:25.426800Z
48121,Denton,413211,380240,186,186,Released as a precinct as first report of the night,99,416610,>98%,>98% reported,edison,6,all,,280830,,,231025,170984,8553,2627,22,211760,159151,7118,2196,15,2020-11-24T13:26:47Z,14.53035,R+15,Cornyn +15,republican,texas,2020-11-29T00:52:25.426800Z
48125,Dickens,958,657,6,7,Released as a precinct as first report of the night,72,1325,72%,72% reported,edison,2,unknown,,846,,,808,133,13,4,,559,92,4,2,,2020-11-28T14:56:16Z,70.45929,R+70,Cornyn +70,republican,texas,2020-11-29T00:52:25.426800Z
48127,Dimmit,3468,2376,7,8,Released as a precinct as first report of the night,83,4193,83%,83% reported,edison,2,unknown,,2084,,,1274,2122,39,30,3,825,1511,25,14,1,2020-11-24T13:26:47Z,24.45213,D+24,Hegar +24,democrat,texas,2020-11-29T00:52:25.426800Z
48129,Donley,1625,1144,6,7,Released as a precinct as first report of the night,90,1811,90%,90% reported,edison,2,unknown,,1330,,,1418,181,22,4,,1006,124,13,1,,2020-11-28T14:56:20Z,76.12308,R+76,Cornyn +76,republican,texas,2020-11-29T00:52:25.426800Z
48131,Duval,4419,3462,8,10,Released as a precinct as first report of the night,78,5647,78%,78% reported,edison,2,some,,4122,,,1787,2458,97,77,,1312,2024,60,66,,2020-11-24T13:26:47Z,15.18443,D+15,Hegar +15,democrat,texas,2020-11-29T00:52:25.426800Z
48133,Eastland,8087,6367,9,10,Released as a precinct as first report of the night,98,8223,98%,98% reported,edison,2,unknown,,5907,,,7015,910,131,31,,5523,731,95,18,,2020-11-28T14:49:15Z,75.49153,R+75,Cornyn +75,republican,texas,2020-11-29T00:52:25.426800Z
48135,Ector,43572,34675,38,41,Released as a precinct as first report of the night,100,43138,>98%,>98% reported,edison,2,unknown,,35298,,,31711,10682,902,277,,25345,8568,591,171,,2020-11-28T14:49:20Z,48.26265,R+48,Cornyn +48,republican,texas,2020-11-29T00:52:25.426800Z
48137,Edwards,985,733,4,5,Released as a precinct as first report of the night,78,1267,78%,78% reported,edison,2,unknown,,827,,,824,143,14,3,1,610,112,9,2,0,2020-11-24T13:26:48Z,69.13706,R+69,Cornyn +69,republican,texas,2020-11-29T00:52:25.426800Z
48141,El Paso,259392,205772,195,209,Released as a precinct as first report of the night,93,278210,93%,93% reported,edison,2,some,,157724,,,80021,164931,8248,6036,156,62562,133211,5847,4152,0,2020-11-24T13:26:48Z,32.73424,D+33,Hegar +33,democrat,texas,2020-11-29T00:52:25.426800Z
48139,Ellis,85032,74700,50,50,Released as a precinct as first report of the night,99,85566,>98%,>98% reported,edison,6,all,,56843,,,57078,25780,1589,585,,50069,22917,1261,453,,2020-11-27T14:26:10Z,36.80732,R+37,Cornyn +37,republican,texas,2020-11-29T00:52:25.426800Z
48143,Erath,16708,13507,20,22,Released as a precinct as first report of the night,97,17152,97%,97% reported,edison,2,unknown,,13085,,,13564,2707,335,102,,10975,2225,237,70,,2020-11-28T14:49:25Z,64.98085,R+65,Cornyn +65,republican,texas,2020-11-29T00:52:25.426800Z
48145,Falls,6039,3651,12,13,Released as a precinct as first report of the night,94,6415,94%,94% reported,edison,2,unknown,,3515,,,4157,1787,76,19,,2361,1241,43,6,,2020-11-24T13:26:48Z,39.24491,R+39,Cornyn +39,republican,texas,2020-11-29T00:52:25.426800Z
48147,Fannin,14748,10870,16,17,Released as a precinct as first report of the night,100,14223,>98%,>98% reported,edison,2,unknown,,8408,,,11836,2559,273,80,,8635,2026,160,49,,2020-11-28T14:30:43Z,62.90344,R+63,Cornyn +63,republican,texas,2020-11-29T00:52:25.426800Z
48149,Fayette,12864,9244,24,27,Released as a precinct as first report of the night,97,13195,97%,97% reported,edison,2,unknown,,7646,,,10056,2634,129,45,,7148,1990,77,29,,2020-11-28T14:42:50Z,57.6959,R+58,Cornyn +58,republican,texas,2020-11-29T00:52:25.426800Z
48151,Fisher,1804,1289,4,5,Released as a precinct as first report of the night,88,2042,88%,88% reported,edison,2,unknown,,1044,,,1418,351,28,7,,1015,256,16,2,,2020-11-24T13:26:49Z,59.14634,R+59,Cornyn +59,republican,texas,2020-11-29T00:52:25.426800Z
48153,Floyd,1990,1631,5,7,Released as a precinct as first report of the night,81,2463,81%,81% reported,edison,2,unknown,,2191,,,1554,397,29,10,,1302,308,16,5,,2020-11-24T13:26:49Z,58.1407,R+58,Cornyn +58,republican,texas,2020-11-29T00:52:25.426800Z
48155,Foard,519,389,4,5,Released as a precinct as first report of the night,78,667,78%,78% reported,edison,2,unknown,,398,,,404,107,7,1,,304,79,5,1,,2020-11-28T14:56:26Z,57.22543,R+57,Cornyn +57,republican,texas,2020-11-29T00:52:25.426800Z
48157,Fort Bend,347432,318995,160,160,Released as a precinct as first report of the night,100,340686,>98%,>98% reported,edison,2,unknown,,267057,,,160977,178984,5359,2112,,147461,165270,4490,1774,,2020-11-28T14:41:04Z,5.18288,D+5,Hegar +5,democrat,texas,2020-11-29T00:52:25.426800Z
48159,Franklin,4942,3890,8,9,Released as a precinct as first report of the night,91,5407,91%,91% reported,edison,2,unknown,,3878,,,4114,753,63,12,,3211,628,44,7,,2020-11-28T14:31:18Z,68.0089,R+68,Cornyn +68,republican,texas,2020-11-29T00:52:25.426800Z
48161,Freestone,8557,6431,14,16,Released as a precinct as first report of the night,94,9074,94%,94% reported,edison,2,unknown,,7301,,,6838,1553,116,50,,5096,1233,70,32,,2020-11-24T13:26:49Z,61.7623,R+62,Cornyn +62,republican,texas,2020-11-29T00:52:25.426800Z
48163,Frio,4921,3478,9,10,Released as a precinct as first report of the night,86,5720,86%,86% reported,edison,2,some,,2129,,,2489,2283,71,78,,1667,1722,45,44,,2020-11-24T13:26:49Z,4.18614,R+4,Cornyn +4,republican,texas,2020-11-29T00:52:25.426800Z
48165,Gaines,5760,5017,9,9,Released as a precinct as first report of the night,100,5456,>98%,>98% reported,edison,2,unknown,,3944,,,5118,548,76,18,,4502,446,55,14,,2020-11-24T13:26:49Z,79.34028,R+79,Cornyn +79,republican,texas,2020-11-29T00:52:25.426800Z
48167,Galveston,153383,138502,89,93,Released as a precinct as first report of the night,100,151732,>98%,>98% reported,edison,2,unknown,,137290,,,94317,55094,3003,969,0,85353,49947,2423,779,0,2020-11-24T13:26:49Z,25.57193,R+26,Cornyn +26,republican,texas,2020-11-29T00:52:25.426800Z
48169,Garza,1617,1215,6,7,Released as a precinct as first report of the night,88,1842,88%,88% reported,edison,2,unknown,,1568,,,1374,225,11,7,,1043,164,4,4,,2020-11-24T13:26:50Z,71.05751,R+71,Cornyn +71,republican,texas,2020-11-29T00:52:25.426800Z
48171,Gillespie,15778,12618,13,14,Released as a precinct as first report of the night,94,16761,94%,94% reported,edison,2,unknown,,13119,,,12543,2996,200,39,,9810,2645,138,25,,2020-11-24T13:26:50Z,60.5083,R+61,Cornyn +61,republican,texas,2020-11-29T00:52:25.426800Z
48173,Glasscock,646,485,4,5,Released as a precinct as first report of the night,82,785,82%,82% reported,edison,2,unknown,,495,,,603,35,5,3,,453,27,4,1,,2020-11-28T14:49:29Z,87.9257,R+88,Cornyn +88,republican,texas,2020-11-29T00:52:25.426800Z
48175,Goliad,3899,2848,8,10,Released as a precinct as first report of the night,89,4378,89%,89% reported,edison,2,unknown,,3358,,,2995,835,43,14,12,2164,646,25,5,8,2020-11-24T13:26:50Z,55.39882,R+55,Cornyn +55,republican,texas,2020-11-29T00:52:25.426800Z
48177,Gonzales,7530,5937,15,16,Released as a precinct as first report of the night,100,7480,>98%,>98% reported,edison,2,unknown,,5788,,,5617,1782,89,42,,4454,1401,55,27,,2020-11-24T13:26:50Z,50.92961,R+51,Cornyn +51,republican,texas,2020-11-29T00:52:25.426800Z
48179,Gray,7688,5688,6,8,Released as a precinct as first report of the night,88,8745,88%,88% reported,edison,2,unknown,,7277,,,6705,774,167,42,,4974,579,103,32,,2020-11-28T14:56:30Z,77.1462,R+77,Cornyn +77,republican,texas,2020-11-29T00:52:25.426800Z
48181,Grayson,58974,49919,35,37,Released as a precinct as first report of the night,100,55994,>98%,>98% reported,edison,2,unknown,,43337,,,43735,13938,1008,293,,37103,11859,749,208,,2020-11-28T14:31:57Z,50.52566,R+51,Cornyn +51,republican,texas,2020-11-29T00:52:25.426800Z
48183,Gregg,47483,42271,19,22,Released as a precinct as first report of the night,96,49302,96%,96% reported,edison,4,all,,51605,,,32467,14025,787,204,,29078,12412,615,166,,2020-11-28T14:21:52Z,38.83916,R+39,Cornyn +39,republican,texas,2020-11-29T00:52:25.426800Z
48185,Grimes,12275,9412,15,15,Released as a precinct as first report of the night,100,11258,>98%,>98% reported,edison,2,unknown,,7009,,,9338,2678,199,60,,7101,2145,125,41,,2020-11-24T13:26:50Z,54.25662,R+54,Cornyn +54,republican,texas,2020-11-29T00:52:25.426800Z
48187,Guadalupe,76978,67554,72,72,Released as a precinct as first report of the night,100,71385,>98%,>98% reported,edison,2,some,,55597,,,48308,26697,1545,428,,42067,23963,1190,334,,2020-11-24T13:26:51Z,28.07425,R+28,Cornyn +28,republican,texas,2020-11-29T00:52:25.426800Z
48189,Hale,9376,7351,25,31,Released as a precinct as first report of the night,90,10460,90%,90% reported,edison,2,unknown,,8534,,,6999,2155,155,67,,5619,1592,104,36,,2020-11-24T13:26:51Z,51.66382,R+52,Cornyn +52,republican,texas,2020-11-29T00:52:25.426800Z
48191,Hall,1140,793,4,5,Released as a precinct as first report of the night,87,1308,87%,87% reported,edison,2,unknown,,871,,,967,156,7,10,,670,113,5,5,,2020-11-28T14:56:34Z,71.14035,R+71,Cornyn +71,republican,texas,2020-11-29T00:52:25.426800Z
48193,Hamilton,4276,3245,11,12,Released as a precinct as first report of the night,100,4275,>98%,>98% reported,edison,2,unknown,,3191,,,3574,594,63,45,,2684,474,45,42,,2020-11-24T13:26:51Z,69.6913,R+70,Cornyn +70,republican,texas,2020-11-29T00:52:25.426800Z
48195,Hansford,2028,1348,6,8,Released as a precinct as first report of the night,88,2317,88%,88% reported,edison,2,unknown,,1429,,,1844,158,21,5,,1229,104,10,5,,2020-11-28T14:56:41Z,83.13609,R+83,Cornyn +83,republican,texas,2020-11-29T00:52:25.426800Z
48197,Hardeman,1555,1001,3,4,Released as a precinct as first report of the night,87,1787,87%,87% reported,edison,2,unknown,,1239,,,1313,232,9,1,,834,161,5,1,,2020-11-28T14:56:44Z,69.51768,R+70,Cornyn +70,republican,texas,2020-11-29T00:52:25.426800Z
48199,Hardin,27384,22582,18,20,Released as a precinct as first report of the night,100,26901,>98%,>98% reported,edison,2,unknown,,18988,,,23516,3388,393,87,,19347,2900,274,61,,2020-11-24T13:26:51Z,73.50278,R+74,Cornyn +74,republican,texas,2020-11-29T00:52:25.426800Z
48201,Harris,1614525,1420107,959,1013,Released as a precinct as first report of the night,95,1705746,95%,95% reported,edison,2,some,,1267589,,,718228,854158,29217,12889,33,627044,759511,23639,9883,30,2020-11-28T14:43:18Z,8.41919,D+8,Hegar +8,democrat,texas,2020-11-29T00:52:25.426800Z
48203,Harrison,29384,25284,23,27,Released as a precinct as first report of the night,94,31350,94%,94% reported,edison,2,some,,29321,,,21231,7612,440,101,,18276,6596,329,83,,2020-11-28T14:21:56Z,46.34835,R+46,Cornyn +46,republican,texas,2020-11-29T00:52:25.426800Z
48205,Hartley,2072,1614,6,7,Released as a precinct as first report of the night,90,2305,90%,90% reported,edison,2,unknown,,1711,,,1859,176,27,10,,1455,135,20,4,,2020-11-28T14:56:49Z,81.22587,R+81,Cornyn +81,republican,texas,2020-11-29T00:52:25.426800Z
48207,Haskell,2183,1364,5,5,Released as a precinct as first report of the night,92,2374,92%,92% reported,edison,2,unknown,,1208,,,1808,347,15,13,,1117,232,8,7,,2020-11-24T13:26:52Z,66.92625,R+67,Cornyn +67,republican,texas,2020-11-29T00:52:25.426800Z
48209,Hays,108545,97629,69,69,Released as a precinct as first report of the night,100,91536,>98%,>98% reported,edison,2,some,,65929,,,49539,55597,2595,814,,44081,50806,2089,653,,2020-11-24T13:26:52Z,5.5811,D+6,Hegar +6,democrat,texas,2020-11-29T00:52:25.426800Z
48211,Hemphill,1693,1154,7,9,Released as a precinct as first report of the night,85,2002,85%,85% reported,edison,2,unknown,,1081,,,1465,197,22,9,0,999,139,12,4,0,2020-11-28T14:56:53Z,74.89663,R+75,Cornyn +75,republican,texas,2020-11-29T00:52:25.426800Z
48213,Henderson,36095,29551,26,28,Released as a precinct as first report of the night,100,35481,>98%,>98% reported,edison,2,unknown,,26045,,,28717,6672,526,180,,23486,5580,368,117,,2020-11-28T14:39:10Z,61.07494,R+61,Cornyn +61,republican,texas,2020-11-29T00:52:25.426800Z
48215,Hidalgo,209482,178958,238,256,Released as a precinct as first report of the night,93,225468,93%,93% reported,edison,2,some,,168180,,,84284,116962,5072,3119,45,71441,101271,3860,2353,33,2020-11-24T13:26:52Z,15.59943,D+16,Hegar +16,democrat,texas,2020-11-29T00:52:25.426800Z
48217,Hill,14827,9572,19,22,Released as a precinct as first report of the night,100,14843,>98%,>98% reported,edison,6,all,,8740,,,11845,2688,196,98,,7533,1881,105,53,,2020-11-24T13:26:52Z,61.75895,R+62,Cornyn +62,republican,texas,2020-11-29T00:52:25.426800Z
48219,Hockley,7985,6240,13,15,Released as a precinct as first report of the night,92,8633,92%,92% reported,edison,2,unknown,,6866,,,6449,1384,124,28,,5067,1084,75,14,,2020-11-24T13:26:47Z,63.43143,R+63,Cornyn +63,republican,texas,2020-11-29T00:52:25.426800Z
48221,Hood,32180,25349,15,16,Released as a precinct as first report of the night,99,32582,>98%,>98% reported,edison,6,some,,23816,,,26244,5223,508,189,16,20536,4371,311,129,2,2020-11-28T14:49:34Z,65.32318,R+65,Cornyn +65,republican,texas,2020-11-29T00:52:25.426800Z
48223,Hopkins,15647,12743,20,22,Released as a precinct as first report of the night,98,15987,98%,98% reported,edison,2,unknown,,12167,,,12497,2833,236,81,,10171,2349,166,57,,2020-11-28T14:32:32Z,61.76264,R+62,Cornyn +62,republican,texas,2020-11-29T00:52:25.426800Z
48225,Houston,9299,6986,19,22,Released as a precinct as first report of the night,94,9864,94%,94% reported,edison,2,unknown,,7268,,,6985,2193,91,28,2,5159,1751,62,13,1,2020-11-28T14:40:31Z,51.53242,R+52,Cornyn +52,republican,texas,2020-11-29T00:52:25.426800Z
48227,Howard,10051,8167,24,27,Released as a precinct as first report of the night,98,10301,98%,98% reported,edison,2,unknown,,8479,,,7854,1959,193,45,,6398,1604,139,26,,2020-11-24T13:26:48Z,58.65088,R+59,Cornyn +59,republican,texas,2020-11-29T00:52:25.426800Z
48229,Hudspeth,1153,565,5,5,Released as a precinct as first report of the night,100,1132,>98%,>98% reported,edison,2,unknown,,355,,,673,443,21,15,1,362,190,9,4,0,2020-11-24T13:26:48Z,19.94796,R+20,Cornyn +20,republican,texas,2020-11-29T00:52:25.426800Z
48231,Hunt,38058,27946,32,34,Released as a precinct as first report of the night,100,37262,>98%,>98% reported,edison,2,unknown,,22277,,,28888,8319,628,223,,21024,6392,387,143,,2020-11-28T14:33:05Z,54.04646,R+54,Cornyn +54,republican,texas,2020-11-29T00:52:25.426800Z
48233,Hutchinson,8689,6937,7,9,Released as a precinct as first report of the night,90,9631,90%,90% reported,edison,2,unknown,,7976,,,7575,900,178,36,,6098,698,117,24,,2020-11-28T14:56:58Z,76.82127,R+77,Cornyn +77,republican,texas,2020-11-29T00:52:25.426800Z
48235,Irion,880,662,4,5,Released as a precinct as first report of the night,86,1024,86%,86% reported,edison,2,unknown,,640,,,760,111,9,0,,568,89,5,0,,2020-11-28T14:49:39Z,73.75,R+74,Cornyn +74,republican,texas,2020-11-29T00:52:25.426800Z
48237,Jack,3699,2877,6,7,Released as a precinct as first report of the night,94,3956,94%,94% reported,edison,2,unknown,,2721,,,3322,319,41,17,,2580,255,29,13,,2020-11-28T14:57:06Z,81.1841,R+81,Cornyn +81,republican,texas,2020-11-29T00:52:25.426800Z
48239,Jackson,6295,5059,9,10,Released as a precinct as first report of the night,100,6262,>98%,>98% reported,edison,2,unknown,,4125,,,5167,1021,81,26,,4181,807,51,20,,2020-11-24T13:26:49Z,65.8618,R+66,Cornyn +66,republican,texas,2020-11-29T00:52:25.426800Z
48241,Jasper,15385,12543,19,21,Released as a precinct as first report of the night,96,15961,96%,96% reported,edison,2,unknown,,13365,,,12312,2851,180,42,,10000,2390,120,33,,2020-11-24T13:26:49Z,61.49496,R+61,Cornyn +61,republican,texas,2020-11-29T00:52:25.426800Z
48243,Jeff Davis,1286,1025,5,6,Released as a precinct as first report of the night,85,1510,85%,85% reported,edison,2,unknown,,1320,,,767,483,30,6,,601,400,18,6,,2020-11-24T13:26:49Z,22.08398,R+22,Cornyn +22,republican,texas,2020-11-29T00:52:25.426800Z
48245,Jefferson,92922,82648,114,140,Released as a precinct as first report of the night,89,104649,89%,89% reported,edison,2,all,,111555,,,46928,44112,1418,464,,41745,39438,1090,375,,2020-11-24T13:26:49Z,3.0305,R+3,Cornyn +3,republican,texas,2020-11-29T00:52:25.426800Z
48247,Jim Hogg,1844,1311,6,6,Released as a precinct as first report of the night,67,2755,67%,67% reported,edison,2,unknown,,974,,,652,1136,30,26,,398,882,15,16,,2020-11-24T13:26:49Z,26.24729,D+26,Hegar +26,democrat,texas,2020-11-29T00:52:25.426800Z
48249,Jim Wells,13260,9682,18,22,Released as a precinct as first report of the night,82,16093,82%,82% reported,edison,2,unknown,,4321,,,6957,6025,170,108,,4980,4531,106,65,,2020-11-24T13:26:49Z,7.02866,R+7,Cornyn +7,republican,texas,2020-11-29T00:52:25.426800Z
48251,Johnson,71463,60697,34,36,Released as a precinct as first report of the night,99,71928,>98%,>98% reported,edison,6,all,,51853,,,54403,15474,1217,369,,46065,13455,916,261,,2020-11-24T13:26:49Z,54.47434,R+54,Cornyn +54,republican,texas,2020-11-29T00:52:25.426800Z
48253,Jones,6621,4323,10,12,Released as a precinct as first report of the night,94,7038,94%,94% reported,edison,2,unknown,,3234,,,5546,967,81,27,,3593,665,48,17,,2020-11-24T13:26:49Z,69.15874,R+69,Cornyn +69,republican,texas,2020-11-29T00:52:25.426800Z
48255,Karnes,5089,3575,14,15,Released as a precinct as first report of the night,100,4957,>98%,>98% reported,edison,2,unknown,,2303,,,3833,1178,58,20,,2636,890,34,15,,2020-11-24T13:26:50Z,52.17135,R+52,Cornyn +52,republican,texas,2020-11-29T00:52:25.426800Z
48257,Kaufman,56469,48231,31,31,Released as a precinct as first report of the night,100,48730,>98%,>98% reported,edison,4,all,,36321,,,37649,17507,961,352,,31918,15301,746,266,,2020-11-24T13:26:50Z,35.66913,R+36,Cornyn +36,republican,texas,2020-11-29T00:52:25.426800Z
48259,Kendall,26392,23479,11,11,Released as a precinct as first report of the night,100,25521,>98%,>98% reported,edison,2,unknown,,20363,,,20584,5335,374,99,,18194,4920,294,71,,2020-11-24T13:26:50Z,57.77887,R+58,Cornyn +58,republican,texas,2020-11-29T00:52:25.426800Z
48261,Kenedy,169,111,4,6,Released as a precinct as first report of the night,70,242,70%,70% reported,edison,2,unknown,,104,,,107,57,4,1,,70,37,3,1,,2020-11-24T13:26:50Z,29.5858,R+30,Cornyn +30,republican,texas,2020-11-29T00:52:25.426800Z
48263,Kent,445,309,6,7,Released as a precinct as first report of the night,79,564,79%,79% reported,edison,2,unknown,,353,,,386,53,4,2,,260,47,2,0,,2020-11-24T13:26:50Z,74.83146,R+75,Cornyn +75,republican,texas,2020-11-29T00:52:25.426800Z
48265,Kerr,27542,23889,19,21,Released as a precinct as first report of the night,96,28762,96%,96% reported,edison,4,unknown,,26771,,,21022,5946,446,128,,18138,5332,327,92,,2020-11-27T14:35:01Z,54.73822,R+55,Cornyn +55,republican,texas,2020-11-29T00:52:25.426800Z
48267,Kimble,2253,1778,7,8,Released as a precinct as first report of the night,98,2305,98%,98% reported,edison,2,unknown,,1950,,,1962,254,28,9,,1553,201,19,5,,2020-11-28T14:49:43Z,75.81003,R+76,Cornyn +76,republican,texas,2020-11-29T00:52:25.426800Z
48269,King,154,0,4,5,Released as a precinct as first report of the night,74,207,74%,74% reported,edison,2,unknown,,125,,,149,5,0,0,,0,0,0,0,,2020-11-28T14:57:10Z,93.50649,R+94,Cornyn +94,republican,texas,2020-11-29T00:52:25.426800Z
48271,Kinney,1508,1269,3,4,Released as a precinct as first report of the night,81,1859,81%,81% reported,edison,2,unknown,,1498,,,1070,395,25,13,5,902,334,19,9,5,2020-11-24T13:26:51Z,44.76127,R+45,Cornyn +45,republican,texas,2020-11-29T00:52:25.426800Z
48273,Kleberg,10801,8730,16,18,Released as a precinct as first report of the night,87,12366,87%,87% reported,edison,2,unknown,,8039,,,5421,5110,184,84,2,4261,4280,124,63,2,2020-11-27T14:36:16Z,2.87936,R+3,Cornyn +3,republican,texas,2020-11-29T00:52:25.426800Z
48275,Knox,1430,763,6,7,Released as a precinct as first report of the night,80,1783,80%,80% reported,edison,2,unknown,,343,,,1147,263,15,5,,612,149,2,0,,2020-11-28T14:57:14Z,61.81818,R+62,Cornyn +62,republican,texas,2020-11-29T00:52:25.426800Z
48283,La Salle,2146,1469,5,5,Released as a precinct as first report of the night,80,2677,80%,80% reported,edison,2,some,,1195,,,1082,1005,30,29,0,745,690,17,17,0,2020-11-24T13:26:51Z,3.58807,R+4,Cornyn +4,republican,texas,2020-11-29T00:52:25.426800Z
48285,La Vaca,10036,7235,18,20,Released as a precinct as first report of the night,98,10228,98%,98% reported,edison,2,unknown,,5887,,,8597,1305,109,23,2,6157,994,66,16,2,2020-11-27T15:09:07Z,72.65843,R+73,Cornyn +73,republican,texas,2020-11-29T00:52:25.426800Z
48277,Lamar,21151,16477,24,27,Released as a precinct as first report of the night,99,21338,>98%,>98% reported,edison,6,all,,15300,,,16476,4295,279,101,,12648,3561,199,69,,2020-11-28T14:33:45Z,57.59066,R+58,Cornyn +58,republican,texas,2020-11-29T00:52:25.426800Z
48279,Lamb,4368,3062,10,12,Released as a precinct as first report of the night,90,4831,90%,90% reported,edison,2,unknown,,2723,,,3469,802,75,22,,2443,560,47,12,,2020-11-24T13:26:51Z,61.05769,R+61,Cornyn +61,republican,texas,2020-11-29T00:52:25.426800Z
48281,Lampasas,10330,8584,10,10,Released as a precinct as first report of the night,100,9690,>98%,>98% reported,edison,2,unknown,,6404,,,8102,1978,189,61,,6675,1725,139,45,,2020-11-24T13:26:51Z,59.28364,R+59,Cornyn +59,republican,texas,2020-11-29T00:52:25.426800Z
48287,Lee,8032,6507,15,16,Released as a precinct as first report of the night,100,7718,>98%,>98% reported,edison,2,unknown,,5270,,,6211,1689,96,36,,5000,1412,69,26,,2020-11-28T14:43:39Z,56.2998,R+56,Cornyn +56,republican,texas,2020-11-29T00:52:25.426800Z
48289,Leon,8592,5656,16,18,Released as a precinct as first report of the night,98,8785,98%,98% reported,edison,2,some,,4924,,,7421,1028,102,41,,4860,717,57,22,,2020-11-28T14:40:35Z,74.40642,R+74,Cornyn +74,republican,texas,2020-11-29T00:52:25.426800Z
48291,Liberty,29009,24129,28,30,Released as a precinct as first report of the night,100,28657,>98%,>98% reported,edison,2,unknown,,23806,,,22743,5662,477,127,0,19165,4520,351,93,0,2020-11-24T13:26:52Z,58.88173,R+59,Cornyn +59,republican,texas,2020-11-29T00:52:25.426800Z
48293,Limestone,8967,6792,19,21,Released as a precinct as first report of the night,98,9139,98%,98% reported,edison,2,unknown,,6531,,,6656,2112,122,77,,4960,1689,96,47,,2020-11-24T13:26:52Z,50.6747,R+51,Cornyn +51,republican,texas,2020-11-29T00:52:25.426800Z
48295,Lipscomb,1324,562,5,7,Released as a precinct as first report of the night,84,1573,84%,84% reported,edison,2,unknown,,482,,,1181,117,25,1,,489,69,4,0,,2020-11-28T14:57:19Z,80.36254,R+80,Cornyn +80,republican,texas,2020-11-29T00:52:25.426800Z
48297,Live Oak,4981,3388,13,15,Released as a precinct as first report of the night,98,5081,98%,98% reported,edison,2,unknown,,3171,,,4122,790,55,14,,2783,563,36,6,,2020-11-24T13:26:52Z,66.8942,R+67,Cornyn +67,republican,texas,2020-11-29T00:52:25.426800Z
48299,Llano,12596,11135,9,10,Released as a precinct as first report of the night,98,12897,98%,98% reported,edison,2,unknown,,11573,,,10047,2331,171,47,,8855,2120,121,39,,2020-11-28T14:49:47Z,61.25754,R+61,Cornyn +61,republican,texas,2020-11-29T00:52:25.426800Z
48301,Loving,66,45,4,5,Released as a precinct as first report of the night,78,85,78%,78% reported,edison,2,unknown,,56,,,58,5,3,0,,41,3,1,0,,2020-11-24T13:26:52Z,80.30303,R+80,Cornyn +80,republican,texas,2020-11-29T00:52:25.426800Z
48303,Lubbock,119498,105230,91,98,Released as a precinct as first report of the night,99,120204,>98%,>98% reported,edison,6,all,,108791,,,79459,36319,3018,702,,70495,31861,2348,526,,2020-11-24T13:26:52Z,36.10102,R+36,Cornyn +36,republican,texas,2020-11-29T00:52:25.426800Z
48305,Lynn,2263,2263,13,15,Released as a precinct as first report of the night,95,2373,95%,95% reported,edison,2,unknown,,1615,,,1817,411,25,10,0,1817,411,25,10,0,2020-11-24T13:26:52Z,62.12992,R+62,Cornyn +62,republican,texas,2020-11-29T00:52:25.426800Z
48313,Madison,5223,4325,5,5,Released as a precinct as first report of the night,100,5065,>98%,>98% reported,edison,2,unknown,,4216,,,4118,1030,61,14,,3399,874,40,12,,2020-11-24T13:26:53Z,59.12311,R+59,Cornyn +59,republican,texas,2020-11-29T00:52:25.426800Z
48315,Marion,4758,3637,9,10,Released as a precinct as first report of the night,94,5057,94%,94% reported,edison,2,unknown,,3462,,,3380,1276,85,17,,2566,1001,57,13,,2020-11-28T14:34:10Z,44.22026,R+44,Cornyn +44,republican,texas,2020-11-29T00:52:25.426800Z
48317,Martin,2112,1667,6,6,Released as a precinct as first report of the night,100,2081,>98%,>98% reported,edison,2,unknown,,738,,,1811,263,27,11,,1443,196,20,8,,2020-11-24T13:26:53Z,73.29545,R+73,Cornyn +73,republican,texas,2020-11-29T00:52:25.426800Z
48319,Mason,2553,2293,5,5,Released as a precinct as first report of the night,100,2429,>98%,>98% reported,edison,2,unknown,,2092,,,1979,542,25,7,,1775,492,20,6,,2020-11-28T14:47:25Z,56.28672,R+56,Cornyn +56,republican,texas,2020-11-29T00:52:25.426800Z
48321,Matagorda,13482,10783,16,19,Released as a precinct as first report of the night,94,14402,94%,94% reported,edison,2,unknown,,12052,,,9647,3551,222,62,,7680,2901,156,46,,2020-11-24T13:26:53Z,45.21584,R+45,Cornyn +45,republican,texas,2020-11-29T00:52:25.426800Z
48323,Maverick,14291,10691,14,14,Released as a precinct as first report of the night,81,17664,81%,81% reported,edison,2,unknown,,9456,,,5708,7958,269,349,7,4114,6189,170,213,5,2020-11-24T13:26:54Z,15.74417,D+16,Hegar +16,democrat,texas,2020-11-29T00:52:25.426800Z
48307,McCulloch,3385,2632,3,4,Released as a precinct as first report of the night,92,3664,92%,92% reported,edison,2,unknown,,3128,,,2843,460,63,19,,2195,382,44,11,,2020-11-28T14:49:51Z,70.39882,R+70,Cornyn +70,republican,texas,2020-11-29T00:52:25.426800Z
48309,McLennan,96126,78872,86,92,Released as a precinct as first report of the night,98,97624,98%,98% reported,edison,2,some,,70693,,,60036,33439,2015,636,,48454,28574,1404,440,,2020-11-24T13:26:53Z,27.66889,R+28,Cornyn +28,republican,texas,2020-11-29T00:52:25.426800Z
48311,McMullen,500,359,4,5,Released as a precinct as first report of the night,76,654,76%,76% reported,edison,2,unknown,,417,,,454,43,2,1,,337,21,1,0,,2020-11-24T13:26:53Z,82.2,R+82,Cornyn +82,republican,texas,2020-11-29T00:52:25.426800Z
48325,Medina,22210,19554,8,8,Released as a precinct as first report of the night,100,20366,>98%,>98% reported,edison,2,unknown,,18044,,,15594,6207,313,96,,13784,5441,250,79,,2020-11-24T13:26:54Z,42.26475,R+42,Cornyn +42,republican,texas,2020-11-29T00:52:25.426800Z
48327,Menard,1000,779,6,7,Released as a precinct as first report of the night,89,1123,89%,89% reported,edison,2,unknown,,813,,,797,189,10,4,,620,154,2,3,,2020-11-28T14:49:56Z,60.8,R+61,Cornyn +61,republican,texas,2020-11-29T00:52:25.426800Z
48329,Midland,58528,49593,41,45,Released as a precinct as first report of the night,96,60756,96%,96% reported,edison,2,some,,52107,,,45733,11417,1162,216,,38850,9714,890,139,,2020-11-28T14:50:02Z,58.63177,R+59,Cornyn +59,republican,texas,2020-11-29T00:52:25.426800Z
48331,Milam,10331,8710,11,12,Released as a precinct as first report of the night,100,10231,>98%,>98% reported,edison,2,some,,7689,,,7759,2382,136,54,,6560,2012,97,41,,2020-11-24T13:26:54Z,52.04724,R+52,Cornyn +52,republican,texas,2020-11-29T00:52:25.426800Z
48333,Mills,2487,1934,7,8,Released as a precinct as first report of the night,94,2652,94%,94% reported,edison,2,unknown,,2437,,,2196,252,30,9,,1691,209,28,6,,2020-11-28T14:50:06Z,78.16647,R+78,Cornyn +78,republican,texas,2020-11-29T00:52:25.426800Z
48335,Mitchell,2540,1867,6,7,Released as a precinct as first report of the night,93,2735,93%,93% reported,edison,2,some,,2166,,,2129,359,40,12,,1565,266,29,7,,2020-11-28T14:50:13Z,69.68504,R+70,Cornyn +70,republican,texas,2020-11-29T00:52:25.426800Z
48337,Montague,9762,7997,14,16,Released as a precinct as first report of the night,96,10160,96%,96% reported,edison,2,some,,582,,,8524,1051,135,47,5,6975,887,96,34,5,2020-11-28T14:57:23Z,76.55194,R+77,Cornyn +77,republican,texas,2020-11-29T00:52:25.426800Z
48339,Montgomery,268834,234416,101,101,Released as a precinct as first report of the night,100,259565,>98%,>98% reported,edison,4,some,,200221,,,194528,68254,4844,1208,,169404,60404,3709,899,,2020-11-24T13:26:55Z,46.97099,R+47,Cornyn +47,republican,texas,2020-11-29T00:52:25.426800Z
48341,Moore,5447,3730,6,8,Released as a precinct as first report of the night,87,6240,87%,87% reported,edison,2,unknown,,3973,,,4314,999,102,32,,3133,531,53,13,,2020-11-28T14:57:29Z,60.85919,R+61,Cornyn +61,republican,texas,2020-11-29T00:52:25.426800Z
48343,Morris,5479,4071,8,9,Released as a precinct as first report of the night,90,6066,90%,90% reported,edison,2,unknown,,4099,,,3753,1639,66,21,,2748,1273,39,11,,2020-11-28T14:34:31Z,38.58368,R+39,Cornyn +39,republican,texas,2020-11-29T00:52:25.426800Z
48345,Motley,638,432,6,7,Released as a precinct as first report of the night,80,800,80%,80% reported,edison,2,unknown,,503,,,591,44,3,0,,399,32,1,0,,2020-11-28T14:57:32Z,85.73668,R+86,Cornyn +86,republican,texas,2020-11-29T00:52:25.426800Z
48347,Nacogdoches,26496,22190,23,26,Released as a precinct as first report of the night,95,27929,95%,95% reported,edison,2,some,,20976,,,17370,8487,476,163,,14197,7504,366,123,,2020-11-28T14:22:02Z,33.52582,R+34,Cornyn +34,republican,texas,2020-11-29T00:52:25.426800Z
48349,Navarro,18953,13936,27,30,Released as a precinct as first report of the night,98,19406,98%,98% reported,edison,2,unknown,,13004,,,13688,4817,315,133,,10008,3643,217,68,,2020-11-28T14:39:42Z,46.80526,R+47,Cornyn +47,republican,texas,2020-11-29T00:52:25.426800Z
48351,Newton,6019,4037,19,23,Released as a precinct as first report of the night,87,6911,87%,87% reported,edison,2,unknown,,3864,,,4784,1165,46,23,1,3169,825,31,12,0,2020-11-27T15:11:22Z,60.12627,R+60,Cornyn +60,republican,texas,2020-11-29T00:52:25.426800Z
48353,Nolan,5281,3510,8,10,Released as a precinct as first report of the night,92,5736,92%,92% reported,edison,2,unknown,,3284,,,4102,1077,84,18,,2684,770,49,7,,2020-11-24T13:26:56Z,57.28082,R+57,Cornyn +57,republican,texas,2020-11-29T00:52:25.426800Z
48355,Nueces,125299,109437,118,128,Released as a precinct as first report of the night,92,135727,92%,92% reported,edison,2,unknown,,100673,,,64558,57180,2564,997,,56148,50589,1949,751,,2020-11-24T13:26:56Z,5.88832,R+6,Cornyn +6,republican,texas,2020-11-29T00:52:25.426800Z
48357,Ochiltree,3105,2215,4,5,Released as a precinct as first report of the night,88,3545,88%,88% reported,edison,2,unknown,,2376,,,2782,278,36,8,1,2001,184,24,5,1,2020-11-28T14:57:36Z,80.64412,R+81,Cornyn +81,republican,texas,2020-11-29T00:52:25.426800Z
48359,Oldham,996,618,6,8,Released as a precinct as first report of the night,81,1232,81%,81% reported,edison,2,unknown,,538,,,908,74,9,5,,574,37,6,1,,2020-11-28T14:57:41Z,83.73494,R+84,Cornyn +84,republican,texas,2020-11-29T00:52:25.426800Z
48361,Orange,35681,30274,30,35,Released as a precinct as first report of the night,94,37789,94%,94% reported,edison,2,unknown,,33059,,,28720,6249,572,140,,24366,5358,433,117,,2020-11-27T14:43:35Z,62.9775,R+63,Cornyn +63,republican,texas,2020-11-29T00:52:25.426800Z
48363,Palo Pinto,12328,9502,26,28,Released as a precinct as first report of the night,100,12128,>98%,>98% reported,edison,2,unknown,,7232,,,9999,2028,231,70,,7611,1683,156,52,,2020-11-28T14:50:15Z,64.65769,R+65,Cornyn +65,republican,texas,2020-11-29T00:52:25.426800Z
48365,Panola,11299,7982,17,20,Released as a precinct as first report of the night,92,12300,92%,92% reported,edison,2,unknown,,9139,,,9145,2015,109,30,,6422,1476,70,14,,2020-11-28T14:22:08Z,63.10293,R+63,Cornyn +63,republican,texas,2020-11-29T00:52:25.426800Z
48367,Parker,75520,64871,44,44,Released as a precinct as first report of the night,97,78000,97%,97% reported,edison,2,all,,50658,,,61705,11919,1568,325,3,53053,10387,1178,251,2,2020-11-24T13:26:57Z,65.92426,R+66,Cornyn +66,republican,texas,2020-11-29T00:52:25.426800Z
48369,Parmer,2627,1300,8,10,Released as a precinct as first report of the night,79,3309,79%,79% reported,edison,2,unknown,,1526,,,2132,454,28,13,,1096,198,6,0,,2020-11-24T13:26:49Z,63.87514,R+64,Cornyn +64,republican,texas,2020-11-29T00:52:25.426800Z
48371,Pecos,4568,3799,8,10,Released as a precinct as first report of the night,84,5441,84%,84% reported,edison,2,some,,4379,,,3081,1376,79,32,,2575,1150,50,24,,2020-11-24T13:26:49Z,37.32487,R+37,Cornyn +37,republican,texas,2020-11-29T00:52:25.426800Z
48373,Polk,23531,19833,20,22,Released as a precinct as first report of the night,100,23444,>98%,>98% reported,edison,2,unknown,,22445,,,17735,5237,426,133,,14943,4468,332,90,,2020-11-24T13:26:49Z,53.11291,R+53,Cornyn +53,republican,texas,2020-11-29T00:52:25.426800Z
48375,Potter,32836,26504,22,25,Released as a precinct as first report of the night,99,33177,>98%,>98% reported,edison,6,some,,24501,,,22683,9168,738,247,,18456,7372,518,158,,2020-11-28T14:57:46Z,41.15909,R+41,Cornyn +41,republican,texas,2020-11-29T00:52:25.426800Z
48377,Presidio,2091,1708,6,8,Released as a precinct as first report of the night,73,2870,73%,73% reported,edison,2,unknown,,1723,,,651,1374,29,37,0,488,1176,20,24,0,2020-11-24T13:26:49Z,34.57676,D+35,Hegar +35,democrat,texas,2020-11-29T00:52:25.426800Z
48379,Rains,5956,4946,9,9,Released as a precinct as first report of the night,100,5551,>98%,>98% reported,edison,2,unknown,,3940,,,5060,789,81,26,,4212,663,52,19,,2020-11-28T14:34:54Z,71.7092,R+72,Cornyn +72,republican,texas,2020-11-29T00:52:25.426800Z
48381,Randall,64316,55830,21,23,Released as a precinct as first report of the night,93,68884,93%,93% reported,edison,4,all,,56579,,,51116,11618,1348,234,,44536,10105,1013,176,,2020-11-28T14:57:51Z,61.4124,R+61,Cornyn +61,republican,texas,2020-11-29T00:52:25.426800Z
48383,Reagan,1069,857,5,5,Released as a precinct as first report of the night,91,1175,91%,91% reported,edison,2,unknown,,756,,,893,154,13,9,,721,119,10,7,,2020-11-24T13:26:50Z,69.13003,R+69,Cornyn +69,republican,texas,2020-11-29T00:52:25.426800Z
48385,Real,1939,1614,5,6,Released as a precinct as first report of the night,98,1985,98%,98% reported,edison,2,unknown,,1530,,,1626,286,19,8,,1352,243,15,4,,2020-11-24T13:26:50Z,69.10779,R+69,Cornyn +69,republican,texas,2020-11-29T00:52:25.426800Z
48387,Red River,5732,4217,17,20,Released as a precinct as first report of the night,94,6094,94%,94% reported,edison,2,unknown,,5311,,,4452,1191,58,31,,3213,958,30,16,,2020-11-28T14:35:15Z,56.89114,R+57,Cornyn +57,republican,texas,2020-11-29T00:52:25.426800Z
48389,Reeves,3436,2549,10,12,Released as a precinct as first report of the night,83,4139,83%,83% reported,edison,2,unknown,,2241,,,1983,1337,73,43,,1411,1072,42,24,,2020-11-24T13:26:50Z,18.80093,R+19,Cornyn +19,republican,texas,2020-11-29T00:52:25.426800Z
48391,Refugio,3172,2393,9,11,Released as a precinct as first report of the night,91,3481,91%,91% reported,edison,2,unknown,,2120,,,2072,1023,52,24,1,1580,765,34,14,0,2020-11-24T13:26:50Z,33.07062,R+33,Cornyn +33,republican,texas,2020-11-29T00:52:25.426800Z
48393,Roberts,545,360,4,5,Released as a precinct as first report of the night,76,720,76%,76% reported,edison,2,unknown,,399,,,526,15,4,0,,348,9,3,0,,2020-11-28T14:57:56Z,93.76147,R+94,Cornyn +94,republican,texas,2020-11-29T00:52:25.426800Z
48395,Robertson,7988,6449,14,16,Released as a precinct as first report of the night,93,8605,93%,93% reported,edison,2,unknown,,7781,,,5590,2244,118,36,,4550,1792,82,25,,2020-11-24T13:26:50Z,41.88783,R+42,Cornyn +42,republican,texas,2020-11-29T00:52:25.426800Z
48397,Rockwall,57704,52391,18,18,Released as a precinct as first report of the night,100,50672,>98%,>98% reported,edison,2,unknown,,36546,,,39824,16600,928,323,29,36012,15338,745,267,29,2020-11-28T14:36:25Z,40.24678,R+40,Cornyn +40,republican,texas,2020-11-29T00:52:25.426800Z
48399,Runnels,4328,3020,10,11,Released as a precinct as first report of the night,97,4467,97%,97% reported,edison,2,unknown,,,,,3722,515,66,25,,2618,356,37,9,,2020-11-28T14:50:20Z,74.09889,R+74,Cornyn +74,republican,texas,2020-11-29T00:52:25.426800Z
48401,Rusk,21177,16025,20,23,Released as a precinct as first report of the night,94,22430,94%,94% reported,edison,4,some,,18369,,,16367,4455,277,78,,12281,3519,179,46,,2020-11-28T14:22:13Z,56.2497,R+56,Cornyn +56,republican,texas,2020-11-29T00:52:25.426800Z
48403,Sabine,5435,4269,8,9,Released as a precinct as first report of the night,99,5492,>98%,>98% reported,edison,2,some,,4544,,,4678,688,46,23,,3666,553,34,16,,2020-11-28T14:22:17Z,73.41306,R+73,Cornyn +73,republican,texas,2020-11-29T00:52:25.426800Z
48405,San Augustine,3877,2837,10,12,Released as a precinct as first report of the night,89,4358,89%,89% reported,edison,2,unknown,,3105,,,2898,928,39,12,,2048,758,22,9,,2020-11-28T14:22:21Z,50.81248,R+51,Cornyn +51,republican,texas,2020-11-29T00:52:25.426800Z
48407,San Jacinto,12363,10187,11,12,Released as a precinct as first report of the night,100,12214,>98%,>98% reported,edison,2,unknown,,9360,,,9808,2268,224,63,,8068,1897,175,47,,2020-11-28T14:40:40Z,60.98843,R+61,Cornyn +61,republican,texas,2020-11-29T00:52:25.426800Z
48409,San Patricio,25316,21558,23,26,Released as a precinct as first report of the night,100,25280,>98%,>98% reported,edison,6,all,,19161,,,16174,8494,487,161,,13775,7292,364,127,,2020-11-24T13:26:51Z,30.33655,R+30,Cornyn +30,republican,texas,2020-11-29T00:52:25.426800Z
48411,San Saba,2500,1785,3,4,Released as a precinct as first report of the night,90,2783,90%,90% reported,edison,2,unknown,,1940,,,2218,270,9,3,,1567,215,2,1,,2020-11-28T14:50:25Z,77.92,R+78,Cornyn +78,republican,texas,2020-11-29T00:52:25.426800Z
48413,Schleicher,1132,890,4,5,Released as a precinct as first report of the night,90,1251,90%,90% reported,edison,2,unknown,,1035,,,927,191,10,4,,733,146,8,3,,2020-11-24T13:26:51Z,65.01767,R+65,Cornyn +65,republican,texas,2020-11-29T00:52:25.426800Z
48415,Scurry,5796,4591,10,12,Released as a precinct as first report of the night,93,6246,93%,93% reported,edison,2,unknown,,4983,,,4870,805,89,32,,3886,630,53,22,,2020-11-24T13:26:51Z,70.13458,R+70,Cornyn +70,republican,texas,2020-11-29T00:52:25.426800Z
48417,Shackelford,1607,1231,7,8,Released as a precinct as first report of the night,87,1857,87%,87% reported,edison,2,unknown,,1206,,,1475,115,14,3,0,1138,85,5,3,0,2020-11-24T13:26:52Z,84.62974,R+85,Cornyn +85,republican,texas,2020-11-29T00:52:25.426800Z
48419,Shelby,9992,6912,13,15,Released as a precinct as first report of the night,91,10952,91%,91% reported,edison,2,unknown,,7145,,,7868,2022,75,27,,5356,1493,48,15,,2020-11-28T14:22:25Z,58.50681,R+59,Cornyn +59,republican,texas,2020-11-29T00:52:25.426800Z
48421,Sherman,986,678,4,5,Released as a precinct as first report of the night,73,1349,73%,73% reported,edison,2,unknown,,974,,,888,88,7,2,1,604,69,4,0,1,2020-11-28T14:58:01Z,81.1359,R+81,Cornyn +81,republican,texas,2020-11-29T00:52:25.426800Z
48423,Smith,99886,86677,67,74,Released as a precinct as first report of the night,100,99521,>98%,>98% reported,edison,6,all,,90067,,,69574,28385,1484,443,,60615,24637,1095,330,,2020-11-28T14:22:29Z,41.23601,R+41,Cornyn +41,republican,texas,2020-11-29T00:52:25.426800Z
48425,Somervell,4920,4247,4,4,Released as a precinct as first report of the night,100,4811,>98%,>98% reported,edison,2,unknown,,3539,,,4103,712,78,27,,3543,622,61,21,,2020-11-27T14:49:33Z,68.92276,R+69,Cornyn +69,republican,texas,2020-11-29T00:52:25.426800Z
48427,Starr,14750,12079,10,10,Released as a precinct as first report of the night,84,17600,84%,84% reported,edison,2,unknown,,12032,,,5845,8161,357,387,,4651,6836,287,305,,2020-11-24T13:26:52Z,15.70169,D+16,Hegar +16,democrat,texas,2020-11-29T00:52:25.426800Z
48429,Stephens,3735,2969,7,9,Released as a precinct as first report of the night,91,4087,91%,91% reported,edison,2,unknown,,3737,,,3312,374,32,17,,2622,311,23,13,,2020-11-28T14:50:30Z,78.66131,R+79,Cornyn +79,republican,texas,2020-11-29T00:52:25.426800Z
48431,Sterling,621,473,3,4,Released as a precinct as first report of the night,75,823,75%,75% reported,edison,2,unknown,,408,,,567,47,2,5,,437,33,1,2,,2020-11-28T14:50:57Z,83.73591,R+84,Cornyn +84,republican,texas,2020-11-29T00:52:25.426800Z
48433,Stonewall,714,714,3,4,Released as a precinct as first report of the night,78,911,78%,78% reported,edison,2,unknown,,437,,,586,122,3,3,,586,122,3,3,,2020-11-24T13:26:52Z,64.98599,R+65,Cornyn +65,republican,texas,2020-11-29T00:52:25.426800Z
48435,Sutton,1530,1309,4,5,Released as a precinct as first report of the night,79,1936,79%,79% reported,edison,2,unknown,,1807,,,1204,305,10,10,1,1033,262,5,8,1,2020-11-24T13:26:53Z,58.75817,R+59,Cornyn +59,republican,texas,2020-11-29T00:52:25.426800Z
48437,Swisher,2318,1742,7,9,Released as a precinct as first report of the night,87,2676,87%,87% reported,edison,2,unknown,,1756,,,1795,464,44,15,,1373,335,26,8,,2020-11-28T14:58:06Z,57.42019,R+57,Cornyn +57,republican,texas,2020-11-29T00:52:25.426800Z
48439,Tarrant,828116,752265,696,730,Released as a precinct as first report of the night,95,869068,95%,95% reported,edison,4,some,,685898,,,423117,382408,16443,6130,18,387136,345159,14559,5407,4,2020-11-28T14:39:45Z,4.91586,R+5,Cornyn +5,republican,texas,2020-11-29T00:52:25.426800Z
48441,Taylor,54479,44931,32,35,Released as a precinct as first report of the night,99,54924,>98%,>98% reported,edison,6,all,,48518,,,39887,13074,1209,309,,32709,11120,874,228,,2020-11-24T13:26:53Z,49.21713,R+49,Cornyn +49,republican,texas,2020-11-29T00:52:25.426800Z
48443,Terrell,450,354,4,5,Released as a precinct as first report of the night,63,719,63%,63% reported,edison,2,unknown,,648,,,324,116,5,3,2,248,96,5,3,2,2020-11-24T13:26:53Z,46.22222,R+46,Cornyn +46,republican,texas,2020-11-29T00:52:25.426800Z
48445,Terry,3524,2825,6,8,Released as a precinct as first report of the night,80,4378,80%,80% reported,edison,2,unknown,,3782,,,2731,714,63,16,,2217,551,47,10,,2020-11-24T13:26:53Z,57.2361,R+57,Cornyn +57,republican,texas,2020-11-29T00:52:25.426800Z
48447,Throckmorton,874,528,5,6,Released as a precinct as first report of the night,83,1057,83%,83% reported,edison,2,unknown,,614,,,788,76,7,3,,479,44,4,1,,2020-11-24T13:26:53Z,81.46453,R+81,Cornyn +81,republican,texas,2020-11-29T00:52:25.426800Z
48449,Titus,10376,8131,16,19,Released as a precinct as first report of the night,93,11123,93%,93% reported,edison,2,unknown,,7555,,,7426,2748,152,50,,5889,2104,103,35,,2020-11-28T14:36:46Z,45.08481,R+45,Cornyn +45,republican,texas,2020-11-29T00:52:25.426800Z
48451,Tom Green,44514,33045,35,35,Released as a precinct as first report of the night,94,47505,94%,94% reported,edison,2,unknown,,37998,,,32149,11259,873,231,2,23496,8872,534,141,2,2020-11-28T14:48:35Z,46.92906,R+47,Cornyn +47,republican,texas,2020-11-29T00:52:25.426800Z
48453,Travis,600773,547352,248,248,Released as a precinct as first report of the night,99,609336,>98%,>98% reported,edison,4,some,,391428,,,175860,408528,12006,4191,188,154205,380260,9537,3350,0,2020-11-28T14:44:01Z,38.72811,D+39,Hegar +39,democrat,texas,2020-11-29T00:52:25.426800Z
48455,Trinity,6812,5244,18,20,Released as a precinct as first report of the night,93,7362,93%,93% reported,edison,2,unknown,,6125,,,5445,1258,79,30,,4206,970,46,22,,2020-11-28T14:40:43Z,61.46506,R+61,Cornyn +61,republican,texas,2020-11-29T00:52:25.426800Z
48457,Tyler,9523,6601,16,18,Released as a precinct as first report of the night,100,9466,>98%,>98% reported,edison,2,unknown,,6461,,,7916,1400,154,53,,5390,1077,97,37,,2020-11-24T13:26:54Z,68.42382,R+68,Cornyn +68,republican,texas,2020-11-29T00:52:25.426800Z
48459,Upshur,18649,15148,20,22,Released as a precinct as first report of the night,99,18910,>98%,>98% reported,edison,2,unknown,,12933,,,15470,2804,320,55,,12518,2375,217,38,,2020-11-28T14:37:10Z,67.91785,R+68,Cornyn +68,republican,texas,2020-11-29T00:52:25.426800Z
48461,Upton,1336,1035,4,5,Released as a precinct as first report of the night,84,1591,84%,84% reported,edison,2,unknown,,1421,,,1147,160,18,11,,887,125,14,9,,2020-11-24T13:26:54Z,73.87725,R+74,Cornyn +74,republican,texas,2020-11-29T00:52:25.426800Z
48463,Uvalde,10080,7989,12,14,Released as a precinct as first report of the night,87,11653,87%,87% reported,edison,2,unknown,,10291,,,5968,3821,192,99,,4519,3256,147,67,,2020-11-24T13:26:54Z,21.2996,R+21,Cornyn +21,republican,texas,2020-11-29T00:52:25.426800Z
48465,Val Verde,14955,11747,14,17,Released as a precinct as first report of the night,84,17702,84%,84% reported,edison,4,some,,12685,,,8103,6430,252,170,,6280,5196,162,109,,2020-11-24T13:26:54Z,11.18689,R+11,Cornyn +11,republican,texas,2020-11-29T00:52:25.426800Z
48467,Van Zandt,25773,17038,17,19,Released as a precinct as first report of the night,100,25850,>98%,>98% reported,edison,2,unknown,,15091,,,22010,3374,282,107,,14546,2279,162,51,,2020-11-28T14:39:18Z,72.30823,R+72,Cornyn +72,republican,texas,2020-11-29T00:52:25.426800Z
48469,Victoria,33674,27580,29,35,Released as a precinct as first report of the night,92,36753,92%,92% reported,edison,2,unknown,,29340,,,23136,9825,523,172,18,18830,8251,374,125,0,2020-11-27T14:53:04Z,39.52901,R+40,Cornyn +40,republican,texas,2020-11-29T00:52:25.426800Z
48471,Walker,23476,19347,16,17,Released as a precinct as first report of the night,99,23641,>98%,>98% reported,edison,6,unknown,,16785,,,15480,7414,449,133,,12661,6276,314,96,,2020-11-28T14:40:46Z,34.35849,R+34,Cornyn +34,republican,texas,2020-11-29T00:52:25.426800Z
48473,Waller,22458,18981,21,21,Released as a precinct as first report of the night,100,19820,>98%,>98% reported,edison,2,some,,15909,,,14219,7725,394,120,,12127,6488,282,84,,2020-11-28T14:44:21Z,28.9162,R+29,Cornyn +29,republican,texas,2020-11-29T00:52:25.426800Z
48475,Ward,3940,3037,8,9,Released as a precinct as first report of the night,97,4069,97%,97% reported,edison,2,unknown,,3020,,,3138,725,61,16,,2440,547,39,11,,2020-11-24T13:26:55Z,61.24365,R+61,Cornyn +61,republican,texas,2020-11-29T00:52:25.426800Z
48477,Washington,17279,14398,20,22,Released as a precinct as first report of the night,94,18306,94%,94% reported,edison,2,unknown,,15246,,,12988,4017,223,51,,10763,3444,156,35,,2020-11-28T14:44:42Z,51.91851,R+52,Cornyn +52,republican,texas,2020-11-29T00:52:25.426800Z
48479,Webb,66393,51881,63,70,Released as a precinct as first report of the night,90,73977,90%,90% reported,edison,2,some,,48936,,,23153,40822,1246,1103,69,17885,32304,914,732,46,2020-11-24T13:26:56Z,26.61275,D+27,Hegar +27,democrat,texas,2020-11-29T00:52:25.426800Z
48481,Wharton,16619,14385,11,13,Released as a precinct as first report of the night,96,17397,96%,96% reported,edison,2,unknown,,14576,,,11832,4513,204,70,,10397,3766,164,58,,2020-11-24T13:26:56Z,44.03995,R+44,Cornyn +44,republican,texas,2020-11-29T00:52:25.426800Z
48483,Wheeler,2281,1598,8,11,Released as a precinct as first report of the night,84,2723,84%,84% reported,edison,2,unknown,,1640,,,2079,165,26,11,,1457,118,17,6,,2020-11-28T14:58:10Z,83.91057,R+84,Cornyn +84,republican,texas,2020-11-29T00:52:25.426800Z
48485,Wichita,45281,37127,57,62,Released as a precinct as first report of the night,89,50639,89%,89% reported,edison,2,some,,45995,,,31626,12399,997,259,,26142,10115,690,180,,2020-11-28T14:55:03Z,42.46152,R+42,Cornyn +42,republican,texas,2020-11-29T00:52:25.426800Z
48487,Wilbarger,4419,3664,4,5,Released as a precinct as first report of the night,91,4848,91%,91% reported,edison,2,unknown,,4072,,,3473,874,54,18,,2907,703,43,11,,2020-11-28T14:58:17Z,58.81421,R+59,Cornyn +59,republican,texas,2020-11-29T00:52:25.426800Z
48489,Willacy,5289,3408,14,17,Released as a precinct as first report of the night,80,6624,80%,80% reported,edison,2,unknown,,3321,,,2183,2968,85,53,,1359,1974,46,29,,2020-11-27T14:55:53Z,14.84213,D+15,Hegar +15,democrat,texas,2020-11-29T00:52:25.426800Z
48491,Williamson,283789,256593,58,58,Released as a precinct as first report of the night,100,285000,>98%,>98% reported,edison,4,all,,172960,,,142391,133783,6123,1492,,126717,123747,4939,1190,,2020-11-24T13:26:57Z,3.03324,R+3,Cornyn +3,republican,texas,2020-11-29T00:52:25.426800Z
48493,Wilson,24697,20661,17,17,Released as a precinct as first report of the night,100,22948,>98%,>98% reported,edison,2,unknown,,17031,,,18327,5943,309,118,,15177,5164,232,88,,2020-11-27T14:56:50Z,50.14374,R+50,Cornyn +50,republican,texas,2020-11-29T00:52:25.426800Z
48495,Winkler,2094,1447,5,6,Released as a precinct as first report of the night,86,2439,86%,86% reported,edison,2,unknown,,1480,,,1714,338,30,12,,1172,251,18,6,,2020-11-24T13:26:57Z,65.71156,R+66,Cornyn +66,republican,texas,2020-11-29T00:52:25.426800Z
48497,Wise,31999,27070,26,26,Released as a precinct as first report of the night,100,29258,>98%,>98% reported,edison,2,unknown,,19355,,,26630,4644,563,162,,22605,3932,420,113,,2020-11-24T13:26:57Z,68.7084,R+69,Cornyn +69,republican,texas,2020-11-29T00:52:25.426800Z
48499,Wood,22468,19189,13,14,Released as a precinct as first report of the night,100,22115,>98%,>98% reported,edison,2,unknown,,14753,,,18757,3318,306,87,0,15985,2910,230,64,0,2020-11-28T14:39:23Z,68.71551,R+69,Cornyn +69,republican,texas,2020-11-29T00:52:25.426800Z
48501,Yoakum,2599,2105,6,7,Released as a precinct as first report of the night,87,2994,87%,87% reported,edison,2,some,,2155,,,2153,387,38,21,,1778,284,28,15,,2020-11-27T14:57:51Z,67.94921,R+68,Cornyn +68,republican,texas,2020-11-29T00:52:25.426800Z
48503,Young,8114,6992,8,10,Released as a precinct as first report of the night,89,9101,89%,89% reported,edison,2,unknown,,9164,,,6999,969,120,26,,6055,823,94,20,,2020-11-27T15:23:50Z,74.316,R+74,Cornyn +74,republican,texas,2020-11-29T00:52:25.426800Z
48505,Zapata,3377,2172,7,8,Released as a precinct as first report of the night,73,4606,73%,73% reported,edison,2,unknown,,3125,,,1454,1821,52,50,,931,1192,26,23,,2020-11-24T13:26:57Z,10.86763,D+11,Hegar +11,democrat,texas,2020-11-29T00:52:25.426800Z
48507,Zavala,3994,2756,5,6,Released as a precinct as first report of the night,84,4749,84%,84% reported,edison,2,unknown,,3597,,,1232,2633,72,57,,751,1940,36,29,,2020-11-24T13:26:56Z,35.07762,D+35,Hegar +35,democrat,texas,2020-11-29T00:52:25.426800Z
