fips,name,votes,absentee_votes,reporting,precincts,absentee_method,eevp,tot_exp_vote,eevp_value,eevp_display,eevp_source,turnout_stage,absentee_count_progress,absentee_max_ballots,results_ryant,results_haganc,results_frickem,results_absentee_ryant,results_absentee_haganc,results_absentee_frickem,last_updated,leader_margin_value,leader_margin_display,leader_margin_name_display,leader_party_id,race_id_race,race_slug_race,url_race,state_page_url_race,ap_polls_page_race,edison_exit_polls_page_race,race_type_race,election_type_race,election_date_race,runoff_race,race_name_race,office_race,officeid_race,race_rating_race,seat_race,seat_name_race,state_id_race,state_slug_race,state_name_race,state_nyt_abbrev_race,state_shape_race,party_id_race,uncontested_race,report_race,result_race,result_source_race,gain_race,lost_seat_race,votes_race,absentee_votes_race,absentee_counties_race,absentee_count_progress_race,poll_display_race,poll_countdown_display_race,poll_waiting_display_race,poll_time_race,poll_time_short_race,precincts_reporting_race,precincts_total_race,reporting_display_race,reporting_value_race,eevp_race,tot_exp_vote_race,eevp_source_race,eevp_value_race,eevp_display_race,county_data_source_race,incumbent_party_race,no_forecast_race,last_updated_race,has_incumbent_race,leader_margin_value_race,leader_margin_votes_race,leader_margin_display_race,leader_margin_name_display_race,leader_party_id_race,expectations_text_race,expectations_text_short_race,absentee_ballot_deadline_race,absentee_postmark_deadline_race,winner_called_timestamp_race
39099,Mahoning,87155,52471,159,159,Released as a separate subtotal as first report of the night,100,85164,>98%,>98% reported,edison,6,some,67570,48663,36475,2017,34999,16381,1091,2020-11-19T16:59:14Z,13.98428,D+14,Ryan +14,democrat,OH-G-H-13-2020-11-03,oh-house-general-district-013-2020-11-03,https://www.nytimes.com/interactive/2020/11/03/us/elections/results-ohio-house-district-13.html,https://www.nytimes.com/interactive/2020/11/03/us/elections/results-ohio.html,https://www.nytimes.com/interactive/2020/11/03/us/elections/ap-polls-ohio.html,https://www.nytimes.com/interactive/2020/11/03/us/elections/exit-polls-ohio.html,house,general,2020-11-03,FALSE,U.S. House District 13,U.S. House,H,solid-dem,13,District 13,OH,ohio,Ohio,Ohio,horizontal,"",FALSE,TRUE,winner,AP,FALSE,"",330801,151435,3,unknown,Polls close at 7:30 p.m. Eastern time.,Polls close in,Polls have closed.,2020-11-04T00:30:00.000Z,7:30 p.m.,560,562,99% reporting,99%,91,365000,edison,91%,91% reported,edison,democrat,FALSE,2020-11-20T14:20:11Z,TRUE,7.55227,24983,D+8,Ryan +8,democrat,"Postmarked ballots have until Nov. 13 to arrive, but no additional results will be reported reported for at least a week and a half after the election. Counties may report their full official count after their vote canvass, due by Nov. 18, but full statewide results will not be available until final certification, due by Nov. 28. ","Postmarked ballots have until Nov. 13 to arrive, but no additional results will be reported for at least a week and a half after the election.",10,-1,1604451118824
39133,Portage,40937,15450,68,68,Other,90,45683,90%,90% reported,edison,4,all,35339,20424,19324,1189,10407,4687,356,2020-11-18T19:05:56Z,2.68706,D+3,Ryan +3,democrat,OH-G-H-13-2020-11-03,oh-house-general-district-013-2020-11-03,https://www.nytimes.com/interactive/2020/11/03/us/elections/results-ohio-house-district-13.html,https://www.nytimes.com/interactive/2020/11/03/us/elections/results-ohio.html,https://www.nytimes.com/interactive/2020/11/03/us/elections/ap-polls-ohio.html,https://www.nytimes.com/interactive/2020/11/03/us/elections/exit-polls-ohio.html,house,general,2020-11-03,FALSE,U.S. House District 13,U.S. House,H,solid-dem,13,District 13,OH,ohio,Ohio,Ohio,horizontal,"",FALSE,TRUE,winner,AP,FALSE,"",330801,151435,3,unknown,Polls close at 7:30 p.m. Eastern time.,Polls close in,Polls have closed.,2020-11-04T00:30:00.000Z,7:30 p.m.,560,562,99% reporting,99%,91,365000,edison,91%,91% reported,edison,democrat,FALSE,2020-11-20T14:20:11Z,TRUE,7.55227,24983,D+8,Ryan +8,democrat,"Postmarked ballots have until Nov. 13 to arrive, but no additional results will be reported reported for at least a week and a half after the election. Counties may report their full official count after their vote canvass, due by Nov. 18, but full statewide results will not be available until final certification, due by Nov. 28. ","Postmarked ballots have until Nov. 13 to arrive, but no additional results will be reported for at least a week and a half after the election.",10,-1,1604451118824
39151,Stark,10622,0,19,21,Merged into voters' home precincts and released with cumulative results,93,11373,93%,93% reported,edison,2,unknown,83515,4222,6120,280,0,0,0,2020-11-18T22:51:37Z,17.86857,R+18,Hagan +18,republican,OH-G-H-13-2020-11-03,oh-house-general-district-013-2020-11-03,https://www.nytimes.com/interactive/2020/11/03/us/elections/results-ohio-house-district-13.html,https://www.nytimes.com/interactive/2020/11/03/us/elections/results-ohio.html,https://www.nytimes.com/interactive/2020/11/03/us/elections/ap-polls-ohio.html,https://www.nytimes.com/interactive/2020/11/03/us/elections/exit-polls-ohio.html,house,general,2020-11-03,FALSE,U.S. House District 13,U.S. House,H,solid-dem,13,District 13,OH,ohio,Ohio,Ohio,horizontal,"",FALSE,TRUE,winner,AP,FALSE,"",330801,151435,3,unknown,Polls close at 7:30 p.m. Eastern time.,Polls close in,Polls have closed.,2020-11-04T00:30:00.000Z,7:30 p.m.,560,562,99% reporting,99%,91,365000,edison,91%,91% reported,edison,democrat,FALSE,2020-11-20T14:20:11Z,TRUE,7.55227,24983,D+8,Ryan +8,democrat,"Postmarked ballots have until Nov. 13 to arrive, but no additional results will be reported reported for at least a week and a half after the election. Counties may report their full official count after their vote canvass, due by Nov. 18, but full statewide results will not be available until final certification, due by Nov. 28. ","Postmarked ballots have until Nov. 13 to arrive, but no additional results will be reported for at least a week and a half after the election.",10,-1,1604451118824
39153,Summit,101683,0,173,173,None,92,110386,92%,92% reported,edison,2,unknown,138795,56748,42032,2903,0,0,0,2020-11-18T19:08:05Z,14.47243,D+14,Ryan +14,democrat,OH-G-H-13-2020-11-03,oh-house-general-district-013-2020-11-03,https://www.nytimes.com/interactive/2020/11/03/us/elections/results-ohio-house-district-13.html,https://www.nytimes.com/interactive/2020/11/03/us/elections/results-ohio.html,https://www.nytimes.com/interactive/2020/11/03/us/elections/ap-polls-ohio.html,https://www.nytimes.com/interactive/2020/11/03/us/elections/exit-polls-ohio.html,house,general,2020-11-03,FALSE,U.S. House District 13,U.S. House,H,solid-dem,13,District 13,OH,ohio,Ohio,Ohio,horizontal,"",FALSE,TRUE,winner,AP,FALSE,"",330801,151435,3,unknown,Polls close at 7:30 p.m. Eastern time.,Polls close in,Polls have closed.,2020-11-04T00:30:00.000Z,7:30 p.m.,560,562,99% reporting,99%,91,365000,edison,91%,91% reported,edison,democrat,FALSE,2020-11-20T14:20:11Z,TRUE,7.55227,24983,D+8,Ryan +8,democrat,"Postmarked ballots have until Nov. 13 to arrive, but no additional results will be reported reported for at least a week and a half after the election. Counties may report their full official count after their vote canvass, due by Nov. 18, but full statewide results will not be available until final certification, due by Nov. 28. ","Postmarked ballots have until Nov. 13 to arrive, but no additional results will be reported for at least a week and a half after the election.",10,-1,1604451118824
39155,Trumbull,90404,83514,141,141,Released as a separate subtotal as first report of the night,100,88223,>98%,>98% reported,edison,6,some,47683,43574,44697,2133,41337,40260,1917,2020-11-18T22:28:10Z,1.2422,R+1.2,Hagan +1.2,republican,OH-G-H-13-2020-11-03,oh-house-general-district-013-2020-11-03,https://www.nytimes.com/interactive/2020/11/03/us/elections/results-ohio-house-district-13.html,https://www.nytimes.com/interactive/2020/11/03/us/elections/results-ohio.html,https://www.nytimes.com/interactive/2020/11/03/us/elections/ap-polls-ohio.html,https://www.nytimes.com/interactive/2020/11/03/us/elections/exit-polls-ohio.html,house,general,2020-11-03,FALSE,U.S. House District 13,U.S. House,H,solid-dem,13,District 13,OH,ohio,Ohio,Ohio,horizontal,"",FALSE,TRUE,winner,AP,FALSE,"",330801,151435,3,unknown,Polls close at 7:30 p.m. Eastern time.,Polls close in,Polls have closed.,2020-11-04T00:30:00.000Z,7:30 p.m.,560,562,99% reporting,99%,91,365000,edison,91%,91% reported,edison,democrat,FALSE,2020-11-20T14:20:11Z,TRUE,7.55227,24983,D+8,Ryan +8,democrat,"Postmarked ballots have until Nov. 13 to arrive, but no additional results will be reported reported for at least a week and a half after the election. Counties may report their full official count after their vote canvass, due by Nov. 18, but full statewide results will not be available until final certification, due by Nov. 28. ","Postmarked ballots have until Nov. 13 to arrive, but no additional results will be reported for at least a week and a half after the election.",10,-1,1604451118824
