fips,name,votes,absentee_votes,reporting,precincts,absentee_method,eevp,tot_exp_vote,eevp_value,eevp_display,eevp_source,turnout_stage,absentee_count_progress,absentee_max_ballots,results_clineb,results_bettsn,results_absentee_clineb,results_absentee_bettsn,last_updated,leader_margin_value,leader_margin_display,leader_margin_name_display,leader_party_id,race_id_race,race_slug_race,url_race,state_page_url_race,ap_polls_page_race,edison_exit_polls_page_race,race_type_race,election_type_race,election_date_race,runoff_race,race_name_race,office_race,officeid_race,race_rating_race,seat_race,seat_name_race,state_id_race,state_slug_race,state_name_race,state_nyt_abbrev_race,state_shape_race,party_id_race,uncontested_race,report_race,result_race,result_source_race,gain_race,lost_seat_race,votes_race,absentee_votes_race,absentee_counties_race,absentee_count_progress_race,poll_display_race,poll_countdown_display_race,poll_waiting_display_race,poll_time_race,poll_time_short_race,precincts_reporting_race,precincts_total_race,reporting_display_race,reporting_value_race,eevp_race,tot_exp_vote_race,eevp_source_race,eevp_value_race,eevp_display_race,county_data_source_race,incumbent_party_race,no_forecast_race,last_updated_race,has_incumbent_race,leader_margin_value_race,leader_margin_votes_race,leader_margin_display_race,leader_margin_name_display_race,leader_party_id_race,expectations_text_race,expectations_text_short_race,absentee_ballot_deadline_race,absentee_postmark_deadline_race,winner_called_timestamp_race
51009,Amherst,16825,8348,12,12,"As a subtotal in the FIRST cumulative report, along with regular precincts",100,16825,>98%,>98% reported,edison,10,unknown,1222,11715,5110,4878,3470,2020-11-22T16:18:42Z,39.25706,R+39,Cline +39,republican,VA-G-H-6-2020-11-03,va-house-general-district-006-2020-11-03,https://www.nytimes.com/interactive/2020/11/03/us/elections/results-virginia-house-district-6.html,https://www.nytimes.com/interactive/2020/11/03/us/elections/results-virginia.html,https://www.nytimes.com/interactive/2020/11/03/us/elections/ap-polls-virginia.html,https://www.nytimes.com/interactive/2020/11/03/us/elections/exit-polls-virginia.html,house,general,2020-11-03,FALSE,U.S. House District 6,U.S. House,H,solid-rep,6,District 6,VA,virginia,Virginia,Va.,horizontal,"",FALSE,TRUE,winner,AP,FALSE,"",381335,206199,19,unknown,Polls close at 7 p.m. Eastern time.,Polls close in,Polls have closed.,2020-11-04T00:00:00.000Z,7 p.m.,249,249,100% reporting,100%,100,381335,edison,>98%,>98% reported,edison,republican,FALSE,2020-11-22T19:51:05Z,TRUE,29.33825,111877,R+29,Cline +29,republican,"","",3,0,1604453733570
51015,Augusta,41896,20836,26,26,Released separately AFTER election night,100,41896,>98%,>98% reported,edison,10,all,2612,32375,9521,13872,6964,2020-11-22T15:05:50Z,54.54936,R+55,Cline +55,republican,VA-G-H-6-2020-11-03,va-house-general-district-006-2020-11-03,https://www.nytimes.com/interactive/2020/11/03/us/elections/results-virginia-house-district-6.html,https://www.nytimes.com/interactive/2020/11/03/us/elections/results-virginia.html,https://www.nytimes.com/interactive/2020/11/03/us/elections/ap-polls-virginia.html,https://www.nytimes.com/interactive/2020/11/03/us/elections/exit-polls-virginia.html,house,general,2020-11-03,FALSE,U.S. House District 6,U.S. House,H,solid-rep,6,District 6,VA,virginia,Virginia,Va.,horizontal,"",FALSE,TRUE,winner,AP,FALSE,"",381335,206199,19,unknown,Polls close at 7 p.m. Eastern time.,Polls close in,Polls have closed.,2020-11-04T00:00:00.000Z,7 p.m.,249,249,100% reporting,100%,100,381335,edison,>98%,>98% reported,edison,republican,FALSE,2020-11-22T19:51:05Z,TRUE,29.33825,111877,R+29,Cline +29,republican,"","",3,0,1604453733570
51017,Bath,2416,737,8,8,Released as a precinct in the middle of the night,100,2416,>98%,>98% reported,edison,10,all,202,1886,530,436,301,2020-11-22T15:05:57Z,56.12583,R+56,Cline +56,republican,VA-G-H-6-2020-11-03,va-house-general-district-006-2020-11-03,https://www.nytimes.com/interactive/2020/11/03/us/elections/results-virginia-house-district-6.html,https://www.nytimes.com/interactive/2020/11/03/us/elections/results-virginia.html,https://www.nytimes.com/interactive/2020/11/03/us/elections/ap-polls-virginia.html,https://www.nytimes.com/interactive/2020/11/03/us/elections/exit-polls-virginia.html,house,general,2020-11-03,FALSE,U.S. House District 6,U.S. House,H,solid-rep,6,District 6,VA,virginia,Virginia,Va.,horizontal,"",FALSE,TRUE,winner,AP,FALSE,"",381335,206199,19,unknown,Polls close at 7 p.m. Eastern time.,Polls close in,Polls have closed.,2020-11-04T00:00:00.000Z,7 p.m.,249,249,100% reporting,100%,100,381335,edison,>98%,>98% reported,edison,republican,FALSE,2020-11-22T19:51:05Z,TRUE,29.33825,111877,R+29,Cline +29,republican,"","",3,0,1604453733570
51019,Bedford,21728,11029,14,14,Released as a precinct at the end of tabulation,100,21728,>98%,>98% reported,edison,10,unknown,3722,16704,5024,7401,3628,2020-11-22T14:15:23Z,53.75552,R+54,Cline +54,republican,VA-G-H-6-2020-11-03,va-house-general-district-006-2020-11-03,https://www.nytimes.com/interactive/2020/11/03/us/elections/results-virginia-house-district-6.html,https://www.nytimes.com/interactive/2020/11/03/us/elections/results-virginia.html,https://www.nytimes.com/interactive/2020/11/03/us/elections/ap-polls-virginia.html,https://www.nytimes.com/interactive/2020/11/03/us/elections/exit-polls-virginia.html,house,general,2020-11-03,FALSE,U.S. House District 6,U.S. House,H,solid-rep,6,District 6,VA,virginia,Virginia,Va.,horizontal,"",FALSE,TRUE,winner,AP,FALSE,"",381335,206199,19,unknown,Polls close at 7 p.m. Eastern time.,Polls close in,Polls have closed.,2020-11-04T00:00:00.000Z,7 p.m.,249,249,100% reporting,100%,100,381335,edison,>98%,>98% reported,edison,republican,FALSE,2020-11-22T19:51:05Z,TRUE,29.33825,111877,R+29,Cline +29,republican,"","",3,0,1604453733570
51023,Botetourt,20494,11198,11,11,"As a precinct in the FIRST cumulative report, along with regular precincts",100,20494,>98%,>98% reported,edison,10,unknown,1719,15682,4812,7652,3546,2020-11-22T17:27:19Z,53.03991,R+53,Cline +53,republican,VA-G-H-6-2020-11-03,va-house-general-district-006-2020-11-03,https://www.nytimes.com/interactive/2020/11/03/us/elections/results-virginia-house-district-6.html,https://www.nytimes.com/interactive/2020/11/03/us/elections/results-virginia.html,https://www.nytimes.com/interactive/2020/11/03/us/elections/ap-polls-virginia.html,https://www.nytimes.com/interactive/2020/11/03/us/elections/exit-polls-virginia.html,house,general,2020-11-03,FALSE,U.S. House District 6,U.S. House,H,solid-rep,6,District 6,VA,virginia,Virginia,Va.,horizontal,"",FALSE,TRUE,winner,AP,FALSE,"",381335,206199,19,unknown,Polls close at 7 p.m. Eastern time.,Polls close in,Polls have closed.,2020-11-04T00:00:00.000Z,7 p.m.,249,249,100% reporting,100%,100,381335,edison,>98%,>98% reported,edison,republican,FALSE,2020-11-22T19:51:05Z,TRUE,29.33825,111877,R+29,Cline +29,republican,"","",3,0,1604453733570
51530,Buena Vista,2744,1784,3,3,Merged into voters' home precincts and released with cumulative results,100,2744,>98%,>98% reported,edison,10,unknown,2407,2061,683,1248,536,2020-11-22T14:17:06Z,50.21866,R+50,Cline +50,republican,VA-G-H-6-2020-11-03,va-house-general-district-006-2020-11-03,https://www.nytimes.com/interactive/2020/11/03/us/elections/results-virginia-house-district-6.html,https://www.nytimes.com/interactive/2020/11/03/us/elections/results-virginia.html,https://www.nytimes.com/interactive/2020/11/03/us/elections/ap-polls-virginia.html,https://www.nytimes.com/interactive/2020/11/03/us/elections/exit-polls-virginia.html,house,general,2020-11-03,FALSE,U.S. House District 6,U.S. House,H,solid-rep,6,District 6,VA,virginia,Virginia,Va.,horizontal,"",FALSE,TRUE,winner,AP,FALSE,"",381335,206199,19,unknown,Polls close at 7 p.m. Eastern time.,Polls close in,Polls have closed.,2020-11-04T00:00:00.000Z,7 p.m.,249,249,100% reporting,100%,100,381335,edison,>98%,>98% reported,edison,republican,FALSE,2020-11-22T19:51:05Z,TRUE,29.33825,111877,R+29,Cline +29,republican,"","",3,0,1604453733570
51660,Harrisonburg,16522,10960,9,9,Released separately AFTER election night,100,16522,>98%,>98% reported,edison,10,unknown,1409,6544,9978,3428,7532,2020-11-22T15:17:54Z,20.78441,D+21,Betts +21,democrat,VA-G-H-6-2020-11-03,va-house-general-district-006-2020-11-03,https://www.nytimes.com/interactive/2020/11/03/us/elections/results-virginia-house-district-6.html,https://www.nytimes.com/interactive/2020/11/03/us/elections/results-virginia.html,https://www.nytimes.com/interactive/2020/11/03/us/elections/ap-polls-virginia.html,https://www.nytimes.com/interactive/2020/11/03/us/elections/exit-polls-virginia.html,house,general,2020-11-03,FALSE,U.S. House District 6,U.S. House,H,solid-rep,6,District 6,VA,virginia,Virginia,Va.,horizontal,"",FALSE,TRUE,winner,AP,FALSE,"",381335,206199,19,unknown,Polls close at 7 p.m. Eastern time.,Polls close in,Polls have closed.,2020-11-04T00:00:00.000Z,7 p.m.,249,249,100% reporting,100%,100,381335,edison,>98%,>98% reported,edison,republican,FALSE,2020-11-22T19:51:05Z,TRUE,29.33825,111877,R+29,Cline +29,republican,"","",3,0,1604453733570
51091,Highland,1512,477,7,7,Merged into voters' home precincts and released with cumulative results,100,1512,>98%,>98% reported,edison,10,all,1391,1136,376,259,218,2020-11-22T15:18:22Z,50.26455,R+50,Cline +50,republican,VA-G-H-6-2020-11-03,va-house-general-district-006-2020-11-03,https://www.nytimes.com/interactive/2020/11/03/us/elections/results-virginia-house-district-6.html,https://www.nytimes.com/interactive/2020/11/03/us/elections/results-virginia.html,https://www.nytimes.com/interactive/2020/11/03/us/elections/ap-polls-virginia.html,https://www.nytimes.com/interactive/2020/11/03/us/elections/exit-polls-virginia.html,house,general,2020-11-03,FALSE,U.S. House District 6,U.S. House,H,solid-rep,6,District 6,VA,virginia,Virginia,Va.,horizontal,"",FALSE,TRUE,winner,AP,FALSE,"",381335,206199,19,unknown,Polls close at 7 p.m. Eastern time.,Polls close in,Polls have closed.,2020-11-04T00:00:00.000Z,7 p.m.,249,249,100% reporting,100%,100,381335,edison,>98%,>98% reported,edison,republican,FALSE,2020-11-22T19:51:05Z,TRUE,29.33825,111877,R+29,Cline +29,republican,"","",3,0,1604453733570
51678,Lexington,2735,2107,2,2,Merged into voters' home precincts and released with cumulative results,100,2735,>98%,>98% reported,edison,10,all,437,1085,1650,642,1465,2020-11-22T17:27:48Z,20.65814,D+21,Betts +21,democrat,VA-G-H-6-2020-11-03,va-house-general-district-006-2020-11-03,https://www.nytimes.com/interactive/2020/11/03/us/elections/results-virginia-house-district-6.html,https://www.nytimes.com/interactive/2020/11/03/us/elections/results-virginia.html,https://www.nytimes.com/interactive/2020/11/03/us/elections/ap-polls-virginia.html,https://www.nytimes.com/interactive/2020/11/03/us/elections/exit-polls-virginia.html,house,general,2020-11-03,FALSE,U.S. House District 6,U.S. House,H,solid-rep,6,District 6,VA,virginia,Virginia,Va.,horizontal,"",FALSE,TRUE,winner,AP,FALSE,"",381335,206199,19,unknown,Polls close at 7 p.m. Eastern time.,Polls close in,Polls have closed.,2020-11-04T00:00:00.000Z,7 p.m.,249,249,100% reporting,100%,100,381335,edison,>98%,>98% reported,edison,republican,FALSE,2020-11-22T19:51:05Z,TRUE,29.33825,111877,R+29,Cline +29,republican,"","",3,0,1604453733570
51680,Lynchburg,35247,17592,19,19,"As a precinct in the FIRST cumulative report, along with regular precincts",100,35247,>98%,>98% reported,edison,10,unknown,2505,18829,16418,6717,10875,2020-11-22T15:22:22Z,6.8403,R+7,Cline +7,republican,VA-G-H-6-2020-11-03,va-house-general-district-006-2020-11-03,https://www.nytimes.com/interactive/2020/11/03/us/elections/results-virginia-house-district-6.html,https://www.nytimes.com/interactive/2020/11/03/us/elections/results-virginia.html,https://www.nytimes.com/interactive/2020/11/03/us/elections/ap-polls-virginia.html,https://www.nytimes.com/interactive/2020/11/03/us/elections/exit-polls-virginia.html,house,general,2020-11-03,FALSE,U.S. House District 6,U.S. House,H,solid-rep,6,District 6,VA,virginia,Virginia,Va.,horizontal,"",FALSE,TRUE,winner,AP,FALSE,"",381335,206199,19,unknown,Polls close at 7 p.m. Eastern time.,Polls close in,Polls have closed.,2020-11-04T00:00:00.000Z,7 p.m.,249,249,100% reporting,100%,100,381335,edison,>98%,>98% reported,edison,republican,FALSE,2020-11-22T19:51:05Z,TRUE,29.33825,111877,R+29,Cline +29,republican,"","",3,0,1604453733570
51139,Page,12256,4981,6,6,Released as a precinct in the middle of the night,100,12256,>98%,>98% reported,edison,10,unknown,904,9466,2790,3029,1952,2020-11-22T15:27:15Z,54.47128,R+54,Cline +54,republican,VA-G-H-6-2020-11-03,va-house-general-district-006-2020-11-03,https://www.nytimes.com/interactive/2020/11/03/us/elections/results-virginia-house-district-6.html,https://www.nytimes.com/interactive/2020/11/03/us/elections/results-virginia.html,https://www.nytimes.com/interactive/2020/11/03/us/elections/ap-polls-virginia.html,https://www.nytimes.com/interactive/2020/11/03/us/elections/exit-polls-virginia.html,house,general,2020-11-03,FALSE,U.S. House District 6,U.S. House,H,solid-rep,6,District 6,VA,virginia,Virginia,Va.,horizontal,"",FALSE,TRUE,winner,AP,FALSE,"",381335,206199,19,unknown,Polls close at 7 p.m. Eastern time.,Polls close in,Polls have closed.,2020-11-04T00:00:00.000Z,7 p.m.,249,249,100% reporting,100%,100,381335,edison,>98%,>98% reported,edison,republican,FALSE,2020-11-22T19:51:05Z,TRUE,29.33825,111877,R+29,Cline +29,republican,"","",3,0,1604453733570
51161,Roanoke,41975,28854,25,25,None,100,41975,>98%,>98% reported,edison,10,unknown,4981,26985,14990,16541,12313,2020-11-22T15:33:12Z,28.57653,R+29,Cline +29,republican,VA-G-H-6-2020-11-03,va-house-general-district-006-2020-11-03,https://www.nytimes.com/interactive/2020/11/03/us/elections/results-virginia-house-district-6.html,https://www.nytimes.com/interactive/2020/11/03/us/elections/results-virginia.html,https://www.nytimes.com/interactive/2020/11/03/us/elections/ap-polls-virginia.html,https://www.nytimes.com/interactive/2020/11/03/us/elections/exit-polls-virginia.html,house,general,2020-11-03,FALSE,U.S. House District 6,U.S. House,H,solid-rep,6,District 6,VA,virginia,Virginia,Va.,horizontal,"",FALSE,TRUE,winner,AP,FALSE,"",381335,206199,19,unknown,Polls close at 7 p.m. Eastern time.,Polls close in,Polls have closed.,2020-11-04T00:00:00.000Z,7 p.m.,249,249,100% reporting,100%,100,381335,edison,>98%,>98% reported,edison,republican,FALSE,2020-11-22T19:51:05Z,TRUE,29.33825,111877,R+29,Cline +29,republican,"","",3,0,1604453733570
51770,Roanoke City,42021,26940,21,21,Released as a precinct at the end of tabulation,100,42021,>98%,>98% reported,edison,10,all,4517,17348,24673,8757,18183,2020-11-22T17:28:30Z,17.43176,D+17,Betts +17,democrat,VA-G-H-6-2020-11-03,va-house-general-district-006-2020-11-03,https://www.nytimes.com/interactive/2020/11/03/us/elections/results-virginia-house-district-6.html,https://www.nytimes.com/interactive/2020/11/03/us/elections/results-virginia.html,https://www.nytimes.com/interactive/2020/11/03/us/elections/ap-polls-virginia.html,https://www.nytimes.com/interactive/2020/11/03/us/elections/exit-polls-virginia.html,house,general,2020-11-03,FALSE,U.S. House District 6,U.S. House,H,solid-rep,6,District 6,VA,virginia,Virginia,Va.,horizontal,"",FALSE,TRUE,winner,AP,FALSE,"",381335,206199,19,unknown,Polls close at 7 p.m. Eastern time.,Polls close in,Polls have closed.,2020-11-04T00:00:00.000Z,7 p.m.,249,249,100% reporting,100%,100,381335,edison,>98%,>98% reported,edison,republican,FALSE,2020-11-22T19:51:05Z,TRUE,29.33825,111877,R+29,Cline +29,republican,"","",3,0,1604453733570
51163,Rockbridge,12249,5018,18,18,Released as a precinct at the end of tabulation,100,12249,>98%,>98% reported,edison,10,all,929,8637,3612,2444,2574,2020-11-22T19:17:01Z,41.02376,R+41,Cline +41,republican,VA-G-H-6-2020-11-03,va-house-general-district-006-2020-11-03,https://www.nytimes.com/interactive/2020/11/03/us/elections/results-virginia-house-district-6.html,https://www.nytimes.com/interactive/2020/11/03/us/elections/results-virginia.html,https://www.nytimes.com/interactive/2020/11/03/us/elections/ap-polls-virginia.html,https://www.nytimes.com/interactive/2020/11/03/us/elections/exit-polls-virginia.html,house,general,2020-11-03,FALSE,U.S. House District 6,U.S. House,H,solid-rep,6,District 6,VA,virginia,Virginia,Va.,horizontal,"",FALSE,TRUE,winner,AP,FALSE,"",381335,206199,19,unknown,Polls close at 7 p.m. Eastern time.,Polls close in,Polls have closed.,2020-11-04T00:00:00.000Z,7 p.m.,249,249,100% reporting,100%,100,381335,edison,>98%,>98% reported,edison,republican,FALSE,2020-11-22T19:51:05Z,TRUE,29.33825,111877,R+29,Cline +29,republican,"","",3,0,1604453733570
51165,Rockingham,43304,17819,32,32,Released with cumulative results periodically election night,100,43304,>98%,>98% reported,edison,10,unknown,2635,32318,10986,10373,7446,2020-11-22T15:33:23Z,49.26104,R+49,Cline +49,republican,VA-G-H-6-2020-11-03,va-house-general-district-006-2020-11-03,https://www.nytimes.com/interactive/2020/11/03/us/elections/results-virginia-house-district-6.html,https://www.nytimes.com/interactive/2020/11/03/us/elections/results-virginia.html,https://www.nytimes.com/interactive/2020/11/03/us/elections/ap-polls-virginia.html,https://www.nytimes.com/interactive/2020/11/03/us/elections/exit-polls-virginia.html,house,general,2020-11-03,FALSE,U.S. House District 6,U.S. House,H,solid-rep,6,District 6,VA,virginia,Virginia,Va.,horizontal,"",FALSE,TRUE,winner,AP,FALSE,"",381335,206199,19,unknown,Polls close at 7 p.m. Eastern time.,Polls close in,Polls have closed.,2020-11-04T00:00:00.000Z,7 p.m.,249,249,100% reporting,100%,100,381335,edison,>98%,>98% reported,edison,republican,FALSE,2020-11-22T19:51:05Z,TRUE,29.33825,111877,R+29,Cline +29,republican,"","",3,0,1604453733570
51171,Shenandoah,23368,10805,13,13,Released as a precinct at the end of tabulation,100,23368,>98%,>98% reported,edison,10,unknown,1752,17180,6188,6500,4305,2020-11-22T15:34:39Z,47.03869,R+47,Cline +47,republican,VA-G-H-6-2020-11-03,va-house-general-district-006-2020-11-03,https://www.nytimes.com/interactive/2020/11/03/us/elections/results-virginia-house-district-6.html,https://www.nytimes.com/interactive/2020/11/03/us/elections/results-virginia.html,https://www.nytimes.com/interactive/2020/11/03/us/elections/ap-polls-virginia.html,https://www.nytimes.com/interactive/2020/11/03/us/elections/exit-polls-virginia.html,house,general,2020-11-03,FALSE,U.S. House District 6,U.S. House,H,solid-rep,6,District 6,VA,virginia,Virginia,Va.,horizontal,"",FALSE,TRUE,winner,AP,FALSE,"",381335,206199,19,unknown,Polls close at 7 p.m. Eastern time.,Polls close in,Polls have closed.,2020-11-04T00:00:00.000Z,7 p.m.,249,249,100% reporting,100%,100,381335,edison,>98%,>98% reported,edison,republican,FALSE,2020-11-22T19:51:05Z,TRUE,29.33825,111877,R+29,Cline +29,republican,"","",3,0,1604453733570
51790,Staunton,12733,8825,6,6,Released as a precinct at the end of tabulation,100,12733,>98%,>98% reported,edison,10,none,1258,6238,6495,3442,5383,2020-11-16T15:48:28Z,2.01838,D+2,Betts +2,democrat,VA-G-H-6-2020-11-03,va-house-general-district-006-2020-11-03,https://www.nytimes.com/interactive/2020/11/03/us/elections/results-virginia-house-district-6.html,https://www.nytimes.com/interactive/2020/11/03/us/elections/results-virginia.html,https://www.nytimes.com/interactive/2020/11/03/us/elections/ap-polls-virginia.html,https://www.nytimes.com/interactive/2020/11/03/us/elections/exit-polls-virginia.html,house,general,2020-11-03,FALSE,U.S. House District 6,U.S. House,H,solid-rep,6,District 6,VA,virginia,Virginia,Va.,horizontal,"",FALSE,TRUE,winner,AP,FALSE,"",381335,206199,19,unknown,Polls close at 7 p.m. Eastern time.,Polls close in,Polls have closed.,2020-11-04T00:00:00.000Z,7 p.m.,249,249,100% reporting,100%,100,381335,edison,>98%,>98% reported,edison,republican,FALSE,2020-11-22T19:51:05Z,TRUE,29.33825,111877,R+29,Cline +29,republican,"","",3,0,1604453733570
51187,Warren,20798,11253,12,12,Other,100,20798,>98%,>98% reported,edison,10,unknown,1693,14479,6319,6567,4686,2020-11-22T15:38:49Z,39.23454,R+39,Cline +39,republican,VA-G-H-6-2020-11-03,va-house-general-district-006-2020-11-03,https://www.nytimes.com/interactive/2020/11/03/us/elections/results-virginia-house-district-6.html,https://www.nytimes.com/interactive/2020/11/03/us/elections/results-virginia.html,https://www.nytimes.com/interactive/2020/11/03/us/elections/ap-polls-virginia.html,https://www.nytimes.com/interactive/2020/11/03/us/elections/exit-polls-virginia.html,house,general,2020-11-03,FALSE,U.S. House District 6,U.S. House,H,solid-rep,6,District 6,VA,virginia,Virginia,Va.,horizontal,"",FALSE,TRUE,winner,AP,FALSE,"",381335,206199,19,unknown,Polls close at 7 p.m. Eastern time.,Polls close in,Polls have closed.,2020-11-04T00:00:00.000Z,7 p.m.,249,249,100% reporting,100%,100,381335,edison,>98%,>98% reported,edison,republican,FALSE,2020-11-22T19:51:05Z,TRUE,29.33825,111877,R+29,Cline +29,republican,"","",3,0,1604453733570
51820,Waynesboro,10512,6636,5,5,Released as a precinct in the middle of the night,100,10512,>98%,>98% reported,edison,10,unknown,708,5938,4574,3148,3488,2020-11-22T14:47:22Z,12.97565,R+13,Cline +13,republican,VA-G-H-6-2020-11-03,va-house-general-district-006-2020-11-03,https://www.nytimes.com/interactive/2020/11/03/us/elections/results-virginia-house-district-6.html,https://www.nytimes.com/interactive/2020/11/03/us/elections/results-virginia.html,https://www.nytimes.com/interactive/2020/11/03/us/elections/ap-polls-virginia.html,https://www.nytimes.com/interactive/2020/11/03/us/elections/exit-polls-virginia.html,house,general,2020-11-03,FALSE,U.S. House District 6,U.S. House,H,solid-rep,6,District 6,VA,virginia,Virginia,Va.,horizontal,"",FALSE,TRUE,winner,AP,FALSE,"",381335,206199,19,unknown,Polls close at 7 p.m. Eastern time.,Polls close in,Polls have closed.,2020-11-04T00:00:00.000Z,7 p.m.,249,249,100% reporting,100%,100,381335,edison,>98%,>98% reported,edison,republican,FALSE,2020-11-22T19:51:05Z,TRUE,29.33825,111877,R+29,Cline +29,republican,"","",3,0,1604453733570
