fips,name,votes,absentee_votes,reporting,precincts,absentee_method,eevp,tot_exp_vote,eevp_value,eevp_display,eevp_source,turnout_stage,absentee_count_progress,absentee_max_ballots,results_mooneya,results_kunkelc,results_absentee_mooneya,results_absentee_kunkelc,last_updated,leader_margin_value,leader_margin_display,leader_margin_name_display,leader_party_id,race_id_race,race_slug_race,url_race,state_page_url_race,ap_polls_page_race,race_type_race,election_type_race,election_date_race,runoff_race,race_name_race,office_race,officeid_race,race_rating_race,seat_race,seat_name_race,state_id_race,state_slug_race,state_name_race,state_nyt_abbrev_race,state_shape_race,party_id_race,uncontested_race,report_race,result_race,result_source_race,gain_race,lost_seat_race,votes_race,absentee_votes_race,absentee_counties_race,absentee_count_progress_race,poll_display_race,poll_countdown_display_race,poll_waiting_display_race,poll_time_race,poll_time_short_race,precincts_reporting_race,precincts_total_race,reporting_display_race,reporting_value_race,eevp_race,tot_exp_vote_race,eevp_source_race,eevp_value_race,eevp_display_race,county_data_source_race,incumbent_party_race,no_forecast_race,last_updated_race,has_incumbent_race,leader_margin_value_race,leader_margin_votes_race,leader_margin_display_race,leader_margin_name_display_race,leader_party_id_race,expectations_text_race,expectations_text_short_race,absentee_ballot_deadline_race,absentee_postmark_deadline_race,winner_called_timestamp_race
54003,Berkeley,50470,0,66,66,Merged into voters' home precincts and released with cumulative results,100,47135,>98%,>98% reported,edison,2,unknown,15549,33772,16698,0,0,2020-11-16T15:48:01Z,33.83,R+34,Mooney +34,republican,WV-G-H-2-2020-11-03,wv-house-general-district-002-2020-11-03,https://www.nytimes.com/interactive/2020/11/03/us/elections/results-west-virginia-house-district-2.html,https://www.nytimes.com/interactive/2020/11/03/us/elections/results-west-virginia.html,https://www.nytimes.com/interactive/2020/11/03/us/elections/ap-polls-west-virginia.html,house,general,2020-11-03,FALSE,U.S. House District 2,U.S. House,H,solid-rep,2,District 2,WV,west-virginia,West Virginia,W.Va.,horizontal,"",FALSE,TRUE,winner,AP,FALSE,"",272994,58476,3,unknown,Polls close at 7:30 p.m. Eastern time.,Polls close in,Polls have closed.,2020-11-04T00:30:00.000Z,7:30 p.m.,527,542,97% reporting,97%,99,276000,edison,>98%,>98% reported,edison,republican,FALSE,2020-11-20T14:19:09Z,TRUE,26.15296,71396,R+26,Mooney +26,republican,"","",6,0,1604458735481
54007,Braxton,5358,0,17,18,Merged into voters' home precincts and released with cumulative results,96,5599,96%,96% reported,edison,2,unknown,2472,3460,1898,0,0,2020-11-16T15:48:02Z,29.15267,R+29,Mooney +29,republican,WV-G-H-2-2020-11-03,wv-house-general-district-002-2020-11-03,https://www.nytimes.com/interactive/2020/11/03/us/elections/results-west-virginia-house-district-2.html,https://www.nytimes.com/interactive/2020/11/03/us/elections/results-west-virginia.html,https://www.nytimes.com/interactive/2020/11/03/us/elections/ap-polls-west-virginia.html,house,general,2020-11-03,FALSE,U.S. House District 2,U.S. House,H,solid-rep,2,District 2,WV,west-virginia,West Virginia,W.Va.,horizontal,"",FALSE,TRUE,winner,AP,FALSE,"",272994,58476,3,unknown,Polls close at 7:30 p.m. Eastern time.,Polls close in,Polls have closed.,2020-11-04T00:30:00.000Z,7:30 p.m.,527,542,97% reporting,97%,99,276000,edison,>98%,>98% reported,edison,republican,FALSE,2020-11-20T14:19:09Z,TRUE,26.15296,71396,R+26,Mooney +26,republican,"","",6,0,1604458735481
54013,Calhoun,2767,0,10,10,Merged into voters' home precincts and released with cumulative results,96,2879,96%,96% reported,edison,2,unknown,965,1917,850,0,0,2020-11-16T15:48:02Z,38.56162,R+39,Mooney +39,republican,WV-G-H-2-2020-11-03,wv-house-general-district-002-2020-11-03,https://www.nytimes.com/interactive/2020/11/03/us/elections/results-west-virginia-house-district-2.html,https://www.nytimes.com/interactive/2020/11/03/us/elections/results-west-virginia.html,https://www.nytimes.com/interactive/2020/11/03/us/elections/ap-polls-west-virginia.html,house,general,2020-11-03,FALSE,U.S. House District 2,U.S. House,H,solid-rep,2,District 2,WV,west-virginia,West Virginia,W.Va.,horizontal,"",FALSE,TRUE,winner,AP,FALSE,"",272994,58476,3,unknown,Polls close at 7:30 p.m. Eastern time.,Polls close in,Polls have closed.,2020-11-04T00:30:00.000Z,7:30 p.m.,527,542,97% reporting,97%,99,276000,edison,>98%,>98% reported,edison,republican,FALSE,2020-11-20T14:19:09Z,TRUE,26.15296,71396,R+26,Mooney +26,republican,"","",6,0,1604458735481
54015,Clay,3201,0,11,11,Merged into voters' home precincts and released with cumulative results,98,3269,98%,98% reported,edison,2,unknown,1368,2234,967,0,0,2020-11-16T15:48:03Z,39.58138,R+40,Mooney +40,republican,WV-G-H-2-2020-11-03,wv-house-general-district-002-2020-11-03,https://www.nytimes.com/interactive/2020/11/03/us/elections/results-west-virginia-house-district-2.html,https://www.nytimes.com/interactive/2020/11/03/us/elections/results-west-virginia.html,https://www.nytimes.com/interactive/2020/11/03/us/elections/ap-polls-west-virginia.html,house,general,2020-11-03,FALSE,U.S. House District 2,U.S. House,H,solid-rep,2,District 2,WV,west-virginia,West Virginia,W.Va.,horizontal,"",FALSE,TRUE,winner,AP,FALSE,"",272994,58476,3,unknown,Polls close at 7:30 p.m. Eastern time.,Polls close in,Polls have closed.,2020-11-04T00:30:00.000Z,7:30 p.m.,527,542,97% reporting,97%,99,276000,edison,>98%,>98% reported,edison,republican,FALSE,2020-11-20T14:19:09Z,TRUE,26.15296,71396,R+26,Mooney +26,republican,"","",6,0,1604458735481
54027,Hampshire,9710,0,24,24,None,100,9494,>98%,>98% reported,edison,6,all,2597,7662,2048,0,0,2020-11-16T15:48:04Z,57.81668,R+58,Mooney +58,republican,WV-G-H-2-2020-11-03,wv-house-general-district-002-2020-11-03,https://www.nytimes.com/interactive/2020/11/03/us/elections/results-west-virginia-house-district-2.html,https://www.nytimes.com/interactive/2020/11/03/us/elections/results-west-virginia.html,https://www.nytimes.com/interactive/2020/11/03/us/elections/ap-polls-west-virginia.html,house,general,2020-11-03,FALSE,U.S. House District 2,U.S. House,H,solid-rep,2,District 2,WV,west-virginia,West Virginia,W.Va.,horizontal,"",FALSE,TRUE,winner,AP,FALSE,"",272994,58476,3,unknown,Polls close at 7:30 p.m. Eastern time.,Polls close in,Polls have closed.,2020-11-04T00:30:00.000Z,7:30 p.m.,527,542,97% reporting,97%,99,276000,edison,>98%,>98% reported,edison,republican,FALSE,2020-11-20T14:19:09Z,TRUE,26.15296,71396,R+26,Mooney +26,republican,"","",6,0,1604458735481
54031,Hardy,6161,0,14,14,Other,99,6207,>98%,>98% reported,edison,2,unknown,1837,4684,1477,0,0,2020-11-16T15:48:04Z,52.05324,R+52,Mooney +52,republican,WV-G-H-2-2020-11-03,wv-house-general-district-002-2020-11-03,https://www.nytimes.com/interactive/2020/11/03/us/elections/results-west-virginia-house-district-2.html,https://www.nytimes.com/interactive/2020/11/03/us/elections/results-west-virginia.html,https://www.nytimes.com/interactive/2020/11/03/us/elections/ap-polls-west-virginia.html,house,general,2020-11-03,FALSE,U.S. House District 2,U.S. House,H,solid-rep,2,District 2,WV,west-virginia,West Virginia,W.Va.,horizontal,"",FALSE,TRUE,winner,AP,FALSE,"",272994,58476,3,unknown,Polls close at 7:30 p.m. Eastern time.,Polls close in,Polls have closed.,2020-11-04T00:30:00.000Z,7:30 p.m.,527,542,97% reporting,97%,99,276000,edison,>98%,>98% reported,edison,republican,FALSE,2020-11-20T14:19:09Z,TRUE,26.15296,71396,R+26,Mooney +26,republican,"","",6,0,1604458735481
54035,Jackson,13024,0,30,31,Merged into voters' home precincts and released with cumulative results,97,13406,97%,97% reported,edison,2,unknown,6758,9066,3958,0,0,2020-11-16T15:48:05Z,39.2199,R+39,Mooney +39,republican,WV-G-H-2-2020-11-03,wv-house-general-district-002-2020-11-03,https://www.nytimes.com/interactive/2020/11/03/us/elections/results-west-virginia-house-district-2.html,https://www.nytimes.com/interactive/2020/11/03/us/elections/results-west-virginia.html,https://www.nytimes.com/interactive/2020/11/03/us/elections/ap-polls-west-virginia.html,house,general,2020-11-03,FALSE,U.S. House District 2,U.S. House,H,solid-rep,2,District 2,WV,west-virginia,West Virginia,W.Va.,horizontal,"",FALSE,TRUE,winner,AP,FALSE,"",272994,58476,3,unknown,Polls close at 7:30 p.m. Eastern time.,Polls close in,Polls have closed.,2020-11-04T00:30:00.000Z,7:30 p.m.,527,542,97% reporting,97%,99,276000,edison,>98%,>98% reported,edison,republican,FALSE,2020-11-20T14:19:09Z,TRUE,26.15296,71396,R+26,Mooney +26,republican,"","",6,0,1604458735481
54037,Jefferson,27182,0,32,32,Released as a separate subtotal as first report of the night,100,26562,>98%,>98% reported,edison,4,some,10602,15712,11470,0,0,2020-11-16T15:48:05Z,15.60592,R+16,Mooney +16,republican,WV-G-H-2-2020-11-03,wv-house-general-district-002-2020-11-03,https://www.nytimes.com/interactive/2020/11/03/us/elections/results-west-virginia-house-district-2.html,https://www.nytimes.com/interactive/2020/11/03/us/elections/results-west-virginia.html,https://www.nytimes.com/interactive/2020/11/03/us/elections/ap-polls-west-virginia.html,house,general,2020-11-03,FALSE,U.S. House District 2,U.S. House,H,solid-rep,2,District 2,WV,west-virginia,West Virginia,W.Va.,horizontal,"",FALSE,TRUE,winner,AP,FALSE,"",272994,58476,3,unknown,Polls close at 7:30 p.m. Eastern time.,Polls close in,Polls have closed.,2020-11-04T00:30:00.000Z,7:30 p.m.,527,542,97% reporting,97%,99,276000,edison,>98%,>98% reported,edison,republican,FALSE,2020-11-20T14:19:09Z,TRUE,26.15296,71396,R+26,Mooney +26,republican,"","",6,0,1604458735481
54039,Kanawha,78859,40944,160,169,Merged into voters' home precincts and released with cumulative results,95,83259,95%,95% reported,edison,4,all,23987,40844,38015,17690,23254,2020-11-16T15:48:06Z,3.58742,R+4,Mooney +4,republican,WV-G-H-2-2020-11-03,wv-house-general-district-002-2020-11-03,https://www.nytimes.com/interactive/2020/11/03/us/elections/results-west-virginia-house-district-2.html,https://www.nytimes.com/interactive/2020/11/03/us/elections/results-west-virginia.html,https://www.nytimes.com/interactive/2020/11/03/us/elections/ap-polls-west-virginia.html,house,general,2020-11-03,FALSE,U.S. House District 2,U.S. House,H,solid-rep,2,District 2,WV,west-virginia,West Virginia,W.Va.,horizontal,"",FALSE,TRUE,winner,AP,FALSE,"",272994,58476,3,unknown,Polls close at 7:30 p.m. Eastern time.,Polls close in,Polls have closed.,2020-11-04T00:30:00.000Z,7:30 p.m.,527,542,97% reporting,97%,99,276000,edison,>98%,>98% reported,edison,republican,FALSE,2020-11-20T14:19:09Z,TRUE,26.15296,71396,R+26,Mooney +26,republican,"","",6,0,1604458735481
54041,Lewis,7250,0,23,24,Merged into voters' home precincts and released with cumulative results,95,7621,95%,95% reported,edison,2,unknown,2592,5272,1978,0,0,2020-11-16T15:48:07Z,45.43448,R+45,Mooney +45,republican,WV-G-H-2-2020-11-03,wv-house-general-district-002-2020-11-03,https://www.nytimes.com/interactive/2020/11/03/us/elections/results-west-virginia-house-district-2.html,https://www.nytimes.com/interactive/2020/11/03/us/elections/results-west-virginia.html,https://www.nytimes.com/interactive/2020/11/03/us/elections/ap-polls-west-virginia.html,house,general,2020-11-03,FALSE,U.S. House District 2,U.S. House,H,solid-rep,2,District 2,WV,west-virginia,West Virginia,W.Va.,horizontal,"",FALSE,TRUE,winner,AP,FALSE,"",272994,58476,3,unknown,Polls close at 7:30 p.m. Eastern time.,Polls close in,Polls have closed.,2020-11-04T00:30:00.000Z,7:30 p.m.,527,542,97% reporting,97%,99,276000,edison,>98%,>98% reported,edison,republican,FALSE,2020-11-20T14:19:09Z,TRUE,26.15296,71396,R+26,Mooney +26,republican,"","",6,0,1604458735481
54065,Morgan,8411,0,13,13,Merged into voters' home precincts and released with cumulative results,100,8419,>98%,>98% reported,edison,2,unknown,3563,6308,2103,0,0,2020-11-16T15:48:07Z,49.99406,R+50,Mooney +50,republican,WV-G-H-2-2020-11-03,wv-house-general-district-002-2020-11-03,https://www.nytimes.com/interactive/2020/11/03/us/elections/results-west-virginia-house-district-2.html,https://www.nytimes.com/interactive/2020/11/03/us/elections/results-west-virginia.html,https://www.nytimes.com/interactive/2020/11/03/us/elections/ap-polls-west-virginia.html,house,general,2020-11-03,FALSE,U.S. House District 2,U.S. House,H,solid-rep,2,District 2,WV,west-virginia,West Virginia,W.Va.,horizontal,"",FALSE,TRUE,winner,AP,FALSE,"",272994,58476,3,unknown,Polls close at 7:30 p.m. Eastern time.,Polls close in,Polls have closed.,2020-11-04T00:30:00.000Z,7:30 p.m.,527,542,97% reporting,97%,99,276000,edison,>98%,>98% reported,edison,republican,FALSE,2020-11-20T14:19:09Z,TRUE,26.15296,71396,R+26,Mooney +26,republican,"","",6,0,1604458735481
54071,Pendleton,3488,1516,9,9,Merged into voters' home precincts and released with cumulative results,98,3548,98%,98% reported,edison,2,some,1341,2574,914,916,600,2020-11-16T15:48:09Z,47.59174,R+48,Mooney +48,republican,WV-G-H-2-2020-11-03,wv-house-general-district-002-2020-11-03,https://www.nytimes.com/interactive/2020/11/03/us/elections/results-west-virginia-house-district-2.html,https://www.nytimes.com/interactive/2020/11/03/us/elections/results-west-virginia.html,https://www.nytimes.com/interactive/2020/11/03/us/elections/ap-polls-west-virginia.html,house,general,2020-11-03,FALSE,U.S. House District 2,U.S. House,H,solid-rep,2,District 2,WV,west-virginia,West Virginia,W.Va.,horizontal,"",FALSE,TRUE,winner,AP,FALSE,"",272994,58476,3,unknown,Polls close at 7:30 p.m. Eastern time.,Polls close in,Polls have closed.,2020-11-04T00:30:00.000Z,7:30 p.m.,527,542,97% reporting,97%,99,276000,edison,>98%,>98% reported,edison,republican,FALSE,2020-11-20T14:19:09Z,TRUE,26.15296,71396,R+26,Mooney +26,republican,"","",6,0,1604458735481
54079,Putnam,27472,16016,46,46,Released as a separate subtotal as first report of the night,100,27316,>98%,>98% reported,edison,6,all,10869,18108,9364,9765,6251,2020-11-16T15:48:10Z,31.82877,R+32,Mooney +32,republican,WV-G-H-2-2020-11-03,wv-house-general-district-002-2020-11-03,https://www.nytimes.com/interactive/2020/11/03/us/elections/results-west-virginia-house-district-2.html,https://www.nytimes.com/interactive/2020/11/03/us/elections/results-west-virginia.html,https://www.nytimes.com/interactive/2020/11/03/us/elections/ap-polls-west-virginia.html,house,general,2020-11-03,FALSE,U.S. House District 2,U.S. House,H,solid-rep,2,District 2,WV,west-virginia,West Virginia,W.Va.,horizontal,"",FALSE,TRUE,winner,AP,FALSE,"",272994,58476,3,unknown,Polls close at 7:30 p.m. Eastern time.,Polls close in,Polls have closed.,2020-11-04T00:30:00.000Z,7:30 p.m.,527,542,97% reporting,97%,99,276000,edison,>98%,>98% reported,edison,republican,FALSE,2020-11-20T14:19:09Z,TRUE,26.15296,71396,R+26,Mooney +26,republican,"","",6,0,1604458735481
54083,Randolph,11718,0,26,27,Merged into voters' home precincts and released with cumulative results,98,11964,98%,98% reported,edison,2,unknown,4790,7677,4041,0,0,2020-11-16T15:48:10Z,31.02919,R+31,Mooney +31,republican,WV-G-H-2-2020-11-03,wv-house-general-district-002-2020-11-03,https://www.nytimes.com/interactive/2020/11/03/us/elections/results-west-virginia-house-district-2.html,https://www.nytimes.com/interactive/2020/11/03/us/elections/results-west-virginia.html,https://www.nytimes.com/interactive/2020/11/03/us/elections/ap-polls-west-virginia.html,house,general,2020-11-03,FALSE,U.S. House District 2,U.S. House,H,solid-rep,2,District 2,WV,west-virginia,West Virginia,W.Va.,horizontal,"",FALSE,TRUE,winner,AP,FALSE,"",272994,58476,3,unknown,Polls close at 7:30 p.m. Eastern time.,Polls close in,Polls have closed.,2020-11-04T00:30:00.000Z,7:30 p.m.,527,542,97% reporting,97%,99,276000,edison,>98%,>98% reported,edison,republican,FALSE,2020-11-20T14:19:09Z,TRUE,26.15296,71396,R+26,Mooney +26,republican,"","",6,0,1604458735481
54087,Roane,5567,0,17,18,Merged into voters' home precincts and released with cumulative results,96,5772,96%,96% reported,edison,2,unknown,3131,3737,1830,0,0,2020-11-16T15:48:11Z,34.25543,R+34,Mooney +34,republican,WV-G-H-2-2020-11-03,wv-house-general-district-002-2020-11-03,https://www.nytimes.com/interactive/2020/11/03/us/elections/results-west-virginia-house-district-2.html,https://www.nytimes.com/interactive/2020/11/03/us/elections/results-west-virginia.html,https://www.nytimes.com/interactive/2020/11/03/us/elections/ap-polls-west-virginia.html,house,general,2020-11-03,FALSE,U.S. House District 2,U.S. House,H,solid-rep,2,District 2,WV,west-virginia,West Virginia,W.Va.,horizontal,"",FALSE,TRUE,winner,AP,FALSE,"",272994,58476,3,unknown,Polls close at 7:30 p.m. Eastern time.,Polls close in,Polls have closed.,2020-11-04T00:30:00.000Z,7:30 p.m.,527,542,97% reporting,97%,99,276000,edison,>98%,>98% reported,edison,republican,FALSE,2020-11-20T14:19:09Z,TRUE,26.15296,71396,R+26,Mooney +26,republican,"","",6,0,1604458735481
54097,Upshur,9835,0,20,21,Merged into voters' home precincts and released with cumulative results,97,10140,97%,97% reported,edison,2,unknown,5370,7240,2595,0,0,2020-11-16T15:48:11Z,47.22928,R+47,Mooney +47,republican,WV-G-H-2-2020-11-03,wv-house-general-district-002-2020-11-03,https://www.nytimes.com/interactive/2020/11/03/us/elections/results-west-virginia-house-district-2.html,https://www.nytimes.com/interactive/2020/11/03/us/elections/results-west-virginia.html,https://www.nytimes.com/interactive/2020/11/03/us/elections/ap-polls-west-virginia.html,house,general,2020-11-03,FALSE,U.S. House District 2,U.S. House,H,solid-rep,2,District 2,WV,west-virginia,West Virginia,W.Va.,horizontal,"",FALSE,TRUE,winner,AP,FALSE,"",272994,58476,3,unknown,Polls close at 7:30 p.m. Eastern time.,Polls close in,Polls have closed.,2020-11-04T00:30:00.000Z,7:30 p.m.,527,542,97% reporting,97%,99,276000,edison,>98%,>98% reported,edison,republican,FALSE,2020-11-20T14:19:09Z,TRUE,26.15296,71396,R+26,Mooney +26,republican,"","",6,0,1604458735481
54105,Wirt,2521,0,9,9,None,95,2664,95%,95% reported,edison,2,unknown,1184,1928,593,0,0,2020-11-16T15:48:12Z,52.95518,R+53,Mooney +53,republican,WV-G-H-2-2020-11-03,wv-house-general-district-002-2020-11-03,https://www.nytimes.com/interactive/2020/11/03/us/elections/results-west-virginia-house-district-2.html,https://www.nytimes.com/interactive/2020/11/03/us/elections/results-west-virginia.html,https://www.nytimes.com/interactive/2020/11/03/us/elections/ap-polls-west-virginia.html,house,general,2020-11-03,FALSE,U.S. House District 2,U.S. House,H,solid-rep,2,District 2,WV,west-virginia,West Virginia,W.Va.,horizontal,"",FALSE,TRUE,winner,AP,FALSE,"",272994,58476,3,unknown,Polls close at 7:30 p.m. Eastern time.,Polls close in,Polls have closed.,2020-11-04T00:30:00.000Z,7:30 p.m.,527,542,97% reporting,97%,99,276000,edison,>98%,>98% reported,edison,republican,FALSE,2020-11-20T14:19:09Z,TRUE,26.15296,71396,R+26,Mooney +26,republican,"","",6,0,1604458735481
