fips,name,votes,absentee_votes,reporting,precincts,absentee_method,eevp,tot_exp_vote,eevp_value,eevp_display,eevp_source,turnout_stage,absentee_count_progress,absentee_outstanding,absentee_max_ballots,provisional_outstanding,provisional_count_progress,results_trumpd,results_bidenj,results_jorgensenj,results_la_rivag,results_collinsp,results_westk,results_hawkinsh,results_gammonc,results_blankenshipd,results_carrollb,results_de_la_fuenter,results_myersj,results_pierceb,results_absentee_trumpd,results_absentee_bidenj,results_absentee_jorgensenj,results_absentee_la_rivag,results_absentee_collinsp,results_absentee_westk,results_absentee_hawkinsh,results_absentee_gammonc,results_absentee_blankenshipd,results_absentee_carrollb,results_absentee_de_la_fuenter,results_absentee_myersj,results_absentee_pierceb,last_updated,leader_margin_value,leader_margin_display,leader_margin_name_display,leader_party_id,margin2020,votes2016,margin2016,votes2012,margin2012,state,retrieved_time
05001,Arkansas,6292,5531,27,30,Released as a precinct as first report of the night,94,6697,94%,94% reported,edison,2,unknown,,6286,,,4304,1818,46,23,22,19,16,13,9,7,7,4,4,3803,1591,38,20,18,14,11,11,7,5,7,2,4,2020-11-24T13:22:29Z,39.51049,R+40,Trump +40,republican,39.51049,6212,30.4,6494,22.21,arkansas,2020-11-28T00:47:10.219741Z
05003,Ashley,7926,7911,26,30,Released as a separate subtotal as first report of the night,100,7911,>98%,>98% reported,edison,6,unknown,,5934,,,5548,2125,25,27,44,43,9,34,30,10,9,17,5,5540,2119,25,26,44,43,9,34,30,10,9,17,5,2020-11-24T13:22:34Z,43.18698,R+43,Trump +43,republican,43.18698,8083,36.2,7921,25.35,arkansas,2020-11-28T00:47:10.219741Z
05005,Baxter,21007,17888,41,43,Merged into voters' home precincts and released with cumulative results,95,22138,95%,95% reported,edison,4,some,,16848,,,15836,4635,183,10,31,72,43,16,78,27,24,11,41,13296,4186,138,6,24,48,33,13,60,19,22,8,35,2020-11-24T13:22:37Z,53.32032,R+53,Trump +53,republican,53.32032,19766,53.2,19339,44.04,arkansas,2020-11-28T00:47:10.219741Z
05007,Benton,119912,102890,117,117,Released as a separate subtotal as first report of the night,100,117000,>98%,>98% reported,edison,4,some,,64995,,,73965,42249,1972,105,116,323,277,102,115,170,153,90,275,62366,37684,1507,79,92,237,213,88,92,131,115,69,217,2020-11-24T13:21:45Z,26.4494,R+26,Trump +26,republican,26.4494,96824,33.9,79257,40.39,arkansas,2020-11-28T00:47:10.219741Z
05009,Boone,17114,12784,28,30,Released as a separate subtotal as first report of the night,100,17103,>98%,>98% reported,edison,6,all,,15309,,,13652,3064,153,9,22,39,55,21,17,37,12,13,20,9946,2572,89,5,19,23,41,17,12,28,8,9,15,2020-11-24T13:21:52Z,61.86748,R+62,Trump +62,republican,61.86748,16111,57.8,15391,48,arkansas,2020-11-28T00:47:10.219741Z
05011,Bradley,3654,2556,13,14,Released as a precinct as first report of the night,97,3767,97%,97% reported,edison,2,unknown,,2557,,,2335,1214,33,14,10,15,4,1,8,6,0,4,10,1561,921,26,12,7,7,4,0,7,1,0,2,8,2020-11-24T13:21:55Z,30.67871,R+31,Trump +31,republican,30.67871,3653,23.2,3652,18.76,arkansas,2020-11-28T00:47:10.219741Z
05013,Calhoun,2182,1409,17,20,Released as a precinct as first report of the night,93,2340,93%,93% reported,edison,2,unknown,,1190,,,1636,479,16,2,6,12,8,4,2,3,3,2,9,1030,339,12,1,2,9,3,3,0,1,2,1,6,2020-11-24T13:21:57Z,53.02475,R+53,Trump +53,republican,53.02475,2269,40.4,2174,36.71,arkansas,2020-11-28T00:47:10.219741Z
05015,Carroll,11797,9297,13,13,Other,100,11095,>98%,>98% reported,edison,4,all,,6619,,,7424,4023,100,5,22,40,48,20,26,28,22,30,9,5489,3562,59,5,13,25,37,11,22,23,19,24,8,2020-11-24T13:22:00Z,28.82936,R+29,Trump +29,republican,28.82936,10758,32,10183,23.85,arkansas,2020-11-28T00:47:10.219741Z
05017,Chicot,4103,2887,11,13,Released as a precinct as first report of the night,84,4884,84%,84% reported,edison,2,unknown,,2805,,,1752,2260,17,7,5,20,5,2,5,8,2,4,16,1390,1436,13,4,4,12,4,1,4,4,2,3,10,2020-11-24T13:22:02Z,12.38118,D+12,Biden +12,democrat,-12.38118,4176,-15.2,4361,-22.45,arkansas,2020-11-28T00:47:10.219741Z
05019,Clark,8395,6522,27,27,Merged into voters' home precincts and released with cumulative results,100,8358,>98%,>98% reported,edison,6,unknown,,6814,,,4616,3438,79,12,66,37,48,12,29,24,13,11,10,3356,2928,57,8,44,27,26,9,20,19,12,7,9,2020-11-24T13:22:09Z,14.03216,R+14,Trump +14,republican,14.03216,8526,9.2,8409,6.33,arkansas,2020-11-28T00:47:10.219741Z
05021,Clay,5183,1403,15,17,Other,97,5363,97%,97% reported,edison,2,unknown,,3371,,,4086,962,53,3,13,11,11,4,19,3,1,8,9,1087,269,23,1,3,4,5,1,4,1,0,4,1,2020-11-24T13:22:12Z,60.27397,R+60,Trump +60,republican,60.27397,5200,49.7,5110,29.1,arkansas,2020-11-28T00:47:10.219741Z
05023,Cleburne,12680,8472,32,34,Other,100,12617,>98%,>98% reported,edison,6,some,,7784,,,10328,1988,105,2,74,29,10,25,57,26,7,19,10,6712,1530,70,1,46,15,4,20,34,13,4,16,7,2020-11-24T13:22:15Z,65.77287,R+66,Trump +66,republican,65.77287,12085,60.9,11647,52.14,arkansas,2020-11-28T00:47:10.219741Z
05025,Cleveland,3600,2164,16,17,"As a subtotal in the FIRST cumulative report, along with regular precincts",100,3459,>98%,>98% reported,edison,2,unknown,,1656,,,2867,651,27,1,8,5,8,2,5,2,5,8,11,1654,461,14,0,5,4,4,1,3,1,4,6,7,2020-11-24T13:22:19Z,61.55556,R+62,Trump +62,republican,61.55556,3354,51.8,3266,44.95,arkansas,2020-11-28T00:47:10.219741Z
05027,Columbia,8616,7318,12,14,"As a precinct in the FIRST cumulative report, along with regular precincts",100,8550,>98%,>98% reported,edison,6,all,,9640,,,5500,2814,53,12,26,19,71,9,47,17,27,10,11,4713,2363,41,10,17,11,61,8,37,16,26,9,6,2020-11-24T13:22:22Z,31.17456,R+31,Trump +31,republican,31.17456,8887,26.1,9455,23.62,arkansas,2020-11-28T00:47:10.219741Z
05029,Conway,8685,5957,30,31,Released as a precinct as first report of the night,100,8641,>98%,>98% reported,edison,6,all,,5139,,,5694,2615,78,5,88,31,18,20,22,8,34,49,23,3640,2101,52,1,48,19,9,14,13,5,21,21,13,2020-11-24T13:22:25Z,35.45193,R+35,Trump +35,republican,35.45193,7927,27.7,7730,19.52,arkansas,2020-11-28T00:47:10.219741Z
05031,Craighead,38511,28532,51,53,Released as a precinct as first report of the night,100,38364,>98%,>98% reported,edison,6,all,,28910,,,25558,11921,440,40,40,157,121,43,71,64,17,11,28,18477,9435,277,20,23,83,63,27,42,46,11,9,19,2020-11-24T13:22:28Z,35.41066,R+35,Trump +35,republican,35.41066,35573,34.7,31700,30.99,arkansas,2020-11-28T00:47:10.219741Z
05033,Crawford,24091,18786,41,43,Released as a precinct as first report of the night,96,25144,96%,96% reported,edison,4,some,,10542,,,18607,4959,274,8,39,49,35,22,22,9,26,12,29,14299,4132,177,5,27,29,25,17,16,6,21,8,24,2020-11-24T13:22:33Z,56.65186,R+57,Trump +57,republican,56.65186,22450,54.3,20591,49.85,arkansas,2020-11-28T00:47:10.219741Z
05035,Crittenden,16367,13305,20,22,Released as a precinct as first report of the night,87,18722,87%,87% reported,edison,2,unknown,,16062,,,7333,8514,112,22,45,128,29,63,25,24,35,19,18,6182,6750,95,12,28,89,21,42,19,16,23,12,16,2020-11-24T13:22:36Z,7.21574,D+7,Biden +7,democrat,-7.21574,15952,-9.1,16716,-14.89,arkansas,2020-11-28T00:47:10.219741Z
05037,Cross,6942,5545,19,21,Released as a precinct as first report of the night,98,7090,98%,98% reported,edison,2,unknown,,6533,,,4946,1772,48,5,30,37,8,5,14,9,4,43,21,3952,1428,36,5,17,26,4,3,10,8,4,35,17,2020-11-24T13:22:41Z,45.72169,R+46,Trump +46,republican,45.72169,6874,37.6,6681,29.79,arkansas,2020-11-28T00:47:10.219741Z
05039,Dallas,2649,1701,8,9,Released as a precinct as first report of the night,77,3454,77%,77% reported,edison,2,unknown,,2288,,,1573,963,14,9,8,19,3,8,9,3,5,17,18,928,712,8,8,3,8,2,4,6,2,3,7,10,2020-11-24T13:22:44Z,23.02756,R+23,Trump +23,republican,23.02756,2771,12.4,3084,10.64,arkansas,2020-11-28T00:47:10.219741Z
05041,Desha,4164,3166,18,21,Released as a precinct as first report of the night,84,4950,84%,84% reported,edison,2,unknown,,1597,,,1921,2016,18,37,10,24,10,5,10,5,33,35,40,1503,1514,12,22,7,13,8,2,8,3,22,25,27,2020-11-24T13:22:47Z,2.28146,D+2,Biden +2,democrat,-2.28146,4257,-7.3,4420,-12.38,arkansas,2020-11-28T00:47:10.219741Z
05043,Drew,6908,5446,18,19,Released as a precinct as first report of the night,100,6841,>98%,>98% reported,edison,2,some,,5899,,,4349,2426,27,4,14,38,21,0,2,6,3,8,10,3399,1967,18,0,8,23,14,0,0,4,2,2,9,2020-11-24T13:22:51Z,27.83729,R+28,Trump +28,republican,27.83729,6595,24.3,6633,18.95,arkansas,2020-11-28T00:47:10.219741Z
05045,Faulkner,54428,46862,51,51,Released as a precinct as first report of the night,100,54000,>98%,>98% reported,edison,4,all,,39644,,,34421,18347,840,61,78,189,159,15,53,91,56,67,51,29266,16278,654,45,54,145,127,14,45,83,47,58,46,2020-11-24T13:22:52Z,29.53259,R+30,Trump +30,republican,29.53259,47527,31,41460,31.6,arkansas,2020-11-28T00:47:10.219741Z
05047,Franklin,7129,5485,37,39,Merged into voters' home precincts and released with cumulative results,100,6982,>98%,>98% reported,edison,2,unknown,,4789,,,5677,1300,67,0,17,11,9,4,11,15,10,3,5,4309,1071,48,0,13,10,8,1,4,10,6,1,4,2020-11-24T13:22:54Z,61.39711,R+61,Trump +61,republican,61.39711,6770,54.1,6540,44.42,arkansas,2020-11-28T00:47:10.219741Z
05049,Fulton,5119,3549,10,10,Released as a precinct in the middle of the night,100,5098,>98%,>98% reported,edison,6,all,,3222,,,3961,1035,38,5,10,9,4,2,14,1,7,4,29,2650,823,24,3,4,4,2,2,11,1,5,3,17,2020-11-24T13:22:58Z,57.1596,R+57,Trump +57,republican,57.1596,4772,50.4,4522,33.1,arkansas,2020-11-28T00:47:10.219741Z
05051,Garland,44199,38396,54,56,"As a subtotal in the FIRST cumulative report, along with regular precincts",97,45702,97%,97% reported,edison,2,some,,38437,,,29069,14045,396,28,64,88,102,73,137,51,27,31,88,24871,12674,310,19,51,57,79,58,112,47,19,25,74,2020-11-24T13:23:00Z,33.99172,R+34,Trump +34,republican,33.99172,40805,33.8,40728,29.98,arkansas,2020-11-28T00:47:10.219741Z
05053,Grant,8200,6018,18,18,Released as a precinct as first report of the night,100,8197,>98%,>98% reported,edison,6,all,,3816,,,6794,1268,56,3,11,9,8,9,6,6,10,13,7,4922,1015,34,0,4,7,6,5,4,3,7,7,4,2020-11-24T13:23:02Z,67.39024,R+67,Trump +67,republican,67.39024,7445,58.5,6479,51.88,arkansas,2020-11-28T00:47:10.219741Z
05055,Greene,16100,13237,65,66,Released separately AFTER election night,98,16352,98%,98% reported,edison,2,unknown,,12003,,,12670,3058,188,6,36,43,33,16,9,9,8,7,17,10353,2617,141,4,28,25,22,9,8,6,6,5,13,2020-11-24T16:20:39Z,59.70186,R+60,Trump +60,republican,59.70186,14600,52.4,13761,36.85,arkansas,2020-11-28T00:47:10.219741Z
05057,Hempstead,6848,4665,24,24,Released as a separate subtotal as first report of the night,94,7270,94%,94% reported,edison,4,all,,4430,,,4470,2138,31,4,19,58,24,25,6,5,18,22,28,2837,1683,19,2,9,32,16,17,3,4,12,11,20,2020-11-24T13:23:10Z,34.05374,R+34,Trump +34,republican,34.05374,7049,28.7,6921,26.24,arkansas,2020-11-28T00:47:10.219741Z
05059,Hot Spring,12557,10473,29,31,Released as a separate subtotal as first report of the night,94,13377,94%,94% reported,edison,2,unknown,,6128,,,9202,3082,93,6,26,38,16,17,15,11,6,8,37,7589,2681,64,3,22,27,10,16,10,9,5,5,32,2020-11-24T13:23:14Z,48.73776,R+49,Trump +49,republican,48.73776,11944,42.1,11260,29.01,arkansas,2020-11-28T00:47:10.219741Z
05061,Howard,4834,4497,33,36,Merged into voters' home precincts AFTER election night,100,4821,>98%,>98% reported,edison,2,unknown,,3030,,,3367,1340,27,14,20,17,11,8,13,4,2,1,10,3192,1182,26,14,19,16,11,8,12,4,2,1,10,2020-11-24T13:23:16Z,41.93215,R+42,Trump +42,republican,41.93215,4674,38.6,4462,31.85,arkansas,2020-11-28T00:47:10.219741Z
05063,Independence,14512,11011,32,34,Released as a separate subtotal at the end of tabulation,100,14041,>98%,>98% reported,edison,2,unknown,,7256,,,11250,2806,147,9,99,58,23,17,29,16,6,7,45,8388,2317,107,6,66,28,16,12,18,13,4,4,32,2020-11-24T13:23:18Z,58.18633,R+58,Trump +58,republican,58.18633,13614,51.8,12397,43.94,arkansas,2020-11-28T00:47:10.219741Z
05065,Izard,5810,4131,45,47,"As a precinct in the FIRST cumulative report, along with regular precincts",100,5619,>98%,>98% reported,edison,2,unknown,,3837,,,4631,1021,55,2,12,14,4,8,30,12,2,13,6,3211,814,37,1,7,11,3,5,18,8,1,10,5,2020-11-24T13:23:20Z,62.13425,R+62,Trump +62,republican,62.13425,5448,53.8,5278,38.86,arkansas,2020-11-28T00:47:10.219741Z
05067,Jackson,5091,3524,40,45,Released as a precinct at the end of tabulation,100,5076,>98%,>98% reported,edison,6,all,,4320,,,3593,1365,37,5,10,25,5,3,19,8,8,11,2,2357,1085,23,4,5,18,4,1,11,5,4,6,1,2020-11-24T13:23:22Z,43.7635,R+44,Trump +44,republican,43.7635,5156,32.7,5347,18.27,arkansas,2020-11-28T00:47:10.219741Z
05069,Jefferson,25158,16289,147,170,Released as a separate subtotal as first report of the night,82,30669,82%,82% reported,edison,2,unknown,,18848,,,9521,14981,106,73,60,132,26,49,24,59,77,23,27,4973,10925,49,50,35,71,21,31,15,33,57,12,17,2020-11-24T13:23:24Z,21.70284,D+22,Biden +22,democrat,-21.70284,25894,-25.2,27383,-29.03,arkansas,2020-11-28T00:47:10.219741Z
05071,Johnson,9498,6443,20,22,Released as a separate subtotal as first report of the night,100,9397,>98%,>98% reported,edison,2,unknown,,5392,,,6938,2283,97,11,31,30,25,6,20,13,17,3,24,4519,1761,55,8,20,15,16,4,12,10,8,1,14,2020-11-24T13:23:26Z,49.01032,R+49,Trump +49,republican,49.01032,9112,40.2,8098,27.97,arkansas,2020-11-28T00:47:10.219741Z
05073,Lafayette,2679,2333,21,25,Released as a separate subtotal as first report of the night,82,3280,82%,82% reported,edison,2,unknown,,2162,,,1757,839,9,12,13,22,5,1,6,0,5,3,7,1574,679,8,12,13,21,5,1,6,0,4,3,7,2020-11-24T13:23:28Z,34.26652,R+34,Trump +34,republican,34.26652,2860,25.4,2929,18.44,arkansas,2020-11-28T00:47:10.219741Z
05075,Lawrence,5857,3994,26,28,Released as a precinct as first report of the night,100,5863,>98%,>98% reported,edison,2,unknown,,3298,,,4569,1080,52,2,49,16,8,3,45,9,3,9,12,3032,823,38,2,36,10,5,1,27,5,3,5,7,2020-11-24T13:23:31Z,59.56975,R+60,Trump +60,republican,59.56975,5685,49.3,5540,31.55,arkansas,2020-11-28T00:47:10.219741Z
05077,Lee,2848,2101,8,9,"As a subtotal in the FIRST cumulative report, along with regular precincts",74,3835,74%,74% reported,edison,2,unknown,,2378,,,1286,1423,8,26,18,15,7,24,14,8,6,5,8,874,1114,8,22,12,11,5,21,9,7,5,5,8,2020-11-24T13:23:32Z,4.81039,D+5,Biden +5,democrat,-4.81039,3026,-16.7,3424,-24.15,arkansas,2020-11-28T00:47:10.219741Z
05079,Lincoln,3875,2277,24,26,Released as a separate subtotal as first report of the night,100,3870,>98%,>98% reported,edison,6,all,,2160,,,2729,1032,21,16,21,14,20,6,3,2,4,4,3,1628,588,12,8,15,6,6,5,2,1,2,3,1,2020-11-24T13:23:33Z,43.79355,R+44,Trump +44,republican,43.79355,3826,31.4,3726,20.77,arkansas,2020-11-28T00:47:10.219741Z
05081,Little River,5177,4130,19,22,Merged into voters' home precincts AFTER election night,100,5178,>98%,>98% reported,edison,6,all,,2893,,,3715,1226,44,19,11,17,7,13,83,3,1,29,9,2914,1036,34,15,11,12,6,10,57,3,0,24,8,2020-11-24T13:23:34Z,48.07804,R+48,Trump +48,republican,48.07804,5227,42.2,5051,36.29,arkansas,2020-11-28T00:47:10.219741Z
05083,Logan,8225,5805,33,36,Merged into voters' home precincts and released with cumulative results,100,8170,>98%,>98% reported,edison,2,unknown,,4488,,,6441,1544,88,6,27,24,16,12,28,7,5,14,13,4452,1200,50,5,18,13,13,8,18,4,4,11,9,2020-11-24T13:23:35Z,59.53799,R+60,Trump +60,republican,59.53799,7921,50.9,7331,41.88,arkansas,2020-11-28T00:47:10.219741Z
05085,Lonoke,30662,26484,55,55,Released as a separate subtotal as first report of the night,100,30352,>98%,>98% reported,edison,2,unknown,,20792,,,22884,6686,403,37,48,71,72,124,63,19,97,123,35,19718,5870,322,31,36,51,62,101,53,16,87,110,27,2020-11-24T13:23:37Z,52.8276,R+53,Trump +53,republican,52.8276,27100,52.7,24114,50.82,arkansas,2020-11-28T00:47:10.219741Z
05087,Madison,7351,4473,10,10,Released as a precinct as first report of the night,100,7315,>98%,>98% reported,edison,6,all,,3048,,,5658,1563,54,4,18,10,19,3,3,3,6,2,8,3212,1190,28,1,15,3,8,2,1,3,4,1,5,2020-11-24T13:23:38Z,55.70671,R+56,Trump +56,republican,55.70671,6841,48.8,6568,32.95,arkansas,2020-11-28T00:47:10.219741Z
05089,Marion,7503,5322,29,31,Released as a separate subtotal as first report of the night,100,7481,>98%,>98% reported,edison,6,all,,5478,,,5783,1531,65,4,19,7,19,27,7,7,7,20,7,3999,1201,39,4,11,3,14,20,4,6,4,12,5,2020-11-24T13:23:39Z,56.67067,R+57,Trump +57,republican,56.67067,7107,54.9,7051,38.82,arkansas,2020-11-28T00:47:10.219741Z
05091,Miller,16529,12875,17,19,Released as a separate subtotal as first report of the night,92,18022,92%,92% reported,edison,2,unknown,,11867,,,11920,4245,101,19,27,28,41,17,19,7,29,35,41,9127,3490,67,13,19,19,31,14,16,6,17,26,30,2020-11-24T13:23:40Z,46.43354,R+46,Trump +46,republican,46.43354,16091,43.6,15329,39.82,arkansas,2020-11-28T00:47:10.219741Z
05093,Mississippi,12287,9304,15,18,Released as a separate subtotal as first report of the night,89,13794,89%,89% reported,edison,2,unknown,,13013,,,7262,4542,121,13,86,48,23,16,28,44,17,35,52,5253,3715,75,8,68,31,16,9,22,34,13,19,41,2020-11-24T13:23:40Z,22.13722,R+22,Trump +22,republican,22.13722,13204,10.5,13375,1.02,arkansas,2020-11-28T00:47:10.219741Z
05095,Monroe,2816,1792,7,8,Released as a separate subtotal as first report of the night,78,3618,78%,78% reported,edison,2,unknown,,1656,,,1545,1147,12,19,6,10,33,20,5,1,2,12,4,1008,731,8,7,2,5,14,5,2,1,1,4,4,2020-11-24T13:23:41Z,14.13352,R+14,Trump +14,republican,14.13352,2884,6.1,3230,0.06,arkansas,2020-11-28T00:47:10.219741Z
05097,Montgomery,3873,2785,16,16,"As a subtotal in the FIRST cumulative report, along with regular precincts",100,3671,>98%,>98% reported,edison,2,unknown,,2037,,,3046,731,26,3,6,4,7,4,2,31,9,3,1,2108,609,19,3,3,3,5,4,2,17,8,3,1,2020-11-24T13:23:42Z,59.77279,R+60,Trump +60,republican,59.77279,3559,53.2,3404,42.57,arkansas,2020-11-28T00:47:10.219741Z
05099,Nevada,3358,1820,15,15,Released as a separate subtotal as first report of the night,100,3358,>98%,>98% reported,edison,6,unknown,,1874,,,2133,1076,8,3,29,5,26,0,46,3,8,14,7,1130,627,3,2,17,1,4,0,15,2,7,9,3,2020-11-24T20:30:37Z,31.47707,R+31,Trump +31,republican,31.47707,3246,26,3384,20.15,arkansas,2020-11-28T00:47:10.219741Z
05101,Newton,3998,2077,18,19,Released as a separate subtotal at the end of tabulation,100,3870,>98%,>98% reported,edison,2,unknown,,2074,,,3192,709,23,0,4,13,11,8,15,4,8,2,9,1540,492,15,0,1,4,5,0,7,2,6,2,3,2020-11-24T13:23:44Z,62.10605,R+62,Trump +62,republican,62.10605,3753,58,3661,41.38,arkansas,2020-11-28T00:47:10.219741Z
05103,Ouachita,9629,7624,16,19,Released as a separate subtotal as first report of the night,83,11553,83%,83% reported,edison,2,unknown,,8051,,,5294,3995,79,13,50,40,59,10,10,13,10,28,28,4344,2988,72,12,44,27,52,8,7,11,10,25,24,2020-11-24T13:23:45Z,13.4905,R+13,Trump +13,republican,13.4905,9935,10.4,10315,8.61,arkansas,2020-11-28T00:47:10.219741Z
05105,Perry,4627,3282,16,17,"As a precinct in the FIRST cumulative report, along with regular precincts",100,4607,>98%,>98% reported,edison,6,all,,2160,,,3479,1012,35,4,2,26,20,14,12,10,8,3,2,2421,784,19,2,1,14,11,8,8,5,6,1,2,2020-11-24T13:23:46Z,53.31748,R+53,Trump +53,republican,53.31748,4306,45.5,3938,35.4,arkansas,2020-11-28T00:47:10.219741Z
05107,Phillips,6242,4182,13,16,Released as a separate subtotal as first report of the night,100,6155,>98%,>98% reported,edison,6,all,,6973,,,2417,3623,15,14,47,44,16,10,23,5,4,13,11,1308,2778,9,11,22,19,9,7,6,3,2,3,5,2020-11-24T13:23:46Z,19.32073,D+19,Biden +19,democrat,-19.32073,6953,-26.8,7930,-32.84,arkansas,2020-11-28T00:47:10.219741Z
05109,Pike,4246,3279,10,11,Merged into voters' home precincts and released with cumulative results,100,4240,>98%,>98% reported,edison,6,all,,2610,,,3519,644,41,0,2,12,4,3,4,4,3,6,4,2693,530,29,0,0,8,3,3,3,3,1,4,2,2020-11-24T13:23:47Z,67.71079,R+68,Trump +68,republican,67.71079,3981,61.9,3788,52.69,arkansas,2020-11-28T00:47:10.219741Z
05111,Poinsett,7521,4239,8,9,Released as a separate subtotal as first report of the night,94,7964,94%,94% reported,edison,2,unknown,,2501,,,5918,1424,40,2,9,10,10,6,38,14,21,11,18,3284,850,22,1,3,4,7,4,24,8,15,9,8,2020-11-24T13:23:48Z,59.75269,R+60,Trump +60,republican,59.75269,7722,46.9,7560,34.18,arkansas,2020-11-28T00:47:10.219741Z
05113,Polk,8490,6316,16,17,Released as a separate subtotal as first report of the night,100,8489,>98%,>98% reported,edison,2,unknown,,5582,,,7035,1246,83,4,28,23,10,14,23,8,8,4,4,5116,1062,54,0,22,14,7,10,15,7,5,2,2,2020-11-24T13:23:48Z,68.1861,R+68,Trump +68,republican,68.1861,8231,65.7,7726,56.94,arkansas,2020-11-28T00:47:10.219741Z
05115,Pope,24432,20700,53,55,Released as a separate subtotal as first report of the night,97,25277,97%,97% reported,edison,4,all,,17896,,,18081,5772,240,25,51,74,54,18,23,37,20,16,21,15211,5057,187,14,40,47,40,11,19,31,11,14,18,2020-11-24T13:23:49Z,50.38065,R+50,Trump +50,republican,50.38065,22569,49.9,20439,47.15,arkansas,2020-11-28T00:47:10.219741Z
05117,Prairie,3495,2038,23,25,Merged into voters' home precincts and released with cumulative results,98,3552,98%,98% reported,edison,2,unknown,,1421,,,2786,654,16,0,3,8,3,3,5,2,3,1,11,1572,442,7,0,1,4,0,3,1,1,1,0,6,2020-11-24T13:23:49Z,61.00143,R+61,Trump +61,republican,61.00143,3444,49.1,3141,40.53,arkansas,2020-11-28T00:47:10.219741Z
05119,Pulaski,169956,134149,130,137,Released as a separate subtotal as first report of the night,95,178949,95%,95% reported,edison,4,all,,127309,,,63687,101947,1668,186,363,719,440,74,131,233,95,123,290,46435,84725,1146,133,230,436,306,55,96,189,83,86,229,2020-11-24T13:23:50Z,22.51171,D+23,Biden +23,democrat,-22.51171,159776,-17.7,159381,-11.46,arkansas,2020-11-28T00:47:10.219741Z
05121,Randolph,6812,5089,28,29,Released as a separate subtotal as first report of the night,100,6769,>98%,>98% reported,edison,6,all,,5349,,,5355,1215,55,9,85,36,10,8,12,9,4,6,8,3932,1000,40,9,54,18,7,5,8,5,3,4,4,2020-11-24T13:23:51Z,60.7751,R+61,Trump +61,republican,60.7751,6379,48.3,5956,27.79,arkansas,2020-11-28T00:47:10.219741Z
05123,Saint Francis,7108,5015,13,15,Released as a separate subtotal as first report of the night,76,9365,76%,76% reported,edison,2,unknown,,5859,,,3242,3604,37,27,22,20,21,15,11,4,8,40,57,2107,2754,20,16,11,14,14,8,6,3,7,24,31,2020-11-24T13:23:52Z,5.09285,D+5,Biden +5,democrat,-5.09285,7430,-11.3,8362,-18.44,arkansas,2020-11-28T00:47:10.219741Z
05125,Saline,56959,47831,41,42,Released as a separate subtotal as first report of the night,100,56903,>98%,>98% reported,edison,6,all,,38510,,,39556,16060,595,18,132,148,118,60,54,43,36,28,111,32630,14198,450,13,102,98,83,43,42,33,29,23,87,2020-11-24T13:23:53Z,41.25072,R+41,Trump +41,republican,41.25072,52100,43.4,47062,42.7,arkansas,2020-11-28T00:47:10.219741Z
05127,Scott,3551,2147,23,26,Released as a separate subtotal as first report of the night,95,3754,95%,95% reported,edison,2,unknown,,1949,,,2962,483,31,3,21,5,5,16,9,2,4,5,5,1722,364,16,1,13,2,3,8,7,1,1,5,4,2020-11-24T13:23:53Z,69.81132,R+70,Trump +70,republican,69.81132,3510,60.7,3640,47.64,arkansas,2020-11-28T00:47:10.219741Z
05129,Searcy,4019,2873,14,15,Released as a precinct as first report of the night,100,3845,>98%,>98% reported,edison,2,unknown,,3016,,,3365,588,30,0,2,7,4,4,9,5,0,2,3,2375,460,18,0,1,6,1,1,2,5,0,2,2,2020-11-24T13:23:54Z,69.09679,R+69,Trump +69,republican,69.09679,3728,63.1,3694,51.03,arkansas,2020-11-28T00:47:10.219741Z
05131,Sebastian,47140,37639,110,117,Released as a separate subtotal as first report of the night,94,49993,94%,94% reported,edison,2,all,,30462,,,31198,14487,804,29,92,148,98,38,56,67,39,31,53,24409,12208,579,15,63,99,67,22,40,51,21,25,40,2020-11-24T13:23:55Z,35.44972,R+35,Trump +35,republican,35.44972,44637,37.7,43362,37.08,arkansas,2020-11-28T00:47:10.219741Z
05133,Sevier,5202,3456,17,17,Released as a separate subtotal as first report of the night,100,4705,>98%,>98% reported,edison,2,unknown,,2310,,,3884,1116,55,18,7,17,10,8,50,10,7,19,1,2532,814,33,9,5,6,5,5,24,6,3,14,0,2020-11-24T13:23:55Z,53.2103,R+53,Trump +53,republican,53.2103,4562,48.4,4330,48.36,arkansas,2020-11-28T00:47:10.219741Z
05135,Sharp,7566,5865,23,25,Released as a separate subtotal as first report of the night,100,7511,>98%,>98% reported,edison,2,unknown,,5603,,,5938,1398,52,5,36,13,29,17,20,6,24,3,25,4519,1179,40,3,26,7,24,10,16,4,16,3,18,2020-11-24T13:23:56Z,60.00529,R+60,Trump +60,republican,60.00529,7249,54.3,7283,38.84,arkansas,2020-11-28T00:47:10.219741Z
05137,Stone,5938,4108,18,19,Released as a precinct in the middle of the night,100,5919,>98%,>98% reported,edison,6,all,,4534,,,4616,1180,47,2,9,21,19,4,18,3,4,6,9,3085,938,20,0,6,14,14,2,9,3,4,5,8,2020-11-24T13:23:57Z,57.8646,R+58,Trump +58,republican,57.8646,5618,51.8,5354,45.2,arkansas,2020-11-28T00:47:10.219741Z
05139,Union,16607,10108,25,28,Released as a separate subtotal as first report of the night,94,17715,94%,94% reported,edison,2,unknown,,12974,,,10478,5584,182,37,32,46,36,48,74,27,4,12,47,5941,3889,92,17,11,27,17,25,34,16,1,8,30,2020-11-24T13:23:57Z,29.4695,R+29,Trump +29,republican,29.4695,16894,27.2,17177,26.22,arkansas,2020-11-28T00:47:10.219741Z
05141,Van Buren,7807,6134,20,21,Released as a precinct as first report of the night,100,7569,>98%,>98% reported,edison,2,unknown,,4338,,,6034,1593,54,4,12,15,19,5,6,22,23,3,17,4665,1353,30,1,8,8,14,5,4,15,18,0,13,2020-11-24T13:23:58Z,56.88485,R+57,Trump +57,republican,56.88485,7339,52.2,6430,39.39,arkansas,2020-11-28T00:47:10.219741Z
05143,Washington,94266,74633,154,154,Released as a separate subtotal as first report of the night,100,91684,>98%,>98% reported,edison,2,unknown,,43475,,,47504,43824,1414,131,105,361,313,107,97,212,51,36,111,35414,37232,945,94,77,228,216,76,64,146,36,23,82,2020-11-24T13:23:58Z,3.90385,R+4,Trump +4,republican,3.90385,81861,9.9,70460,16.25,arkansas,2020-11-28T00:47:10.219741Z
05145,White,30885,22112,92,93,Merged into voters' home precincts and released with cumulative results,98,31359,98%,98% reported,edison,2,unknown,,18262,,,24182,5978,395,12,64,78,40,11,37,26,16,11,35,16986,4659,270,8,36,35,27,8,28,19,8,7,21,2020-11-24T13:23:59Z,58.94123,R+59,Trump +59,republican,58.94123,27999,56.8,26514,53.73,arkansas,2020-11-28T00:47:10.219741Z
05147,Woodruff,2476,1399,17,20,Merged into voters' home precincts and released with cumulative results,89,2769,89%,89% reported,edison,2,unknown,,1078,,,1543,856,14,4,10,9,6,6,3,1,5,12,7,817,535,6,1,8,7,2,4,2,0,2,10,5,2020-11-24T13:24:01Z,27.74637,R+28,Trump +28,republican,27.74637,2571,8.9,2685,-4.21,arkansas,2020-11-28T00:47:10.219741Z
05149,Yell,6741,4859,26,28,Released as a precinct as first report of the night,100,6641,>98%,>98% reported,edison,2,unknown,,3608,,,5226,1284,66,17,14,26,14,13,8,5,19,5,44,3688,1004,48,13,10,21,6,10,6,4,13,4,32,2020-11-24T13:24:01Z,58.47797,R+58,Trump +58,republican,58.47797,6439,48.6,5974,38.83,arkansas,2020-11-28T00:47:10.219741Z
