fips,name,votes,absentee_votes,reporting,precincts,absentee_method,eevp,tot_exp_vote,eevp_value,eevp_display,eevp_source,turnout_stage,absentee_count_progress,absentee_outstanding,absentee_max_ballots,provisional_outstanding,provisional_count_progress,results_bidenj,results_trumpd,results_jorgensenj,results_none_of_these_candidates,results_blankenshipd,results_absentee_bidenj,results_absentee_trumpd,results_absentee_jorgensenj,results_absentee_none_of_these_candidates,results_absentee_blankenshipd,last_updated,leader_margin_value,leader_margin_display,leader_margin_name_display,leader_party_id,margin2020,votes2016,margin2016,votes2012,margin2012,state,retrieved_time
32510,Carson City,29739,0,24,24,Merged into voters' home precincts and released with cumulative results,100,29739,>98%,>98% reported,edison,10,unknown,,26427,,,12735,16113,432,355,104,0,0,0,0,0,2020-11-27T21:21:03Z,11.35882,R+11,Trump +11,republican,11.35882,25016,14.1,23319,9.02,nevada,2020-11-28T00:47:59.008100Z
32001,Churchill,12890,0,19,19,Merged into voters' home precincts and released with cumulative results,100,12890,>98%,>98% reported,edison,10,unknown,,11522,,,3051,9372,282,150,35,0,0,0,0,0,2020-11-27T21:21:17Z,49.03801,R+49,Trump +49,republican,49.03801,10938,51.4,10265,39.94,nevada,2020-11-28T00:47:59.008100Z
32003,Clark,972510,0,1150,1150,Merged into voters' home precincts and released with cumulative results,100,972510,>98%,>98% reported,edison,10,some,,781405,,,521852,430930,8761,9023,1944,0,0,0,0,0,2020-11-27T21:27:08Z,9.34921,D+9,Biden +9,democrat,-9.34921,767156,-10.7,691190,-14.6,nevada,2020-11-28T00:47:59.008100Z
32005,Douglas,34125,0,41,41,Merged into voters' home precincts and released with cumulative results,100,34125,>98%,>98% reported,edison,10,unknown,,27677,,,11571,21630,407,449,68,0,0,0,0,0,2020-11-27T21:21:30Z,29.47692,R+29,Trump +29,republican,29.47692,27885,32.1,26075,26.77,nevada,2020-11-28T00:47:59.008100Z
32007,Elko,21967,0,41,41,Merged into voters' home precincts and released with cumulative results,100,21967,>98%,>98% reported,edison,10,unknown,,16878,,,4557,16741,375,227,67,0,0,0,0,0,2020-11-27T21:21:34Z,55.46502,R+55,Trump +55,republican,55.46502,18559,54.7,15986,53.19,nevada,2020-11-28T00:47:59.008100Z
32009,Esmeralda,487,0,5,5,Merged into voters' home precincts and released with cumulative results,100,487,>98%,>98% reported,edison,10,unknown,,206,,,74,400,6,6,1,0,0,0,0,0,2020-11-27T21:27:11Z,66.94045,R+67,Trump +67,republican,66.94045,423,62.4,435,51.72,nevada,2020-11-28T00:47:59.008100Z
32011,Eureka,1017,937,4,4,Merged into voters' home precincts and released with cumulative results,100,1017,>98%,>98% reported,edison,10,some,,565,,,105,895,6,8,3,92,828,6,8,3,2020-11-24T13:22:40Z,77.67945,R+78,Trump +78,republican,77.67945,854,76,808,68.81,nevada,2020-11-28T00:47:59.008100Z
32013,Humboldt,7771,0,15,15,Merged into voters' home precincts and released with cumulative results,100,7771,>98%,>98% reported,edison,10,unknown,,5797,,,1689,5877,104,78,23,0,0,0,0,0,2020-11-27T21:21:42Z,53.89268,R+54,Trump +54,republican,53.89268,6433,48.7,5744,36.09,nevada,2020-11-28T00:47:59.008100Z
32015,Lander,2765,0,9,9,Merged into voters' home precincts and released with cumulative results,100,2765,>98%,>98% reported,edison,10,unknown,,2155,,,496,2198,36,30,5,0,0,0,0,0,2020-11-27T21:21:46Z,61.55515,R+62,Trump +62,republican,61.55515,2413,59.1,2165,48.31,nevada,2020-11-28T00:47:59.008100Z
32017,Lincoln,2446,0,6,6,Merged into voters' home precincts and released with cumulative results,100,2446,>98%,>98% reported,edison,10,unknown,,1603,,,330,2067,17,24,8,0,0,0,0,0,2020-11-27T21:27:14Z,71.0139,R+71,Trump +71,republican,71.0139,2132,65,2152,59.99,nevada,2020-11-28T00:47:59.008100Z
32019,Lyon,30238,0,40,40,Merged into voters' home precincts and released with cumulative results,100,30238,>98%,>98% reported,edison,10,some,,20256,,,8473,20914,461,287,103,0,0,0,0,0,2020-11-27T21:27:17Z,41.14359,R+41,Trump +41,republican,41.14359,23762,41.5,21465,28.6,nevada,2020-11-28T00:47:59.008100Z
32021,Mineral,2335,0,12,12,Merged into voters' home precincts and released with cumulative results,100,2335,>98%,>98% reported,edison,10,unknown,,2413,,,829,1423,35,38,10,0,0,0,0,0,2020-11-27T21:27:19Z,25.43897,R+25,Trump +25,republican,25.43897,1997,27.1,2035,10.66,nevada,2020-11-28T00:47:59.008100Z
32023,Nye,25378,0,33,33,Merged into voters' home precincts and released with cumulative results,100,25378,>98%,>98% reported,edison,10,unknown,,18099,,,7288,17528,243,226,93,0,0,0,0,0,2020-11-27T21:27:22Z,40.34991,R+40,Trump +40,republican,40.34991,19595,42,17522,24.23,nevada,2020-11-28T00:47:59.008100Z
32027,Pershing,2320,0,6,6,Merged into voters' home precincts and released with cumulative results,100,2320,>98%,>98% reported,edison,10,unknown,,1541,,,547,1731,15,20,7,0,0,0,0,0,2020-11-27T21:22:03Z,51.03448,R+51,Trump +51,republican,51.03448,1982,49.1,1884,28.4,nevada,2020-11-28T00:47:59.008100Z
32029,Storey,2877,0,15,15,Merged into voters' home precincts and released with cumulative results,100,2877,>98%,>98% reported,edison,10,unknown,,1990,,,902,1908,34,30,3,0,0,0,0,0,2020-11-27T21:22:06Z,34.96698,R+35,Trump +35,republican,34.96698,2558,33.8,2314,17.33,nevada,2020-11-28T00:47:59.008100Z
32031,Washoe,252142,0,563,563,Merged into voters' home precincts and released with cumulative results,100,252142,>98%,>98% reported,edison,10,unknown,,212214,,,128128,116760,3526,3085,643,0,0,0,0,0,2020-11-27T21:22:10Z,4.50857,D+5,Biden +5,democrat,-4.50857,209909,-1.2,187855,-3.7,nevada,2020-11-28T00:47:59.008100Z
32033,White Pine,4369,0,10,10,Merged into voters' home precincts and released with cumulative results,100,4369,>98%,>98% reported,edison,10,unknown,,3720,,,859,3403,43,43,21,0,0,0,0,0,2020-11-27T21:27:25Z,58.22843,R+58,Trump +58,republican,58.22843,3773,53.4,3704,43.68,nevada,2020-11-28T00:47:59.008100Z
