fips,name,votes,absentee_votes,reporting,precincts,absentee_method,eevp,tot_exp_vote,eevp_value,eevp_display,eevp_source,turnout_stage,absentee_count_progress,absentee_outstanding,absentee_max_ballots,provisional_outstanding,provisional_count_progress,results_bidenj,results_trumpd,results_jorgensenj,results_hawkinsh,results_westk,results_blankenshipd,results_hammonsb,results_charlesm,results_carrollb,results_kopitkek,results_la_rivag,results_de_la_fuenter,results_mchughj,results_pierceb,results_collinsp,results_jacob_fambrop,results_hunterd,results_huberb,results_kennedya,results_scottj,results_kishorej,results_write_ins,results_absentee_bidenj,results_absentee_trumpd,results_absentee_jorgensenj,results_absentee_hawkinsh,results_absentee_westk,results_absentee_blankenshipd,results_absentee_hammonsb,results_absentee_charlesm,results_absentee_carrollb,results_absentee_kopitkek,results_absentee_la_rivag,results_absentee_de_la_fuenter,results_absentee_mchughj,results_absentee_pierceb,results_absentee_collinsp,results_absentee_jacob_fambrop,results_absentee_hunterd,results_absentee_huberb,results_absentee_kennedya,results_absentee_scottj,results_absentee_kishorej,results_absentee_write_ins,last_updated,leader_margin_value,leader_margin_display,leader_margin_name_display,leader_party_id,margin2020,votes2016,margin2016,votes2012,margin2012,state,retrieved_time
08001,Adams,236735,0,260,260,Other,100,236735,>98%,>98% reported,edison,8,all,,,,,134202,95657,3731,744,729,455,264,197,160,102,90,72,60,51,46,40,38,37,24,23,13,,0,0,0,0,0,0,0,0,0,0,0,0,0,0,0,0,0,0,0,0,0,,2020-11-24T13:22:44Z,16.28192,D+16,Biden +16,democrat,-16.28192,193677,-8.5,176230,-16.84,colorado,2020-11-29T00:50:31.248338Z
08003,Alamosa,7808,0,8,8,Other,100,7808,>98%,>98% reported,edison,8,all,,,,,3759,3813,90,23,48,22,6,11,7,3,3,5,4,3,2,0,1,1,5,0,2,,0,0,0,0,0,0,0,0,0,0,0,0,0,0,0,0,0,0,0,0,0,,2020-11-24T13:22:45Z,0.6916,R+0.69,Trump +0.69,republican,0.6916,6939,-2.1,6715,-16.47,colorado,2020-11-29T00:50:31.248338Z
08005,Arapahoe,350183,0,390,390,Other,100,350283,>98%,>98% reported,edison,8,some,,,,,213607,127323,5423,926,908,503,328,189,297,94,118,67,58,45,63,65,45,41,41,17,25,0,0,0,0,0,0,0,0,0,0,0,0,0,0,0,0,0,0,0,0,0,0,0,2020-11-25T02:22:05Z,24.63969,D+25,Biden +25,democrat,-24.63969,303048,-14.1,285516,-9.92,colorado,2020-11-29T00:50:31.248338Z
08007,Archuleta,9144,0,8,8,Other,100,9144,>98%,>98% reported,edison,8,all,,,,,3738,5189,120,19,20,20,9,6,7,2,2,0,2,5,1,3,0,1,0,0,0,,0,0,0,0,0,0,0,0,0,0,0,0,0,0,0,0,0,0,0,0,0,,2020-11-24T13:22:51Z,15.86833,R+16,Trump +16,republican,15.86833,7339,24,6734,17.72,colorado,2020-11-29T00:50:31.248338Z
08009,Baca,2225,0,8,9,Other,100,2224,>98%,>98% reported,edison,8,all,,,,,317,1867,26,3,4,2,0,0,3,0,0,0,0,0,1,0,0,2,0,0,0,,0,0,0,0,0,0,0,0,0,0,0,0,0,0,0,0,0,0,0,0,0,,2020-11-24T13:22:51Z,69.66292,R+70,Trump +70,republican,69.66292,2153,68.3,2106,51.85,colorado,2020-11-29T00:50:31.248338Z
08011,Bent,2274,0,5,5,Other,100,2274,>98%,>98% reported,edison,8,unknown,,,,,732,1503,15,6,7,5,0,0,0,0,0,3,0,1,0,0,0,1,0,0,1,,0,0,0,0,0,0,0,0,0,0,0,0,0,0,0,0,0,0,0,0,0,,2020-11-24T13:22:52Z,33.90501,R+34,Trump +34,republican,33.90501,1927,31,1942,13.39,colorado,2020-11-29T00:50:31.248338Z
08013,Boulder,206111,0,223,240,Other,100,206111,>98%,>98% reported,edison,8,some,,,,,159089,42501,2539,697,391,219,122,75,143,22,103,23,20,33,19,24,26,22,24,7,12,,0,0,0,0,0,0,0,0,0,0,0,0,0,0,0,0,0,0,0,0,0,,2020-11-24T13:22:53Z,56.56564,D+57,Biden +57,democrat,-56.56564,188145,-48.3,179499,-41.84,colorado,2020-11-29T00:50:31.248338Z
08014,Broomfield,46632,0,37,37,Other,100,46632,>98%,>98% reported,edison,8,all,,,,,29077,16295,772,104,106,74,46,23,50,10,14,8,13,13,6,2,5,2,7,4,1,,0,0,0,0,0,0,0,0,0,0,0,0,0,0,0,0,0,0,0,0,0,,2020-11-24T13:22:35Z,27.41036,D+27,Biden +27,democrat,-27.41036,37690,-14.2,32777,-5.97,colorado,2020-11-29T00:50:31.248338Z
08015,Chaffee,13717,0,9,9,Other,100,13717,>98%,>98% reported,edison,8,unknown,,,,,7160,6222,189,46,22,20,10,11,14,3,2,2,3,1,3,4,1,2,1,1,0,0,0,0,0,0,0,0,0,0,0,0,0,0,0,0,0,0,0,0,0,0,0,0,2020-11-24T13:22:54Z,6.83823,D+7,Biden +7,democrat,-6.83823,11250,4.5,10462,-0.15,colorado,2020-11-29T00:50:31.248338Z
08017,Cheyenne,1136,0,4,5,Other,100,1136,>98%,>98% reported,edison,8,some,,,,,131,993,6,0,3,3,0,0,0,0,0,0,0,0,0,0,0,0,0,0,0,,0,0,0,0,0,0,0,0,0,0,0,0,0,0,0,0,0,0,0,0,0,,2020-11-24T13:22:56Z,75.88028,R+76,Trump +76,republican,75.88028,1102,72,1093,65.6,colorado,2020-11-29T00:50:31.248338Z
08019,Clear Creek,6548,0,9,9,Other,100,6545,>98%,>98% reported,edison,8,some,,,,,3604,2754,113,23,10,10,3,7,5,1,2,2,3,0,3,1,5,1,0,0,1,,0,0,0,0,0,0,0,0,0,0,0,0,0,0,0,0,0,0,0,0,0,,2020-11-24T13:22:57Z,12.98106,D+13,Biden +13,democrat,-12.98106,5866,-2.6,5743,-12,colorado,2020-11-29T00:50:31.248338Z
08021,Conejos,4333,0,9,10,Other,100,4333,>98%,>98% reported,edison,8,all,,,,,1959,2286,34,9,10,15,1,5,2,0,2,4,2,0,1,2,0,0,0,0,1,,0,0,0,0,0,0,0,0,0,0,0,0,0,0,0,0,0,0,0,0,0,,2020-11-24T13:22:58Z,7.54673,R+8,Trump +8,republican,7.54673,4022,3.6,4101,-9.22,colorado,2020-11-29T00:50:31.248338Z
08023,Costilla,2094,0,8,8,Other,100,2094,>98%,>98% reported,edison,8,all,,,,,1311,741,15,4,5,8,2,2,0,1,1,1,0,0,0,0,1,0,0,0,2,,0,0,0,0,0,0,0,0,0,0,0,0,0,0,0,0,0,0,0,0,0,,2020-11-24T13:22:59Z,27.22063,D+27,Biden +27,democrat,-27.22063,1848,-29.1,1837,-48.67,colorado,2020-11-29T00:50:31.248338Z
08025,Crowley,1750,0,6,6,Other,100,1750,>98%,>98% reported,edison,8,all,,,,,437,1271,22,0,8,3,3,2,0,0,0,0,1,0,1,2,0,0,0,0,0,,0,0,0,0,0,0,0,0,0,0,0,0,0,0,0,0,0,0,0,0,0,,2020-11-24T13:23:00Z,47.65714,R+48,Trump +48,republican,47.65714,1527,48.5,1502,25.9,colorado,2020-11-29T00:50:31.248338Z
08027,Custer,3634,0,3,3,Other,100,3630,>98%,>98% reported,edison,8,all,,,,,1112,2474,29,5,0,5,4,1,2,0,0,0,1,0,1,0,0,0,0,0,0,,0,0,0,0,0,0,0,0,0,0,0,0,0,0,0,0,0,0,0,0,0,,2020-11-24T23:30:40Z,37.47936,R+37,Trump +37,republican,37.47936,3066,41.2,2715,33.89,colorado,2020-11-29T00:50:31.248338Z
08029,Delta,19370,0,20,20,Other,100,19370,>98%,>98% reported,edison,8,all,,,,,5887,13081,218,45,32,34,11,12,6,7,2,3,4,5,5,2,4,9,1,1,1,,0,0,0,0,0,0,0,0,0,0,0,0,0,0,0,0,0,0,0,0,0,,2020-11-24T13:23:01Z,37.13991,R+37,Trump +37,republican,37.13991,16790,45.1,15925,39.52,colorado,2020-11-29T00:50:31.248338Z
08031,Denver,393827,0,356,356,Other,100,393824,>98%,>98% reported,edison,8,some,,,,,313293,71618,4870,1230,976,314,222,181,242,70,287,60,34,60,63,87,49,55,61,16,39,,0,0,0,0,0,0,0,0,0,0,0,0,0,0,0,0,0,0,0,0,0,,2020-11-25T21:43:31Z,61.36578,D+61,Biden +61,democrat,-61.36578,331852,-54.8,301694,-49.36,colorado,2020-11-29T00:50:31.248338Z
08033,Dolores,1449,0,4,4,Other,100,1449,>98%,>98% reported,edison,8,all,,,,,341,1089,5,1,3,5,1,2,0,0,0,0,2,0,0,0,0,0,0,0,0,,0,0,0,0,0,0,0,0,0,0,0,0,0,0,0,0,0,0,0,0,0,,2020-11-24T13:23:06Z,51.62181,R+52,Trump +52,republican,51.62181,1255,55.9,1245,42.17,colorado,2020-11-29T00:50:31.248338Z
08035,Douglas,231599,0,169,169,Other,100,231599,>98%,>98% reported,edison,8,all,,,,,104653,121270,3715,432,476,303,209,76,199,38,30,32,38,39,21,20,10,14,10,9,5,0,0,0,0,0,0,0,0,0,0,0,0,0,0,0,0,0,0,0,0,0,0,0,2020-11-24T13:23:08Z,7.1749,R+7,Trump +7,republican,7.1749,187500,18.1,168084,25.76,colorado,2020-11-29T00:50:31.248338Z
08037,Eagle,29140,0,29,30,Other,100,29139,>98%,>98% reported,edison,8,all,,,,,18588,9892,377,78,79,34,32,16,10,5,3,3,3,6,3,1,3,2,4,0,1,,0,0,0,0,0,0,0,0,0,0,0,0,0,0,0,0,0,0,0,0,0,,2020-11-24T16:20:40Z,29.84214,D+30,Biden +30,democrat,-29.84214,25223,-20.3,22668,-14.92,colorado,2020-11-29T00:50:31.248338Z
08041,El Paso,378849,0,291,291,Other,100,378234,>98%,>98% reported,edison,8,some,,,,,161941,202828,9264,1135,1097,702,360,299,467,87,90,94,89,69,77,73,47,35,43,33,19,,0,0,0,0,0,0,0,0,0,0,0,0,0,0,0,0,0,0,0,0,0,,2020-11-24T20:00:48Z,10.79243,R+11,Trump +11,republican,10.79243,318968,22.3,290175,20.38,colorado,2020-11-29T00:50:31.248338Z
08039,Elbert,18983,0,15,15,Other,100,18983,>98%,>98% reported,edison,8,unknown,,,,,4490,14027,306,31,33,30,15,11,6,4,4,1,4,4,3,2,6,4,1,1,0,,0,0,0,0,0,0,0,0,0,0,0,0,0,0,0,0,0,0,0,0,0,,2020-11-24T13:23:10Z,50.23969,R+50,Trump +50,republican,50.23969,15980,53.6,14178,47,colorado,2020-11-29T00:50:31.248338Z
08043,Fremont,25557,0,30,30,Other,100,25557,>98%,>98% reported,edison,8,unknown,,,,,7369,17517,397,59,54,60,22,24,11,5,5,1,5,6,11,4,3,1,3,0,0,,0,0,0,0,0,0,0,0,0,0,0,0,0,0,0,0,0,0,0,0,0,,2020-11-24T13:23:14Z,39.70732,R+40,Trump +40,republican,39.70732,21973,44.7,20416,31.69,colorado,2020-11-29T00:50:31.248338Z
08045,Garfield,30904,0,27,27,Other,100,30904,>98%,>98% reported,edison,8,all,,,,,15427,14717,424,99,75,60,26,21,11,8,3,1,4,7,5,2,4,5,3,0,2,,0,0,0,0,0,0,0,0,0,0,0,0,0,0,0,0,0,0,0,0,0,,2020-11-24T13:23:15Z,2.29744,D+2,Biden +2,democrat,-2.29744,26470,7,24408,5.04,colorado,2020-11-29T00:50:31.248338Z
08047,Gilpin,4186,0,6,6,Other,100,4185,>98%,>98% reported,edison,8,unknown,,,,,2223,1833,70,17,12,10,2,9,0,1,1,1,1,1,1,2,1,0,0,1,0,,0,0,0,0,0,0,0,0,0,0,0,0,0,0,0,0,0,0,0,0,0,,2020-11-24T13:23:16Z,9.31677,D+9,Biden +9,democrat,-9.31677,3576,-1.9,3338,-16.36,colorado,2020-11-29T00:50:31.248338Z
08049,Grand,9870,0,12,12,Other,100,9877,>98%,>98% reported,edison,8,unknown,,,,,4710,4883,174,31,23,18,4,5,4,3,0,3,2,0,1,4,3,1,0,1,0,,0,0,0,0,0,0,0,0,0,0,0,0,0,0,0,0,0,0,0,0,0,,2020-11-24T20:00:47Z,1.75279,R+1.8,Trump +1.8,republican,1.75279,8588,13.2,8187,6.95,colorado,2020-11-29T00:50:31.248338Z
08051,Gunnison,10887,0,15,15,Other,100,10887,>98%,>98% reported,edison,8,all,,,,,6976,3599,204,37,20,13,7,8,7,0,1,0,1,5,0,2,3,0,3,0,1,0,0,0,0,0,0,0,0,0,0,0,0,0,0,0,0,0,0,0,0,0,0,0,2020-11-24T13:23:18Z,31.01865,D+31,Biden +31,democrat,-31.01865,9412,-19.5,8667,-19.65,colorado,2020-11-29T00:50:31.248338Z
08053,Hinsdale,632,0,1,1,Other,100,632,>98%,>98% reported,edison,8,unknown,,,,,255,353,10,1,4,4,0,1,3,0,0,1,0,0,0,0,0,0,0,0,0,,0,0,0,0,0,0,0,0,0,0,0,0,0,0,0,0,0,0,0,0,0,,2020-11-24T13:23:18Z,15.50633,R+16,Trump +16,republican,15.50633,589,24.1,600,20.67,colorado,2020-11-29T00:50:31.248338Z
08055,Huerfano,4406,0,11,11,Other,100,4406,>98%,>98% reported,edison,8,all,,,,,2076,2203,71,12,10,9,2,5,3,0,2,2,1,0,3,0,0,1,2,0,4,,0,0,0,0,0,0,0,0,0,0,0,0,0,0,0,0,0,0,0,0,0,,2020-11-24T13:23:20Z,2.88243,R+3,Trump +3,republican,2.88243,3783,6.6,3714,-8.27,colorado,2020-11-29T00:50:31.248338Z
08057,Jackson,876,0,4,5,Other,100,876,>98%,>98% reported,edison,8,all,,,,,175,681,12,2,2,2,1,1,0,0,0,0,0,0,0,0,0,0,0,0,0,,0,0,0,0,0,0,0,0,0,0,0,0,0,0,0,0,0,0,0,0,0,,2020-11-24T13:23:21Z,57.76256,R+58,Trump +58,republican,57.76256,861,53.2,848,45.28,colorado,2020-11-29T00:50:31.248338Z
08059,Jefferson,377357,0,300,309,Other,100,377351,>98%,>98% reported,edison,8,all,,,,,218396,148417,6394,1089,900,631,318,231,309,101,84,63,76,82,64,51,35,39,40,16,21,,0,0,0,0,0,0,0,0,0,0,0,0,0,0,0,0,0,0,0,0,0,,2020-11-24T13:23:22Z,18.54451,D+19,Biden +19,democrat,-18.54451,328883,-6.9,311052,-4.85,colorado,2020-11-29T00:50:31.248338Z
08061,Kiowa,903,0,4,4,Other,100,903,>98%,>98% reported,edison,8,unknown,,,,,98,795,9,0,1,0,0,0,0,0,0,0,0,0,0,0,0,0,0,0,0,,0,0,0,0,0,0,0,0,0,0,0,0,0,0,0,0,0,0,0,0,0,,2020-11-24T13:23:22Z,77.18715,R+77,Trump +77,republican,77.18715,855,74.5,821,68.09,colorado,2020-11-29T00:50:31.248338Z
08063,Kit Carson,3871,0,12,13,Other,100,3870,>98%,>98% reported,edison,8,unknown,,,,,662,3144,34,2,4,11,2,1,2,1,0,0,2,2,0,2,0,0,2,0,0,,0,0,0,0,0,0,0,0,0,0,0,0,0,0,0,0,0,0,0,0,0,,2020-11-24T20:00:47Z,64.1178,R+64,Trump +64,republican,64.1178,3702,65.7,3702,52.59,colorado,2020-11-29T00:50:31.248338Z
08067,La Plata,35667,0,31,32,Other,100,35667,>98%,>98% reported,edison,8,all,,,,,20548,14233,530,128,79,37,23,29,11,9,5,8,5,2,5,4,2,4,3,0,2,,0,0,0,0,0,0,0,0,0,0,0,0,0,0,0,0,0,0,0,0,0,,2020-11-24T13:23:25Z,17.70544,D+18,Biden +18,democrat,-17.70544,31150,-9.4,29184,-9.23,colorado,2020-11-29T00:50:31.248338Z
08065,Lake,3961,0,6,6,Other,100,3961,>98%,>98% reported,edison,8,unknown,,,,,2303,1497,101,23,17,4,4,0,1,1,1,3,0,0,2,0,3,0,1,0,0,,0,0,0,0,0,0,0,0,0,0,0,0,0,0,0,0,0,0,0,0,0,,2020-11-24T13:23:24Z,20.3484,D+20,Biden +20,democrat,-20.3484,3199,-10.8,3040,-24.38,colorado,2020-11-29T00:50:31.248338Z
08069,Larimer,224338,0,272,280,Other,100,224333,>98%,>98% reported,edison,8,some,,,,,126120,91489,4089,727,549,372,195,136,258,48,60,55,45,33,36,29,33,20,24,8,12,,0,0,0,0,0,0,0,0,0,0,0,0,0,0,0,0,0,0,0,0,0,,2020-11-24T13:23:25Z,15.43697,D+15,Biden +15,democrat,-15.43697,195981,-4.9,180180,-5.76,colorado,2020-11-29T00:50:31.248338Z
08071,Las Animas,7961,0,16,16,Other,100,7961,>98%,>98% reported,edison,8,unknown,,,,,3497,4284,86,17,21,19,5,7,5,6,1,1,3,0,5,2,1,0,1,0,0,,0,0,0,0,0,0,0,0,0,0,0,0,0,0,0,0,0,0,0,0,0,,2020-11-24T13:23:26Z,9.88569,R+10,Trump +10,republican,9.88569,6793,15.6,6862,-2.65,colorado,2020-11-29T00:50:31.248338Z
08073,Lincoln,2651,0,12,13,Other,100,2651,>98%,>98% reported,edison,8,unknown,,,,,470,2135,26,1,3,7,1,3,1,2,0,0,0,1,0,0,0,1,0,0,0,,0,0,0,0,0,0,0,0,0,0,0,0,0,0,0,0,0,0,0,0,0,,2020-11-24T13:23:28Z,62.80649,R+63,Trump +63,republican,62.80649,2436,60.9,2287,49.63,colorado,2020-11-29T00:50:31.248338Z
08075,Logan,10532,0,15,16,Other,100,10532,>98%,>98% reported,edison,8,unknown,,,,,2218,8087,139,16,20,18,4,9,5,0,1,2,2,1,4,2,0,1,2,0,1,,0,0,0,0,0,0,0,0,0,0,0,0,0,0,0,0,0,0,0,0,0,,2020-11-24T13:21:41Z,55.72541,R+56,Trump +56,republican,55.72541,9722,55.9,9124,38,colorado,2020-11-29T00:50:31.248338Z
08077,Mesa,90622,0,56,57,Other,100,90613,>98%,>98% reported,edison,8,all,,,,,31536,56894,1306,188,197,200,65,58,38,15,15,10,16,15,18,17,7,12,7,7,1,,0,0,0,0,0,0,0,0,0,0,0,0,0,0,0,0,0,0,0,0,0,,2020-11-24T13:21:52Z,27.98217,R+28,Trump +28,republican,27.98217,77654,36.1,72947,32.39,colorado,2020-11-29T00:50:31.248338Z
08079,Mineral,756,0,1,1,Other,100,757,>98%,>98% reported,edison,8,unknown,,,,,317,427,3,0,1,5,0,0,0,0,0,1,0,1,1,0,0,0,0,0,0,,0,0,0,0,0,0,0,0,0,0,0,0,0,0,0,0,0,0,0,0,0,,2020-11-24T13:21:53Z,14.55026,R+15,Trump +15,republican,14.55026,652,16.4,650,8.15,colorado,2020-11-29T00:50:31.248338Z
08081,Moffat,7026,0,12,13,Other,100,7026,>98%,>98% reported,edison,8,some,,,,,1203,5670,97,7,21,6,3,7,2,1,0,0,2,4,1,1,1,0,0,0,0,,0,0,0,0,0,0,0,0,0,0,0,0,0,0,0,0,0,0,0,0,0,,2020-11-24T13:21:54Z,63.57814,R+64,Trump +64,republican,63.57814,6525,67.9,6168,54.56,colorado,2020-11-29T00:50:31.248338Z
08083,Montezuma,15500,0,11,11,Other,100,15500,>98%,>98% reported,edison,8,all,,,,,5836,9306,192,33,37,26,16,18,9,6,2,3,2,2,3,3,1,0,3,2,0,,0,0,0,0,0,0,0,0,0,0,0,0,0,0,0,0,0,0,0,0,0,,2020-11-24T13:21:55Z,22.3871,R+22,Trump +22,republican,22.3871,12858,30.2,12318,23.21,colorado,2020-11-29T00:50:31.248338Z
08085,Montrose,24922,0,28,28,Other,100,24922,>98%,>98% reported,edison,8,some,,,,,7687,16770,285,49,45,30,16,8,7,4,2,1,2,3,3,2,2,2,0,2,2,,0,0,0,0,0,0,0,0,0,0,0,0,0,0,0,0,0,0,0,0,0,,2020-11-24T13:22:00Z,36.44571,R+36,Trump +36,republican,36.44571,21186,42.1,20130,36.83,colorado,2020-11-29T00:50:31.248338Z
08087,Morgan,13744,0,18,18,Other,100,13744,>98%,>98% reported,edison,8,unknown,,,,,3876,9593,151,26,27,14,11,11,5,2,2,9,6,2,5,0,1,0,0,3,0,,0,0,0,0,0,0,0,0,0,0,0,0,0,0,0,0,0,0,0,0,0,,2020-11-24T13:22:02Z,41.59633,R+42,Trump +42,republican,41.59633,11960,41.8,10777,24.96,colorado,2020-11-29T00:50:31.248338Z
08089,Otero,9576,0,16,17,Other,100,9576,>98%,>98% reported,edison,8,some,,,,,3605,5756,88,16,35,15,10,14,6,4,2,8,1,1,5,2,1,3,3,0,1,,0,0,0,0,0,0,0,0,0,0,0,0,0,0,0,0,0,0,0,0,0,,2020-11-24T13:22:03Z,22.46241,R+22,Trump +22,republican,22.46241,8452,23.5,8192,8.97,colorado,2020-11-29T00:50:31.248338Z
08091,Ouray,4020,0,5,5,Other,100,4020,>98%,>98% reported,edison,8,some,,,,,2365,1577,46,12,7,5,2,0,1,0,3,0,1,0,1,0,0,0,0,0,0,,0,0,0,0,0,0,0,0,0,0,0,0,0,0,0,0,0,0,0,0,0,,2020-11-24T13:22:05Z,19.60199,D+20,Biden +20,democrat,-19.60199,3310,-10.5,3202,-5.15,colorado,2020-11-29T00:50:31.248338Z
08093,Park,12290,0,13,13,Other,100,12289,>98%,>98% reported,edison,8,unknown,,,,,4903,6991,238,56,30,29,11,12,4,2,1,0,3,2,4,1,0,0,0,2,1,,0,0,0,0,0,0,0,0,0,0,0,0,0,0,0,0,0,0,0,0,0,,2020-11-24T13:22:07Z,16.98942,R+17,Trump +17,republican,16.98942,10417,26.1,9366,14.67,colorado,2020-11-29T00:50:31.248338Z
08095,Phillips,2485,0,7,8,Other,100,2485,>98%,>98% reported,edison,8,unknown,,,,,486,1958,24,7,4,3,1,1,1,0,0,0,0,0,0,0,0,0,0,0,0,,0,0,0,0,0,0,0,0,0,0,0,0,0,0,0,0,0,0,0,0,0,,2020-11-24T13:22:09Z,59.23541,R+59,Trump +59,republican,59.23541,2332,58.1,2265,46.31,colorado,2020-11-29T00:50:31.248338Z
08097,Pitkin,11957,0,10,10,Other,100,11957,>98%,>98% reported,edison,8,some,,,,,8989,2780,94,41,23,9,10,3,2,3,0,1,0,0,0,1,0,0,1,0,0,,0,0,0,0,0,0,0,0,0,0,0,0,0,0,0,0,0,0,0,0,0,,2020-11-24T13:22:11Z,51.92774,D+52,Biden +52,democrat,-51.92774,10523,-45.5,10075,-37.97,colorado,2020-11-29T00:50:31.248338Z
08099,Prowers,5561,0,12,13,Other,100,5561,>98%,>98% reported,edison,8,unknown,,,,,1458,4008,39,9,14,13,3,3,3,4,1,0,2,0,0,0,0,0,1,2,1,,0,0,0,0,0,0,0,0,0,0,0,0,0,0,0,0,0,0,0,0,0,,2020-11-24T13:22:12Z,45.85506,R+46,Trump +46,republican,45.85506,5016,46.8,4863,35.18,colorado,2020-11-29T00:50:31.248338Z
08101,Pueblo,88299,0,122,128,Other,100,88299,>98%,>98% reported,edison,8,unknown,,,,,43772,42252,1200,205,255,169,94,71,35,21,32,38,25,23,34,17,16,12,11,7,10,,0,0,0,0,0,0,0,0,0,0,0,0,0,0,0,0,0,0,0,0,0,,2020-11-24T13:22:13Z,1.72142,D+1.7,Biden +1.7,democrat,-1.72142,78646,0.5,76194,-13.99,colorado,2020-11-29T00:50:31.248338Z
08103,Rio Blanco,3691,0,5,5,Other,100,3691,>98%,>98% reported,edison,8,all,,,,,561,3061,42,3,11,4,3,3,0,0,0,0,2,0,0,0,0,0,1,0,0,,0,0,0,0,0,0,0,0,0,0,0,0,0,0,0,0,0,0,0,0,0,,2020-11-24T13:22:14Z,67.73232,R+68,Trump +68,republican,67.73232,3450,68.3,3369,64,colorado,2020-11-29T00:50:31.248338Z
08105,Rio Grande,6305,0,14,15,Other,100,6305,>98%,>98% reported,edison,8,all,,,,,2495,3660,66,11,20,15,2,11,1,3,4,3,3,1,5,0,0,1,2,0,2,,0,0,0,0,0,0,0,0,0,0,0,0,0,0,0,0,0,0,0,0,0,,2020-11-24T13:22:15Z,18.4774,R+18,Trump +18,republican,18.4774,5534,19.6,5533,7.95,colorado,2020-11-29T00:50:31.248338Z
08107,Routt,16876,0,18,18,Other,100,16876,>98%,>98% reported,edison,8,all,,,,,10582,5925,236,37,31,20,15,13,6,1,2,0,0,4,0,2,0,0,1,1,0,,0,0,0,0,0,0,0,0,0,0,0,0,0,0,0,0,0,0,0,0,0,,2020-11-24T13:22:17Z,27.5954,D+28,Biden +28,democrat,-27.5954,13986,-16.9,13317,-15.6,colorado,2020-11-29T00:50:31.248338Z
08109,Saguache,3389,0,7,7,Other,100,3389,>98%,>98% reported,edison,8,all,,,,,1884,1413,39,13,15,8,2,6,3,1,1,0,0,0,0,1,2,0,1,0,0,,0,0,0,0,0,0,0,0,0,0,0,0,0,0,0,0,0,0,0,0,0,,2020-11-24T13:22:20Z,13.8979,D+14,Biden +14,democrat,-13.8979,2835,-9.5,2930,-30.72,colorado,2020-11-29T00:50:31.248338Z
08111,San Juan,563,0,1,1,Other,100,563,>98%,>98% reported,edison,8,all,,,,,342,202,7,2,2,1,1,2,1,1,1,0,1,0,0,0,0,0,0,0,0,0,0,0,0,0,0,0,0,0,0,0,0,0,0,0,0,0,0,0,0,0,0,0,2020-11-24T13:22:22Z,24.86679,D+25,Biden +25,democrat,-24.86679,506,-9.9,506,-10.67,colorado,2020-11-29T00:50:31.248338Z
08113,San Miguel,5147,0,6,6,Other,100,5146,>98%,>98% reported,edison,8,some,,,,,3924,1136,52,14,11,2,2,2,0,0,1,0,1,1,1,0,0,0,0,0,0,,0,0,0,0,0,0,0,0,0,0,0,0,0,0,0,0,0,0,0,0,0,,2020-11-24T13:22:23Z,54.16748,D+54,Biden +54,democrat,-54.16748,4329,-44.9,4256,-43.19,colorado,2020-11-29T00:50:31.248338Z
08115,Sedgwick,1446,0,4,5,Other,100,1447,>98%,>98% reported,edison,8,unknown,,,,,301,1121,8,1,2,7,1,2,0,0,0,0,0,1,0,0,1,0,1,0,0,,0,0,0,0,0,0,0,0,0,0,0,0,0,0,0,0,0,0,0,0,0,,2020-11-24T13:22:23Z,56.70816,R+57,Trump +57,republican,56.70816,1364,54.8,1338,34.53,colorado,2020-11-29T00:50:31.248338Z
08117,Summit,18479,0,19,20,Other,100,18465,>98%,>98% reported,edison,8,some,,,,,12631,5322,353,60,39,16,14,13,6,0,3,1,4,3,4,2,3,3,1,0,1,,0,0,0,0,0,0,0,0,0,0,0,0,0,0,0,0,0,0,0,0,0,,2020-11-25T21:43:31Z,39.55301,D+40,Biden +40,democrat,-39.55301,16174,-27.6,15312,-24.66,colorado,2020-11-29T00:50:31.248338Z
08119,Teller,16939,0,13,13,Other,100,16939,>98%,>98% reported,edison,8,unknown,,,,,5278,11241,267,25,37,28,10,10,18,6,2,1,7,2,0,0,1,1,2,1,2,,0,0,0,0,0,0,0,0,0,0,0,0,0,0,0,0,0,0,0,0,0,,2020-11-24T13:22:25Z,35.20279,R+35,Trump +35,republican,35.20279,14444,42.5,13407,32.59,colorado,2020-11-29T00:50:31.248338Z
08121,Washington,3008,0,6,6,Other,100,3008,>98%,>98% reported,edison,8,unknown,,,,,369,2595,25,5,2,4,2,2,2,1,0,0,0,0,0,0,0,1,0,0,0,,0,0,0,0,0,0,0,0,0,0,0,0,0,0,0,0,0,0,0,0,0,,2020-11-24T13:22:27Z,74.00266,R+74,Trump +74,republican,74.00266,2733,73.3,2591,62.06,colorado,2020-11-29T00:50:31.248338Z
08123,Weld,166968,0,156,156,Other,100,166946,>98%,>98% reported,edison,8,all,,,,,66060,96145,2895,340,449,363,170,120,115,51,44,39,45,32,27,13,14,18,12,9,7,,0,0,0,0,0,0,0,0,0,0,0,0,0,0,0,0,0,0,0,0,0,,2020-11-24T13:22:31Z,18.01842,R+18,Trump +18,republican,18.01842,135430,22.2,115866,12.71,colorado,2020-11-29T00:50:31.248338Z
08125,Yuma,4981,0,12,14,Other,100,4981,>98%,>98% reported,edison,8,unknown,,,,,785,4107,52,2,10,8,2,5,0,2,0,0,3,0,0,1,0,0,1,1,2,,0,0,0,0,0,0,0,0,0,0,0,0,0,0,0,0,0,0,0,0,0,,2020-11-24T13:22:34Z,66.69344,R+67,Trump +67,republican,66.69344,4791,65.2,4577,54.69,colorado,2020-11-29T00:50:31.248338Z
