fips,name,votes,absentee_votes,reporting,precincts,absentee_method,eevp,tot_exp_vote,eevp_value,eevp_display,eevp_source,turnout_stage,absentee_count_progress,absentee_outstanding,absentee_max_ballots,provisional_outstanding,provisional_count_progress,results_trumpd,results_bidenj,results_jorgensenj,results_write_ins,results_absentee_trumpd,results_absentee_bidenj,results_absentee_jorgensenj,results_absentee_write_ins,last_updated,leader_margin_value,leader_margin_display,leader_margin_name_display,leader_party_id,margin2020,votes2016,margin2016,votes2012,margin2012,state,retrieved_time
18001,Adams,14209,9142,25,25,Released as a separate subtotal as first report of the night,100,14209,>98%,>98% reported,edison,10,all,,7625,,,10686,3236,287,0,6473,2506,163,0,2020-11-26T17:45:07Z,52.43156,R+52,Trump +52,republican,52.43156,13194,51.9,13011,39.44,indiana,2020-11-29T00:50:01.365176Z
18003,Allen,169082,69982,292,292,Merged into voters' home precincts and released with cumulative results,100,169082,>98%,>98% reported,edison,10,all,,79356,,,92083,73189,3728,82,33991,34832,1159,0,2020-11-26T14:36:52Z,11.17446,R+11,Trump +11,republican,11.17446,148632,19.2,146939,16.73,indiana,2020-11-29T00:50:01.365176Z
18005,Bartholomew,36235,27233,68,68,Merged into voters' home precincts and released with cumulative results,100,36235,>98%,>98% reported,edison,10,all,,15848,,,22410,12934,872,19,15670,11042,521,0,2020-11-26T17:45:25Z,26.15151,R+26,Trump +26,republican,26.15151,32717,33,29326,25.43,indiana,2020-11-29T00:50:01.365176Z
18007,Benton,4114,0,15,15,Merged into voters' home precincts and released with cumulative results,100,4114,>98%,>98% reported,edison,10,all,,1863,,,3007,1009,92,6,0,0,0,0,2020-11-26T14:38:04Z,48.56587,R+49,Trump +49,republican,48.56587,3688,46.6,3578,32.7,indiana,2020-11-29T00:50:01.365176Z
18009,Blackford,5350,0,12,12,Merged into voters' home precincts and released with cumulative results,100,5350,>98%,>98% reported,edison,10,all,,4640,,,3841,1376,131,2,0,0,0,0,2020-11-26T14:38:36Z,46.07477,R+46,Trump +46,republican,46.07477,4881,43.2,4743,16.53,indiana,2020-11-29T00:50:01.365176Z
18011,Boone,38520,27924,53,53,Released as a separate subtotal as first report of the night,100,38520,>98%,>98% reported,edison,10,all,,20573,,,22351,15244,905,20,15975,11378,571,0,2020-11-26T14:39:08Z,18.45016,R+18,Trump +18,republican,18.45016,32537,29.1,27737,37.78,indiana,2020-11-29T00:50:01.365176Z
18013,Brown,8981,0,12,12,Merged into voters' home precincts and released with cumulative results,100,8981,>98%,>98% reported,edison,10,all,,5280,,,5777,3036,168,,0,0,0,,2020-11-24T13:21:52Z,30.51999,R+31,Trump +31,republican,30.51999,8001,31.2,7604,16.73,indiana,2020-11-29T00:50:01.365176Z
18015,Carroll,9495,0,19,19,None,100,9510,>98%,>98% reported,edison,10,all,,3417,,,7086,2224,185,0,0,0,0,0,2020-11-26T14:40:11Z,51.2059,R+51,Trump +51,republican,51.2059,8701,50.4,7810,30.27,indiana,2020-11-29T00:50:01.365176Z
18017,Cass,15198,0,40,40,Released as a separate subtotal as first report of the night,100,15198,>98%,>98% reported,edison,10,all,,4407,,,10552,4304,333,9,0,0,0,0,2020-11-26T17:45:33Z,41.11067,R+41,Trump +41,republican,41.11067,14209,41.8,14161,21.69,indiana,2020-11-29T00:50:01.365176Z
18019,Clark,57869,28446,72,72,None,100,57869,>98%,>98% reported,edison,10,all,,16556,,,33668,23093,1108,0,13524,14463,459,0,2020-11-26T14:41:13Z,18.27403,R+18,Trump +18,republican,18.27403,51789,21.7,47146,9.85,indiana,2020-11-29T00:50:01.365176Z
18021,Clay,12267,6576,24,24,Released as a separate subtotal as first report of the night,100,12267,>98%,>98% reported,edison,10,all,,6617,,,9499,2552,208,8,4745,1741,90,0,2020-11-26T17:45:39Z,56.63161,R+57,Trump +57,republican,56.63161,11335,54.9,10784,33.72,indiana,2020-11-29T00:50:01.365176Z
18023,Clinton,12949,0,39,39,Merged into voters' home precincts and released with cumulative results,100,12949,>98%,>98% reported,edison,10,all,,5508,,,9334,3361,246,8,0,0,0,0,2020-11-26T17:45:46Z,46.12711,R+46,Trump +46,republican,46.12711,11991,47.6,9883,30.66,indiana,2020-11-29T00:50:01.365176Z
18025,Crawford,4944,1733,18,18,Merged into voters' home precincts and released with cumulative results,100,4944,>98%,>98% reported,edison,10,all,,1953,,,3483,1355,106,0,964,731,38,0,2020-11-26T17:43:11Z,43.04207,R+43,Trump +43,republican,43.04207,4642,36.4,4590,8.28,indiana,2020-11-29T00:50:01.365176Z
18027,Daviess,11954,6318,28,28,Merged into voters' home precincts and released with cumulative results,100,11954,>98%,>98% reported,edison,10,all,,5181,,,9576,2169,204,5,4766,1475,77,0,2020-11-26T14:43:02Z,61.96252,R+62,Trump +62,republican,61.96252,10819,62.3,10250,50.74,indiana,2020-11-29T00:50:01.365176Z
18033,DeKalb,19628,12672,39,39,Released as a separate subtotal as first report of the night,100,19628,>98%,>98% reported,edison,10,all,,10371,,,14237,4966,425,0,8665,3792,215,0,2020-11-26T14:44:19Z,47.23354,R+47,Trump +47,republican,47.23354,16996,47.7,16328,31.65,indiana,2020-11-29T00:50:01.365176Z
18029,Dearborn,25383,0,45,45,Merged into voters' home precincts and released with cumulative results,100,25383,>98%,>98% reported,edison,10,all,,6893,,,19528,5446,387,22,0,0,0,0,2020-11-26T17:45:52Z,55.47808,R+55,Trump +55,republican,55.47808,24131,54.8,22356,39.66,indiana,2020-11-29T00:50:01.365176Z
18031,Decatur,12287,0,22,22,None,100,12287,>98%,>98% reported,edison,10,all,,5907,,,9575,2439,273,0,0,0,0,0,2020-11-26T14:43:56Z,58.07764,R+58,Trump +58,republican,58.07764,11178,57,10308,40.53,indiana,2020-11-29T00:50:01.365176Z
18035,Delaware,48191,20111,78,78,Merged into voters' home precincts and released with cumulative results,100,48191,>98%,>98% reported,edison,10,all,,20448,,,26827,20474,890,0,8702,11166,243,0,2020-11-26T17:46:01Z,13.18296,R+13,Trump +13,republican,13.18296,45509,13.4,44968,-3.12,indiana,2020-11-29T00:50:01.365176Z
18037,Dubois,21770,16433,40,40,Released as a separate subtotal as first report of the night,100,21770,>98%,>98% reported,edison,10,all,,14877,,,15033,6292,432,13,11030,5146,257,0,2020-11-26T18:06:09Z,40.15158,R+40,Trump +40,republican,40.15158,20095,39.7,18542,27.68,indiana,2020-11-29T00:50:01.365176Z
18039,Elkhart,74387,0,118,118,Released as a separate subtotal as first report of the night,100,74425,>98%,>98% reported,edison,10,all,,25116,,,46972,26108,1241,66,0,0,0,0,2020-11-26T14:45:50Z,28.04791,R+28,Trump +28,republican,28.04791,66239,31.9,67852,26.5,indiana,2020-11-29T00:50:01.365176Z
18041,Fayette,10136,4887,28,28,Released as a separate subtotal as first report of the night,100,10136,>98%,>98% reported,edison,10,all,,7320,,,7755,2237,144,0,3572,1262,53,0,2020-11-26T17:46:08Z,54.43962,R+54,Trump +54,republican,54.43962,9598,47.8,8837,16.86,indiana,2020-11-29T00:50:01.365176Z
18043,Floyd,41802,0,60,60,Released separately AFTER election night,100,41802,>98%,>98% reported,edison,10,all,,12876,,,23400,17511,850,41,0,0,0,0,2020-11-26T14:46:38Z,14.08784,R+14,Trump +14,republican,14.08784,37842,19.8,35305,14.35,indiana,2020-11-29T00:50:01.365176Z
18045,Fountain,7986,0,18,18,Merged into voters' home precincts and released with cumulative results,100,7986,>98%,>98% reported,edison,10,all,,2649,,,6154,1629,200,3,0,0,0,0,2020-11-26T17:49:09Z,56.66166,R+57,Trump +57,republican,56.66166,7534,55.6,7111,34.13,indiana,2020-11-29T00:50:01.365176Z
18047,Franklin,12000,4817,23,23,None,100,12000,>98%,>98% reported,edison,10,all,,3908,,,9691,2137,169,3,3483,1278,56,0,2020-11-26T17:49:15Z,62.95,R+63,Trump +63,republican,62.95,11097,60.4,10560,42.76,indiana,2020-11-29T00:50:01.365176Z
18049,Fulton,9147,3032,17,17,Merged into voters' home precincts and released with cumulative results,100,9147,>98%,>98% reported,edison,10,all,,5427,,,6694,2280,170,3,2154,834,44,0,2020-11-26T14:47:43Z,48.25626,R+48,Trump +48,republican,48.25626,8437,48,8126,33.18,indiana,2020-11-29T00:50:01.365176Z
18051,Gibson,16161,0,34,34,Merged into voters' home precincts and released with cumulative results,100,16161,>98%,>98% reported,edison,10,all,,13292,,,11817,4023,321,0,0,0,0,0,2020-11-26T17:49:21Z,48.22721,R+48,Trump +48,republican,48.22721,15484,47.5,14721,30.97,indiana,2020-11-29T00:50:01.365176Z
18053,Grant,27159,12245,63,63,None,100,27159,>98%,>98% reported,edison,10,all,,19083,,,18543,8015,584,17,7946,4136,163,0,2020-11-26T17:49:28Z,38.76431,R+39,Trump +39,republican,38.76431,25572,39.1,25285,22,indiana,2020-11-29T00:50:01.365176Z
18055,Greene,14784,7974,32,32,Released as a separate subtotal as first report of the night,100,14784,>98%,>98% reported,edison,10,all,,7323,,,11103,3389,290,2,5460,2371,143,0,2020-11-26T18:06:20Z,52.17803,R+52,Trump +52,republican,52.17803,13861,53,13111,31.32,indiana,2020-11-29T00:50:01.365176Z
18057,Hamilton,193999,0,225,225,Released as a separate subtotal as first report of the night,100,193999,>98%,>98% reported,edison,10,all,,74760,,,101587,88390,3894,128,0,0,0,0,2020-11-26T14:49:41Z,6.80261,R+7,Trump +7,republican,6.80261,155966,19.3,136863,34.31,indiana,2020-11-29T00:50:01.365176Z
18059,Hancock,42911,0,50,50,Released as a separate subtotal as first report of the night,100,42911,>98%,>98% reported,edison,10,all,,18729,,,28996,12895,1016,4,0,0,0,0,2020-11-26T14:50:09Z,37.52185,R+38,Trump +38,republican,37.52185,36468,44.3,32843,41.03,indiana,2020-11-29T00:50:01.365176Z
18061,Harrison,20236,8260,39,39,Merged into voters' home precincts and released with cumulative results,100,20236,>98%,>98% reported,edison,10,all,,7107,,,14565,5343,323,5,5001,3154,105,0,2020-11-26T17:49:39Z,45.57225,R+46,Trump +46,republican,45.57225,18558,44,17671,22.82,indiana,2020-11-29T00:50:01.365176Z
18063,Hendricks,88505,0,104,104,Released as a separate subtotal as first report of the night,100,88505,>98%,>98% reported,edison,10,all,,33144,,,53802,32604,2052,47,0,0,0,0,2020-11-26T14:51:00Z,23.95119,R+24,Trump +24,republican,23.95119,76184,33.8,66644,34.81,indiana,2020-11-29T00:50:01.365176Z
18065,Henry,21030,0,41,41,Released as a precinct as first report of the night,99,21160,>98%,>98% reported,edison,10,all,,6212,,,15043,5544,434,9,0,0,0,0,2020-11-26T17:49:00Z,45.16881,R+45,Trump +45,republican,45.16881,20290,43.2,19007,16.97,indiana,2020-11-29T00:50:01.365176Z
18067,Howard,40630,0,79,79,None,100,40630,>98%,>98% reported,edison,10,all,,16788,,,26449,13303,858,20,0,0,0,0,2020-11-26T17:50:22Z,32.3554,R+32,Trump +32,republican,32.3554,37342,33.4,36290,14.31,indiana,2020-11-29T00:50:01.365176Z
18069,Huntington,17829,0,37,37,Released as a precinct as first report of the night,100,17829,>98%,>98% reported,edison,10,all,,9828,,,13147,4255,408,19,0,0,0,0,2020-11-26T16:47:28Z,49.8738,R+50,Trump +50,republican,49.8738,16181,50.3,15765,39.75,indiana,2020-11-29T00:50:01.365176Z
18071,Jackson,19238,0,30,30,Merged into voters' home precincts and released with cumulative results,100,19238,>98%,>98% reported,edison,10,all,,7797,,,14555,4302,381,0,0,0,0,0,2020-11-26T17:55:12Z,53.29556,R+53,Trump +53,republican,53.29556,17667,51,16712,27.41,indiana,2020-11-29T00:50:01.365176Z
18073,Jasper,15475,7647,29,29,Merged into voters' home precincts and released with cumulative results,100,15475,>98%,>98% reported,edison,10,all,,4737,,,11383,3798,288,6,5099,2435,113,0,2020-11-26T14:52:50Z,49.01454,R+49,Trump +49,republican,49.01454,13478,44.9,12896,25.46,indiana,2020-11-29T00:50:01.365176Z
18075,Jay,8461,4972,18,18,Released as a separate subtotal as first report of the night,100,8461,>98%,>98% reported,edison,10,all,,5825,,,6361,1926,169,5,3479,1412,81,0,2020-11-26T17:55:19Z,52.41697,R+52,Trump +52,republican,52.41697,8022,47.5,7901,20.02,indiana,2020-11-29T00:50:01.365176Z
18077,Jefferson,14697,7824,26,26,Merged into voters' home precincts and released with cumulative results,100,14697,>98%,>98% reported,edison,10,all,,7155,,,9663,4731,296,7,4389,3320,115,0,2020-11-26T17:55:28Z,33.55787,R+34,Trump +34,republican,33.55787,13653,30.9,13126,10.42,indiana,2020-11-29T00:50:01.365176Z
18079,Jennings,12251,4993,25,25,Merged into voters' home precincts and released with cumulative results,100,12251,>98%,>98% reported,edison,10,all,,6188,,,9490,2523,238,0,3477,1436,80,0,2020-11-26T17:55:34Z,56.86883,R+57,Trump +57,republican,56.86883,11231,52.2,10250,22.43,indiana,2020-11-29T00:50:01.365176Z
18081,Johnson,77618,56356,135,135,Merged into voters' home precincts and released with cumulative results,100,77618,>98%,>98% reported,edison,10,all,,50885,,,51219,24736,1618,45,36792,18627,937,0,2020-11-26T14:54:36Z,34.11966,R+34,Trump +34,republican,34.11966,67147,41.9,57964,38.39,indiana,2020-11-29T00:50:01.365176Z
18083,Knox,16011,7981,33,33,Merged into voters' home precincts and released with cumulative results,100,16011,>98%,>98% reported,edison,10,all,,7755,,,11655,4067,282,7,5129,2739,113,0,2020-11-26T17:55:45Z,47.39242,R+47,Trump +47,republican,47.39242,15602,46.8,15145,28.95,indiana,2020-11-29T00:50:01.365176Z
18085,Kosciusko,35787,15484,75,75,Merged into voters' home precincts and released with cumulative results,100,35787,>98%,>98% reported,edison,10,all,,11537,,,26499,8364,903,21,10094,5079,311,0,2020-11-26T17:55:51Z,50.67483,R+51,Trump +51,republican,50.67483,32441,54.3,30060,52.22,indiana,2020-11-29T00:50:01.365176Z
18087,LaGrange,10633,0,16,16,Merged into voters' home precincts and released with cumulative results,100,10633,>98%,>98% reported,edison,10,all,,3360,,,8110,2355,168,0,0,0,0,0,2020-11-26T14:55:59Z,54.12395,R+54,Trump +54,republican,54.12395,9666,51.2,9316,35.78,indiana,2020-11-29T00:50:01.365176Z
18091,LaPorte,49392,18864,93,93,Released as a separate subtotal as first report of the night,100,49392,>98%,>98% reported,edison,10,all,,23451,,,25997,22427,968,0,8904,9752,208,0,2020-11-26T17:56:00Z,7.22789,R+7,Trump +7,republican,7.22789,45609,6.3,43681,-12.57,indiana,2020-11-29T00:50:01.365176Z
18089,Lake,219956,120174,356,356,Released as a separate subtotal as first report of the night,100,219956,>98%,>98% reported,edison,10,all,,88065,,,91760,124870,3212,114,44674,74343,1157,0,2020-11-26T14:56:52Z,15.05301,D+15,Biden +15,democrat,-15.05301,202803,-20.4,201758,-30.96,indiana,2020-11-29T00:50:01.365176Z
18093,Lawrence,21025,14750,40,40,Released as a separate subtotal as first report of the night,100,21025,>98%,>98% reported,edison,10,all,,13809,,,15601,4961,463,0,10511,3982,257,0,2020-11-26T17:56:09Z,50.60642,R+51,Trump +51,republican,50.60642,19238,51.1,17822,32.79,indiana,2020-11-29T00:50:01.365176Z
18095,Madison,51793,0,111,111,None,100,51806,>98%,>98% reported,edison,10,all,,23552,,,31215,19524,1026,28,0,0,0,0,2020-11-26T17:56:16Z,22.57255,R+23,Trump +23,republican,22.57255,54378,25.3,52370,4.51,indiana,2020-11-29T00:50:01.365176Z
18097,Marion,389619,0,600,600,Merged into voters' home precincts and released with cumulative results,100,390854,>98%,>98% reported,edison,10,all,,143564,,,134175,247772,7228,444,0,0,0,0,2020-11-26T17:56:22Z,29.15592,D+29,Biden +29,democrat,-29.15592,366879,-22.5,359009,-22.24,indiana,2020-11-29T00:50:01.365176Z
18099,Marshall,19927,2756,30,30,Merged into voters' home precincts and released with cumulative results,100,19927,>98%,>98% reported,edison,10,all,,10005,,,13844,5712,362,9,1285,1426,45,0,2020-11-26T15:00:15Z,40.80895,R+41,Trump +41,republican,40.80895,18241,41.1,17765,28.84,indiana,2020-11-29T00:50:01.365176Z
18101,Martin,5144,0,18,18,Merged into voters' home precincts and released with cumulative results,100,5144,>98%,>98% reported,edison,10,all,,2643,,,4029,1011,104,0,0,0,0,0,2020-11-26T17:56:29Z,58.6703,R+59,Trump +59,republican,58.6703,4846,58.1,4743,40.29,indiana,2020-11-29T00:50:01.365176Z
18103,Miami,14473,10694,24,24,Merged into voters' home precincts and released with cumulative results,100,14473,>98%,>98% reported,edison,10,all,,8804,,,10925,3235,306,7,7878,2641,175,0,2020-11-26T17:56:35Z,53.13342,R+53,Trump +53,republican,53.13342,13601,53,12781,30.92,indiana,2020-11-29T00:50:01.365176Z
18105,Monroe,63151,0,82,82,Merged into voters' home precincts AFTER election night,100,63151,>98%,>98% reported,edison,10,all,,56585,,,22071,39861,1105,114,0,0,0,0,2020-11-26T17:56:41Z,28.17058,D+28,Biden +28,democrat,-28.17058,58454,-23.3,57223,-19.14,indiana,2020-11-29T00:50:01.365176Z
18107,Montgomery,17198,0,27,27,Released as a precinct as first report of the night,100,17198,>98%,>98% reported,edison,10,all,,7172,,,12659,4213,326,0,0,0,0,0,2020-11-26T15:01:47Z,49.11036,R+49,Trump +49,republican,49.11036,15272,50.4,14440,38.46,indiana,2020-11-29T00:50:01.365176Z
18109,Morgan,36159,28564,54,54,Merged into voters' home precincts and released with cumulative results,100,36159,>98%,>98% reported,edison,10,all,,24375,,,27512,7781,862,4,21230,6753,581,0,2020-11-26T15:02:17Z,54.56733,R+55,Trump +55,republican,54.56733,31446,56.1,28266,41.12,indiana,2020-11-29T00:50:01.365176Z
18111,Newton,6591,0,18,18,Merged into voters' home precincts and released with cumulative results,100,6591,>98%,>98% reported,edison,10,all,,1877,,,4942,1509,140,0,0,0,0,0,2020-11-26T15:02:38Z,52.08618,R+52,Trump +52,republican,52.08618,5860,45.6,5654,19.08,indiana,2020-11-29T00:50:01.365176Z
18113,Noble,19190,11817,29,29,None,100,19190,>98%,>98% reported,edison,10,all,,7676,,,14195,4660,335,0,8257,3413,147,0,2020-11-26T15:02:55Z,49.68734,R+50,Trump +50,republican,49.68734,17104,48.5,16244,33.56,indiana,2020-11-29T00:50:01.365176Z
18115,Ohio,3164,1732,11,11,Released as a separate subtotal as first report of the night,100,3164,>98%,>98% reported,edison,6,all,,1905,,,2392,750,22,0,1231,495,6,0,2020-11-24T13:23:10Z,51.89633,R+52,Trump +52,republican,51.89633,2921,49,2819,27.14,indiana,2020-11-29T00:50:01.365176Z
18117,Orange,8832,0,22,22,Merged into voters' home precincts and released with cumulative results,100,8832,>98%,>98% reported,edison,10,all,,3360,,,6432,2224,174,2,0,0,0,0,2020-11-26T18:00:41Z,47.64493,R+48,Trump +48,republican,47.64493,8278,45.4,7776,21.58,indiana,2020-11-29T00:50:01.365176Z
18119,Owen,9904,6280,18,18,Merged into voters' home precincts and released with cumulative results,100,9904,>98%,>98% reported,edison,10,all,,6477,,,7286,2420,198,0,4272,1899,109,0,2020-11-26T15:12:03Z,49.13166,R+49,Trump +49,republican,49.13166,8616,48.8,8113,27.6,indiana,2020-11-29T00:50:01.365176Z
18121,Parke,7011,0,17,17,Merged into voters' home precincts and released with cumulative results,100,7011,>98%,>98% reported,edison,10,all,,3452,,,5398,1503,110,0,0,0,0,0,2020-11-26T15:12:24Z,55.55556,R+56,Trump +56,republican,55.55556,6636,51.6,6515,32.6,indiana,2020-11-29T00:50:01.365176Z
18123,Perry,8722,1191,21,21,Merged into voters' home precincts and released with cumulative results,100,8722,>98%,>98% reported,edison,10,all,,6825,,,5345,3203,174,0,465,707,19,0,2020-11-26T15:12:51Z,24.55859,R+25,Trump +25,republican,24.55859,8092,18.5,7875,-11.59,indiana,2020-11-29T00:50:01.365176Z
18125,Pike,6220,0,18,18,Merged into voters' home precincts and released with cumulative results,100,6220,>98%,>98% reported,edison,10,all,,3717,,,4692,1415,113,0,0,0,0,0,2020-11-26T18:00:48Z,52.68489,R+53,Trump +53,republican,52.68489,5977,51.9,5926,25.35,indiana,2020-11-29T00:50:01.365176Z
18127,Porter,86509,0,123,123,Merged into voters' home precincts and released with cumulative results,100,86524,>98%,>98% reported,edison,10,all,,38280,,,45008,39746,1656,99,0,0,0,0,2020-11-26T15:13:37Z,6.0826,R+6,Trump +6,republican,6.0826,78266,6.6,73039,-3.9,indiana,2020-11-29T00:50:01.365176Z
18129,Posey,13236,7994,34,34,Merged into voters' home precincts AFTER election night,100,13236,>98%,>98% reported,edison,10,all,,7529,,,9206,3811,214,5,5118,2771,105,0,2020-11-26T15:13:59Z,40.76005,R+41,Trump +41,republican,40.76005,12592,38.8,12226,23.7,indiana,2020-11-29T00:50:01.365176Z
18131,Pulaski,5806,3154,15,15,Released as a separate subtotal as first report of the night,100,5806,>98%,>98% reported,edison,10,all,,2841,,,4246,1463,97,0,2084,1025,45,0,2020-11-26T16:47:18Z,47.93317,R+48,Trump +48,republican,47.93317,5459,46.3,5399,27.17,indiana,2020-11-29T00:50:01.365176Z
18133,Putnam,16597,0,31,31,None,100,16597,>98%,>98% reported,edison,10,all,,7191,,,12278,3946,371,2,0,0,0,0,2020-11-26T15:14:44Z,50.20184,R+50,Trump +50,republican,50.20184,14818,49.1,13829,32.53,indiana,2020-11-29T00:50:01.365176Z
18135,Randolph,11070,6159,18,18,Released as a separate subtotal as first report of the night,100,11070,>98%,>98% reported,edison,10,all,,3969,,,8312,2513,243,2,4309,1758,92,0,2020-11-26T18:00:57Z,52.38482,R+52,Trump +52,republican,52.38482,10523,48.2,10189,24.04,indiana,2020-11-29T00:50:01.365176Z
18137,Ripley,14271,0,25,25,Merged into voters' home precincts and released with cumulative results,100,14271,>98%,>98% reported,edison,10,all,,4227,,,11261,2774,229,7,0,0,0,0,2020-11-26T15:15:27Z,59.47025,R+59,Trump +59,republican,59.47025,12935,56.7,10983,38.63,indiana,2020-11-29T00:50:01.365176Z
18139,Rush,7932,3933,17,17,Merged into voters' home precincts and released with cumulative results,100,7932,>98%,>98% reported,edison,10,all,,3063,,,6035,1754,143,0,2753,1127,53,0,2020-11-26T15:15:50Z,53.97126,R+54,Trump +54,republican,53.97126,7266,51.8,7026,34.33,indiana,2020-11-29T00:50:01.365176Z
18143,Scott,10161,5777,40,40,None,100,10161,>98%,>98% reported,edison,10,all,,4923,,,7328,2698,134,1,3735,1982,60,0,2020-11-26T18:01:07Z,45.56638,R+46,Trump +46,republican,45.56638,9147,37.5,8720,6.2,indiana,2020-11-29T00:50:01.365176Z
18145,Shelby,19991,0,24,24,Merged into voters' home precincts AFTER election night,100,19991,>98%,>98% reported,edison,10,all,,8657,,,14568,5023,400,0,0,0,0,0,2020-11-26T15:16:37Z,47.74649,R+48,Trump +48,republican,47.74649,18080,46.9,16760,33.53,indiana,2020-11-29T00:50:01.365176Z
18147,Spencer,10769,1846,24,24,None,100,10769,>98%,>98% reported,edison,10,all,,6159,,,7357,3213,199,0,821,996,29,0,2020-11-26T15:17:01Z,38.48082,R+38,Trump +38,republican,38.48082,10048,36.9,9728,15.31,indiana,2020-11-29T00:50:01.365176Z
18141,St. Joseph,115238,0,16,16,Merged into voters' home precincts and released with cumulative results,100,115238,>98%,>98% reported,edison,10,all,,55661,,,53164,59896,1925,253,0,0,0,0,2020-11-26T17:06:12Z,5.84182,D+6,Biden +6,democrat,-5.84182,111842,-0.2,110704,-3.51,indiana,2020-11-29T00:50:01.365176Z
18149,Starke,10290,5096,21,21,Merged into voters' home precincts and released with cumulative results,100,10290,>98%,>98% reported,edison,10,all,,4613,,,7466,2650,174,0,3269,1766,61,0,2020-11-26T15:18:29Z,46.80272,R+47,Trump +47,republican,46.80272,9316,41.6,8754,10.61,indiana,2020-11-29T00:50:01.365176Z
18151,Steuben,16162,8245,23,23,None,100,16162,>98%,>98% reported,edison,10,all,,6699,,,11327,4513,312,10,5019,3088,138,0,2020-11-26T15:18:55Z,42.16062,R+42,Trump +42,republican,42.16062,14714,43.4,13695,26.97,indiana,2020-11-29T00:50:01.365176Z
18153,Sullivan,8994,3392,21,21,Released as a separate subtotal as first report of the night,100,8994,>98%,>98% reported,edison,10,all,,3957,,,6691,2153,150,0,2214,1133,45,0,2020-11-26T18:05:34Z,50.45586,R+50,Trump +50,republican,50.45586,8613,46.7,8290,20.64,indiana,2020-11-29T00:50:01.365176Z
18155,Switzerland,4154,0,12,12,None,100,4154,>98%,>98% reported,edison,10,all,,1191,,,3133,964,55,2,0,0,0,0,2020-11-26T15:19:42Z,52.21473,R+52,Trump +52,republican,52.21473,3709,43.9,3397,12.81,indiana,2020-11-29T00:50:01.365176Z
18157,Tippecanoe,71448,48854,119,119,Merged into voters' home precincts and released with cumulative results,100,71448,>98%,>98% reported,edison,10,all,,4383,,,34581,35017,1832,18,22343,25569,942,0,2020-11-26T15:20:02Z,0.61023,D+0.61,Biden +0.61,democrat,-0.61023,63342,5.5,56896,3.6,indiana,2020-11-29T00:50:01.365176Z
18159,Tipton,8116,3682,15,15,Merged into voters' home precincts and released with cumulative results,100,8116,>98%,>98% reported,edison,10,all,,4083,,,6110,1834,171,1,2460,1149,73,0,2020-11-26T15:20:22Z,52.68605,R+53,Trump +53,republican,52.68605,7510,53.3,7365,31.79,indiana,2020-11-29T00:50:01.365176Z
18161,Union,3483,0,10,10,None,100,3483,>98%,>98% reported,edison,10,all,,1515,,,2688,736,59,0,0,0,0,0,2020-11-26T18:05:24Z,56.04364,R+56,Trump +56,republican,56.04364,3315,52.2,3100,32.39,indiana,2020-11-29T00:50:01.365176Z
18163,Vanderburgh,77662,0,136,136,None,100,77662,>98%,>98% reported,edison,10,all,,72041,,,41844,34415,1322,81,0,0,0,0,2020-11-26T18:05:17Z,9.56581,R+10,Trump +10,republican,9.56581,73375,16.3,72404,10.59,indiana,2020-11-29T00:50:01.365176Z
18165,Vermillion,7481,3249,17,17,Released as a separate subtotal as first report of the night,100,7481,>98%,>98% reported,edison,10,all,,2816,,,5184,2145,151,1,1253,1954,42,0,2020-11-26T15:21:43Z,40.62291,R+41,Trump +41,republican,40.62291,6973,34.9,6581,6.79,indiana,2020-11-29T00:50:01.365176Z
18167,Vigo,43594,0,89,89,Merged into voters' home precincts and released with cumulative results,100,43594,>98%,>98% reported,edison,10,all,,16803,,,24545,18123,900,26,0,0,0,0,2020-11-26T15:22:11Z,14.73139,R+15,Trump +15,republican,14.73139,40127,15,39877,-0.86,indiana,2020-11-29T00:50:01.365176Z
18169,Wabash,14573,10443,26,26,Released as a separate subtotal as first report of the night,100,14573,>98%,>98% reported,edison,10,all,,6597,,,10762,3494,317,0,7357,2891,195,0,2020-11-26T18:05:11Z,49.87305,R+50,Trump +50,republican,49.87305,13552,50.2,12874,36.28,indiana,2020-11-29T00:50:01.365176Z
18171,Warren,4472,0,13,13,Released as a separate subtotal as first report of the night,100,4472,>98%,>98% reported,edison,10,all,,1629,,,3401,974,96,1,0,0,0,0,2020-11-26T15:22:55Z,54.27102,R+54,Trump +54,republican,54.27102,3953,52.1,3800,27.71,indiana,2020-11-29T00:50:01.365176Z
18173,Warrick,33829,24716,59,59,Merged into voters' home precincts and released with cumulative results,100,33829,>98%,>98% reported,edison,10,all,,14037,,,21326,11923,557,23,14631,9762,323,0,2020-11-26T15:23:26Z,27.79568,R+28,Trump +28,republican,27.79568,29940,33.5,24630,26.63,indiana,2020-11-29T00:50:01.365176Z
18175,Washington,12139,0,20,20,Merged into voters' home precincts and released with cumulative results,100,12139,>98%,>98% reported,edison,10,some,,3885,,,9114,2784,233,8,0,0,0,0,2020-11-26T15:23:49Z,52.14598,R+52,Trump +52,republican,52.14598,11382,49,10737,24.44,indiana,2020-11-29T00:50:01.365176Z
18177,Wayne,27679,0,60,60,Merged into voters' home precincts and released with cumulative results,100,27679,>98%,>98% reported,edison,10,all,,7304,,,17567,9524,571,17,0,0,0,0,2020-11-26T18:05:02Z,29.05813,R+29,Trump +29,republican,29.05813,25579,30.1,25477,14.64,indiana,2020-11-29T00:50:01.365176Z
18179,Wells,14050,0,22,22,Released as a separate subtotal as first report of the night,100,14050,>98%,>98% reported,edison,10,all,,7625,,,10855,2928,261,6,0,0,0,0,2020-11-26T18:04:55Z,56.41993,R+56,Trump +56,republican,56.41993,13287,55.8,12935,44.99,indiana,2020-11-29T00:50:01.365176Z
18181,White,11166,0,20,20,Released as a separate subtotal as first report of the night,100,11166,>98%,>98% reported,edison,10,all,,4013,,,7957,3032,170,7,0,0,0,0,2020-11-26T15:24:56Z,44.10711,R+44,Trump +44,republican,44.10711,10097,42.6,9903,23.56,indiana,2020-11-29T00:50:01.365176Z
18183,Whitley,17556,9050,34,34,Released as a separate subtotal as first report of the night,100,17556,>98%,>98% reported,edison,10,all,,9132,,,12862,4234,453,7,5971,2884,188,7,2020-11-26T15:25:30Z,49.14559,R+49,Trump +49,republican,49.14559,15759,50.6,15011,38.89,indiana,2020-11-29T00:50:01.365176Z
