fips,name,votes,absentee_votes,reporting,precincts,absentee_method,eevp,tot_exp_vote,eevp_value,eevp_display,eevp_source,turnout_stage,absentee_count_progress,absentee_outstanding,absentee_max_ballots,provisional_outstanding,provisional_count_progress,results_bidenj,results_trumpd,results_jorgensenj,results_hawkinsh,results_pierceb,results_westk,results_de_la_fuenter,results_write_ins,results_kennedya,results_la_rivag,results_absentee_bidenj,results_absentee_trumpd,results_absentee_jorgensenj,results_absentee_hawkinsh,results_absentee_pierceb,results_absentee_westk,results_absentee_de_la_fuenter,results_absentee_write_ins,results_absentee_kennedya,results_absentee_la_rivag,last_updated,leader_margin_value,leader_margin_display,leader_margin_name_display,leader_party_id,margin2020,votes2016,margin2016,votes2012,margin2012,state,retrieved_time
27001,Aitkin,10025,0,54,54,Merged into voters' home precincts and released with cumulative results,100,10025,>98%,>98% reported,edison,10,all,,2973,,,3607,6258,55,24,24,22,15,15,3,2,0,0,0,0,0,0,0,0,0,0,2020-11-26T18:21:27Z,26.44389,R+26,Trump +26,republican,26.44389,9231,25.8,9142,1.32,minnesota,2020-11-30T00:48:43.187042Z
27003,Anoka,211132,0,128,128,Merged into voters' home precincts and released with cumulative results,100,211132,>98%,>98% reported,edison,10,all,,34809,,,100893,104902,2475,731,408,513,467,641,36,66,0,0,0,0,0,0,0,0,0,0,2020-11-26T18:20:45Z,1.89881,R+1.9,Trump +1.9,republican,1.89881,185758,9.6,186465,2.58,minnesota,2020-11-30T00:48:43.187042Z
27005,Becker,19401,6296,48,48,Merged into voters' home precincts and released with cumulative results,100,19025,>98%,>98% reported,edison,6,all,,4508,,,6589,12438,168,35,27,52,37,43,4,8,3416,2792,38,11,10,13,15,0,0,1,2020-11-26T18:22:23Z,30.14793,R+30,Trump +30,republican,30.14793,17222,32.9,16382,14.5,minnesota,2020-11-30T00:48:43.187042Z
27007,Beltrami,24189,0,63,63,Merged into voters' home precincts and released with cumulative results,95,25461,95%,95% reported,edison,2,all,,4845,,,11426,12188,256,75,33,95,32,58,9,17,0,0,0,0,0,0,0,0,0,0,2020-11-26T18:23:19Z,3.15019,R+3,Trump +3,republican,3.15019,21564,9.7,22051,-9.89,minnesota,2020-11-30T00:48:43.187042Z
27009,Benton,22260,0,27,27,Merged into voters' home precincts and released with cumulative results,100,22088,>98%,>98% reported,edison,2,all,,3225,,,7280,14382,351,81,40,45,29,42,5,5,0,0,0,0,0,0,0,0,0,0,2020-11-26T18:24:10Z,31.90476,R+32,Trump +32,republican,31.90476,20058,36.1,19619,13.64,minnesota,2020-11-30T00:48:43.187042Z
27011,Big Stone,2974,0,23,23,Merged into voters' home precincts and released with cumulative results,100,2987,>98%,>98% reported,edison,4,all,,612,,,1053,1863,14,14,8,14,4,4,0,0,0,0,0,0,0,0,0,0,0,0,2020-11-26T18:24:46Z,27.23605,R+27,Trump +27,republican,27.23605,2755,24.9,2789,1.43,minnesota,2020-11-30T00:48:43.187042Z
27013,Blue Earth,36051,0,54,54,Merged into voters' home precincts and released with cumulative results,91,39485,91%,91% reported,edison,4,all,,5756,,,18330,16731,477,139,82,120,64,82,16,10,0,0,0,0,0,0,0,0,0,0,2020-11-26T18:25:32Z,4.43538,D+4,Biden +4,democrat,-4.43538,33593,3.7,34274,-9.48,minnesota,2020-11-30T00:48:43.187042Z
27015,Brown,14635,0,32,32,Merged into voters' home precincts and released with cumulative results,99,14847,>98%,>98% reported,edison,4,all,,2808,,,4753,9552,136,38,41,33,33,40,3,6,0,0,0,0,0,0,0,0,0,0,2020-11-26T18:26:11Z,32.79125,R+33,Trump +33,republican,32.79125,13779,35.9,13929,16.57,minnesota,2020-11-30T00:48:43.187042Z
27017,Carlton,20369,0,38,38,Merged into voters' home precincts and released with cumulative results,100,20361,>98%,>98% reported,edison,6,all,,3884,,,10098,9791,231,61,40,43,48,49,4,4,0,0,0,0,0,0,0,0,0,0,2020-11-27T04:30:41Z,1.50719,D+1.5,Biden +1.5,democrat,-1.50719,18211,-1.6,18436,-26.05,minnesota,2020-11-30T00:48:43.187042Z
27019,Carver,66361,0,35,35,Merged into voters' home precincts and released with cumulative results,100,65382,>98%,>98% reported,edison,6,all,,12048,,,30774,34009,822,141,107,126,124,240,5,13,0,0,0,0,0,0,0,0,0,0,2020-11-26T18:29:00Z,4.87485,R+5,Trump +5,republican,4.87485,55696,13.6,52899,19.68,minnesota,2020-11-30T00:48:43.187042Z
27021,Cass,18289,0,73,73,Merged into voters' home precincts and released with cumulative results,100,17708,>98%,>98% reported,edison,2,all,,4911,,,6342,11620,111,60,27,46,34,34,3,12,0,0,0,0,0,0,0,0,0,0,2020-11-27T03:02:12Z,28.85888,R+29,Trump +29,republican,28.85888,15999,31.5,16141,13,minnesota,2020-11-30T00:48:43.187042Z
27023,Chippewa,6611,0,25,25,Merged into voters' home precincts and released with cumulative results,99,6655,>98%,>98% reported,edison,2,all,,1308,,,2226,4250,58,12,21,22,8,12,2,0,0,0,0,0,0,0,0,0,0,0,2020-11-27T03:03:02Z,30.61564,R+31,Trump +31,republican,30.61564,6222,28.7,6201,-1.87,minnesota,2020-11-30T00:48:43.187042Z
27025,Chisago,34570,0,23,23,Merged into voters' home precincts and released with cumulative results,100,33288,>98%,>98% reported,edison,2,all,,5696,,,11806,21916,464,111,68,53,70,73,1,8,0,0,0,0,0,0,0,0,0,0,2020-11-27T03:04:07Z,29.24501,R+29,Trump +29,republican,29.24501,30228,30.3,29441,12.58,minnesota,2020-11-30T00:48:43.187042Z
27027,Clay,32239,0,58,58,Merged into voters' home precincts and released with cumulative results,95,34102,95%,95% reported,edison,2,all,,6609,,,16357,15043,410,101,57,79,76,101,6,9,0,0,0,0,0,0,0,0,0,0,2020-11-27T03:05:04Z,4.07581,D+4,Biden +4,democrat,-4.07581,29398,1.9,28886,-7.92,minnesota,2020-11-30T00:48:43.187042Z
27029,Clearwater,4708,0,29,29,Merged into voters' home precincts and released with cumulative results,100,4556,>98%,>98% reported,edison,4,all,,869,,,1260,3372,28,14,8,12,4,9,0,1,0,0,0,0,0,0,0,0,0,0,2020-11-27T03:05:56Z,44.85981,R+45,Trump +45,republican,44.85981,4245,43,4197,14.44,minnesota,2020-11-30T00:48:43.187042Z
27031,Cook,3806,0,13,13,Merged into voters' home precincts and released with cumulative results,100,3644,>98%,>98% reported,edison,2,all,,1133,,,2496,1203,36,15,9,16,5,21,2,3,0,0,0,0,0,0,0,0,0,0,2020-11-27T03:06:51Z,33.97267,D+34,Biden +34,democrat,-33.97267,3395,-22.3,3322,-23.24,minnesota,2020-11-30T00:48:43.187042Z
27033,Cottonwood,6107,0,29,29,Merged into voters' home precincts and released with cumulative results,95,6440,95%,95% reported,edison,2,all,,1245,,,1834,4165,55,13,10,11,9,10,0,0,0,0,0,0,0,0,0,0,0,0,2020-11-27T04:33:00Z,38.16931,R+38,Trump +38,republican,38.16931,5721,35,5862,15.06,minnesota,2020-11-30T00:48:43.187042Z
27035,Crow Wing,40173,0,62,62,Merged into voters' home precincts and released with cumulative results,100,39471,>98%,>98% reported,edison,4,all,,10353,,,13726,25676,357,92,66,81,61,100,5,9,0,0,0,0,0,0,0,0,0,0,2020-11-27T03:08:49Z,29.74635,R+30,Trump +30,republican,29.74635,35842,31.5,34920,13.33,minnesota,2020-11-30T00:48:43.187042Z
27037,Dakota,262259,0,141,141,Merged into voters' home precincts and released with cumulative results,98,268470,98%,98% reported,edison,2,all,,57003,,,146155,109638,2957,827,456,593,535,984,31,83,0,0,0,0,0,0,0,0,0,0,2020-11-27T03:09:53Z,13.92402,D+14,Biden +14,democrat,-13.92402,231860,-4.6,230821,-2.92,minnesota,2020-11-30T00:48:43.187042Z
27039,Dodge,12187,0,22,22,Merged into voters' home precincts and released with cumulative results,100,11733,>98%,>98% reported,edison,4,all,,1812,,,4079,7783,167,39,26,30,27,30,3,3,0,0,0,0,0,0,0,0,0,0,2020-11-27T03:10:42Z,30.39304,R+30,Trump +30,republican,30.39304,10654,32.1,10327,10.02,minnesota,2020-11-30T00:48:43.187042Z
27041,Douglas,24165,0,37,37,Merged into voters' home precincts and released with cumulative results,96,25271,96%,96% reported,edison,2,all,,5981,,,7868,15799,238,56,57,55,40,45,5,2,0,0,0,0,0,0,0,0,0,0,2020-11-27T03:11:40Z,32.82019,R+33,Trump +33,republican,32.82019,21785,35.5,20953,15.42,minnesota,2020-11-30T00:48:43.187042Z
27043,Faribault,7914,0,33,33,Merged into voters' home precincts and released with cumulative results,96,8223,96%,96% reported,edison,2,all,,1508,,,2531,5191,72,19,24,31,21,22,1,2,0,0,0,0,0,0,0,0,0,0,2020-11-27T03:12:16Z,33.61132,R+34,Trump +34,republican,33.61132,7412,33.8,7713,9.04,minnesota,2020-11-30T00:48:43.187042Z
27045,Fillmore,12141,0,37,37,Merged into voters' home precincts and released with cumulative results,100,12174,>98%,>98% reported,edison,4,all,,1887,,,4551,7301,135,24,19,36,34,37,4,0,0,0,0,0,0,0,0,0,0,0,2020-11-27T03:13:34Z,22.65052,R+23,Trump +23,republican,22.65052,11055,21.7,10892,-7.34,minnesota,2020-11-30T00:48:43.187042Z
27047,Freeborn,16818,0,41,41,Merged into voters' home precincts and released with cumulative results,94,17800,94%,94% reported,edison,4,all,,3864,,,6889,9578,146,51,26,49,38,27,4,10,0,0,0,0,0,0,0,0,0,0,2020-11-27T03:14:36Z,15.98882,R+16,Trump +16,republican,15.98882,16051,17.2,16706,-14.11,minnesota,2020-11-30T00:48:43.187042Z
27049,Goodhue,28636,0,40,40,Merged into voters' home precincts and released with cumulative results,96,29832,96%,96% reported,edison,2,all,,5379,,,11806,16052,397,102,65,64,64,69,9,8,0,0,0,0,0,0,0,0,0,0,2020-11-27T03:15:13Z,14.82749,R+15,Trump +15,republican,14.82749,25717,17.9,25801,3,minnesota,2020-11-30T00:48:43.187042Z
27051,Grant,3654,0,23,23,Merged into voters' home precincts and released with cumulative results,98,3728,98%,98% reported,edison,2,all,,855,,,1300,2269,43,8,10,10,7,4,2,1,0,0,0,0,0,0,0,0,0,0,2020-11-27T03:15:56Z,26.51888,R+27,Trump +27,republican,26.51888,3473,27.6,3487,2.9,minnesota,2020-11-30T00:48:43.187042Z
27053,Hennepin,755969,0,425,425,Merged into voters' home precincts and released with cumulative results,96,788773,96%,96% reported,edison,2,all,,179553,,,532623,205973,7526,2448,1025,1937,1038,2787,164,448,0,0,0,0,0,0,0,0,0,0,2020-11-27T03:17:24Z,43.20944,D+43,Biden +43,democrat,-43.20944,679977,-34.9,680065,-27.04,minnesota,2020-11-30T00:48:43.187042Z
27055,Houston,11440,0,27,27,Merged into voters' home precincts and released with cumulative results,98,11678,98%,98% reported,edison,4,all,,1965,,,4853,6334,114,29,32,29,20,21,4,4,0,0,0,0,0,0,0,0,0,0,2020-11-27T03:18:07Z,12.9458,R+13,Trump +13,republican,12.9458,10604,13.9,10446,-3.16,minnesota,2020-11-30T00:48:43.187042Z
27057,Hubbard,12965,0,38,38,Merged into voters' home precincts and released with cumulative results,97,13346,97%,97% reported,edison,2,all,,3437,,,4462,8202,134,48,24,30,23,38,2,2,0,0,0,0,0,0,0,0,0,0,2020-11-27T03:18:42Z,28.8469,R+29,Trump +29,republican,28.8469,11505,33.4,11520,16.89,minnesota,2020-11-30T00:48:43.187042Z
27059,Isanti,24235,0,19,19,Merged into voters' home precincts and released with cumulative results,100,22477,>98%,>98% reported,edison,2,all,,3609,,,7138,16491,304,79,34,53,51,73,5,7,0,0,0,0,0,0,0,0,0,0,2020-11-27T03:19:46Z,38.59294,R+39,Trump +39,republican,38.59294,21016,38,20217,18.06,minnesota,2020-11-30T00:48:43.187042Z
27061,Itasca,26561,0,76,76,Merged into voters' home precincts and released with cumulative results,100,25925,>98%,>98% reported,edison,6,all,,5760,,,10786,15239,247,77,50,63,44,50,3,2,0,0,0,0,0,0,0,0,0,0,2020-11-27T03:20:27Z,16.76518,R+17,Trump +17,republican,16.76518,23880,16.4,23919,-9.83,minnesota,2020-11-30T00:48:43.187042Z
27063,Jackson,5819,0,28,28,Merged into voters' home precincts and released with cumulative results,96,6039,96%,96% reported,edison,2,all,,917,,,1745,3948,53,12,19,19,15,6,2,0,0,0,0,0,0,0,0,0,0,0,2020-11-27T03:21:19Z,37.85874,R+38,Trump +38,republican,37.85874,5484,38.6,5430,14.29,minnesota,2020-11-30T00:48:43.187042Z
27065,Kanabec,9242,0,20,20,Merged into voters' home precincts and released with cumulative results,100,8745,>98%,>98% reported,edison,4,all,,1575,,,2774,6278,93,23,21,17,12,18,1,5,0,0,0,0,0,0,0,0,0,0,2020-11-27T03:21:56Z,37.91387,R+38,Trump +38,republican,37.91387,8177,35.5,8150,9.02,minnesota,2020-11-30T00:48:43.187042Z
27067,Kandiyohi,23367,0,48,48,Merged into voters' home precincts and released with cumulative results,97,23977,97%,97% reported,edison,2,all,,5181,,,8440,14437,211,53,48,63,44,54,11,6,0,0,0,0,0,0,0,0,0,0,2020-11-27T03:22:45Z,25.6644,R+26,Trump +26,republican,25.6644,21772,25.3,21465,6.69,minnesota,2020-11-30T00:48:43.187042Z
27069,Kittson,2639,0,39,39,Merged into voters' home precincts and released with cumulative results,100,2627,>98%,>98% reported,edison,6,all,,501,,,1006,1546,44,8,7,12,7,9,0,0,0,0,0,0,0,0,0,0,0,0,2020-11-27T03:23:22Z,20.4623,R+20,Trump +20,republican,20.4623,2385,22.1,2420,-6.03,minnesota,2020-11-30T00:48:43.187042Z
27071,Koochiching,6922,0,22,22,Merged into voters' home precincts and released with cumulative results,100,6879,>98%,>98% reported,edison,4,all,,2004,,,2659,4131,60,17,10,14,13,17,0,1,0,0,0,0,0,0,0,0,0,0,2020-11-27T03:24:16Z,21.26553,R+21,Trump +21,republican,21.26553,6363,19.8,6458,-9.45,minnesota,2020-11-30T00:48:43.187042Z
27073,Lac Qui Parle,4040,0,29,29,Merged into voters' home precincts and released with cumulative results,95,4266,95%,95% reported,edison,4,all,,840,,,1446,2528,20,7,14,13,4,7,1,0,0,0,0,0,0,0,0,0,0,0,2020-11-27T03:25:02Z,26.78218,R+27,Trump +27,republican,26.78218,3860,25.6,3984,-0.9,minnesota,2020-11-30T00:48:43.187042Z
27075,Lake,7202,0,19,19,Merged into voters' home precincts and released with cumulative results,91,7885,91%,91% reported,edison,2,all,,1565,,,3647,3393,78,26,10,18,8,19,1,2,0,0,0,0,0,0,0,0,0,0,2020-11-27T03:26:16Z,3.5268,D+4,Biden +4,democrat,-3.5268,6521,-2.2,6820,-21.01,minnesota,2020-11-30T00:48:43.187042Z
27077,Lake of the Woods,2408,0,17,17,Merged into voters' home precincts and released with cumulative results,100,2407,>98%,>98% reported,edison,2,all,,281,,,671,1704,22,4,0,3,1,3,0,0,0,0,0,0,0,0,0,0,0,0,2020-11-27T03:26:51Z,42.89867,R+43,Trump +43,republican,42.89867,2242,44,2234,20.01,minnesota,2020-11-30T00:48:43.187042Z
27079,Le Sueur,16818,0,26,26,Merged into voters' home precincts and released with cumulative results,100,16486,>98%,>98% reported,edison,2,all,,2535,,,5672,10775,169,42,36,42,35,42,4,1,0,0,0,0,0,0,0,0,0,0,2020-11-27T03:27:38Z,30.34249,R+30,Trump +30,republican,30.34249,14971,30.5,14795,6.5,minnesota,2020-11-30T00:48:43.187042Z
27081,Lincoln,3115,0,20,20,Merged into voters' home precincts and released with cumulative results,93,3343,93%,93% reported,edison,4,all,,612,,,937,2121,23,6,6,8,9,3,1,1,0,0,0,0,0,0,0,0,0,0,2020-11-27T04:38:49Z,38.00963,R+38,Trump +38,republican,38.00963,3019,35.5,3120,5.32,minnesota,2020-11-30T00:48:43.187042Z
27083,Lyon,12893,0,33,33,Merged into voters' home precincts and released with cumulative results,100,12877,>98%,>98% reported,edison,6,all,,2415,,,4634,7979,140,28,21,31,24,29,3,4,0,0,0,0,0,0,0,0,0,0,2020-11-27T03:29:12Z,25.94431,R+26,Trump +26,republican,25.94431,12215,28.1,12388,9.11,minnesota,2020-11-30T00:48:43.187042Z
27087,Mahnomen,2304,0,19,19,Merged into voters' home precincts and released with cumulative results,100,2302,>98%,>98% reported,edison,6,all,,452,,,1112,1142,9,6,6,12,10,2,1,4,0,0,0,0,0,0,0,0,0,0,2020-11-27T03:30:57Z,1.30208,R+1.3,Trump +1.3,republican,1.30208,2088,2.9,2182,-18.56,minnesota,2020-11-30T00:48:43.187042Z
27089,Marshall,5113,0,60,60,Merged into voters' home precincts and released with cumulative results,99,5171,>98%,>98% reported,edison,2,all,,869,,,1295,3721,37,8,15,11,13,12,0,1,0,0,0,0,0,0,0,0,0,0,2020-11-27T03:31:33Z,47.44768,R+47,Trump +47,republican,47.44768,4817,41.2,4698,12.15,minnesota,2020-11-30T00:48:43.187042Z
27091,Martin,11009,5247,37,37,Merged into voters' home precincts and released with cumulative results,94,11686,94%,94% reported,edison,4,all,,2561,,,3305,7480,98,24,20,29,18,30,3,2,2124,3033,43,0,8,15,6,17,0,1,2020-11-27T03:32:22Z,37.92352,R+38,Trump +38,republican,37.92352,10531,41.1,10968,23.73,minnesota,2020-11-30T00:48:43.187042Z
27085,McLeod,20933,0,28,28,Merged into voters' home precincts and released with cumulative results,100,20114,>98%,>98% reported,edison,2,all,,3348,,,6413,13986,292,58,47,40,41,45,9,2,0,0,0,0,0,0,0,0,0,0,2020-11-27T03:29:53Z,36.17733,R+36,Trump +36,republican,36.17733,18807,38.2,18553,22.1,minnesota,2020-11-30T00:48:43.187042Z
27093,Meeker,13529,0,30,30,Merged into voters' home precincts and released with cumulative results,100,13136,>98%,>98% reported,edison,2,all,,2115,,,3867,9359,122,41,31,45,30,32,0,2,0,0,0,0,0,0,0,0,0,0,2020-11-27T03:33:27Z,40.59428,R+41,Trump +41,republican,40.59428,12282,40,12214,15.92,minnesota,2020-11-30T00:48:43.187042Z
27095,Mille Lacs,14689,0,25,25,Merged into voters' home precincts and released with cumulative results,100,462,>98%,>98% reported,edison,6,all,,2361,,,4404,9952,181,31,25,36,28,23,5,4,0,0,0,0,0,0,0,0,0,0,2020-11-27T03:34:22Z,37.76976,R+38,Trump +38,republican,37.76976,13017,35.6,13091,8.57,minnesota,2020-11-30T00:48:43.187042Z
27097,Morrison,19558,0,48,48,Merged into voters' home precincts and released with cumulative results,100,18838,>98%,>98% reported,edison,2,all,,3279,,,4367,14821,173,52,44,28,34,33,3,3,0,0,0,0,0,0,0,0,0,0,2020-11-27T03:34:57Z,53.45127,R+53,Trump +53,republican,53.45127,17614,52.7,16714,23.97,minnesota,2020-11-30T00:48:43.187042Z
27099,Mower,19345,0,40,40,Merged into voters' home precincts and released with cumulative results,95,20341,95%,95% reported,edison,2,all,,3704,,,8899,10025,177,47,44,62,40,44,2,5,0,0,0,0,0,0,0,0,0,0,2020-11-27T03:36:19Z,5.82063,R+6,Trump +6,republican,5.82063,17715,7.8,18539,-22.61,minnesota,2020-11-30T00:48:43.187042Z
27101,Murray,4896,0,29,29,Merged into voters' home precincts and released with cumulative results,96,5103,96%,96% reported,edison,2,all,,1152,,,1449,3363,32,10,8,9,8,13,2,2,0,0,0,0,0,0,0,0,0,0,2020-11-27T03:37:02Z,39.09314,R+39,Trump +39,republican,39.09314,4668,36,4767,7.22,minnesota,2020-11-30T00:48:43.187042Z
27103,Nicollet,19125,0,28,28,Merged into voters' home precincts and released with cumulative results,90,21211,90%,90% reported,edison,4,all,,3144,,,9622,9018,222,78,40,43,37,54,7,4,0,0,0,0,0,0,0,0,0,0,2020-11-27T03:37:52Z,3.15817,D+3,Biden +3,democrat,-3.15817,18097,3,18357,-7.83,minnesota,2020-11-30T00:48:43.187042Z
27105,Nobles,8715,0,40,40,Merged into voters' home precincts and released with cumulative results,100,8708,>98%,>98% reported,edison,6,all,,2156,,,2933,5600,59,19,17,28,27,23,4,5,0,0,0,0,0,0,0,0,0,0,2020-11-27T03:38:38Z,30.60241,R+31,Trump +31,republican,30.60241,8632,29.7,8520,9.25,minnesota,2020-11-30T00:48:43.187042Z
27107,Norman,3441,0,33,33,Merged into voters' home precincts and released with cumulative results,98,3500,98%,98% reported,edison,2,all,,633,,,1404,1953,31,10,18,6,8,8,3,0,0,0,0,0,0,0,0,0,0,0,2020-11-27T03:39:36Z,15.95466,R+16,Trump +16,republican,15.95466,3261,13.3,3207,-10.79,minnesota,2020-11-30T00:48:43.187042Z
27109,Olmsted,91385,0,84,84,Merged into voters' home precincts and released with cumulative results,98,92950,98%,98% reported,edison,4,all,,20940,,,49491,39692,1078,263,189,188,159,300,11,14,0,0,0,0,0,0,0,0,0,0,2020-11-27T03:40:34Z,10.72277,D+11,Biden +11,democrat,-10.72277,80129,-0.7,78316,-3.2,minnesota,2020-11-30T00:48:43.187042Z
27111,Otter Tail,36399,0,92,92,Merged into voters' home precincts and released with cumulative results,97,37700,97%,97% reported,edison,2,all,,8657,,,11958,23800,257,76,73,90,51,88,3,3,0,0,0,0,0,0,0,0,0,0,2020-11-27T03:41:46Z,32.53386,R+33,Trump +33,republican,32.53386,32500,35.7,31670,21.14,minnesota,2020-11-30T00:48:43.187042Z
27113,Pennington,7277,0,31,31,Merged into voters' home precincts and released with cumulative results,100,7181,>98%,>98% reported,edison,4,all,,1380,,,2568,4532,103,12,16,19,7,14,3,3,0,0,0,0,0,0,0,0,0,0,2020-11-27T03:42:25Z,26.98914,R+27,Trump +27,republican,26.98914,6715,27.6,6517,4.31,minnesota,2020-11-30T00:48:43.187042Z
27115,Pine,16001,0,48,48,Merged into voters' home precincts and released with cumulative results,100,14871,>98%,>98% reported,edison,2,all,,2577,,,5419,10256,168,51,23,25,26,29,3,1,0,0,0,0,0,0,0,0,0,0,2020-11-27T03:43:17Z,30.22936,R+30,Trump +30,republican,30.22936,13811,26.1,13965,0.68,minnesota,2020-11-30T00:48:43.187042Z
27117,Pipestone,4940,0,22,22,Merged into voters' home precincts and released with cumulative results,100,4930,>98%,>98% reported,edison,6,all,,984,,,1306,3553,25,12,9,15,11,8,1,0,0,0,0,0,0,0,0,0,0,0,2020-11-27T03:44:04Z,45.48583,R+45,Trump +45,republican,45.48583,4808,46,4646,23.7,minnesota,2020-11-30T00:48:43.187042Z
27119,Polk,15594,10731,82,82,Merged into voters' home precincts and released with cumulative results,96,16294,96%,96% reported,edison,4,all,,2832,,,5439,9865,123,29,36,39,28,26,4,5,4238,6308,70,20,25,23,22,17,3,5,2020-11-27T03:45:02Z,28.38271,R+28,Trump +28,republican,28.38271,14796,28.8,14693,5.73,minnesota,2020-11-30T00:48:43.187042Z
27121,Pope,7022,0,31,31,Merged into voters' home precincts and released with cumulative results,100,6959,>98%,>98% reported,edison,2,all,,1689,,,2477,4417,56,16,13,18,10,15,0,0,0,0,0,0,0,0,0,0,0,0,2020-11-27T03:45:47Z,27.62746,R+28,Trump +28,republican,27.62746,6319,26.7,6246,2.58,minnesota,2020-11-30T00:48:43.187042Z
27123,Ramsey,295977,0,169,169,Merged into voters' home precincts and released with cumulative results,92,322228,92%,92% reported,edison,2,all,,61280,,,211620,77376,2865,1062,428,793,422,1141,88,182,0,0,0,0,0,0,0,0,0,0,2020-11-27T03:47:05Z,45.35623,D+45,Biden +45,democrat,-45.35623,273143,-39.1,278822,-35.2,minnesota,2020-11-30T00:48:43.187042Z
27125,Red Lake,2196,0,21,21,Merged into voters' home precincts and released with cumulative results,100,2022,>98%,>98% reported,edison,6,all,,365,,,691,1454,18,7,7,5,8,6,0,0,0,0,0,0,0,0,0,0,0,0,2020-11-27T03:47:53Z,34.74499,R+35,Trump +35,republican,34.74499,1881,32,1975,2.53,minnesota,2020-11-30T00:48:43.187042Z
27127,Redwood,8284,0,43,43,Merged into voters' home precincts and released with cumulative results,100,8274,>98%,>98% reported,edison,6,all,,1556,,,2355,5771,76,11,22,18,14,16,0,1,0,0,0,0,0,0,0,0,0,0,2020-11-27T03:49:05Z,41.23612,R+41,Trump +41,republican,41.23612,7611,42.7,7790,20.05,minnesota,2020-11-30T00:48:43.187042Z
27129,Renville,8128,0,38,38,Merged into voters' home precincts and released with cumulative results,100,8115,>98%,>98% reported,edison,6,all,,1440,,,2496,5467,68,19,23,23,15,12,4,1,0,0,0,0,0,0,0,0,0,0,2020-11-27T03:50:10Z,36.55266,R+37,Trump +37,republican,36.55266,7606,36.5,7710,9.79,minnesota,2020-11-30T00:48:43.187042Z
27131,Rice,35686,0,31,31,Merged into voters' home precincts and released with cumulative results,95,37634,95%,95% reported,edison,4,all,,6332,,,17402,17464,372,115,78,88,70,77,7,13,0,0,0,0,0,0,0,0,0,0,2020-11-27T04:44:45Z,0.17374,R+0.17,Trump +0.17,republican,0.17374,32443,3.1,32267,-8.27,minnesota,2020-11-30T00:48:43.187042Z
27133,Rock,5240,0,24,24,Merged into voters' home precincts and released with cumulative results,100,5134,>98%,>98% reported,edison,6,all,,1205,,,1556,3583,35,13,13,9,16,12,1,2,0,0,0,0,0,0,0,0,0,0,2020-11-27T03:52:00Z,38.68321,R+39,Trump +39,republican,38.68321,4839,35.5,4846,17.83,minnesota,2020-11-30T00:48:43.187042Z
27135,Roseau,8421,0,44,44,Merged into voters' home precincts and released with cumulative results,100,8347,>98%,>98% reported,edison,2,all,,1517,,,2188,6065,81,18,15,20,15,13,2,4,0,0,0,0,0,0,0,0,0,0,2020-11-27T03:52:53Z,46.03966,R+46,Trump +46,republican,46.03966,7804,46.1,7352,22.27,minnesota,2020-11-30T00:48:43.187042Z
27139,Scott,87965,0,47,47,Merged into voters' home precincts and released with cumulative results,100,87034,>98%,>98% reported,edison,2,all,,13020,,,40040,45872,1048,240,162,182,162,232,9,18,0,0,0,0,0,0,0,0,0,0,2020-11-27T03:54:51Z,6.62991,R+7,Trump +7,republican,6.62991,75029,15.3,71647,14.81,minnesota,2020-11-30T00:48:43.187042Z
27141,Sherburne,55612,0,35,35,Merged into voters' home precincts and released with cumulative results,99,56008,>98%,>98% reported,edison,2,all,,9408,,,18065,36222,734,153,89,115,96,125,6,7,0,0,0,0,0,0,0,0,0,0,2020-11-27T03:55:35Z,32.64943,R+33,Trump +33,republican,32.64943,48283,36.8,46509,22.04,minnesota,2020-11-30T00:48:43.187042Z
27143,Sibley,8451,0,25,25,Merged into voters' home precincts and released with cumulative results,100,8326,>98%,>98% reported,edison,4,all,,1125,,,2417,5864,70,22,22,17,22,15,0,2,0,0,0,0,0,0,0,0,0,0,2020-11-27T03:56:34Z,40.78807,R+41,Trump +41,republican,40.78807,7774,41.7,7815,22.74,minnesota,2020-11-30T00:48:43.187042Z
27137,St. Louis,119531,0,172,172,Merged into voters' home precincts and released with cumulative results,90,133513,90%,90% reported,edison,4,all,,20931,,,67704,49017,1388,396,160,290,166,344,17,49,0,0,0,0,0,0,0,0,0,0,2020-11-27T03:53:57Z,15.6336,D+16,Biden +16,democrat,-15.6336,112422,-11.7,115594,-29.63,minnesota,2020-11-30T00:48:43.187042Z
27145,Stearns,84835,0,98,98,Merged into voters' home precincts and released with cumulative results,92,92327,92%,92% reported,edison,2,all,,12584,,,31879,50959,1036,275,154,165,136,195,16,20,0,0,0,0,0,0,0,0,0,0,2020-11-27T03:57:45Z,22.49072,R+22,Trump +22,republican,22.49072,79592,27.7,78477,12.06,minnesota,2020-11-30T00:48:43.187042Z
27147,Steele,21128,8156,26,26,Merged into voters' home precincts and released with cumulative results,95,22248,95%,95% reported,edison,4,all,,3939,,,7917,12656,278,69,39,56,53,52,5,3,4443,3577,68,21,8,14,24,0,1,0,2020-11-27T03:58:45Z,22.42995,R+22,Trump +22,republican,22.42995,19179,25.8,19124,6.26,minnesota,2020-11-30T00:48:43.187042Z
27149,Stevens,5085,0,26,26,Merged into voters' home precincts and released with cumulative results,100,5060,>98%,>98% reported,edison,6,all,,1073,,,1922,3044,44,18,11,18,4,19,1,4,0,0,0,0,0,0,0,0,0,0,2020-11-27T03:59:28Z,22.0649,R+22,Trump +22,republican,22.0649,5398,12.7,5652,0.42,minnesota,2020-11-30T00:48:43.187042Z
27151,Swift,5193,0,30,30,Merged into voters' home precincts and released with cumulative results,95,5441,95%,95% reported,edison,2,all,,825,,,1784,3316,42,11,13,9,9,8,1,0,0,0,0,0,0,0,0,0,0,0,2020-11-27T04:00:21Z,29.50125,R+30,Trump +30,republican,29.50125,4994,25.6,5119,-9.83,minnesota,2020-11-30T00:48:43.187042Z
27153,Todd,13257,0,40,40,Merged into voters' home precincts and released with cumulative results,100,12827,>98%,>98% reported,edison,2,all,,2151,,,3286,9753,85,23,30,30,26,21,1,2,0,0,0,0,0,0,0,0,0,0,2020-11-27T04:01:05Z,48.78178,R+49,Trump +49,republican,48.78178,11993,47.5,11803,16.1,minnesota,2020-11-30T00:48:43.187042Z
27155,Traverse,1864,0,20,20,Merged into voters' home precincts and released with cumulative results,94,1977,94%,94% reported,edison,2,all,,405,,,661,1172,12,5,2,6,2,2,0,2,0,0,0,0,0,0,0,0,0,0,2020-11-27T04:02:01Z,27.41416,R+27,Trump +27,republican,27.41416,1798,23.3,1847,-4.44,minnesota,2020-11-30T00:48:43.187042Z
27157,Wabasha,13123,0,33,33,Merged into voters' home precincts and released with cumulative results,100,13030,>98%,>98% reported,edison,2,all,,1953,,,4696,8153,133,33,29,28,21,26,2,2,0,0,0,0,0,0,0,0,0,0,2020-11-27T04:02:40Z,26.34306,R+26,Trump +26,republican,26.34306,11832,26.4,11763,5.39,minnesota,2020-11-30T00:48:43.187042Z
27159,Wadena,7677,0,25,25,Merged into voters' home precincts and released with cumulative results,100,7416,>98%,>98% reported,edison,2,all,,1605,,,2023,5520,54,14,12,20,17,16,1,0,0,0,0,0,0,0,0,0,0,0,2020-11-27T04:03:29Z,45.55165,R+46,Trump +46,republican,45.55165,6934,45.5,6791,24.31,minnesota,2020-11-30T00:48:43.187042Z
27161,Waseca,10389,0,22,22,Merged into voters' home precincts and released with cumulative results,100,10383,>98%,>98% reported,edison,6,all,,1668,,,3496,6624,123,34,27,42,17,25,1,0,0,0,0,0,0,0,0,0,0,0,2020-11-27T04:04:09Z,30.10877,R+30,Trump +30,republican,30.10877,9653,32.4,9747,7.65,minnesota,2020-11-30T00:48:43.187042Z
27163,Washington,166786,0,83,83,Merged into voters' home precincts and released with cumulative results,100,167313,>98%,>98% reported,edison,2,all,,35973,,,89165,73764,1895,477,267,342,271,518,34,53,0,0,0,0,0,0,0,0,0,0,2020-11-27T04:05:44Z,9.23399,D+9,Biden +9,democrat,-9.23399,144235,-1.8,142133,-0.75,minnesota,2020-11-30T00:48:43.187042Z
27165,Watonwan,5201,0,21,21,Merged into voters' home precincts and released with cumulative results,95,5470,95%,95% reported,edison,2,all,,905,,,1987,3103,28,16,14,25,14,10,2,2,0,0,0,0,0,0,0,0,0,0,2020-11-27T04:06:19Z,21.45741,R+21,Trump +21,republican,21.45741,4998,19.1,5144,0.45,minnesota,2020-11-30T00:48:43.187042Z
27167,Wilkin,3430,0,32,32,Merged into voters' home precincts and released with cumulative results,97,3544,97%,97% reported,edison,4,all,,645,,,1026,2328,41,5,11,12,3,1,3,0,0,0,0,0,0,0,0,0,0,0,2020-11-27T04:07:16Z,37.95918,R+38,Trump +38,republican,37.95918,3302,37.4,3222,19.43,minnesota,2020-11-30T00:48:43.187042Z
27169,Winona,27173,0,49,49,Merged into voters' home precincts and released with cumulative results,86,31439,86%,86% reported,edison,2,all,,4157,,,13333,13227,272,80,51,73,62,65,4,6,0,0,0,0,0,0,0,0,0,0,2020-11-27T04:07:54Z,0.39009,D+0.39,Biden +0.39,democrat,-0.39009,26074,2.9,27232,-12.85,minnesota,2020-11-30T00:48:43.187042Z
27171,Wright,82426,0,45,45,Merged into voters' home precincts and released with cumulative results,100,80757,>98%,>98% reported,edison,2,all,,13556,,,28430,51973,992,273,172,195,138,232,9,12,0,0,0,0,0,0,0,0,0,0,2020-11-27T04:09:12Z,28.56259,R+29,Trump +29,republican,28.56259,69618,33,67816,21.71,minnesota,2020-11-30T00:48:43.187042Z
27173,Yellow Medicine,5528,0,30,30,Merged into voters' home precincts and released with cumulative results,96,5773,96%,96% reported,edison,2,all,,980,,,1688,3734,45,11,10,13,12,15,0,0,0,0,0,0,0,0,0,0,0,0,2020-11-27T04:23:23Z,37.01158,R+37,Trump +37,republican,37.01158,5276,35.2,5414,6.3,minnesota,2020-11-30T00:48:43.187042Z
