fips,name,votes,absentee_votes,reporting,precincts,absentee_method,eevp,tot_exp_vote,eevp_value,eevp_display,eevp_source,turnout_stage,absentee_count_progress,absentee_outstanding,absentee_max_ballots,provisional_outstanding,provisional_count_progress,results_bidenj,results_trumpd,results_jorgensenj,results_hawkinsh,results_la_rivag,results_kennedya,results_write_ins,results_absentee_bidenj,results_absentee_trumpd,results_absentee_jorgensenj,results_absentee_hawkinsh,results_absentee_la_rivag,results_absentee_kennedya,results_absentee_write_ins,last_updated,leader_margin_value,leader_margin_display,leader_margin_name_display,leader_party_id,margin2020,votes2016,margin2016,votes2012,margin2012,state,retrieved_time
53001,Adams,5836,0,31,31,None,100,5784,>98%,>98% reported,edison,8,all,,,,,1814,3907,82,18,10,5,,0,0,0,0,0,0,,2020-11-24T18:10:42Z,35.86361,R+36,Trump +36,republican,35.86361,4782,37.3,4793,34.03,washington,2020-11-30T00:49:17.910921Z
53003,Asotin,11880,0,26,26,None,100,11795,>98%,>98% reported,edison,8,all,,,,,4250,7319,260,36,9,6,,0,0,0,0,0,0,,2020-11-24T18:40:53Z,25.83333,R+26,Trump +26,republican,25.83333,9974,26.1,9901,16.68,washington,2020-11-30T00:49:17.910921Z
53005,Benton,102307,0,245,245,None,100,101965,>98%,>98% reported,edison,8,unknown,,,,,38706,60365,2706,354,119,57,,0,0,0,0,0,0,,2020-11-24T21:30:47Z,21.17059,R+21,Trump +21,republican,21.17059,83592,24.9,79559,26.79,washington,2020-11-30T00:49:17.910921Z
53007,Chelan,43025,0,91,91,None,100,42387,>98%,>98% reported,edison,8,unknown,,,,,19349,22746,709,156,44,21,,0,0,0,0,0,0,,2020-11-24T22:20:55Z,7.89541,R+8,Trump +8,republican,7.89541,34433,14.8,32250,16.4,washington,2020-11-30T00:49:17.910921Z
53009,Clallam,49025,0,67,67,None,100,48881,>98%,>98% reported,edison,8,unknown,,,,,24721,23062,894,241,63,44,,0,0,0,0,0,0,,2020-11-24T23:10:46Z,3.38399,D+3,Biden +3,democrat,-3.38399,40533,2.8,38066,-0.38,washington,2020-11-30T00:49:17.910921Z
53011,Clark,273451,0,314,314,None,100,272978,>98%,>98% reported,edison,8,unknown,,,,,140324,126303,5320,1126,238,140,,0,0,0,0,0,0,,2020-11-24T13:24:28Z,5.12743,D+5,Biden +5,democrat,-5.12743,208485,-0.2,190805,-0.23,washington,2020-11-30T00:49:17.910921Z
53013,Columbia,2482,0,13,13,None,100,2482,>98%,>98% reported,edison,8,unknown,,,,,668,1754,51,5,1,3,,0,0,0,0,0,0,,2020-11-24T13:24:28Z,43.75504,R+44,Trump +44,republican,43.75504,2229,43.6,2259,40.86,washington,2020-11-30T00:49:17.910921Z
53015,Cowlitz,59969,0,78,78,None,100,59805,>98%,>98% reported,edison,8,unknown,,,,,23938,34424,1274,243,45,45,,0,0,0,0,0,0,,2020-11-24T23:00:46Z,17.4857,R+17,Trump +17,republican,17.4857,47142,13.3,44620,-4.44,washington,2020-11-30T00:49:17.910921Z
53017,Douglas,21183,0,47,47,None,100,21110,>98%,>98% reported,edison,8,unknown,,,,,7811,12955,335,57,13,12,,0,0,0,0,0,0,,2020-11-24T23:20:48Z,24.28362,R+24,Trump +24,republican,24.28362,15901,29.5,14942,28.5,washington,2020-11-30T00:49:17.910921Z
53019,Ferry,4351,0,19,19,None,100,4292,>98%,>98% reported,edison,8,some,,,,,1486,2771,76,10,5,3,,0,0,0,0,0,0,,2020-11-24T20:50:48Z,29.53344,R+30,Trump +30,republican,29.53344,3644,30.3,3440,20.38,washington,2020-11-30T00:49:17.910921Z
53021,Franklin,32226,0,105,105,None,100,31904,>98%,>98% reported,edison,8,some,,,,,13340,18039,683,110,32,22,,0,0,0,0,0,0,,2020-11-24T22:50:49Z,14.58139,R+15,Trump +15,republican,14.58139,24614,17.6,22643,23.63,washington,2020-11-30T00:49:17.910921Z
53023,Garfield,1481,0,12,12,None,100,1470,>98%,>98% reported,edison,8,all,,,,,366,1069,42,2,1,1,,0,0,0,0,0,0,,2020-11-24T18:30:49Z,47.46793,R+47,Trump +47,republican,47.46793,1266,45.2,1278,45.15,washington,2020-11-30T00:49:17.910921Z
53025,Grant,37475,0,75,75,None,100,37340,>98%,>98% reported,edison,8,unknown,,,,,11819,24764,710,112,44,26,,0,0,0,0,0,0,,2020-11-24T19:50:47Z,34.54303,R+35,Trump +35,republican,34.54303,29258,36.6,27558,32.3,washington,2020-11-30T00:49:17.910921Z
53027,Grays Harbor,38256,0,77,77,None,100,37763,>98%,>98% reported,edison,8,all,,,,,17354,19877,764,200,30,31,,0,0,0,0,0,0,,2020-11-24T21:40:47Z,6.59504,R+7,Trump +7,republican,6.59504,29301,7,28684,-14.11,washington,2020-11-30T00:49:17.910921Z
53029,Island,53539,0,48,48,None,100,53444,>98%,>98% reported,edison,8,unknown,,,,,29213,22746,1288,216,51,25,,0,0,0,0,0,0,,2020-11-24T13:21:59Z,12.07905,D+12,Biden +12,democrat,-12.07905,44273,-5.6,42099,-4.45,washington,2020-11-30T00:49:17.910921Z
53031,Jefferson,24658,0,39,39,None,100,24633,>98%,>98% reported,edison,8,unknown,,,,,17204,6931,330,146,34,13,,0,0,0,0,0,0,,2020-11-24T22:10:44Z,41.66194,D+42,Biden +42,democrat,-41.66194,20879,-31.7,19829,-31.94,washington,2020-11-30T00:49:17.910921Z
53033,King,1202570,0,2642,2642,None,100,1199885,>98%,>98% reported,edison,8,all,,,,,907310,269167,18148,5662,1610,673,,0,0,0,0,0,0,,2020-11-24T23:50:47Z,53.06494,D+53,Biden +53,democrat,-53.06494,1028450,-48.8,967154,-40.56,washington,2020-11-30T00:49:17.910921Z
53035,Kitsap,157625,0,215,215,None,100,157420,>98%,>98% reported,edison,8,some,,,,,90277,61563,4813,723,143,106,,0,0,0,0,0,0,,2020-11-24T13:22:01Z,18.21665,D+18,Biden +18,democrat,-18.21665,128770,-11,123367,-11.7,washington,2020-11-30T00:49:17.910921Z
53037,Kittitas,26113,0,62,62,None,100,25579,>98%,>98% reported,edison,8,unknown,,,,,11246,14042,529,100,21,9,166,0,0,0,0,0,0,0,2020-11-24T13:22:01Z,10.70731,R+11,Trump +11,republican,10.70731,19615,13.3,18171,10.09,washington,2020-11-30T00:49:17.910921Z
53039,Klickitat,13481,0,29,29,None,100,13453,>98%,>98% reported,edison,8,all,,,,,5959,7237,211,50,13,11,,0,0,0,0,0,0,,2020-11-24T18:50:45Z,9.48001,R+9,Trump +9,republican,9.48001,11074,14.4,10274,6.99,washington,2020-11-30T00:49:17.910921Z
53041,Lewis,45077,0,95,95,None,100,44991,>98%,>98% reported,edison,8,all,,,,,14520,29391,927,177,42,20,,0,0,0,0,0,0,,2020-11-24T13:22:03Z,32.99022,R+33,Trump +33,republican,32.99022,35199,35.1,34044,22.88,washington,2020-11-30T00:49:17.910921Z
53043,Lincoln,6993,0,46,46,None,100,6974,>98%,>98% reported,edison,8,unknown,,,,,1713,5150,111,15,3,1,,0,0,0,0,0,0,,2020-11-24T19:10:49Z,49.14915,R+49,Trump +49,republican,49.14915,5861,48.9,5872,40.7,washington,2020-11-30T00:49:17.910921Z
53045,Mason,37112,0,43,43,None,100,37060,>98%,>98% reported,edison,8,unknown,,,,,17269,18710,888,175,45,25,,0,0,0,0,0,0,,2020-11-24T13:22:07Z,3.88284,R+4,Trump +4,republican,3.88284,29003,5.8,28235,-7.09,washington,2020-11-30T00:49:17.910921Z
53047,Okanogan,21152,0,248,248,None,100,20997,>98%,>98% reported,edison,8,unknown,,,,,8900,11840,290,81,24,17,,0,0,0,0,0,0,,2020-11-24T22:50:48Z,13.89939,R+14,Trump +14,republican,13.89939,17556,18.9,16846,12.54,washington,2020-11-30T00:49:17.910921Z
53049,Pacific,14017,0,39,39,None,100,13973,>98%,>98% reported,edison,8,some,,,,,6794,6953,201,46,13,10,,0,0,0,0,0,0,,2020-11-24T18:00:46Z,1.13434,R+1.1,Trump +1.1,republican,1.13434,10972,6.7,10524,-11.52,washington,2020-11-30T00:49:17.910921Z
53051,Pend Oreille,8513,0,27,27,None,100,8422,>98%,>98% reported,edison,8,unknown,,,,,2593,5728,147,31,9,5,,0,0,0,0,0,0,,2020-11-24T13:22:12Z,36.82603,R+37,Trump +37,republican,36.82603,7016,34.8,6668,21.66,washington,2020-11-30T00:49:17.910921Z
53053,Pierce,460714,0,555,555,None,100,460354,>98%,>98% reported,edison,8,unknown,,,,,249506,197730,10495,2126,539,318,,0,0,0,0,0,0,,2020-11-24T20:10:47Z,11.23821,D+11,Biden +11,democrat,-11.23821,360017,-7.1,342910,-11.07,washington,2020-11-30T00:49:17.910921Z
53055,San Juan,13090,0,19,19,None,100,12896,>98%,>98% reported,edison,8,some,,,,,9725,3057,210,73,16,9,,0,0,0,0,0,0,,2020-11-24T13:22:13Z,50.93965,D+51,Biden +51,democrat,-50.93965,11134,-40.3,10594,-37.89,washington,2020-11-30T00:49:17.910921Z
53057,Skagit,72937,0,121,121,None,100,71802,>98%,>98% reported,edison,8,some,,,,,38252,32762,1492,287,90,54,,0,0,0,0,0,0,,2020-11-24T22:10:43Z,7.52704,D+8,Biden +8,democrat,-7.52704,58059,-3.4,55269,-6.54,washington,2020-11-30T00:49:17.910921Z
53059,Skamania,7268,0,23,23,None,100,7066,>98%,>98% reported,edison,8,all,,,,,3192,3885,153,28,5,5,,0,0,0,0,0,0,,2020-11-24T17:30:49Z,9.53495,R+10,Trump +10,republican,9.53495,5829,11.9,5466,1.08,washington,2020-11-30T00:49:17.910921Z
53061,Snohomish,435582,0,784,784,None,100,434757,>98%,>98% reported,edison,8,all,,,,,256728,166428,9690,2003,485,248,,0,0,0,0,0,0,,2020-11-24T13:22:15Z,20.73088,D+21,Biden +21,democrat,-20.73088,354734,-16.1,329817,-16.83,washington,2020-11-30T00:49:17.910921Z
53063,Spokane,293294,0,362,362,None,100,292680,>98%,>98% reported,edison,8,all,,,,,135765,148576,7147,1297,310,199,,0,0,0,0,0,0,,2020-11-24T21:50:48Z,4.36797,R+4,Trump +4,republican,4.36797,236050,8.3,223830,5.8,washington,2020-11-30T00:49:17.910921Z
53065,Stevens,28283,0,58,58,None,100,27963,>98%,>98% reported,edison,8,some,,,,,7839,19808,527,77,18,14,,0,0,0,0,0,0,,2020-11-25T00:40:46Z,42.31871,R+42,Trump +42,republican,42.31871,23395,40.2,22161,26.75,washington,2020-11-30T00:49:17.910921Z
53067,Thurston,166965,0,284,284,None,100,166293,>98%,>98% reported,edison,8,unknown,,,,,96608,65277,3708,979,282,111,,0,0,0,0,0,0,,2020-11-24T16:50:43Z,18.76501,D+19,Biden +19,democrat,-18.76501,134191,-15,127063,-19.48,washington,2020-11-30T00:49:17.910921Z
53069,Wahkiakum,2972,0,11,11,None,100,2924,>98%,>98% reported,edison,8,unknown,,,,,1165,1741,45,19,0,2,,0,0,0,0,0,0,,2020-11-24T22:20:55Z,19.38089,R+19,Trump +19,republican,19.38089,2429,21.1,2294,1.09,washington,2020-11-30T00:49:17.910921Z
53071,Walla Walla,31055,0,63,63,None,100,29891,>98%,>98% reported,edison,8,some,,,,,13690,16400,769,132,50,14,,0,0,0,0,0,0,,2020-11-24T22:30:54Z,8.72645,R+9,Trump +9,republican,8.72645,26228,15.1,25108,19.44,washington,2020-11-30T00:49:17.910921Z
53073,Whatcom,137660,0,181,181,None,100,137464,>98%,>98% reported,edison,8,some,,,,,83660,50489,2490,726,206,89,,0,0,0,0,0,0,,2020-11-24T13:22:23Z,24.09632,D+24,Biden +24,democrat,-24.09632,113339,-17.4,103029,-13.96,washington,2020-11-30T00:49:17.910921Z
53075,Whitman,20964,0,69,69,None,100,20901,>98%,>98% reported,edison,8,unknown,,,,,11184,9067,549,128,22,14,,0,0,0,0,0,0,,2020-11-24T23:50:47Z,10.09826,D+10,Biden +10,democrat,-10.09826,18028,-4.1,17121,2.75,washington,2020-11-30T00:49:17.910921Z
53077,Yakima,95713,0,173,173,None,100,95670,>98%,>98% reported,edison,8,unknown,,,,,43179,50555,1425,321,154,79,,0,0,0,0,0,0,,2020-11-24T19:20:41Z,7.70637,R+8,Trump +8,republican,7.70637,79741,13.1,76973,11.72,washington,2020-11-30T00:49:17.910921Z
