fips,name,votes,absentee_votes,reporting,precincts,absentee_method,eevp,tot_exp_vote,eevp_value,eevp_display,eevp_source,turnout_stage,absentee_count_progress,absentee_max_ballots,results_westermanb,results_hansonw,results_gilbertf,results_absentee_westermanb,results_absentee_hansonw,results_absentee_gilbertf,last_updated,leader_margin_value,leader_margin_display,leader_margin_name_display,leader_party_id,race_id_race,race_slug_race,url_race,state_page_url_race,ap_polls_page_race,race_type_race,election_type_race,election_date_race,runoff_race,race_name_race,office_race,officeid_race,race_rating_race,seat_race,seat_name_race,state_id_race,state_slug_race,state_name_race,state_nyt_abbrev_race,state_shape_race,party_id_race,uncontested_race,report_race,result_race,result_source_race,gain_race,lost_seat_race,votes_race,absentee_votes_race,absentee_counties_race,absentee_count_progress_race,poll_display_race,poll_countdown_display_race,poll_waiting_display_race,poll_time_race,poll_time_short_race,precincts_reporting_race,precincts_total_race,reporting_display_race,reporting_value_race,eevp_race,tot_exp_vote_race,eevp_source_race,eevp_value_race,eevp_display_race,county_data_source_race,incumbent_party_race,no_forecast_race,last_updated_race,has_incumbent_race,leader_margin_value_race,leader_margin_votes_race,leader_margin_display_race,leader_margin_name_display_race,leader_party_id_race,edison_certified_race,expectations_text_race,expectations_text_short_race,absentee_ballot_deadline_race,absentee_postmark_deadline_race,winner_called_timestamp_race
05003,Ashley,7864,7850,26,30,Released as a separate subtotal as first report of the night,100,7850,>98%,>98% reported,edison,6,unknown,5934,5603,2092,169,5595,2086,169,2020-11-24T13:22:26Z,44.64649,R+45,Westerman +45,republican,AR-G-H-4-2020-11-03,ar-house-general-district-004-2020-11-03,https://www.nytimes.com/interactive/2020/11/03/us/elections/results-arkansas-house-district-4.html,https://www.nytimes.com/interactive/2020/11/03/us/elections/results-arkansas.html,https://www.nytimes.com/interactive/2020/11/03/us/elections/ap-polls-arkansas.html,house,general,2020-11-03,FALSE,U.S. House District 4,U.S. House,H,solid-rep,4,District 4,AR,arkansas,Arkansas,Ark.,horizontal,"",FALSE,TRUE,winner,AP,FALSE,"",275035,206703,33,unknown,Polls close at 8:30 p.m. Eastern time.,Polls close in,Polls have closed.,2020-11-04T01:30:00.000Z,8:30 p.m.,787,871,90% reporting,90%,93,304000,edison,93%,93% reported,edison,republican,FALSE,2020-11-24T20:30:40Z,TRUE,42.12809,115867,R+42,Westerman +42,republican,FALSE,"","",0,0,1604461623462
05011,Bradley,3610,2516,12,14,Released as a precinct as first report of the night,97,3707,97%,97% reported,edison,2,unknown,2557,2398,1124,88,1619,842,55,2020-11-24T13:22:31Z,35.29086,R+35,Westerman +35,republican,AR-G-H-4-2020-11-03,ar-house-general-district-004-2020-11-03,https://www.nytimes.com/interactive/2020/11/03/us/elections/results-arkansas-house-district-4.html,https://www.nytimes.com/interactive/2020/11/03/us/elections/results-arkansas.html,https://www.nytimes.com/interactive/2020/11/03/us/elections/ap-polls-arkansas.html,house,general,2020-11-03,FALSE,U.S. House District 4,U.S. House,H,solid-rep,4,District 4,AR,arkansas,Arkansas,Ark.,horizontal,"",FALSE,TRUE,winner,AP,FALSE,"",275035,206703,33,unknown,Polls close at 8:30 p.m. Eastern time.,Polls close in,Polls have closed.,2020-11-04T01:30:00.000Z,8:30 p.m.,787,871,90% reporting,90%,93,304000,edison,93%,93% reported,edison,republican,FALSE,2020-11-24T20:30:40Z,TRUE,42.12809,115867,R+42,Westerman +42,republican,FALSE,"","",0,0,1604461623462
05013,Calhoun,2147,1384,17,20,Released as a precinct as first report of the night,93,2302,93%,93% reported,edison,2,unknown,1190,1649,457,41,1041,317,26,2020-11-24T13:22:34Z,55.51933,R+56,Westerman +56,republican,AR-G-H-4-2020-11-03,ar-house-general-district-004-2020-11-03,https://www.nytimes.com/interactive/2020/11/03/us/elections/results-arkansas-house-district-4.html,https://www.nytimes.com/interactive/2020/11/03/us/elections/results-arkansas.html,https://www.nytimes.com/interactive/2020/11/03/us/elections/ap-polls-arkansas.html,house,general,2020-11-03,FALSE,U.S. House District 4,U.S. House,H,solid-rep,4,District 4,AR,arkansas,Arkansas,Ark.,horizontal,"",FALSE,TRUE,winner,AP,FALSE,"",275035,206703,33,unknown,Polls close at 8:30 p.m. Eastern time.,Polls close in,Polls have closed.,2020-11-04T01:30:00.000Z,8:30 p.m.,787,871,90% reporting,90%,93,304000,edison,93%,93% reported,edison,republican,FALSE,2020-11-24T20:30:40Z,TRUE,42.12809,115867,R+42,Westerman +42,republican,FALSE,"","",0,0,1604461623462
05019,Clark,8295,6452,27,27,Merged into voters' home precincts and released with cumulative results,100,8257,>98%,>98% reported,edison,6,unknown,6814,4967,3137,191,3645,2671,136,2020-11-24T13:22:36Z,22.06148,R+22,Westerman +22,republican,AR-G-H-4-2020-11-03,ar-house-general-district-004-2020-11-03,https://www.nytimes.com/interactive/2020/11/03/us/elections/results-arkansas-house-district-4.html,https://www.nytimes.com/interactive/2020/11/03/us/elections/results-arkansas.html,https://www.nytimes.com/interactive/2020/11/03/us/elections/ap-polls-arkansas.html,house,general,2020-11-03,FALSE,U.S. House District 4,U.S. House,H,solid-rep,4,District 4,AR,arkansas,Arkansas,Ark.,horizontal,"",FALSE,TRUE,winner,AP,FALSE,"",275035,206703,33,unknown,Polls close at 8:30 p.m. Eastern time.,Polls close in,Polls have closed.,2020-11-04T01:30:00.000Z,8:30 p.m.,787,871,90% reporting,90%,93,304000,edison,93%,93% reported,edison,republican,FALSE,2020-11-24T20:30:40Z,TRUE,42.12809,115867,R+42,Westerman +42,republican,FALSE,"","",0,0,1604461623462
05025,Cleveland,3551,2134,16,17,"As a subtotal in the FIRST cumulative report, along with regular precincts",95,3756,95%,95% reported,edison,2,unknown,1656,2893,581,77,1688,406,40,2020-11-24T13:22:38Z,65.10842,R+65,Westerman +65,republican,AR-G-H-4-2020-11-03,ar-house-general-district-004-2020-11-03,https://www.nytimes.com/interactive/2020/11/03/us/elections/results-arkansas-house-district-4.html,https://www.nytimes.com/interactive/2020/11/03/us/elections/results-arkansas.html,https://www.nytimes.com/interactive/2020/11/03/us/elections/ap-polls-arkansas.html,house,general,2020-11-03,FALSE,U.S. House District 4,U.S. House,H,solid-rep,4,District 4,AR,arkansas,Arkansas,Ark.,horizontal,"",FALSE,TRUE,winner,AP,FALSE,"",275035,206703,33,unknown,Polls close at 8:30 p.m. Eastern time.,Polls close in,Polls have closed.,2020-11-04T01:30:00.000Z,8:30 p.m.,787,871,90% reporting,90%,93,304000,edison,93%,93% reported,edison,republican,FALSE,2020-11-24T20:30:40Z,TRUE,42.12809,115867,R+42,Westerman +42,republican,FALSE,"","",0,0,1604461623462
05027,Columbia,8456,7190,12,14,"As a precinct in the FIRST cumulative report, along with regular precincts",100,8395,>98%,>98% reported,edison,6,all,9640,5591,2700,165,4803,2263,124,2020-11-24T13:22:43Z,34.18874,R+34,Westerman +34,republican,AR-G-H-4-2020-11-03,ar-house-general-district-004-2020-11-03,https://www.nytimes.com/interactive/2020/11/03/us/elections/results-arkansas-house-district-4.html,https://www.nytimes.com/interactive/2020/11/03/us/elections/results-arkansas.html,https://www.nytimes.com/interactive/2020/11/03/us/elections/ap-polls-arkansas.html,house,general,2020-11-03,FALSE,U.S. House District 4,U.S. House,H,solid-rep,4,District 4,AR,arkansas,Arkansas,Ark.,horizontal,"",FALSE,TRUE,winner,AP,FALSE,"",275035,206703,33,unknown,Polls close at 8:30 p.m. Eastern time.,Polls close in,Polls have closed.,2020-11-04T01:30:00.000Z,8:30 p.m.,787,871,90% reporting,90%,93,304000,edison,93%,93% reported,edison,republican,FALSE,2020-11-24T20:30:40Z,TRUE,42.12809,115867,R+42,Westerman +42,republican,FALSE,"","",0,0,1604461623462
05033,Crawford,6827,5141,12,12,Released as a precinct as first report of the night,97,7021,97%,97% reported,edison,4,some,10542,5458,1126,243,4100,874,167,2020-11-24T13:23:23Z,63.45393,R+63,Westerman +63,republican,AR-G-H-4-2020-11-03,ar-house-general-district-004-2020-11-03,https://www.nytimes.com/interactive/2020/11/03/us/elections/results-arkansas-house-district-4.html,https://www.nytimes.com/interactive/2020/11/03/us/elections/results-arkansas.html,https://www.nytimes.com/interactive/2020/11/03/us/elections/ap-polls-arkansas.html,house,general,2020-11-03,FALSE,U.S. House District 4,U.S. House,H,solid-rep,4,District 4,AR,arkansas,Arkansas,Ark.,horizontal,"",FALSE,TRUE,winner,AP,FALSE,"",275035,206703,33,unknown,Polls close at 8:30 p.m. Eastern time.,Polls close in,Polls have closed.,2020-11-04T01:30:00.000Z,8:30 p.m.,787,871,90% reporting,90%,93,304000,edison,93%,93% reported,edison,republican,FALSE,2020-11-24T20:30:40Z,TRUE,42.12809,115867,R+42,Westerman +42,republican,FALSE,"","",0,0,1604461623462
05039,Dallas,2601,1669,8,9,Released as a precinct as first report of the night,92,2813,92%,92% reported,edison,2,unknown,2288,1615,928,58,947,691,31,2020-11-24T13:22:44Z,26.41292,R+26,Westerman +26,republican,AR-G-H-4-2020-11-03,ar-house-general-district-004-2020-11-03,https://www.nytimes.com/interactive/2020/11/03/us/elections/results-arkansas-house-district-4.html,https://www.nytimes.com/interactive/2020/11/03/us/elections/results-arkansas.html,https://www.nytimes.com/interactive/2020/11/03/us/elections/ap-polls-arkansas.html,house,general,2020-11-03,FALSE,U.S. House District 4,U.S. House,H,solid-rep,4,District 4,AR,arkansas,Arkansas,Ark.,horizontal,"",FALSE,TRUE,winner,AP,FALSE,"",275035,206703,33,unknown,Polls close at 8:30 p.m. Eastern time.,Polls close in,Polls have closed.,2020-11-04T01:30:00.000Z,8:30 p.m.,787,871,90% reporting,90%,93,304000,edison,93%,93% reported,edison,republican,FALSE,2020-11-24T20:30:40Z,TRUE,42.12809,115867,R+42,Westerman +42,republican,FALSE,"","",0,0,1604461623462
05043,Drew,6838,5388,18,19,Released as a precinct as first report of the night,93,7386,93%,93% reported,edison,2,some,5899,4447,2221,170,3491,1779,118,2020-11-24T13:22:48Z,32.55338,R+33,Westerman +33,republican,AR-G-H-4-2020-11-03,ar-house-general-district-004-2020-11-03,https://www.nytimes.com/interactive/2020/11/03/us/elections/results-arkansas-house-district-4.html,https://www.nytimes.com/interactive/2020/11/03/us/elections/results-arkansas.html,https://www.nytimes.com/interactive/2020/11/03/us/elections/ap-polls-arkansas.html,house,general,2020-11-03,FALSE,U.S. House District 4,U.S. House,H,solid-rep,4,District 4,AR,arkansas,Arkansas,Ark.,horizontal,"",FALSE,TRUE,winner,AP,FALSE,"",275035,206703,33,unknown,Polls close at 8:30 p.m. Eastern time.,Polls close in,Polls have closed.,2020-11-04T01:30:00.000Z,8:30 p.m.,787,871,90% reporting,90%,93,304000,edison,93%,93% reported,edison,republican,FALSE,2020-11-24T20:30:40Z,TRUE,42.12809,115867,R+42,Westerman +42,republican,FALSE,"","",0,0,1604461623462
05047,Franklin,7040,5417,36,39,Merged into voters' home precincts and released with cumulative results,93,7582,93%,93% reported,edison,2,unknown,4789,5689,1171,180,4326,967,124,2020-11-24T13:23:24Z,64.17614,R+64,Westerman +64,republican,AR-G-H-4-2020-11-03,ar-house-general-district-004-2020-11-03,https://www.nytimes.com/interactive/2020/11/03/us/elections/results-arkansas-house-district-4.html,https://www.nytimes.com/interactive/2020/11/03/us/elections/results-arkansas.html,https://www.nytimes.com/interactive/2020/11/03/us/elections/ap-polls-arkansas.html,house,general,2020-11-03,FALSE,U.S. House District 4,U.S. House,H,solid-rep,4,District 4,AR,arkansas,Arkansas,Ark.,horizontal,"",FALSE,TRUE,winner,AP,FALSE,"",275035,206703,33,unknown,Polls close at 8:30 p.m. Eastern time.,Polls close in,Polls have closed.,2020-11-04T01:30:00.000Z,8:30 p.m.,787,871,90% reporting,90%,93,304000,edison,93%,93% reported,edison,republican,FALSE,2020-11-24T20:30:40Z,TRUE,42.12809,115867,R+42,Westerman +42,republican,FALSE,"","",0,0,1604461623462
05051,Garland,43975,38212,54,56,"As a subtotal in the FIRST cumulative report, along with regular precincts",96,45702,96%,96% reported,edison,2,some,38437,30747,11800,1428,26444,10671,1097,2020-11-24T13:22:50Z,43.08584,R+43,Westerman +43,republican,AR-G-H-4-2020-11-03,ar-house-general-district-004-2020-11-03,https://www.nytimes.com/interactive/2020/11/03/us/elections/results-arkansas-house-district-4.html,https://www.nytimes.com/interactive/2020/11/03/us/elections/results-arkansas.html,https://www.nytimes.com/interactive/2020/11/03/us/elections/ap-polls-arkansas.html,house,general,2020-11-03,FALSE,U.S. House District 4,U.S. House,H,solid-rep,4,District 4,AR,arkansas,Arkansas,Ark.,horizontal,"",FALSE,TRUE,winner,AP,FALSE,"",275035,206703,33,unknown,Polls close at 8:30 p.m. Eastern time.,Polls close in,Polls have closed.,2020-11-04T01:30:00.000Z,8:30 p.m.,787,871,90% reporting,90%,93,304000,edison,93%,93% reported,edison,republican,FALSE,2020-11-24T20:30:40Z,TRUE,42.12809,115867,R+42,Westerman +42,republican,FALSE,"","",0,0,1604461623462
05053,Grant,8139,5985,18,18,Released as a precinct as first report of the night,100,8136,>98%,>98% reported,edison,6,all,3816,6763,1112,264,4932,884,169,2020-11-24T13:22:52Z,69.43113,R+69,Westerman +69,republican,AR-G-H-4-2020-11-03,ar-house-general-district-004-2020-11-03,https://www.nytimes.com/interactive/2020/11/03/us/elections/results-arkansas-house-district-4.html,https://www.nytimes.com/interactive/2020/11/03/us/elections/results-arkansas.html,https://www.nytimes.com/interactive/2020/11/03/us/elections/ap-polls-arkansas.html,house,general,2020-11-03,FALSE,U.S. House District 4,U.S. House,H,solid-rep,4,District 4,AR,arkansas,Arkansas,Ark.,horizontal,"",FALSE,TRUE,winner,AP,FALSE,"",275035,206703,33,unknown,Polls close at 8:30 p.m. Eastern time.,Polls close in,Polls have closed.,2020-11-04T01:30:00.000Z,8:30 p.m.,787,871,90% reporting,90%,93,304000,edison,93%,93% reported,edison,republican,FALSE,2020-11-24T20:30:40Z,TRUE,42.12809,115867,R+42,Westerman +42,republican,FALSE,"","",0,0,1604461623462
05057,Hempstead,6770,4620,24,24,Released as a separate subtotal as first report of the night,86,7895,86%,86% reported,edison,4,all,4430,4528,2094,148,2910,1622,88,2020-11-24T13:22:54Z,35.95273,R+36,Westerman +36,republican,AR-G-H-4-2020-11-03,ar-house-general-district-004-2020-11-03,https://www.nytimes.com/interactive/2020/11/03/us/elections/results-arkansas-house-district-4.html,https://www.nytimes.com/interactive/2020/11/03/us/elections/results-arkansas.html,https://www.nytimes.com/interactive/2020/11/03/us/elections/ap-polls-arkansas.html,house,general,2020-11-03,FALSE,U.S. House District 4,U.S. House,H,solid-rep,4,District 4,AR,arkansas,Arkansas,Ark.,horizontal,"",FALSE,TRUE,winner,AP,FALSE,"",275035,206703,33,unknown,Polls close at 8:30 p.m. Eastern time.,Polls close in,Polls have closed.,2020-11-04T01:30:00.000Z,8:30 p.m.,787,871,90% reporting,90%,93,304000,edison,93%,93% reported,edison,republican,FALSE,2020-11-24T20:30:40Z,TRUE,42.12809,115867,R+42,Westerman +42,republican,FALSE,"","",0,0,1604461623462
05059,Hot Spring,12488,10420,29,31,Released as a separate subtotal as first report of the night,93,13377,93%,93% reported,edison,2,unknown,6128,9316,2812,360,7723,2435,262,2020-11-24T13:22:56Z,52.082,R+52,Westerman +52,republican,AR-G-H-4-2020-11-03,ar-house-general-district-004-2020-11-03,https://www.nytimes.com/interactive/2020/11/03/us/elections/results-arkansas-house-district-4.html,https://www.nytimes.com/interactive/2020/11/03/us/elections/results-arkansas.html,https://www.nytimes.com/interactive/2020/11/03/us/elections/ap-polls-arkansas.html,house,general,2020-11-03,FALSE,U.S. House District 4,U.S. House,H,solid-rep,4,District 4,AR,arkansas,Arkansas,Ark.,horizontal,"",FALSE,TRUE,winner,AP,FALSE,"",275035,206703,33,unknown,Polls close at 8:30 p.m. Eastern time.,Polls close in,Polls have closed.,2020-11-04T01:30:00.000Z,8:30 p.m.,787,871,90% reporting,90%,93,304000,edison,93%,93% reported,edison,republican,FALSE,2020-11-24T20:30:40Z,TRUE,42.12809,115867,R+42,Westerman +42,republican,FALSE,"","",0,0,1604461623462
05061,Howard,4754,4423,33,36,Merged into voters' home precincts AFTER election night,100,4743,>98%,>98% reported,edison,2,unknown,3030,3393,1265,96,3217,1114,92,2020-11-24T13:22:58Z,44.76231,R+45,Westerman +45,republican,AR-G-H-4-2020-11-03,ar-house-general-district-004-2020-11-03,https://www.nytimes.com/interactive/2020/11/03/us/elections/results-arkansas-house-district-4.html,https://www.nytimes.com/interactive/2020/11/03/us/elections/results-arkansas.html,https://www.nytimes.com/interactive/2020/11/03/us/elections/ap-polls-arkansas.html,house,general,2020-11-03,FALSE,U.S. House District 4,U.S. House,H,solid-rep,4,District 4,AR,arkansas,Arkansas,Ark.,horizontal,"",FALSE,TRUE,winner,AP,FALSE,"",275035,206703,33,unknown,Polls close at 8:30 p.m. Eastern time.,Polls close in,Polls have closed.,2020-11-04T01:30:00.000Z,8:30 p.m.,787,871,90% reporting,90%,93,304000,edison,93%,93% reported,edison,republican,FALSE,2020-11-24T20:30:40Z,TRUE,42.12809,115867,R+42,Westerman +42,republican,FALSE,"","",0,0,1604461623462
05069,Jefferson,24183,15871,142,167,Released as a separate subtotal as first report of the night,85,28452,85%,85% reported,edison,2,unknown,18848,9815,13682,686,5319,10153,399,2020-11-24T13:22:59Z,15.99057,D+16,Hanson +16,democrat,AR-G-H-4-2020-11-03,ar-house-general-district-004-2020-11-03,https://www.nytimes.com/interactive/2020/11/03/us/elections/results-arkansas-house-district-4.html,https://www.nytimes.com/interactive/2020/11/03/us/elections/results-arkansas.html,https://www.nytimes.com/interactive/2020/11/03/us/elections/ap-polls-arkansas.html,house,general,2020-11-03,FALSE,U.S. House District 4,U.S. House,H,solid-rep,4,District 4,AR,arkansas,Arkansas,Ark.,horizontal,"",FALSE,TRUE,winner,AP,FALSE,"",275035,206703,33,unknown,Polls close at 8:30 p.m. Eastern time.,Polls close in,Polls have closed.,2020-11-04T01:30:00.000Z,8:30 p.m.,787,871,90% reporting,90%,93,304000,edison,93%,93% reported,edison,republican,FALSE,2020-11-24T20:30:40Z,TRUE,42.12809,115867,R+42,Westerman +42,republican,FALSE,"","",0,0,1604461623462
05071,Johnson,9400,6373,20,22,Released as a separate subtotal as first report of the night,92,10205,92%,92% reported,edison,2,unknown,5392,6937,2094,369,4552,1609,212,2020-11-24T13:23:25Z,51.52128,R+52,Westerman +52,republican,AR-G-H-4-2020-11-03,ar-house-general-district-004-2020-11-03,https://www.nytimes.com/interactive/2020/11/03/us/elections/results-arkansas-house-district-4.html,https://www.nytimes.com/interactive/2020/11/03/us/elections/results-arkansas.html,https://www.nytimes.com/interactive/2020/11/03/us/elections/ap-polls-arkansas.html,house,general,2020-11-03,FALSE,U.S. House District 4,U.S. House,H,solid-rep,4,District 4,AR,arkansas,Arkansas,Ark.,horizontal,"",FALSE,TRUE,winner,AP,FALSE,"",275035,206703,33,unknown,Polls close at 8:30 p.m. Eastern time.,Polls close in,Polls have closed.,2020-11-04T01:30:00.000Z,8:30 p.m.,787,871,90% reporting,90%,93,304000,edison,93%,93% reported,edison,republican,FALSE,2020-11-24T20:30:40Z,TRUE,42.12809,115867,R+42,Westerman +42,republican,FALSE,"","",0,0,1604461623462
05073,Lafayette,2629,2289,21,25,Released as a separate subtotal as first report of the night,82,3203,82%,82% reported,edison,2,unknown,2162,1747,841,41,1561,687,41,2020-11-24T13:23:01Z,34.46177,R+34,Westerman +34,republican,AR-G-H-4-2020-11-03,ar-house-general-district-004-2020-11-03,https://www.nytimes.com/interactive/2020/11/03/us/elections/results-arkansas-house-district-4.html,https://www.nytimes.com/interactive/2020/11/03/us/elections/results-arkansas.html,https://www.nytimes.com/interactive/2020/11/03/us/elections/ap-polls-arkansas.html,house,general,2020-11-03,FALSE,U.S. House District 4,U.S. House,H,solid-rep,4,District 4,AR,arkansas,Arkansas,Ark.,horizontal,"",FALSE,TRUE,winner,AP,FALSE,"",275035,206703,33,unknown,Polls close at 8:30 p.m. Eastern time.,Polls close in,Polls have closed.,2020-11-04T01:30:00.000Z,8:30 p.m.,787,871,90% reporting,90%,93,304000,edison,93%,93% reported,edison,republican,FALSE,2020-11-24T20:30:40Z,TRUE,42.12809,115867,R+42,Westerman +42,republican,FALSE,"","",0,0,1604461623462
05081,Little River,5109,4086,19,22,Merged into voters' home precincts AFTER election night,100,5110,>98%,>98% reported,edison,6,all,2893,3775,1235,99,2969,1039,78,2020-11-24T13:23:02Z,49.71619,R+50,Westerman +50,republican,AR-G-H-4-2020-11-03,ar-house-general-district-004-2020-11-03,https://www.nytimes.com/interactive/2020/11/03/us/elections/results-arkansas-house-district-4.html,https://www.nytimes.com/interactive/2020/11/03/us/elections/results-arkansas.html,https://www.nytimes.com/interactive/2020/11/03/us/elections/ap-polls-arkansas.html,house,general,2020-11-03,FALSE,U.S. House District 4,U.S. House,H,solid-rep,4,District 4,AR,arkansas,Arkansas,Ark.,horizontal,"",FALSE,TRUE,winner,AP,FALSE,"",275035,206703,33,unknown,Polls close at 8:30 p.m. Eastern time.,Polls close in,Polls have closed.,2020-11-04T01:30:00.000Z,8:30 p.m.,787,871,90% reporting,90%,93,304000,edison,93%,93% reported,edison,republican,FALSE,2020-11-24T20:30:40Z,TRUE,42.12809,115867,R+42,Westerman +42,republican,FALSE,"","",0,0,1604461623462
05083,Logan,8156,5737,33,36,Merged into voters' home precincts and released with cumulative results,92,8872,92%,92% reported,edison,2,unknown,4488,6472,1391,293,4498,1059,180,2020-11-24T13:23:04Z,62.29769,R+62,Westerman +62,republican,AR-G-H-4-2020-11-03,ar-house-general-district-004-2020-11-03,https://www.nytimes.com/interactive/2020/11/03/us/elections/results-arkansas-house-district-4.html,https://www.nytimes.com/interactive/2020/11/03/us/elections/results-arkansas.html,https://www.nytimes.com/interactive/2020/11/03/us/elections/ap-polls-arkansas.html,house,general,2020-11-03,FALSE,U.S. House District 4,U.S. House,H,solid-rep,4,District 4,AR,arkansas,Arkansas,Ark.,horizontal,"",FALSE,TRUE,winner,AP,FALSE,"",275035,206703,33,unknown,Polls close at 8:30 p.m. Eastern time.,Polls close in,Polls have closed.,2020-11-04T01:30:00.000Z,8:30 p.m.,787,871,90% reporting,90%,93,304000,edison,93%,93% reported,edison,republican,FALSE,2020-11-24T20:30:40Z,TRUE,42.12809,115867,R+42,Westerman +42,republican,FALSE,"","",0,0,1604461623462
05087,Madison,7269,4435,9,10,Released as a precinct as first report of the night,100,7236,>98%,>98% reported,edison,6,all,3048,5496,1521,252,3147,1160,128,2020-11-24T13:23:26Z,54.68428,R+55,Westerman +55,republican,AR-G-H-4-2020-11-03,ar-house-general-district-004-2020-11-03,https://www.nytimes.com/interactive/2020/11/03/us/elections/results-arkansas-house-district-4.html,https://www.nytimes.com/interactive/2020/11/03/us/elections/results-arkansas.html,https://www.nytimes.com/interactive/2020/11/03/us/elections/ap-polls-arkansas.html,house,general,2020-11-03,FALSE,U.S. House District 4,U.S. House,H,solid-rep,4,District 4,AR,arkansas,Arkansas,Ark.,horizontal,"",FALSE,TRUE,winner,AP,FALSE,"",275035,206703,33,unknown,Polls close at 8:30 p.m. Eastern time.,Polls close in,Polls have closed.,2020-11-04T01:30:00.000Z,8:30 p.m.,787,871,90% reporting,90%,93,304000,edison,93%,93% reported,edison,republican,FALSE,2020-11-24T20:30:40Z,TRUE,42.12809,115867,R+42,Westerman +42,republican,FALSE,"","",0,0,1604461623462
05091,Miller,16357,12745,17,19,Released as a separate subtotal as first report of the night,91,18022,91%,91% reported,edison,2,unknown,11867,11870,4105,382,9125,3362,258,2020-11-24T13:23:07Z,47.47203,R+47,Westerman +47,republican,AR-G-H-4-2020-11-03,ar-house-general-district-004-2020-11-03,https://www.nytimes.com/interactive/2020/11/03/us/elections/results-arkansas-house-district-4.html,https://www.nytimes.com/interactive/2020/11/03/us/elections/results-arkansas.html,https://www.nytimes.com/interactive/2020/11/03/us/elections/ap-polls-arkansas.html,house,general,2020-11-03,FALSE,U.S. House District 4,U.S. House,H,solid-rep,4,District 4,AR,arkansas,Arkansas,Ark.,horizontal,"",FALSE,TRUE,winner,AP,FALSE,"",275035,206703,33,unknown,Polls close at 8:30 p.m. Eastern time.,Polls close in,Polls have closed.,2020-11-04T01:30:00.000Z,8:30 p.m.,787,871,90% reporting,90%,93,304000,edison,93%,93% reported,edison,republican,FALSE,2020-11-24T20:30:40Z,TRUE,42.12809,115867,R+42,Westerman +42,republican,FALSE,"","",0,0,1604461623462
05097,Montgomery,3825,2753,15,16,"As a subtotal in the FIRST cumulative report, along with regular precincts",100,3612,>98%,>98% reported,edison,2,unknown,2037,3103,635,87,2171,526,56,2020-11-24T13:23:09Z,64.52288,R+65,Westerman +65,republican,AR-G-H-4-2020-11-03,ar-house-general-district-004-2020-11-03,https://www.nytimes.com/interactive/2020/11/03/us/elections/results-arkansas-house-district-4.html,https://www.nytimes.com/interactive/2020/11/03/us/elections/results-arkansas.html,https://www.nytimes.com/interactive/2020/11/03/us/elections/ap-polls-arkansas.html,house,general,2020-11-03,FALSE,U.S. House District 4,U.S. House,H,solid-rep,4,District 4,AR,arkansas,Arkansas,Ark.,horizontal,"",FALSE,TRUE,winner,AP,FALSE,"",275035,206703,33,unknown,Polls close at 8:30 p.m. Eastern time.,Polls close in,Polls have closed.,2020-11-04T01:30:00.000Z,8:30 p.m.,787,871,90% reporting,90%,93,304000,edison,93%,93% reported,edison,republican,FALSE,2020-11-24T20:30:40Z,TRUE,42.12809,115867,R+42,Westerman +42,republican,FALSE,"","",0,0,1604461623462
05099,Nevada,3324,1804,15,15,Released as a separate subtotal as first report of the night,100,3324,>98%,>98% reported,edison,6,unknown,1874,2178,1068,78,1155,615,34,2020-11-24T20:30:38Z,33.3935,R+33,Westerman +33,republican,AR-G-H-4-2020-11-03,ar-house-general-district-004-2020-11-03,https://www.nytimes.com/interactive/2020/11/03/us/elections/results-arkansas-house-district-4.html,https://www.nytimes.com/interactive/2020/11/03/us/elections/results-arkansas.html,https://www.nytimes.com/interactive/2020/11/03/us/elections/ap-polls-arkansas.html,house,general,2020-11-03,FALSE,U.S. House District 4,U.S. House,H,solid-rep,4,District 4,AR,arkansas,Arkansas,Ark.,horizontal,"",FALSE,TRUE,winner,AP,FALSE,"",275035,206703,33,unknown,Polls close at 8:30 p.m. Eastern time.,Polls close in,Polls have closed.,2020-11-04T01:30:00.000Z,8:30 p.m.,787,871,90% reporting,90%,93,304000,edison,93%,93% reported,edison,republican,FALSE,2020-11-24T20:30:40Z,TRUE,42.12809,115867,R+42,Westerman +42,republican,FALSE,"","",0,0,1604461623462
05101,Newton,2077,1234,10,13,Released as a separate subtotal at the end of tabulation,73,2829,73%,73% reported,edison,2,unknown,2074,1551,461,65,857,337,40,2020-11-24T13:23:28Z,52.47954,R+52,Westerman +52,republican,AR-G-H-4-2020-11-03,ar-house-general-district-004-2020-11-03,https://www.nytimes.com/interactive/2020/11/03/us/elections/results-arkansas-house-district-4.html,https://www.nytimes.com/interactive/2020/11/03/us/elections/results-arkansas.html,https://www.nytimes.com/interactive/2020/11/03/us/elections/ap-polls-arkansas.html,house,general,2020-11-03,FALSE,U.S. House District 4,U.S. House,H,solid-rep,4,District 4,AR,arkansas,Arkansas,Ark.,horizontal,"",FALSE,TRUE,winner,AP,FALSE,"",275035,206703,33,unknown,Polls close at 8:30 p.m. Eastern time.,Polls close in,Polls have closed.,2020-11-04T01:30:00.000Z,8:30 p.m.,787,871,90% reporting,90%,93,304000,edison,93%,93% reported,edison,republican,FALSE,2020-11-24T20:30:40Z,TRUE,42.12809,115867,R+42,Westerman +42,republican,FALSE,"","",0,0,1604461623462
05103,Ouachita,9496,7523,15,19,Released as a separate subtotal as first report of the night,94,10082,94%,94% reported,edison,2,unknown,8051,5443,3854,199,4453,2913,157,2020-11-24T13:23:12Z,16.73336,R+17,Westerman +17,republican,AR-G-H-4-2020-11-03,ar-house-general-district-004-2020-11-03,https://www.nytimes.com/interactive/2020/11/03/us/elections/results-arkansas-house-district-4.html,https://www.nytimes.com/interactive/2020/11/03/us/elections/results-arkansas.html,https://www.nytimes.com/interactive/2020/11/03/us/elections/ap-polls-arkansas.html,house,general,2020-11-03,FALSE,U.S. House District 4,U.S. House,H,solid-rep,4,District 4,AR,arkansas,Arkansas,Ark.,horizontal,"",FALSE,TRUE,winner,AP,FALSE,"",275035,206703,33,unknown,Polls close at 8:30 p.m. Eastern time.,Polls close in,Polls have closed.,2020-11-04T01:30:00.000Z,8:30 p.m.,787,871,90% reporting,90%,93,304000,edison,93%,93% reported,edison,republican,FALSE,2020-11-24T20:30:40Z,TRUE,42.12809,115867,R+42,Westerman +42,republican,FALSE,"","",0,0,1604461623462
05109,Pike,4195,3209,10,11,Merged into voters' home precincts and released with cumulative results,100,4189,>98%,>98% reported,edison,6,all,2610,3530,574,91,2679,471,59,2020-11-24T13:23:14Z,70.46484,R+70,Westerman +70,republican,AR-G-H-4-2020-11-03,ar-house-general-district-004-2020-11-03,https://www.nytimes.com/interactive/2020/11/03/us/elections/results-arkansas-house-district-4.html,https://www.nytimes.com/interactive/2020/11/03/us/elections/results-arkansas.html,https://www.nytimes.com/interactive/2020/11/03/us/elections/ap-polls-arkansas.html,house,general,2020-11-03,FALSE,U.S. House District 4,U.S. House,H,solid-rep,4,District 4,AR,arkansas,Arkansas,Ark.,horizontal,"",FALSE,TRUE,winner,AP,FALSE,"",275035,206703,33,unknown,Polls close at 8:30 p.m. Eastern time.,Polls close in,Polls have closed.,2020-11-04T01:30:00.000Z,8:30 p.m.,787,871,90% reporting,90%,93,304000,edison,93%,93% reported,edison,republican,FALSE,2020-11-24T20:30:40Z,TRUE,42.12809,115867,R+42,Westerman +42,republican,FALSE,"","",0,0,1604461623462
05113,Polk,8406,6259,16,17,Released as a separate subtotal as first report of the night,100,8353,>98%,>98% reported,edison,2,unknown,5582,7019,1089,298,5130,929,200,2020-11-24T13:23:16Z,70.54485,R+71,Westerman +71,republican,AR-G-H-4-2020-11-03,ar-house-general-district-004-2020-11-03,https://www.nytimes.com/interactive/2020/11/03/us/elections/results-arkansas-house-district-4.html,https://www.nytimes.com/interactive/2020/11/03/us/elections/results-arkansas.html,https://www.nytimes.com/interactive/2020/11/03/us/elections/ap-polls-arkansas.html,house,general,2020-11-03,FALSE,U.S. House District 4,U.S. House,H,solid-rep,4,District 4,AR,arkansas,Arkansas,Ark.,horizontal,"",FALSE,TRUE,winner,AP,FALSE,"",275035,206703,33,unknown,Polls close at 8:30 p.m. Eastern time.,Polls close in,Polls have closed.,2020-11-04T01:30:00.000Z,8:30 p.m.,787,871,90% reporting,90%,93,304000,edison,93%,93% reported,edison,republican,FALSE,2020-11-24T20:30:40Z,TRUE,42.12809,115867,R+42,Westerman +42,republican,FALSE,"","",0,0,1604461623462
05127,Scott,3517,2116,23,26,Released as a separate subtotal as first report of the night,89,3931,89%,89% reported,edison,2,unknown,1949,2977,449,91,1742,329,45,2020-11-24T13:23:17Z,71.87944,R+72,Westerman +72,republican,AR-G-H-4-2020-11-03,ar-house-general-district-004-2020-11-03,https://www.nytimes.com/interactive/2020/11/03/us/elections/results-arkansas-house-district-4.html,https://www.nytimes.com/interactive/2020/11/03/us/elections/results-arkansas.html,https://www.nytimes.com/interactive/2020/11/03/us/elections/ap-polls-arkansas.html,house,general,2020-11-03,FALSE,U.S. House District 4,U.S. House,H,solid-rep,4,District 4,AR,arkansas,Arkansas,Ark.,horizontal,"",FALSE,TRUE,winner,AP,FALSE,"",275035,206703,33,unknown,Polls close at 8:30 p.m. Eastern time.,Polls close in,Polls have closed.,2020-11-04T01:30:00.000Z,8:30 p.m.,787,871,90% reporting,90%,93,304000,edison,93%,93% reported,edison,republican,FALSE,2020-11-24T20:30:40Z,TRUE,42.12809,115867,R+42,Westerman +42,republican,FALSE,"","",0,0,1604461623462
05131,Sebastian,5637,3328,13,14,Released as a separate subtotal as first report of the night,94,5990,94%,94% reported,edison,2,all,30462,4756,700,181,2774,460,94,2020-11-24T13:23:30Z,71.95317,R+72,Westerman +72,republican,AR-G-H-4-2020-11-03,ar-house-general-district-004-2020-11-03,https://www.nytimes.com/interactive/2020/11/03/us/elections/results-arkansas-house-district-4.html,https://www.nytimes.com/interactive/2020/11/03/us/elections/results-arkansas.html,https://www.nytimes.com/interactive/2020/11/03/us/elections/ap-polls-arkansas.html,house,general,2020-11-03,FALSE,U.S. House District 4,U.S. House,H,solid-rep,4,District 4,AR,arkansas,Arkansas,Ark.,horizontal,"",FALSE,TRUE,winner,AP,FALSE,"",275035,206703,33,unknown,Polls close at 8:30 p.m. Eastern time.,Polls close in,Polls have closed.,2020-11-04T01:30:00.000Z,8:30 p.m.,787,871,90% reporting,90%,93,304000,edison,93%,93% reported,edison,republican,FALSE,2020-11-24T20:30:40Z,TRUE,42.12809,115867,R+42,Westerman +42,republican,FALSE,"","",0,0,1604461623462
05133,Sevier,5122,3402,17,17,Released as a separate subtotal as first report of the night,100,4629,>98%,>98% reported,edison,2,unknown,2310,3970,1011,141,2591,727,84,2020-11-24T13:23:19Z,57.7704,R+58,Westerman +58,republican,AR-G-H-4-2020-11-03,ar-house-general-district-004-2020-11-03,https://www.nytimes.com/interactive/2020/11/03/us/elections/results-arkansas-house-district-4.html,https://www.nytimes.com/interactive/2020/11/03/us/elections/results-arkansas.html,https://www.nytimes.com/interactive/2020/11/03/us/elections/ap-polls-arkansas.html,house,general,2020-11-03,FALSE,U.S. House District 4,U.S. House,H,solid-rep,4,District 4,AR,arkansas,Arkansas,Ark.,horizontal,"",FALSE,TRUE,winner,AP,FALSE,"",275035,206703,33,unknown,Polls close at 8:30 p.m. Eastern time.,Polls close in,Polls have closed.,2020-11-04T01:30:00.000Z,8:30 p.m.,787,871,90% reporting,90%,93,304000,edison,93%,93% reported,edison,republican,FALSE,2020-11-24T20:30:40Z,TRUE,42.12809,115867,R+42,Westerman +42,republican,FALSE,"","",0,0,1604461623462
05139,Union,16333,9951,24,28,Released as a separate subtotal as first report of the night,86,18921,86%,86% reported,edison,2,unknown,12974,10693,5214,426,6087,3620,244,2020-11-24T13:23:21Z,33.54558,R+34,Westerman +34,republican,AR-G-H-4-2020-11-03,ar-house-general-district-004-2020-11-03,https://www.nytimes.com/interactive/2020/11/03/us/elections/results-arkansas-house-district-4.html,https://www.nytimes.com/interactive/2020/11/03/us/elections/results-arkansas.html,https://www.nytimes.com/interactive/2020/11/03/us/elections/ap-polls-arkansas.html,house,general,2020-11-03,FALSE,U.S. House District 4,U.S. House,H,solid-rep,4,District 4,AR,arkansas,Arkansas,Ark.,horizontal,"",FALSE,TRUE,winner,AP,FALSE,"",275035,206703,33,unknown,Polls close at 8:30 p.m. Eastern time.,Polls close in,Polls have closed.,2020-11-04T01:30:00.000Z,8:30 p.m.,787,871,90% reporting,90%,93,304000,edison,93%,93% reported,edison,republican,FALSE,2020-11-24T20:30:40Z,TRUE,42.12809,115867,R+42,Westerman +42,republican,FALSE,"","",0,0,1604461623462
05149,Yell,6645,4787,26,28,Released as a precinct as first report of the night,92,7212,92%,92% reported,edison,2,unknown,3608,5228,1206,211,3728,925,134,2020-11-24T13:23:32Z,60.52671,R+61,Westerman +61,republican,AR-G-H-4-2020-11-03,ar-house-general-district-004-2020-11-03,https://www.nytimes.com/interactive/2020/11/03/us/elections/results-arkansas-house-district-4.html,https://www.nytimes.com/interactive/2020/11/03/us/elections/results-arkansas.html,https://www.nytimes.com/interactive/2020/11/03/us/elections/ap-polls-arkansas.html,house,general,2020-11-03,FALSE,U.S. House District 4,U.S. House,H,solid-rep,4,District 4,AR,arkansas,Arkansas,Ark.,horizontal,"",FALSE,TRUE,winner,AP,FALSE,"",275035,206703,33,unknown,Polls close at 8:30 p.m. Eastern time.,Polls close in,Polls have closed.,2020-11-04T01:30:00.000Z,8:30 p.m.,787,871,90% reporting,90%,93,304000,edison,93%,93% reported,edison,republican,FALSE,2020-11-24T20:30:40Z,TRUE,42.12809,115867,R+42,Westerman +42,republican,FALSE,"","",0,0,1604461623462
