fips,name,votes,absentee_votes,reporting,precincts,absentee_method,eevp,tot_exp_vote,eevp_value,eevp_display,eevp_source,turnout_stage,absentee_count_progress,absentee_max_ballots,results_doggettl,results_sharonj,results_mataj,results_loewem,results_absentee_doggettl,results_absentee_sharonj,results_absentee_mataj,results_absentee_loewem,last_updated,leader_margin_value,leader_margin_display,leader_margin_name_display,leader_party_id,race_id_race,race_slug_race,url_race,state_page_url_race,ap_polls_page_race,edison_exit_polls_page_race,race_type_race,election_type_race,election_date_race,runoff_race,race_name_race,office_race,officeid_race,race_rating_race,seat_race,seat_name_race,state_id_race,state_slug_race,state_name_race,state_nyt_abbrev_race,state_shape_race,party_id_race,uncontested_race,report_race,result_race,result_source_race,gain_race,lost_seat_race,votes_race,absentee_votes_race,absentee_counties_race,absentee_count_progress_race,poll_display_race,poll_countdown_display_race,poll_waiting_display_race,poll_time_race,poll_time_short_race,precincts_reporting_race,precincts_total_race,reporting_display_race,reporting_value_race,eevp_race,tot_exp_vote_race,eevp_source_race,eevp_value_race,eevp_display_race,county_data_source_race,incumbent_party_race,no_forecast_race,last_updated_race,has_incumbent_race,leader_margin_value_race,leader_margin_votes_race,leader_margin_display_race,leader_margin_name_display_race,leader_party_id_race,edison_certified_race,expectations_text_race,expectations_text_short_race,absentee_ballot_deadline_race,absentee_postmark_deadline_race,winner_called_timestamp_race
48029,Bexar,105864,90779,107,111,Released as a precinct as first report of the night,96,109913,96%,96% reported,edison,2,all,609654,69564,31471,2472,2357,60926,26163,1895,1795,2020-11-27T13:56:14Z,35.98296,D+36,Doggett +36,democrat,TX-G-H-35-2020-11-03,tx-house-general-district-035-2020-11-03,https://www.nytimes.com/interactive/2020/11/03/us/elections/results-texas-house-district-35.html,https://www.nytimes.com/interactive/2020/11/03/us/elections/results-texas.html,https://www.nytimes.com/interactive/2020/11/03/us/elections/ap-polls-texas.html,https://www.nytimes.com/interactive/2020/11/03/us/elections/exit-polls-texas.html,house,general,2020-11-03,FALSE,U.S. House District 35,U.S. House,H,solid-dem,35,District 35,TX,texas,Texas,Texas,horizontal,"",FALSE,TRUE,winner,AP,FALSE,"",269797,234163,6,unknown,Most polls close at 8 p.m. Eastern time.,Polls close in,Polls have closed.,2020-11-04T01:00:00.000Z,8 p.m.,199,204,98% reporting,98%,100,259000,edison,>98%,>98% reported,edison,democrat,FALSE,2020-11-24T13:25:26Z,TRUE,35.42589,95578,D+35,Doggett +35,democrat,FALSE,"","",1,0,1604454374293
48055,Caldwell,6820,5565,14,15,Released as a precinct as first report of the night,96,7121,96%,96% reported,edison,2,unknown,10580,3841,2749,88,142,3169,2231,62,103,2020-11-27T14:07:50Z,16.01173,D+16,Doggett +16,democrat,TX-G-H-35-2020-11-03,tx-house-general-district-035-2020-11-03,https://www.nytimes.com/interactive/2020/11/03/us/elections/results-texas-house-district-35.html,https://www.nytimes.com/interactive/2020/11/03/us/elections/results-texas.html,https://www.nytimes.com/interactive/2020/11/03/us/elections/ap-polls-texas.html,https://www.nytimes.com/interactive/2020/11/03/us/elections/exit-polls-texas.html,house,general,2020-11-03,FALSE,U.S. House District 35,U.S. House,H,solid-dem,35,District 35,TX,texas,Texas,Texas,horizontal,"",FALSE,TRUE,winner,AP,FALSE,"",269797,234163,6,unknown,Most polls close at 8 p.m. Eastern time.,Polls close in,Polls have closed.,2020-11-04T01:00:00.000Z,8 p.m.,199,204,98% reporting,98%,100,259000,edison,>98%,>98% reported,edison,democrat,FALSE,2020-11-24T13:25:26Z,TRUE,35.42589,95578,D+35,Doggett +35,democrat,FALSE,"","",1,0,1604454374293
48091,Comal,16841,14413,6,6,Released as a precinct as first report of the night,100,16702,>98%,>98% reported,edison,6,all,64101,6152,9882,301,506,5415,8404,221,373,2020-11-24T13:26:10Z,22.14833,R+22,Sharon +22,republican,TX-G-H-35-2020-11-03,tx-house-general-district-035-2020-11-03,https://www.nytimes.com/interactive/2020/11/03/us/elections/results-texas-house-district-35.html,https://www.nytimes.com/interactive/2020/11/03/us/elections/results-texas.html,https://www.nytimes.com/interactive/2020/11/03/us/elections/ap-polls-texas.html,https://www.nytimes.com/interactive/2020/11/03/us/elections/exit-polls-texas.html,house,general,2020-11-03,FALSE,U.S. House District 35,U.S. House,H,solid-dem,35,District 35,TX,texas,Texas,Texas,horizontal,"",FALSE,TRUE,winner,AP,FALSE,"",269797,234163,6,unknown,Most polls close at 8 p.m. Eastern time.,Polls close in,Polls have closed.,2020-11-04T01:00:00.000Z,8 p.m.,199,204,98% reporting,98%,100,259000,edison,>98%,>98% reported,edison,democrat,FALSE,2020-11-24T13:25:26Z,TRUE,35.42589,95578,D+35,Doggett +35,democrat,FALSE,"","",1,0,1604454374293
48187,Guadalupe,14460,13141,14,14,Released as a precinct as first report of the night,98,14790,98%,98% reported,edison,2,some,55597,5648,8266,201,345,5261,7429,172,279,2020-11-24T13:26:11Z,18.10512,R+18,Sharon +18,republican,TX-G-H-35-2020-11-03,tx-house-general-district-035-2020-11-03,https://www.nytimes.com/interactive/2020/11/03/us/elections/results-texas-house-district-35.html,https://www.nytimes.com/interactive/2020/11/03/us/elections/results-texas.html,https://www.nytimes.com/interactive/2020/11/03/us/elections/ap-polls-texas.html,https://www.nytimes.com/interactive/2020/11/03/us/elections/exit-polls-texas.html,house,general,2020-11-03,FALSE,U.S. House District 35,U.S. House,H,solid-dem,35,District 35,TX,texas,Texas,Texas,horizontal,"",FALSE,TRUE,winner,AP,FALSE,"",269797,234163,6,unknown,Most polls close at 8 p.m. Eastern time.,Polls close in,Polls have closed.,2020-11-04T01:00:00.000Z,8 p.m.,199,204,98% reporting,98%,100,259000,edison,>98%,>98% reported,edison,democrat,FALSE,2020-11-24T13:25:26Z,TRUE,35.42589,95578,D+35,Doggett +35,democrat,FALSE,"","",1,0,1604454374293
48209,Hays,43662,37961,26,26,Released as a precinct as first report of the night,100,34978,>98%,>98% reported,edison,2,some,65929,27096,14330,807,1429,23999,12211,612,1139,2020-11-24T13:26:12Z,29.23824,D+29,Doggett +29,democrat,TX-G-H-35-2020-11-03,tx-house-general-district-035-2020-11-03,https://www.nytimes.com/interactive/2020/11/03/us/elections/results-texas-house-district-35.html,https://www.nytimes.com/interactive/2020/11/03/us/elections/results-texas.html,https://www.nytimes.com/interactive/2020/11/03/us/elections/ap-polls-texas.html,https://www.nytimes.com/interactive/2020/11/03/us/elections/exit-polls-texas.html,house,general,2020-11-03,FALSE,U.S. House District 35,U.S. House,H,solid-dem,35,District 35,TX,texas,Texas,Texas,horizontal,"",FALSE,TRUE,winner,AP,FALSE,"",269797,234163,6,unknown,Most polls close at 8 p.m. Eastern time.,Polls close in,Polls have closed.,2020-11-04T01:00:00.000Z,8 p.m.,199,204,98% reporting,98%,100,259000,edison,>98%,>98% reported,edison,democrat,FALSE,2020-11-24T13:25:26Z,TRUE,35.42589,95578,D+35,Doggett +35,democrat,FALSE,"","",1,0,1604454374293
48453,Travis,82150,72304,32,32,Released as a precinct as first report of the night,100,76790,>98%,>98% reported,edison,4,some,391428,64072,14097,1367,2614,57746,11411,1082,2065,2020-11-24T13:25:24Z,60.83384,D+61,Doggett +61,democrat,TX-G-H-35-2020-11-03,tx-house-general-district-035-2020-11-03,https://www.nytimes.com/interactive/2020/11/03/us/elections/results-texas-house-district-35.html,https://www.nytimes.com/interactive/2020/11/03/us/elections/results-texas.html,https://www.nytimes.com/interactive/2020/11/03/us/elections/ap-polls-texas.html,https://www.nytimes.com/interactive/2020/11/03/us/elections/exit-polls-texas.html,house,general,2020-11-03,FALSE,U.S. House District 35,U.S. House,H,solid-dem,35,District 35,TX,texas,Texas,Texas,horizontal,"",FALSE,TRUE,winner,AP,FALSE,"",269797,234163,6,unknown,Most polls close at 8 p.m. Eastern time.,Polls close in,Polls have closed.,2020-11-04T01:00:00.000Z,8 p.m.,199,204,98% reporting,98%,100,259000,edison,>98%,>98% reported,edison,democrat,FALSE,2020-11-24T13:25:26Z,TRUE,35.42589,95578,D+35,Doggett +35,democrat,FALSE,"","",1,0,1604454374293
