fips,name,votes,absentee_votes,reporting,precincts,absentee_method,eevp,tot_exp_vote,eevp_value,eevp_display,eevp_source,turnout_stage,absentee_count_progress,absentee_max_ballots,results_greena,results_teaguej,results_sosaj,results_absentee_greena,results_absentee_teaguej,results_absentee_sosaj,last_updated,leader_margin_value,leader_margin_display,leader_margin_name_display,leader_party_id,race_id_race,race_slug_race,url_race,state_page_url_race,ap_polls_page_race,edison_exit_polls_page_race,race_type_race,election_type_race,election_date_race,runoff_race,race_name_race,office_race,officeid_race,race_rating_race,seat_race,seat_name_race,state_id_race,state_slug_race,state_name_race,state_nyt_abbrev_race,state_shape_race,party_id_race,uncontested_race,report_race,result_race,result_source_race,gain_race,lost_seat_race,votes_race,absentee_votes_race,absentee_counties_race,absentee_count_progress_race,poll_display_race,poll_countdown_display_race,poll_waiting_display_race,poll_time_race,poll_time_short_race,precincts_reporting_race,precincts_total_race,reporting_display_race,reporting_value_race,eevp_race,tot_exp_vote_race,eevp_source_race,eevp_value_race,eevp_display_race,county_data_source_race,incumbent_party_race,no_forecast_race,last_updated_race,has_incumbent_race,leader_margin_value_race,leader_margin_votes_race,leader_margin_display_race,leader_margin_name_display_race,leader_party_id_race,edison_certified_race,expectations_text_race,expectations_text_short_race,absentee_ballot_deadline_race,absentee_postmark_deadline_race,winner_called_timestamp_race
48157,Fort Bend,67098,60501,32,34,Released as a precinct as first report of the night,94,71171,94%,94% reported,edison,2,unknown,267057,51362,13941,1795,46645,12437,1419,2020-11-27T14:28:43Z,55.77066,D+56,Green +56,democrat,TX-G-H-9-2020-11-03,tx-house-general-district-009-2020-11-03,https://www.nytimes.com/interactive/2020/11/03/us/elections/results-texas-house-district-9.html,https://www.nytimes.com/interactive/2020/11/03/us/elections/results-texas.html,https://www.nytimes.com/interactive/2020/11/03/us/elections/ap-polls-texas.html,https://www.nytimes.com/interactive/2020/11/03/us/elections/exit-polls-texas.html,house,general,2020-11-03,FALSE,U.S. House District 9,U.S. House,H,solid-dem,9,District 9,TX,texas,Texas,Texas,horizontal,"",FALSE,TRUE,winner,AP,FALSE,"",229107,200790,2,unknown,Most polls close at 8 p.m. Eastern time.,Polls close in,Polls have closed.,2020-11-04T01:00:00.000Z,8 p.m.,129,139,93% reporting,93%,93,247000,edison,93%,93% reported,edison,democrat,FALSE,2020-11-24T13:26:23Z,TRUE,53.84515,123363,D+54,Green +54,democrat,FALSE,"","",1,0,1604452886784
48201,Harris,162009,140289,97,105,Released as a precinct as first report of the night,92,175274,92%,92% reported,edison,2,some,1267589,121576,35634,4799,106413,30290,3586,2020-11-24T13:26:56Z,53.04767,D+53,Green +53,democrat,TX-G-H-9-2020-11-03,tx-house-general-district-009-2020-11-03,https://www.nytimes.com/interactive/2020/11/03/us/elections/results-texas-house-district-9.html,https://www.nytimes.com/interactive/2020/11/03/us/elections/results-texas.html,https://www.nytimes.com/interactive/2020/11/03/us/elections/ap-polls-texas.html,https://www.nytimes.com/interactive/2020/11/03/us/elections/exit-polls-texas.html,house,general,2020-11-03,FALSE,U.S. House District 9,U.S. House,H,solid-dem,9,District 9,TX,texas,Texas,Texas,horizontal,"",FALSE,TRUE,winner,AP,FALSE,"",229107,200790,2,unknown,Most polls close at 8 p.m. Eastern time.,Polls close in,Polls have closed.,2020-11-04T01:00:00.000Z,8 p.m.,129,139,93% reporting,93%,93,247000,edison,93%,93% reported,edison,democrat,FALSE,2020-11-24T13:26:23Z,TRUE,53.84515,123363,D+54,Green +54,democrat,FALSE,"","",1,0,1604452886784
