fips,name,votes,absentee_votes,reporting,precincts,absentee_method,eevp,tot_exp_vote,eevp_value,eevp_display,eevp_source,turnout_stage,absentee_count_progress,absentee_outstanding,absentee_max_ballots,provisional_outstanding,provisional_count_progress,results_trumpd,results_bidenj,results_westk,results_jorgensenj,results_collinsp,results_hawkinsh,results_carrollb,results_blankenshipd,results_pierceb,results_write_ins,results_absentee_trumpd,results_absentee_bidenj,results_absentee_westk,results_absentee_jorgensenj,results_absentee_collinsp,results_absentee_hawkinsh,results_absentee_carrollb,results_absentee_blankenshipd,results_absentee_pierceb,results_absentee_write_ins,last_updated,leader_margin_value,leader_margin_display,leader_margin_name_display,leader_party_id,margin2020,votes2016,margin2016,votes2012,margin2012,state,retrieved_time
28001,Adams,13759,0,19,19,None,100,12268,>98%,>98% reported,edison,6,unknown,,1098,,,5696,7917,54,48,17,10,8,7,2,0,0,0,0,0,0,0,0,0,0,0,2020-11-24T13:24:14Z,16.14216,D+16,Biden +16,democrat,-16.14216,13836,-13.6,15447,-17.92,mississippi,2020-11-25T00:44:30.610518Z
28003,Alcorn,15811,0,17,17,Merged into voters' home precincts and released with cumulative results,100,15811,>98%,>98% reported,edison,10,unknown,,1390,,,12818,2782,30,118,12,9,7,11,4,20,0,0,0,0,0,0,0,0,0,0,2020-11-24T13:24:14Z,63.4748,R+63,Trump +63,republican,63.4748,14783,61.8,14830,51.25,mississippi,2020-11-25T00:44:30.610518Z
28005,Amite,7207,0,21,21,Merged into voters' home precincts and released with cumulative results,100,7207,>98%,>98% reported,edison,10,all,,466,,,4503,2620,17,21,7,10,10,5,3,11,0,0,0,0,0,0,0,0,0,0,2020-11-24T13:24:14Z,26.12738,R+26,Trump +26,republican,26.12738,7050,22.6,7706,15.21,mississippi,2020-11-25T00:44:30.610518Z
28007,Attala,8832,0,20,20,Merged into voters' home precincts and released with cumulative results,100,8832,>98%,>98% reported,edison,10,unknown,,476,,,5178,3542,22,36,7,11,8,15,4,9,0,0,0,0,0,0,0,0,0,0,2020-11-24T13:24:14Z,18.52355,R+19,Trump +19,republican,18.52355,8256,20,9092,13.19,mississippi,2020-11-25T00:44:30.610518Z
28009,Benton,4292,0,5,5,Merged into voters' home precincts and released with cumulative results,100,4292,>98%,>98% reported,edison,10,unknown,,442,,,2570,1679,6,12,5,5,6,3,3,3,0,0,0,0,0,0,0,0,0,0,2020-11-24T13:24:14Z,20.75955,R+21,Trump +21,republican,20.75955,4022,13.2,4116,-0.24,mississippi,2020-11-25T00:44:30.610518Z
28011,Bolivar,13755,0,28,28,None,100,13755,>98%,>98% reported,edison,10,unknown,,410,,,4671,8904,62,48,10,19,20,7,3,11,0,0,0,0,0,0,0,0,0,0,2020-11-24T13:24:15Z,30.77426,D+31,Biden +31,democrat,-30.77426,13824,-32.2,15428,-38.12,mississippi,2020-11-25T00:44:30.610518Z
28013,Calhoun,6595,0,10,10,Merged into voters' home precincts and released with cumulative results,100,6595,>98%,>98% reported,edison,10,unknown,,532,,,4625,1902,17,15,10,4,2,9,6,5,0,0,0,0,0,0,0,0,0,0,2020-11-24T13:24:15Z,41.28886,R+41,Trump +41,republican,41.28886,6396,38.8,7068,25.83,mississippi,2020-11-25T00:44:30.610518Z
28015,Carroll,5705,0,14,14,None,97,5874,97%,97% reported,edison,4,unknown,,342,,,3924,1729,12,14,3,7,2,8,2,4,0,0,0,0,0,0,0,0,0,0,2020-11-24T13:24:15Z,38.47502,R+38,Trump +38,republican,38.47502,5528,38.3,5992,32.59,mississippi,2020-11-25T00:44:30.610518Z
28017,Chickasaw,8148,0,15,15,None,100,8160,>98%,>98% reported,edison,10,unknown,,476,,,4175,3810,37,75,14,9,8,11,2,7,0,0,0,0,0,0,0,0,0,0,2020-11-24T13:24:15Z,4.47963,R+4,Trump +4,republican,4.47963,7890,6.1,8503,-4.52,mississippi,2020-11-25T00:44:30.610518Z
28019,Choctaw,4225,0,13,13,Merged into voters' home precincts and released with cumulative results,100,4225,>98%,>98% reported,edison,10,unknown,,246,,,3001,1185,6,16,4,2,3,5,1,2,0,0,0,0,0,0,0,0,0,0,2020-11-24T13:23:29Z,42.98225,R+43,Trump +43,republican,42.98225,4065,38.6,4273,32.39,mississippi,2020-11-25T00:44:30.610518Z
28021,Claiborne,4453,0,11,11,Released as a separate subtotal at the end of tabulation,99,4489,>98%,>98% reported,edison,10,unknown,,776,,,603,3772,23,11,7,10,10,7,6,4,0,0,0,0,0,0,0,0,0,0,2020-11-24T13:23:30Z,71.16551,D+71,Biden +71,democrat,-71.16551,4272,-74.2,5484,-76.82,mississippi,2020-11-25T00:44:30.610518Z
28023,Clarke,8347,1240,23,23,None,100,8348,>98%,>98% reported,edison,10,some,,708,,,5417,2838,20,28,6,14,5,7,3,9,734,498,2,4,0,2,0,0,0,0,2020-11-24T13:23:32Z,30.89733,R+31,Trump +31,republican,30.89733,7791,32.8,8253,23.48,mississippi,2020-11-25T00:44:30.610518Z
28025,Clay,10206,1939,14,14,Merged into voters' home precincts and released with cumulative results,99,10296,>98%,>98% reported,edison,10,unknown,,652,,,4181,5844,35,48,17,12,17,27,8,17,811,1117,3,1,1,0,1,1,2,2,2020-11-24T13:23:33Z,16.29434,D+16,Biden +16,democrat,-16.29434,10003,-15.7,11072,-21.87,mississippi,2020-11-25T00:44:30.610518Z
28027,Coahoma,8642,0,18,18,Merged into voters' home precincts and released with cumulative results,100,8660,>98%,>98% reported,edison,10,unknown,,,,,2400,6130,39,20,6,14,14,11,2,6,0,0,0,0,0,0,0,0,0,0,2020-11-24T13:23:33Z,43.16131,D+43,Biden +43,democrat,-43.16131,8912,-44.3,10549,-48.16,mississippi,2020-11-25T00:44:30.610518Z
28029,Copiah,12897,0,19,19,None,100,12915,>98%,>98% reported,edison,10,unknown,,542,,,6250,6470,40,58,20,11,15,15,4,14,0,0,0,0,0,0,0,0,0,0,2020-11-24T13:23:33Z,1.70582,D+1.7,Biden +1.7,democrat,-1.70582,12982,-4.9,14123,-10.39,mississippi,2020-11-25T00:44:30.610518Z
28031,Covington,9371,0,15,15,Merged into voters' home precincts and released with cumulative results,100,9382,>98%,>98% reported,edison,10,unknown,,806,,,5854,3416,27,33,7,3,5,13,2,11,0,0,0,0,0,0,0,0,0,0,2020-11-24T13:23:04Z,26.01643,R+26,Trump +26,republican,26.01643,8811,24.5,9348,16.34,mississippi,2020-11-25T00:44:30.610518Z
28033,DeSoto,76248,0,41,41,Merged into voters' home precincts and released with cumulative results,100,76248,>98%,>98% reported,edison,10,unknown,,1400,,,46462,28265,219,722,94,96,80,67,119,124,0,0,0,0,0,0,0,0,0,0,2020-11-24T13:23:06Z,23.86554,R+24,Trump +24,republican,23.86554,66155,34,65794,33.41,mississippi,2020-11-25T00:44:30.610518Z
28035,Forrest,31725,0,34,34,None,100,31726,>98%,>98% reported,edison,10,unknown,,1294,,,17290,13755,119,329,29,54,33,31,14,71,0,0,0,0,0,0,0,0,0,0,2020-11-24T13:23:07Z,11.14263,R+11,Trump +11,republican,11.14263,28064,13.3,30236,10.92,mississippi,2020-11-25T00:44:30.610518Z
28037,Franklin,4464,0,14,14,None,100,4464,>98%,>98% reported,edison,10,unknown,,530,,,2923,1480,14,21,4,3,6,6,4,3,0,0,0,0,0,0,0,0,0,0,2020-11-24T13:23:09Z,32.32527,R+32,Trump +32,republican,32.32527,4290,28.4,4493,22.46,mississippi,2020-11-25T00:44:30.610518Z
28039,George,11064,0,22,22,Released as a separate subtotal at the end of tabulation,100,11064,>98%,>98% reported,edison,10,unknown,,208,,,9713,1218,21,54,12,10,6,10,5,15,0,0,0,0,0,0,0,0,0,0,2020-11-24T13:22:07Z,76.78055,R+77,Trump +77,republican,76.78055,9891,77.5,9856,71.2,mississippi,2020-11-25T00:44:30.610518Z
28041,Greene,5816,0,13,13,Released as a precinct at the end of tabulation,100,5816,>98%,>98% reported,edison,10,unknown,,700,,,4794,966,10,20,4,4,2,8,4,4,0,0,0,0,0,0,0,0,0,0,2020-11-24T13:22:09Z,65.81843,R+66,Trump +66,republican,65.81843,5369,62.6,5922,54.14,mississippi,2020-11-25T00:44:30.610518Z
28043,Grenada,10919,0,12,13,None,98,11112,98%,98% reported,edison,2,unknown,,1570,,,6081,4734,18,38,13,8,9,4,6,8,0,0,0,0,0,0,0,0,0,0,2020-11-24T13:22:10Z,12.33629,R+12,Trump +12,republican,12.33629,10513,14.7,11335,6.16,mississippi,2020-11-25T00:44:30.610518Z
28045,Hancock,20957,0,25,25,None,100,20957,>98%,>98% reported,edison,10,unknown,,860,,,16132,4504,43,183,16,23,20,25,11,0,0,0,0,0,0,0,0,0,0,0,2020-11-24T13:22:14Z,55.48504,R+55,Trump +55,republican,55.48504,17637,59.3,17167,52.7,mississippi,2020-11-25T00:44:30.610518Z
28047,Harrison,75865,0,53,53,None,100,75865,>98%,>98% reported,edison,10,unknown,,2776,,,46822,27728,182,726,82,101,40,57,30,97,0,0,0,0,0,0,0,0,0,0,2020-11-24T13:22:16Z,25.16839,R+25,Trump +25,republican,25.16839,63313,30.3,63328,25.82,mississippi,2020-11-25T00:44:30.610518Z
28049,Hinds,100191,0,108,108,Merged into voters' home precincts and released with cumulative results,86,117140,86%,86% reported,edison,2,none,,2988,,,25141,73550,422,396,114,110,116,86,60,196,0,0,0,0,0,0,0,0,0,0,2020-11-24T13:22:18Z,48.31672,D+48,Biden +48,democrat,-48.31672,95077,-44.5,106491,-43.62,mississippi,2020-11-25T00:44:30.610518Z
28051,Holmes,8115,0,15,15,None,100,6542,>98%,>98% reported,edison,6,unknown,,726,,,1369,6588,46,26,13,15,26,18,14,0,0,0,0,0,0,0,0,0,0,0,2020-11-24T13:22:21Z,64.313,D+64,Biden +64,democrat,-64.313,8076,-66.6,9288,-68.66,mississippi,2020-11-25T00:44:30.610518Z
28053,Humphreys,4189,0,13,13,Merged into voters' home precincts and released with cumulative results,100,4189,>98%,>98% reported,edison,10,unknown,,214,,,1118,3016,20,10,3,4,7,7,4,0,0,0,0,0,0,0,0,0,0,0,2020-11-24T13:22:22Z,45.30914,D+45,Biden +45,democrat,-45.30914,4253,-45.1,5212,-50.08,mississippi,2020-11-25T00:44:30.610518Z
28055,Issaquena,676,0,5,5,None,99,682,>98%,>98% reported,edison,10,all,,64,,,308,355,1,5,1,0,1,5,0,0,0,0,0,0,0,0,0,0,0,0,2020-11-24T13:22:23Z,6.95266,D+7,Biden +7,democrat,-6.95266,699,-13.9,787,-22.49,mississippi,2020-11-25T00:44:30.610518Z
28057,Itawamba,10826,0,28,28,Merged into voters' home precincts and released with cumulative results,100,10826,>98%,>98% reported,edison,10,unknown,,362,,,9438,1249,15,79,11,15,2,7,3,7,0,0,0,0,0,0,0,0,0,0,2020-11-24T13:22:24Z,75.64197,R+76,Trump +76,republican,75.64197,9737,75.5,9318,61.03,mississippi,2020-11-25T00:44:30.610518Z
28059,Jackson,54623,0,32,32,None,100,54623,>98%,>98% reported,edison,10,unknown,,1386,,,36295,17375,125,474,49,76,49,63,37,80,0,0,0,0,0,0,0,0,0,0,2020-11-24T13:22:27Z,34.63742,R+35,Trump +35,republican,34.63742,49567,38.3,53655,34.38,mississippi,2020-11-25T00:44:30.610518Z
28061,Jasper,8742,0,17,17,Merged into voters' home precincts and released with cumulative results,100,8754,>98%,>98% reported,edison,10,unknown,,592,,,4302,4341,22,30,10,6,7,13,5,6,0,0,0,0,0,0,0,0,0,0,2020-11-24T13:22:29Z,0.44612,D+0.45,Biden +0.45,democrat,-0.44612,8475,-3.9,9340,-9.68,mississippi,2020-11-25T00:44:30.610518Z
28065,Jeff Davis,6213,0,17,17,None,100,6213,>98%,>98% reported,edison,10,unknown,,578,,,2534,3599,29,16,11,5,6,8,5,0,0,0,0,0,0,0,0,0,0,0,2020-11-24T13:22:34Z,17.14148,D+17,Biden +17,democrat,-17.14148,6237,-20.1,6864,-25.64,mississippi,2020-11-25T00:44:30.610518Z
28063,Jefferson,3911,0,12,12,None,100,3916,>98%,>98% reported,edison,10,unknown,,600,,,531,3327,18,14,1,6,4,6,1,3,0,0,0,0,0,0,0,0,0,0,2020-11-24T13:22:32Z,71.49067,D+71,Biden +71,democrat,-71.49067,3860,-73.8,4433,-78.57,mississippi,2020-11-25T00:44:30.610518Z
28067,Jones,30091,0,37,37,None,100,30091,>98%,>98% reported,edison,10,some,,1822,,,21226,8517,69,169,26,24,21,30,9,0,0,0,0,0,0,0,0,0,0,0,2020-11-24T13:22:36Z,42.23522,R+42,Trump +42,republican,42.23522,28352,43.5,30159,38.05,mississippi,2020-11-25T00:44:30.610518Z
28069,Kemper,4732,0,14,14,None,100,4732,>98%,>98% reported,edison,10,unknown,,966,,,1787,2887,9,10,9,9,6,9,5,1,0,0,0,0,0,0,0,0,0,0,2020-11-24T13:22:36Z,23.24598,D+23,Biden +23,democrat,-23.24598,4639,-22.6,5052,-28.7,mississippi,2020-11-25T00:44:30.610518Z
28071,Lafayette,23481,0,18,18,Merged into voters' home precincts and released with cumulative results,100,23481,>98%,>98% reported,edison,10,some,,2116,,,12949,10070,55,242,14,40,29,16,8,58,0,0,0,0,0,0,0,0,0,0,2020-11-24T13:22:37Z,12.26098,R+12,Trump +12,republican,12.26098,19643,14.8,19505,15.3,mississippi,2020-11-25T00:44:30.610518Z
28073,Lamar,28526,0,23,23,Released as a separate subtotal at the end of tabulation,100,28526,>98%,>98% reported,edison,10,unknown,,946,,,20704,7340,66,264,19,32,29,21,10,41,0,0,0,0,0,0,0,0,0,0,2020-11-24T13:22:41Z,46.84849,R+47,Trump +47,republican,46.84849,24592,55.1,24889,54.67,mississippi,2020-11-25T00:44:30.610518Z
28075,Lauderdale,31266,0,40,40,Merged into voters' home precincts and released with cumulative results,100,31266,>98%,>98% reported,edison,10,unknown,,2082,,,17967,12960,67,149,24,25,16,25,14,19,0,0,0,0,0,0,0,0,0,0,2020-11-24T13:22:42Z,16.0142,R+16,Trump +16,republican,16.0142,29506,21.9,32777,14.91,mississippi,2020-11-25T00:44:30.610518Z
28077,Lawrence,6617,985,24,24,None,100,6547,>98%,>98% reported,edison,6,unknown,,602,,,4285,2260,19,19,5,8,5,11,1,4,551,426,2,3,0,1,0,1,1,0,2020-11-24T13:22:44Z,30.60299,R+31,Trump +31,republican,30.60299,6364,29.8,6698,25.74,mississippi,2020-11-25T00:44:30.610518Z
28079,Leake,9204,0,19,19,None,100,9209,>98%,>98% reported,edison,10,unknown,,646,,,5228,3897,23,19,8,6,4,14,1,4,0,0,0,0,0,0,0,0,0,0,2020-11-24T13:22:45Z,14.4611,R+14,Trump +14,republican,14.4611,8449,14.2,8983,8.73,mississippi,2020-11-25T00:44:30.610518Z
28081,Lee,37003,0,36,36,Merged into voters' home precincts and released with cumulative results,95,38837,95%,95% reported,edison,4,unknown,,1452,,,24207,12189,116,292,32,44,32,30,12,49,0,0,0,0,0,0,0,0,0,0,2020-11-24T13:22:48Z,32.47845,R+32,Trump +32,republican,32.47845,32913,37,35306,27.9,mississippi,2020-11-25T00:44:30.610518Z
28083,Leflore,10893,0,18,18,None,100,8181,>98%,>98% reported,edison,6,unknown,,646,,,3129,7648,39,31,9,9,9,13,6,0,0,0,0,0,0,0,0,0,0,0,2020-11-24T13:23:16Z,41.48536,D+41,Biden +41,democrat,-41.48536,11140,-41.1,12773,-43.31,mississippi,2020-11-25T00:44:30.610518Z
28085,Lincoln,16818,0,30,30,None,100,16818,>98%,>98% reported,edison,10,unknown,,1042,,,11596,5040,31,64,11,19,15,18,7,17,0,0,0,0,0,0,0,0,0,0,2020-11-24T13:22:51Z,38.98204,R+39,Trump +39,republican,38.98204,15193,40.1,16414,32.7,mississippi,2020-11-25T00:44:30.610518Z
28087,Lowndes,27273,26993,20,20,None,100,27273,>98%,>98% reported,edison,10,unknown,,1206,,,13800,13087,71,181,21,32,19,20,9,33,13699,12913,71,179,19,32,19,20,8,33,2020-11-24T13:22:53Z,2.61431,R+3,Trump +3,republican,2.61431,25695,5.7,27158,0.48,mississippi,2020-11-25T00:44:30.610518Z
28089,Madison,56335,0,43,43,None,100,56335,>98%,>98% reported,edison,10,unknown,,2144,,,31091,24440,140,351,53,41,45,37,14,123,0,0,0,0,0,0,0,0,0,0,2020-11-24T13:23:17Z,11.80616,R+12,Trump +12,republican,11.80616,50131,15.8,49571,15.7,mississippi,2020-11-25T00:44:30.610518Z
28091,Marion,12194,0,22,22,None,100,12194,>98%,>98% reported,edison,10,unknown,,980,,,8273,3787,29,44,11,11,5,12,5,17,0,0,0,0,0,0,0,0,0,0,2020-11-24T13:22:56Z,36.78858,R+37,Trump +37,republican,36.78858,11693,35.6,12729,30.2,mississippi,2020-11-25T00:44:30.610518Z
28093,Marshall,15830,0,24,24,Merged into voters' home precincts and released with cumulative results,100,15830,>98%,>98% reported,edison,10,unknown,,920,,,7566,8057,51,48,23,27,11,23,11,13,0,0,0,0,0,0,0,0,0,0,2020-11-24T13:23:18Z,3.10171,D+3,Biden +3,democrat,-3.10171,14839,-9.7,16240,-19.56,mississippi,2020-11-25T00:44:30.610518Z
28095,Monroe,17279,0,26,26,None,100,17280,>98%,>98% reported,edison,10,unknown,,978,,,11177,5874,39,93,22,17,13,20,4,20,0,0,0,0,0,0,0,0,0,0,2020-11-24T13:23:20Z,30.69043,R+31,Trump +31,republican,30.69043,15884,29.2,16918,15.76,mississippi,2020-11-25T00:44:30.610518Z
28097,Montgomery,5078,3763,15,15,None,100,5091,>98%,>98% reported,edison,10,unknown,,726,,,2917,2121,11,9,4,3,4,5,1,3,2236,1507,11,1,0,1,0,5,1,1,2020-11-24T13:23:01Z,15.67546,R+16,Trump +16,republican,15.67546,4996,14.1,5645,4.82,mississippi,2020-11-25T00:44:30.610518Z
28099,Neshoba,11720,0,27,27,None,100,11720,>98%,>98% reported,edison,10,unknown,,468,,,8320,3260,34,46,12,6,8,15,2,17,0,0,0,0,0,0,0,0,0,0,2020-11-24T13:23:01Z,43.17406,R+43,Trump +43,republican,43.17406,10553,47,11015,43.1,mississippi,2020-11-25T00:44:30.610518Z
28101,Newton,10189,0,16,16,Merged into voters' home precincts and released with cumulative results,100,10189,>98%,>98% reported,edison,10,unknown,,568,,,6997,3075,28,47,9,8,6,7,6,6,0,0,0,0,0,0,0,0,0,0,2020-11-24T13:23:04Z,38.49249,R+38,Trump +38,republican,38.49249,9438,40.2,9777,31.45,mississippi,2020-11-25T00:44:30.610518Z
28103,Noxubee,5341,0,8,8,Merged into voters' home precincts and released with cumulative results,100,5341,>98%,>98% reported,edison,10,unknown,,382,,,1240,4040,15,13,6,6,5,10,4,2,0,0,0,0,0,0,0,0,0,0,2020-11-24T13:23:06Z,52.42464,D+52,Biden +52,democrat,-52.42464,5574,-56.5,6264,-57.39,mississippi,2020-11-25T00:44:30.610518Z
28105,Oktibbeha,19812,0,20,20,Released as a separate subtotal at the end of tabulation,100,19812,>98%,>98% reported,edison,10,some,,1134,,,9004,10299,61,255,28,51,28,17,14,55,0,0,0,0,0,0,0,0,0,0,2020-11-24T13:23:50Z,6.53644,D+7,Biden +7,democrat,-6.53644,18124,-1.6,18117,-1.84,mississippi,2020-11-25T00:44:30.610518Z
28107,Panola,15635,0,21,21,Merged into voters' home precincts AFTER election night,100,15635,>98%,>98% reported,edison,10,unknown,,1296,,,8060,7403,49,48,19,11,7,19,11,8,0,0,0,0,0,0,0,0,0,0,2020-11-24T13:23:50Z,4.20211,R+4,Trump +4,republican,4.20211,15064,0.1,16826,-8.62,mississippi,2020-11-25T00:44:30.610518Z
28109,Pearl River,24056,0,26,26,Merged into voters' home precincts and released with cumulative results,100,24056,>98%,>98% reported,edison,10,unknown,,1048,,,19595,4148,42,160,12,31,14,18,13,23,0,0,0,0,0,0,0,0,0,0,2020-11-24T13:23:51Z,64.21267,R+64,Trump +64,republican,64.21267,21883,64.8,22224,59.32,mississippi,2020-11-25T00:44:30.610518Z
28111,Perry,5922,0,15,15,Merged into voters' home precincts and released with cumulative results,100,5922,>98%,>98% reported,edison,10,unknown,,400,,,4500,1362,9,21,4,7,3,6,4,6,0,0,0,0,0,0,0,0,0,0,2020-11-24T13:23:51Z,52.98886,R+53,Trump +53,republican,52.98886,5432,53.7,5722,45.61,mississippi,2020-11-25T00:44:30.610518Z
28113,Pike,17360,0,25,25,None,100,17362,>98%,>98% reported,edison,10,some,,1376,,,8479,8646,43,91,22,18,18,21,4,18,0,0,0,0,0,0,0,0,0,0,2020-11-24T13:23:52Z,0.96198,D+0.96,Biden +0.96,democrat,-0.96198,16360,-0.2,17974,-8.17,mississippi,2020-11-25T00:44:30.610518Z
28115,Pontotoc,14377,0,28,28,Merged into voters' home precincts and released with cumulative results,100,14377,>98%,>98% reported,edison,10,unknown,,602,,,11550,2614,30,103,16,17,11,16,4,16,0,0,0,0,0,0,0,0,0,0,2020-11-24T13:23:52Z,62.15483,R+62,Trump +62,republican,62.15483,12984,61.2,12411,53.53,mississippi,2020-11-25T00:44:30.610518Z
28117,Prentiss,10588,0,15,15,None,100,10588,>98%,>98% reported,edison,10,unknown,,438,,,8312,2139,20,69,9,6,3,10,3,17,0,0,0,0,0,0,0,0,0,0,2020-11-24T13:23:53Z,58.30185,R+58,Trump +58,republican,58.30185,9872,56.5,10033,42.44,mississippi,2020-11-25T00:44:30.610518Z
28119,Quitman,3229,0,10,10,Merged into voters' home precincts and released with cumulative results,100,3238,>98%,>98% reported,edison,10,unknown,,1586,,,1026,2150,12,12,3,5,8,7,3,3,0,0,0,0,0,0,0,0,0,0,2020-11-24T13:23:53Z,34.80954,D+35,Biden +35,democrat,-34.80954,3365,-39,3979,-43.25,mississippi,2020-11-25T00:44:30.610518Z
28121,Rankin,70655,0,48,48,None,100,70655,>98%,>98% reported,edison,10,some,,3512,,,50895,18847,135,555,57,62,50,42,12,0,0,0,0,0,0,0,0,0,0,0,2020-11-24T13:23:53Z,45.35843,R+45,Trump +45,republican,45.35843,63110,52.4,64145,52.16,mississippi,2020-11-25T00:44:30.610518Z
28123,Scott,10744,0,23,23,None,100,10744,>98%,>98% reported,edison,10,unknown,,356,,,6285,4330,24,38,13,22,11,6,4,11,0,0,0,0,0,0,0,0,0,0,2020-11-24T13:23:53Z,18.1962,R+18,Trump +18,republican,18.1962,10522,17.6,11202,9.44,mississippi,2020-11-25T00:44:30.610518Z
28125,Sharkey,2183,0,10,10,Released with cumulative results periodically election night,100,2183,>98%,>98% reported,edison,10,unknown,,144,,,688,1465,8,9,1,6,5,1,0,0,0,0,0,0,0,0,0,0,0,0,2020-11-24T13:23:54Z,35.59322,D+36,Biden +36,democrat,-35.59322,2190,-35.9,2532,-41.27,mississippi,2020-11-25T00:44:30.610518Z
28127,Simpson,11820,0,23,23,None,100,11825,>98%,>98% reported,edison,10,unknown,,558,,,7635,4037,30,49,14,23,9,14,4,5,0,0,0,0,0,0,0,0,0,0,2020-11-24T13:23:20Z,30.43993,R+30,Trump +30,republican,30.43993,11419,30.8,12249,22.05,mississippi,2020-11-25T00:44:30.610518Z
28129,Smith,8327,0,18,18,Merged into voters' home precincts and released with cumulative results,100,8327,>98%,>98% reported,edison,10,unknown,,678,,,6458,1791,13,33,11,6,4,9,2,0,0,0,0,0,0,0,0,0,0,0,2020-11-24T13:23:21Z,56.0466,R+56,Trump +56,republican,56.0466,7627,56.5,8099,50.25,mississippi,2020-11-25T00:44:30.610518Z
28131,Stone,7878,0,15,15,Merged into voters' home precincts and released with cumulative results,100,7878,>98%,>98% reported,edison,10,unknown,,338,,,5964,1802,12,57,14,8,6,13,2,0,0,0,0,0,0,0,0,0,0,0,2020-11-24T13:24:11Z,52.83067,R+53,Trump +53,republican,52.83067,7045,53,7532,45.37,mississippi,2020-11-25T00:44:30.610518Z
28133,Sunflower,9683,0,17,17,None,100,9685,>98%,>98% reported,edison,10,unknown,,234,,,2799,6781,37,18,8,14,8,13,3,2,0,0,0,0,0,0,0,0,0,0,2020-11-24T13:24:12Z,41.12362,D+41,Biden +41,democrat,-41.12362,9598,-41,11228,-46.94,mississippi,2020-11-25T00:44:30.610518Z
28135,Tallahatchie,5691,0,21,21,Merged into voters' home precincts and released with cumulative results,100,5691,>98%,>98% reported,edison,10,unknown,,916,,,2488,3105,22,20,9,15,14,11,1,6,0,0,0,0,0,0,0,0,0,0,2020-11-24T13:24:12Z,10.84168,D+11,Biden +11,democrat,-10.84168,5870,-14.9,6503,-22.45,mississippi,2020-11-25T00:44:30.610518Z
28137,Tate,13101,0,20,20,None,100,13101,>98%,>98% reported,edison,10,unknown,,602,,,8707,4183,56,84,12,16,16,12,7,8,0,0,0,0,0,0,0,0,0,0,2020-11-24T13:24:12Z,34.53172,R+35,Trump +35,republican,34.53172,11627,30.7,12406,19.34,mississippi,2020-11-25T00:44:30.610518Z
28139,Tippah,10102,0,24,24,None,100,10102,>98%,>98% reported,edison,10,unknown,,540,,,8054,1937,25,43,14,9,6,11,3,0,0,0,0,0,0,0,0,0,0,0,2020-11-24T13:24:12Z,60.55237,R+61,Trump +61,republican,60.55237,9260,58.3,9164,48.01,mississippi,2020-11-25T00:44:30.610518Z
28141,Tishomingo,9147,0,14,14,Merged into voters' home precincts and released with cumulative results,100,9147,>98%,>98% reported,edison,10,unknown,,594,,,7933,1059,15,97,11,7,5,10,1,9,0,0,0,0,0,0,0,0,0,0,2020-11-24T13:24:13Z,75.15032,R+75,Trump +75,republican,75.15032,8371,73.7,7936,56.58,mississippi,2020-11-25T00:44:30.610518Z
28143,Tunica,3565,0,12,12,Merged into voters' home precincts and released with cumulative results,100,3573,>98%,>98% reported,edison,10,unknown,,230,,,926,2580,27,9,7,7,3,2,1,3,0,0,0,0,0,0,0,0,0,0,2020-11-24T13:24:13Z,46.39551,D+46,Biden +46,democrat,-46.39551,3567,-50.9,4382,-59.15,mississippi,2020-11-25T00:44:30.610518Z
28145,Union,12683,0,20,20,Merged into voters' home precincts and released with cumulative results,100,12683,>98%,>98% reported,edison,10,none,,700,,,10373,2160,28,81,10,13,6,9,3,0,0,0,0,0,0,0,0,0,0,0,2020-11-24T13:24:13Z,64.75597,R+65,Trump +65,republican,64.75597,11496,62.8,11365,50.65,mississippi,2020-11-25T00:44:30.610518Z
28147,Walthall,7122,0,19,20,None,96,7402,96%,96% reported,edison,2,unknown,,466,,,4220,2835,16,19,6,6,5,6,6,3,0,0,0,0,0,0,0,0,0,0,2020-11-24T13:24:13Z,19.44678,R+19,Trump +19,republican,19.44678,6919,18.3,7551,8.33,mississippi,2020-11-25T00:44:30.610518Z
28149,Warren,21056,0,23,23,None,100,21056,>98%,>98% reported,edison,10,unknown,,1150,,,10365,10442,46,93,25,25,25,24,8,3,0,0,0,0,0,0,0,0,0,0,2020-11-24T13:24:13Z,0.36569,D+0.37,Biden +0.37,democrat,-0.36569,19416,2.5,21391,-1.54,mississippi,2020-11-25T00:44:30.610518Z
28151,Washington,18025,0,19,19,None,100,16820,>98%,>98% reported,edison,4,unknown,,914,,,5300,12503,71,53,19,19,21,12,10,17,0,0,0,0,0,0,0,0,0,0,2020-11-24T13:23:22Z,39.96117,D+40,Biden +40,democrat,-39.96117,16825,-36.5,19715,-42.25,mississippi,2020-11-25T00:44:30.610518Z
28153,Wayne,10065,0,22,22,Merged into voters' home precincts and released with cumulative results,100,10087,>98%,>98% reported,edison,10,unknown,,850,,,6307,3624,37,45,3,11,8,14,6,10,0,0,0,0,0,0,0,0,0,0,2020-11-24T13:23:23Z,26.65673,R+27,Trump +27,republican,26.65673,9599,25.7,10332,19,mississippi,2020-11-25T00:44:30.610518Z
28155,Webster,5402,0,17,17,Merged into voters' home precincts and released with cumulative results,100,5402,>98%,>98% reported,edison,10,unknown,,262,,,4291,1043,16,27,4,2,5,4,3,7,0,0,0,0,0,0,0,0,0,0,2020-11-24T13:23:37Z,60.12588,R+60,Trump +60,republican,60.12588,5069,58.3,5234,53.53,mississippi,2020-11-25T00:44:30.610518Z
28157,Wilkinson,4130,0,9,9,None,100,4130,>98%,>98% reported,edison,10,none,,326,,,1324,2749,7,12,4,9,7,10,5,3,0,0,0,0,0,0,0,0,0,0,2020-11-24T13:23:38Z,34.50363,D+35,Biden +35,democrat,-34.50363,4218,-36.5,4853,-41.15,mississippi,2020-11-25T00:44:30.610518Z
28159,Winston,9244,0,12,12,Merged into voters' home precincts and released with cumulative results,100,9266,>98%,>98% reported,edison,10,some,,794,,,5112,4040,26,41,6,4,2,2,3,8,0,0,0,0,0,0,0,0,0,0,2020-11-24T13:23:38Z,11.59671,R+12,Trump +12,republican,11.59671,8881,11.9,9829,5.71,mississippi,2020-11-25T00:44:30.610518Z
28161,Yalobusha,6538,0,12,12,None,100,6538,>98%,>98% reported,edison,10,unknown,,552,,,3671,2785,22,26,8,7,6,8,2,3,0,0,0,0,0,0,0,0,0,0,2020-11-24T13:23:39Z,13.55154,R+14,Trump +14,republican,13.55154,6077,13.1,6354,3.87,mississippi,2020-11-25T00:44:30.610518Z
28163,Yazoo,10441,0,23,23,Merged into voters' home precincts and released with cumulative results,100,10441,>98%,>98% reported,edison,10,unknown,,470,,,4832,5496,33,21,10,8,11,14,11,5,0,0,0,0,0,0,0,0,0,0,2020-11-24T13:23:40Z,6.35954,D+6,Biden +6,democrat,-6.35954,10070,-7.7,11620,-14.3,mississippi,2020-11-25T00:44:30.610518Z
