fips,name,votes,absentee_votes,reporting,precincts,absentee_method,eevp,tot_exp_vote,eevp_value,eevp_display,eevp_source,turnout_stage,absentee_count_progress,absentee_outstanding,absentee_max_ballots,provisional_outstanding,provisional_count_progress,results_trumpd,results_bidenj,results_jorgensenj,results_westk,results_simmonsj,results_pierceb,results_absentee_trumpd,results_absentee_bidenj,results_absentee_jorgensenj,results_absentee_westk,results_absentee_simmonsj,results_absentee_pierceb,last_updated,leader_margin_value,leader_margin_display,leader_margin_name_display,leader_party_id,margin2020,votes2016,margin2016,votes2012,margin2012,state,retrieved_time
40001,Adair,7108,1292,17,17,Released as a separate subtotal as first report of the night,100,7108,>98%,>98% reported,edison,10,unknown,,1456,,,5585,1387,62,37,22,15,863,402,15,7,3,2,2020-11-24T13:22:03Z,59.06021,R+59,Trump +59,republican,59.06021,6513,52.3,6508,34.63,oklahoma,2020-11-25T00:45:08.753152Z
40003,Alfalfa,2262,532,8,8,Released as a separate subtotal as first report of the night,100,2262,>98%,>98% reported,edison,10,unknown,,512,,,1978,232,31,9,6,6,431,91,8,0,1,1,2020-11-24T13:22:11Z,77.18833,R+77,Trump +77,republican,77.18833,2258,76,2083,69.08,oklahoma,2020-11-25T00:45:08.753152Z
40005,Atoka,5389,1567,17,17,Released as a separate subtotal as first report of the night,100,5389,>98%,>98% reported,edison,10,unknown,,1779,,,4557,765,49,8,4,6,1238,311,14,1,1,2,2020-11-24T13:22:14Z,70.36556,R+70,Trump +70,republican,70.36556,5018,65.5,4781,48,oklahoma,2020-11-25T00:45:08.753152Z
40007,Beaver,2178,504,7,7,Released as a separate subtotal as first report of the night,100,2178,>98%,>98% reported,edison,10,unknown,,675,,,1968,190,15,2,1,2,423,77,3,0,0,1,2020-11-24T13:22:17Z,81.63453,R+82,Trump +82,republican,81.63453,2243,81,2306,78.84,oklahoma,2020-11-25T00:45:08.753152Z
40009,Beckham,7948,2191,13,13,Released as a separate subtotal as first report of the night,100,7948,>98%,>98% reported,edison,10,unknown,,1622,,,6767,1048,100,17,8,8,1755,403,24,3,2,4,2020-11-24T13:22:22Z,71.95521,R+72,Trump +72,republican,71.95521,7552,70.8,6925,59.08,oklahoma,2020-11-25T00:45:08.753152Z
40011,Blaine,3901,822,9,9,Released as a separate subtotal as first report of the night,100,3901,>98%,>98% reported,edison,10,unknown,,846,,,3136,688,44,18,8,7,620,188,7,2,4,1,2020-11-24T13:22:25Z,62.75314,R+63,Trump +63,republican,62.75314,3793,57.3,3816,48.01,oklahoma,2020-11-25T00:45:08.753152Z
40013,Bryan,15976,3509,22,22,Released as a separate subtotal as first report of the night,100,15976,>98%,>98% reported,edison,10,unknown,,2874,,,12344,3323,230,35,25,19,2228,1229,38,3,6,5,2020-11-24T13:22:29Z,56.46595,R+56,Trump +56,republican,56.46595,13818,55.5,13201,44.23,oklahoma,2020-11-25T00:45:08.753152Z
40015,Caddo,9859,1533,20,20,Released as a separate subtotal as first report of the night,100,9859,>98%,>98% reported,edison,10,unknown,,1565,,,7013,2670,97,42,18,19,867,646,12,1,6,1,2020-11-24T13:22:33Z,44.05112,R+44,Trump +44,republican,44.05112,9348,43.5,8851,28.51,oklahoma,2020-11-25T00:45:08.753152Z
40017,Canadian,61940,15988,50,50,Released as a separate subtotal as first report of the night,100,61940,>98%,>98% reported,edison,10,unknown,,10027,,,43550,16742,1168,235,145,100,8434,7183,255,46,41,29,2020-11-24T13:22:36Z,43.28059,R+43,Trump +43,republican,43.28059,55278,51.2,46162,54.35,oklahoma,2020-11-25T00:45:08.753152Z
40019,Carter,19479,4268,25,25,Released as a separate subtotal as first report of the night,100,19479,>98%,>98% reported,edison,10,unknown,,3955,,,14699,4470,196,66,24,24,2573,1654,26,10,4,1,2020-11-24T13:22:40Z,52.51296,R+53,Trump +53,republican,52.51296,18534,52.6,17122,42.67,oklahoma,2020-11-25T00:45:08.753152Z
40021,Cherokee,17714,4735,24,24,Released as a separate subtotal as first report of the night,100,17714,>98%,>98% reported,edison,10,unknown,,5304,,,11223,6027,320,67,51,26,2311,2330,69,9,12,4,2020-11-24T13:22:43Z,29.33273,R+29,Trump +29,republican,29.33273,16490,27.5,14306,14.11,oklahoma,2020-11-25T00:45:08.753152Z
40023,Choctaw,5832,1752,17,17,Released as a separate subtotal as first report of the night,100,5832,>98%,>98% reported,edison,10,unknown,,1486,,,4698,1082,34,9,6,3,1342,398,9,1,2,0,2020-11-24T13:22:45Z,62.00274,R+62,Trump +62,republican,62.00274,5426,57.9,5066,41.02,oklahoma,2020-11-25T00:45:08.753152Z
40025,Cimarron,1054,407,6,6,Released as a separate subtotal as first report of the night,100,1054,>98%,>98% reported,edison,10,unknown,,672,,,970,70,10,1,2,1,374,24,7,0,1,1,2020-11-24T13:22:50Z,85.38899,R+85,Trump +85,republican,85.38899,1079,82.7,1197,80.79,oklahoma,2020-11-25T00:45:08.753152Z
40027,Cleveland,119778,47141,84,84,Released as a separate subtotal as first report of the night,100,119778,>98%,>98% reported,edison,10,unknown,,18829,,,66677,49827,2278,477,309,210,19725,26419,707,110,105,75,2020-11-24T13:22:52Z,14.06769,R+14,Trump +14,republican,14.06769,109450,21.7,93887,25.93,oklahoma,2020-11-25T00:45:08.753152Z
40029,Coal,2524,796,9,9,Released as a separate subtotal as first report of the night,100,2524,>98%,>98% reported,edison,10,unknown,,818,,,2091,374,34,12,9,4,640,134,13,1,5,3,2020-11-24T13:22:54Z,68.02694,R+68,Trump +68,republican,68.02694,2399,62,2359,44.98,oklahoma,2020-11-25T00:45:08.753152Z
40031,Comanche,35631,10514,39,39,Released as a separate subtotal as first report of the night,100,35631,>98%,>98% reported,edison,10,unknown,,8736,,,20905,13747,699,121,96,63,4516,5766,173,17,25,17,2020-11-24T13:22:58Z,20.08925,R+20,Trump +20,republican,20.08925,32564,23.7,30185,17.04,oklahoma,2020-11-25T00:45:08.753152Z
40033,Cotton,2572,799,9,9,Released as a separate subtotal as first report of the night,100,2572,>98%,>98% reported,edison,10,unknown,,760,,,2117,393,34,13,9,6,631,147,11,3,5,2,2020-11-24T13:23:00Z,67.02955,R+67,Trump +67,republican,67.02955,2602,62.6,2453,46.43,oklahoma,2020-11-25T00:45:08.753152Z
40035,Craig,6032,1371,12,12,Released as a separate subtotal as first report of the night,100,6032,>98%,>98% reported,edison,10,unknown,,944,,,4686,1217,88,20,10,11,910,443,12,3,3,0,2020-11-24T13:23:01Z,57.50995,R+58,Trump +58,republican,57.50995,5785,52.4,5306,34.15,oklahoma,2020-11-25T00:45:08.753152Z
40037,Creek,30505,6068,35,35,Released as a separate subtotal as first report of the night,100,30505,>98%,>98% reported,edison,10,unknown,,6525,,,23294,6577,438,83,64,49,3607,2366,65,6,15,9,2020-11-24T13:23:06Z,54.80085,R+55,Trump +55,republican,54.80085,28830,54.6,26114,45.41,oklahoma,2020-11-25T00:45:08.753152Z
40039,Custer,10691,2545,13,13,Released as a separate subtotal as first report of the night,100,10691,>98%,>98% reported,edison,10,unknown,,2330,,,8060,2369,197,31,20,14,1670,832,33,2,7,1,2020-11-24T13:23:10Z,53.23169,R+53,Trump +53,republican,53.23169,10541,54.3,9805,51.88,oklahoma,2020-11-25T00:45:08.753152Z
40041,Delaware,17245,4236,22,22,Released as a separate subtotal as first report of the night,100,17245,>98%,>98% reported,edison,10,unknown,,3314,,,13557,3472,136,33,29,18,2765,1414,36,5,9,7,2020-11-24T13:23:14Z,58.48072,R+58,Trump +58,republican,58.48072,15716,54.2,14276,41.22,oklahoma,2020-11-25T00:45:08.753152Z
40043,Dewey,2359,372,9,9,Released as a separate subtotal as first report of the night,100,2359,>98%,>98% reported,edison,10,unknown,,440,,,2124,214,12,5,2,2,329,39,3,0,0,1,2020-11-24T13:23:17Z,80.96651,R+81,Trump +81,republican,80.96651,2248,77.5,2093,71.24,oklahoma,2020-11-25T00:45:08.753152Z
40045,Ellis,1873,389,7,7,Released as a separate subtotal as first report of the night,100,1873,>98%,>98% reported,edison,10,unknown,,469,,,1688,162,18,3,1,1,332,50,5,2,0,0,2020-11-24T13:23:18Z,81.47357,R+81,Trump +81,republican,81.47357,1827,79.7,1801,74.9,oklahoma,2020-11-25T00:45:08.753152Z
40047,Garfield,22430,5342,30,30,Released as a separate subtotal as first report of the night,100,22430,>98%,>98% reported,edison,10,unknown,,5979,,,16970,4919,371,70,61,39,3269,1966,74,7,12,14,2020-11-24T13:23:21Z,53.72715,R+54,Trump +54,republican,53.72715,21710,53.5,19910,52.46,oklahoma,2020-11-25T00:45:08.753152Z
40049,Garvin,10922,2293,17,17,Released as a separate subtotal as first report of the night,100,10922,>98%,>98% reported,edison,10,unknown,,2240,,,8878,1865,115,34,18,12,1660,603,16,7,4,3,2020-11-24T13:23:23Z,64.20985,R+64,Trump +64,republican,64.20985,10546,60.7,9484,46.04,oklahoma,2020-11-25T00:45:08.753152Z
40051,Grady,23101,5510,28,28,Released as a separate subtotal as first report of the night,100,23101,>98%,>98% reported,edison,10,unknown,,4398,,,18538,4144,287,68,34,30,3752,1665,69,7,7,10,2020-11-24T13:23:25Z,62.30899,R+62,Trump +62,republican,62.30899,22286,60.3,19619,51.21,oklahoma,2020-11-25T00:45:08.753152Z
40053,Grant,2226,439,7,7,Released as a separate subtotal as first report of the night,100,2226,>98%,>98% reported,edison,10,unknown,,400,,,1916,280,24,2,2,2,330,100,8,1,0,0,2020-11-24T13:23:26Z,73.49506,R+73,Trump +73,republican,73.49506,2201,69.9,2068,61.99,oklahoma,2020-11-25T00:45:08.753152Z
40055,Greer,1973,505,8,8,Released as a separate subtotal as first report of the night,100,1973,>98%,>98% reported,edison,10,unknown,,514,,,1605,328,24,10,4,2,376,121,5,2,1,0,2020-11-24T13:23:29Z,64.72377,R+65,Trump +65,republican,64.72377,1896,61.1,1832,46.72,oklahoma,2020-11-25T00:45:08.753152Z
40057,Harmon,933,282,7,7,Released as a separate subtotal as first report of the night,100,933,>98%,>98% reported,edison,10,unknown,,288,,,747,177,6,1,2,0,217,62,3,0,0,0,2020-11-24T13:23:31Z,61.09325,R+61,Trump +61,republican,61.09325,977,50.2,923,42.8,oklahoma,2020-11-25T00:45:08.753152Z
40059,Harper,1487,305,6,6,Released as a separate subtotal as first report of the night,100,1487,>98%,>98% reported,edison,10,unknown,,291,,,1327,136,18,4,0,2,253,45,4,2,0,1,2020-11-24T13:23:32Z,80.09415,R+80,Trump +80,republican,80.09415,1499,79,1434,75.87,oklahoma,2020-11-25T00:45:08.753152Z
40061,Haskell,5014,1376,11,11,Released as a separate subtotal as first report of the night,100,5014,>98%,>98% reported,edison,10,unknown,,1104,,,4165,783,37,11,12,6,1063,301,9,1,1,1,2020-11-24T13:23:33Z,67.45114,R+67,Trump +67,republican,67.45114,4738,59.5,4244,44.63,oklahoma,2020-11-25T00:45:08.753152Z
40063,Hughes,4857,951,16,16,Released as a separate subtotal as first report of the night,100,4857,>98%,>98% reported,edison,10,unknown,,832,,,3875,919,41,11,6,5,681,257,8,3,0,2,2020-11-24T13:23:34Z,60.86061,R+61,Trump +61,republican,60.86061,4526,53.6,4208,34.89,oklahoma,2020-11-25T00:45:08.753152Z
40065,Jackson,8221,2169,15,15,Released as a separate subtotal as first report of the night,100,8221,>98%,>98% reported,edison,10,unknown,,2832,,,6392,1646,137,21,14,11,1498,635,25,4,4,3,2020-11-24T13:23:36Z,57.7302,R+58,Trump +58,republican,57.7302,7806,57.6,7919,50.65,oklahoma,2020-11-25T00:45:08.753152Z
40067,Jefferson,2385,529,10,10,Released as a separate subtotal as first report of the night,100,2385,>98%,>98% reported,edison,10,unknown,,656,,,2026,319,26,6,5,3,445,81,2,0,1,0,2020-11-24T13:23:37Z,71.57233,R+72,Trump +72,republican,71.57233,2350,65.7,2239,45.96,oklahoma,2020-11-25T00:45:08.753152Z
40069,Johnston,4251,1002,14,14,Released as a separate subtotal as first report of the night,100,4251,>98%,>98% reported,edison,10,unknown,,1016,,,3441,738,37,18,10,7,736,249,10,2,4,1,2020-11-24T13:23:39Z,63.58504,R+64,Trump +64,republican,63.58504,4018,57.4,3786,39.94,oklahoma,2020-11-25T00:45:08.753152Z
40071,Kay,17249,3758,28,28,Released as a separate subtotal as first report of the night,100,17249,>98%,>98% reported,edison,10,unknown,,2845,,,12834,4040,265,55,32,23,2351,1357,37,6,5,2,2020-11-24T13:23:40Z,50.98267,R+51,Trump +51,republican,50.98267,16803,50.2,16126,42.61,oklahoma,2020-11-25T00:45:08.753152Z
40073,Kingfisher,6465,1644,14,14,Released as a separate subtotal as first report of the night,100,6465,>98%,>98% reported,edison,10,unknown,,1557,,,5521,854,64,13,9,4,1308,312,18,4,2,0,2020-11-24T13:23:40Z,72.18871,R+72,Trump +72,republican,72.18871,6131,71.3,5768,68.86,oklahoma,2020-11-25T00:45:08.753152Z
40075,Kiowa,3427,847,14,14,Released as a separate subtotal as first report of the night,100,3427,>98%,>98% reported,edison,10,unknown,,818,,,2673,699,33,11,5,6,597,247,2,1,0,0,2020-11-24T13:23:41Z,57.6014,R+58,Trump +58,republican,57.6014,3493,52.4,3422,35.36,oklahoma,2020-11-25T00:45:08.753152Z
40077,Latimer,4249,940,12,12,Released as a separate subtotal as first report of the night,100,4249,>98%,>98% reported,edison,10,unknown,,992,,,3437,762,35,8,3,4,636,295,5,2,1,1,2020-11-24T13:23:42Z,62.95599,R+63,Trump +63,republican,62.95599,4056,56.8,3798,38.39,oklahoma,2020-11-25T00:45:08.753152Z
40079,LeFlore,18805,3977,37,37,Released as a separate subtotal as first report of the night,100,18805,>98%,>98% reported,edison,10,unknown,,3581,,,15213,3299,214,36,23,20,2824,1097,45,8,2,1,2020-11-24T13:23:43Z,63.35549,R+63,Trump +63,republican,63.35549,17221,58.7,15839,41.13,oklahoma,2020-11-25T00:45:08.753152Z
40081,Lincoln,14888,3019,21,21,Released as a separate subtotal as first report of the night,100,14888,>98%,>98% reported,edison,10,unknown,,2651,,,12013,2609,187,35,24,20,2063,902,37,7,8,2,2020-11-24T13:23:44Z,63.16497,R+63,Trump +63,republican,63.16497,14025,60.1,12826,48.96,oklahoma,2020-11-25T00:45:08.753152Z
40083,Logan,21574,6713,22,22,Released as a separate subtotal as first report of the night,100,21574,>98%,>98% reported,edison,10,unknown,,5138,,,15608,5455,373,70,42,26,4004,2584,95,13,10,7,2020-11-24T13:23:45Z,47.06128,R+47,Trump +47,republican,47.06128,18979,49.4,17038,44.55,oklahoma,2020-11-25T00:45:08.753152Z
40085,Love,4076,1081,12,12,Released as a separate subtotal as first report of the night,100,4076,>98%,>98% reported,edison,10,unknown,,830,,,3305,711,36,10,9,5,818,253,6,2,2,0,2020-11-24T13:23:46Z,63.64082,R+64,Trump +64,republican,63.64082,3789,57.7,3470,40.4,oklahoma,2020-11-25T00:45:08.753152Z
40093,Major,3467,942,8,8,Released as a separate subtotal as first report of the night,100,3467,>98%,>98% reported,edison,10,unknown,,987,,,3084,320,39,8,7,9,776,153,8,1,1,3,2020-11-24T13:23:48Z,79.7231,R+80,Trump +80,republican,79.7231,3407,77.4,3146,71.65,oklahoma,2020-11-25T00:45:08.753152Z
40095,Marshall,6064,1565,11,11,Released as a separate subtotal as first report of the night,100,6064,>98%,>98% reported,edison,10,unknown,,1757,,,4891,1100,50,11,5,7,1167,386,8,1,2,1,2020-11-24T13:23:49Z,62.51649,R+63,Trump +63,republican,62.51649,5492,56.6,5140,45.68,oklahoma,2020-11-25T00:45:08.753152Z
40097,Mayes,16626,3006,27,27,Released as a separate subtotal as first report of the night,100,16626,>98%,>98% reported,edison,10,unknown,,3038,,,12749,3581,197,39,20,40,1850,1115,25,7,1,8,2020-11-24T13:23:50Z,55.14255,R+55,Trump +55,republican,55.14255,15717,51.7,14460,33.29,oklahoma,2020-11-25T00:45:08.753152Z
40087,McClain,19236,4079,26,26,Released as a separate subtotal as first report of the night,100,19236,>98%,>98% reported,edison,10,unknown,,3157,,,15295,3582,236,59,43,21,2654,1362,47,5,9,2,2020-11-24T13:23:47Z,60.89104,R+61,Trump +61,republican,60.89104,16858,61,14306,55.35,oklahoma,2020-11-25T00:45:08.753152Z
40089,McCurtain,11467,2119,30,30,Released as a separate subtotal as first report of the night,100,11467,>98%,>98% reported,edison,10,unknown,,1856,,,9485,1858,64,33,12,15,1516,583,16,1,2,1,2020-11-24T13:23:47Z,66.5126,R+67,Trump +67,republican,66.5126,10726,63.9,10075,51.56,oklahoma,2020-11-25T00:45:08.753152Z
40091,McIntosh,8335,1918,14,14,Released as a separate subtotal as first report of the night,100,8335,>98%,>98% reported,edison,10,unknown,,1342,,,6172,2031,78,17,21,16,1234,664,10,3,5,2,2020-11-24T13:23:48Z,49.68206,R+50,Trump +50,republican,49.68206,7963,42.5,7288,23.74,oklahoma,2020-11-25T00:45:08.753152Z
40099,Murray,5894,2268,10,10,Released as a separate subtotal as first report of the night,100,5894,>98%,>98% reported,edison,10,unknown,,1429,,,4612,1156,75,18,13,20,1664,565,24,1,6,8,2020-11-24T13:23:50Z,58.6359,R+59,Trump +59,republican,58.6359,5528,55.9,5146,40.15,oklahoma,2020-11-25T00:45:08.753152Z
40101,Muskogee,25081,7077,33,33,Released as a separate subtotal as first report of the night,100,25081,>98%,>98% reported,edison,10,unknown,,6520,,,16526,8027,319,85,67,57,3627,3342,70,15,12,11,2020-11-24T13:23:51Z,33.88621,R+34,Trump +34,republican,33.88621,24216,29.2,23356,14.78,oklahoma,2020-11-25T00:45:08.753152Z
40103,Noble,4938,1349,12,12,Released as a separate subtotal as first report of the night,100,4938,>98%,>98% reported,edison,10,unknown,,1789,,,3821,1003,73,16,9,16,954,371,13,3,4,4,2020-11-24T13:23:52Z,57.06764,R+57,Trump +57,republican,57.06764,4878,57.7,4631,50.64,oklahoma,2020-11-25T00:45:08.753152Z
40105,Nowata,4391,1136,11,11,Released as a separate subtotal as first report of the night,100,4391,>98%,>98% reported,edison,10,unknown,,1032,,,3610,712,54,5,8,2,875,247,10,3,0,1,2020-11-24T13:23:53Z,65.99863,R+66,Trump +66,republican,65.99863,4237,60.9,4076,38.96,oklahoma,2020-11-25T00:45:08.753152Z
40107,Okfuskee,4038,940,13,13,Released as a separate subtotal as first report of the night,100,4038,>98%,>98% reported,edison,10,unknown,,851,,,3058,896,49,12,15,8,610,310,13,1,3,3,2020-11-24T13:21:45Z,53.54136,R+54,Trump +54,republican,53.54136,3943,47.1,3591,30.05,oklahoma,2020-11-25T00:45:08.753152Z
40109,Oklahoma,294740,102700,257,257,Released as a precinct as first report of the night,100,294740,>98%,>98% reported,edison,10,unknown,,49208,,,145050,141724,5272,1326,852,516,35432,64978,1558,287,276,169,2020-11-24T13:21:50Z,1.12845,R+1.1,Trump +1.1,republican,1.12845,273942,10.5,256710,16.65,oklahoma,2020-11-25T00:45:08.753152Z
40111,Okmulgee,14313,3465,24,24,Released as a separate subtotal as first report of the night,100,14313,>98%,>98% reported,edison,10,unknown,,2506,,,9668,4357,181,50,31,26,1871,1530,40,5,12,7,2020-11-24T13:21:54Z,37.10613,R+37,Trump +37,republican,37.10613,13949,32.7,13163,17.47,oklahoma,2020-11-25T00:45:08.753152Z
40113,Osage,20538,6469,28,28,Released as a separate subtotal as first report of the night,100,20538,>98%,>98% reported,edison,10,unknown,,2789,,,14121,6002,257,84,51,23,3593,2773,78,9,11,5,2020-11-24T13:21:56Z,39.5316,R+40,Trump +40,republican,39.5316,18966,36.8,17946,25.29,oklahoma,2020-11-25T00:45:08.753152Z
40115,Ottawa,11438,2752,16,16,Released as a separate subtotal as first report of the night,100,11438,>98%,>98% reported,edison,10,unknown,,1909,,,8545,2686,134,26,24,23,1661,1060,19,3,4,5,2020-11-24T13:22:00Z,51.22399,R+51,Trump +51,republican,51.22399,10690,47.2,9975,29.64,oklahoma,2020-11-25T00:45:08.753152Z
40117,Pawnee,6786,1363,10,10,Released as a separate subtotal as first report of the night,100,6786,>98%,>98% reported,edison,10,unknown,,1203,,,5267,1363,103,19,20,14,876,460,20,2,3,2,2020-11-24T13:22:02Z,57.53021,R+58,Trump +58,republican,57.53021,6364,53.2,6045,40.02,oklahoma,2020-11-25T00:45:08.753152Z
40119,Payne,29643,8993,31,31,Released as a separate subtotal as first report of the night,100,29643,>98%,>98% reported,edison,10,unknown,,7976,,,17813,10904,673,123,69,61,3523,5233,181,23,19,14,2020-11-24T13:22:04Z,23.30736,R+23,Trump +23,republican,23.30736,27760,28.3,25679,28.36,oklahoma,2020-11-25T00:45:08.753152Z
40121,Pittsburg,17924,3267,41,41,Released as a separate subtotal as first report of the night,100,17924,>98%,>98% reported,edison,10,unknown,,3346,,,13851,3768,198,58,25,24,2026,1195,33,7,5,1,2020-11-24T13:22:14Z,56.25418,R+56,Trump +56,republican,56.25418,17271,52.4,15672,38.35,oklahoma,2020-11-25T00:45:08.753152Z
40123,Pontotoc,15320,4658,21,21,Released as a separate subtotal as first report of the night,100,15320,>98%,>98% reported,edison,10,unknown,,3595,,,10805,4117,261,69,39,29,2661,1904,64,13,8,8,2020-11-24T13:22:19Z,43.65535,R+44,Trump +44,republican,43.65535,14831,45.8,12892,38.77,oklahoma,2020-11-25T00:45:08.753152Z
40125,Pottawatomie,28185,8466,26,26,Released as a separate subtotal as first report of the night,100,28185,>98%,>98% reported,edison,10,unknown,,5714,,,20240,7275,431,113,76,50,4805,3489,113,21,21,17,2020-11-24T13:22:23Z,45.99965,R+46,Trump +46,republican,45.99965,25452,46.5,23438,38.66,oklahoma,2020-11-25T00:45:08.753152Z
40127,Pushmataha,4739,1244,13,13,Released as a separate subtotal as first report of the night,100,4739,>98%,>98% reported,edison,10,unknown,,925,,,4016,668,33,6,7,9,959,273,7,1,2,2,2020-11-24T13:22:28Z,70.64782,R+71,Trump +71,republican,70.64782,4483,63.2,4130,49.49,oklahoma,2020-11-25T00:45:08.753152Z
40129,Roger Mills,1834,424,9,9,Released as a separate subtotal as first report of the night,100,1834,>98%,>98% reported,edison,10,unknown,,458,,,1629,168,24,7,3,3,361,50,7,3,2,1,2020-11-24T13:22:34Z,79.66194,R+80,Trump +80,republican,79.66194,1759,79.4,1674,67.5,oklahoma,2020-11-25T00:45:08.753152Z
40131,Rogers,44553,13821,36,36,Released as a separate subtotal as first report of the night,100,44553,>98%,>98% reported,edison,10,unknown,,9670,,,34031,9589,655,114,90,74,8966,4595,180,14,32,34,2020-11-24T13:22:37Z,54.8605,R+55,Trump +55,republican,54.8605,40862,56.3,36701,50.15,oklahoma,2020-11-25T00:45:08.753152Z
40133,Seminole,8337,2058,14,14,Released as a separate subtotal as first report of the night,100,8337,>98%,>98% reported,edison,10,unknown,,1477,,,6011,2150,109,40,19,8,1201,818,29,4,3,3,2020-11-24T13:22:42Z,46.31162,R+46,Trump +46,republican,46.31162,8037,44.1,7456,30.26,oklahoma,2020-11-25T00:45:08.753152Z
40135,Sequoyah,15386,2762,26,26,Released as a separate subtotal as first report of the night,100,15386,>98%,>98% reported,edison,10,unknown,,3320,,,12113,3035,152,42,23,21,1827,899,26,3,6,1,2020-11-24T13:22:44Z,59.00169,R+59,Trump +59,republican,59.00169,14437,54.2,13771,39.1,oklahoma,2020-11-25T00:45:08.753152Z
40137,Stephens,19057,4850,28,28,Released as a separate subtotal as first report of the night,100,19057,>98%,>98% reported,edison,10,unknown,,3352,,,15560,3154,224,58,27,34,3478,1281,65,11,4,11,2020-11-24T13:22:49Z,65.09944,R+65,Trump +65,republican,65.09944,17904,62,16847,53.24,oklahoma,2020-11-25T00:45:08.753152Z
40139,Texas,5521,1583,11,11,Released as a separate subtotal as first report of the night,100,5521,>98%,>98% reported,edison,10,unknown,,1739,,,4505,894,89,12,10,11,1218,326,26,6,3,4,2020-11-24T13:22:52Z,65.40482,R+65,Trump +65,republican,65.40482,5780,65.1,5792,70.23,oklahoma,2020-11-25T00:45:08.753152Z
40141,Tillman,2708,743,9,9,Released as a separate subtotal as first report of the night,100,2708,>98%,>98% reported,edison,10,unknown,,752,,,2076,597,24,7,3,1,542,194,4,3,0,0,2020-11-24T13:22:55Z,54.61595,R+55,Trump +55,republican,54.61595,2706,47.6,2721,33.41,oklahoma,2020-11-25T00:45:08.753152Z
40143,Tulsa,266678,73817,262,262,Released as a precinct as first report of the night,100,266678,>98%,>98% reported,edison,10,unknown,,34395,,,150574,108996,4859,1074,722,453,26759,45406,1153,167,210,122,2020-11-24T13:22:59Z,15.59109,R+16,Trump +16,republican,15.59109,247054,22.8,227806,27.36,oklahoma,2020-11-25T00:45:08.753152Z
40145,Wagoner,35338,10763,32,32,Released as a separate subtotal as first report of the night,100,35338,>98%,>98% reported,edison,10,unknown,,4986,,,26165,8464,503,96,64,46,6723,3883,106,22,19,10,2020-11-24T13:23:01Z,50.09055,R+50,Trump +50,republican,50.09055,31300,52,28691,45.69,oklahoma,2020-11-25T00:45:08.753152Z
40147,Washington,23501,6268,23,23,Released as a separate subtotal as first report of the night,100,23501,>98%,>98% reported,edison,10,unknown,,5606,,,17076,5790,445,90,58,42,3445,2664,119,14,14,12,2020-11-24T13:23:05Z,48.02349,R+48,Trump +48,republican,48.02349,22224,48.5,21200,47.81,oklahoma,2020-11-25T00:45:08.753152Z
40149,Washita,4777,978,12,12,Released as a separate subtotal as first report of the night,100,4777,>98%,>98% reported,edison,10,unknown,,954,,,4086,598,59,14,11,9,758,201,14,0,2,3,2020-11-24T13:23:09Z,73.01654,R+73,Trump +73,republican,73.01654,4631,70.5,4316,61.91,oklahoma,2020-11-25T00:45:08.753152Z
40151,Woods,3678,1502,6,6,Released as a separate subtotal as first report of the night,100,3678,>98%,>98% reported,edison,10,unknown,,1091,,,2993,591,66,12,10,6,1115,358,20,3,4,2,2020-11-24T13:23:14Z,65.30723,R+65,Trump +65,republican,65.30723,3668,66.1,3398,60.51,oklahoma,2020-11-25T00:45:08.753152Z
40153,Woodward,7785,2728,15,15,Released as a separate subtotal as first report of the night,100,7785,>98%,>98% reported,edison,10,unknown,,2272,,,6611,1005,125,16,16,12,2162,516,34,4,7,5,2020-11-24T13:23:16Z,72.01028,R+72,Trump +72,republican,72.01028,7595,72.1,7078,67.99,oklahoma,2020-11-25T00:45:08.753152Z
