fips,name,votes,absentee_votes,reporting,precincts,absentee_method,eevp,tot_exp_vote,eevp_value,eevp_display,eevp_source,turnout_stage,absentee_count_progress,absentee_outstanding,absentee_max_ballots,provisional_outstanding,provisional_count_progress,results_trumpd,results_bidenj,results_jorgensenj,results_hawkinsh,results_write_ins,results_absentee_trumpd,results_absentee_bidenj,results_absentee_jorgensenj,results_absentee_hawkinsh,results_absentee_write_ins,last_updated,leader_margin_value,leader_margin_display,leader_margin_name_display,leader_party_id,margin2020,votes2016,margin2016,votes2012,margin2012,state,retrieved_time
48001,Anderson,19155,14459,20,23,Released as a precinct as first report of the night,96,20048,96%,96% reported,edison,2,none,,15380,,,15062,3934,132,22,5,11103,3234,96,21,5,2020-11-16T15:48:27Z,58.09449,R+58,Trump +58,republican,58.09449,16977,57.9,16212,52.12,texas,2020-11-18T00:44:36.075698Z
48003,Andrews,5856,4776,5,5,Released as a precinct as first report of the night,100,5837,>98%,>98% reported,edison,2,unknown,,4805,,,4937,849,60,10,0,4025,700,45,6,0,2020-11-16T15:48:28Z,69.80874,R+70,Trump +70,republican,69.80874,4943,62.5,4482,63.45,texas,2020-11-18T00:44:36.075698Z
48005,Angelina,34628,28676,38,43,Released as a precinct as first report of the night,98,35322,98%,98% reported,edison,2,unknown,,28954,,,25070,9136,273,75,74,20655,7713,199,54,55,2020-11-16T15:48:28Z,46.01479,R+46,Trump +46,republican,46.01479,29911,47.2,28406,43.9,texas,2020-11-18T00:44:36.075698Z
48007,Aransas,12241,10983,5,6,Released as a precinct as first report of the night,99,12414,>98%,>98% reported,edison,2,unknown,,10783,,,9210,2896,103,31,1,8220,2653,84,26,0,2020-11-16T15:48:29Z,51.58075,R+52,Trump +52,republican,51.58075,10512,50.2,9648,42.77,texas,2020-11-18T00:44:36.075698Z
48009,Archer,4796,3623,10,12,Released as a precinct as first report of the night,91,5288,91%,91% reported,edison,2,unknown,,2737,,,4300,446,45,4,1,3236,356,28,2,1,2020-11-16T15:48:29Z,80.35863,R+80,Trump +80,republican,80.35863,4283,79.2,4164,73.85,texas,2020-11-18T00:44:36.075698Z
48011,Armstrong,1112,846,7,8,Released as a precinct as first report of the night,88,1260,88%,88% reported,edison,2,unknown,,777,,,1035,75,2,0,,784,61,1,0,,2020-11-16T15:48:30Z,86.33094,R+86,Trump +86,republican,86.33094,1021,83.6,935,78.07,texas,2020-11-18T00:44:36.075698Z
48013,Atascosa,18085,14759,25,25,Released as a precinct as first report of the night,100,17775,>98%,>98% reported,edison,2,unknown,,10647,,,12020,5865,142,58,,9761,4842,112,44,,2020-11-16T15:48:30Z,34.03373,R+34,Trump +34,republican,34.03373,13673,29,12721,18.3,texas,2020-11-18T00:44:36.075698Z
48015,Austin,14368,11550,16,18,Released as a precinct as first report of the night,95,15153,95%,95% reported,edison,2,some,,9966,,,11282,2931,122,33,,8997,2436,91,26,,2020-11-16T15:48:31Z,58.12222,R+58,Trump +58,republican,58.12222,12274,59.6,11649,60.2,texas,2020-11-18T00:44:36.075698Z
48017,Bailey,1854,1282,4,5,Released as a precinct as first report of the night,79,2361,79%,79% reported,edison,2,unknown,,1464,,,1430,407,14,2,1,1021,253,7,0,1,2020-11-16T15:48:31Z,55.17799,R+55,Trump +55,republican,55.17799,1793,52.8,1816,48.07,texas,2020-11-18T00:44:36.075698Z
48019,Bandera,12703,11074,11,11,Released as a precinct as first report of the night,100,12614,>98%,>98% reported,edison,2,unknown,,10011,,,10050,2503,120,30,,8665,2295,92,22,,2020-11-16T15:48:32Z,59.41116,R+59,Trump +59,republican,59.41116,10218,63,9448,58.87,texas,2020-11-18T00:44:36.075698Z
48021,Bastrop,36709,31298,23,23,Released as a precinct as first report of the night,100,33601,>98%,>98% reported,edison,2,unknown,,25791,,,20486,15452,530,128,113,16881,13890,406,107,14,2020-11-16T15:48:32Z,13.71326,R+14,Trump +14,republican,13.71326,28665,20.1,24481,17.03,texas,2020-11-18T00:44:36.075698Z
48023,Baylor,1680,1373,4,5,Released as a precinct as first report of the night,89,1880,89%,89% reported,edison,2,unknown,,1554,,,1478,179,22,1,,1211,145,16,1,,2020-11-16T15:47:44Z,77.32143,R+77,Trump +77,republican,77.32143,1499,71.8,1592,64.7,texas,2020-11-18T00:44:36.075698Z
48025,Bee,9405,7536,15,18,Released as a precinct as first report of the night,94,10020,94%,94% reported,edison,2,unknown,,7301,,,5999,3280,93,27,6,4688,2753,68,21,6,2020-11-16T15:47:49Z,28.91015,R+29,Trump +29,republican,28.91015,8485,15.3,7879,11.47,texas,2020-11-18T00:44:36.075698Z
48027,Bell,125867,102935,49,49,Released as a precinct as first report of the night,100,117276,>98%,>98% reported,edison,4,some,,89466,,,67113,56032,1940,430,352,53404,47880,1303,318,30,2020-11-16T15:47:50Z,8.80374,R+9,Trump +9,republican,8.80374,95701,14.8,86206,16.31,texas,2020-11-18T00:44:36.075698Z
48029,Bexar,756021,672573,756,767,Released as a precinct as first report of the night,99,766539,>98%,>98% reported,edison,2,all,,609654,,,303871,440823,8575,2752,,266145,397338,6853,2237,,2020-11-16T15:47:51Z,18.11484,D+18,Biden +18,democrat,-18.11484,594574,-13.3,513681,-4.52,texas,2020-11-18T00:44:36.075698Z
48031,Blanco,7419,6432,7,7,Released as a precinct as first report of the night,100,7019,>98%,>98% reported,edison,2,unknown,,4204,,,5429,1905,70,15,,4613,1752,56,11,,2020-11-16T15:47:52Z,47.49966,R+47,Trump +47,republican,47.49966,5685,52.2,4973,48.62,texas,2020-11-18T00:44:36.075698Z
48033,Borden,412,306,7,8,Released as a precinct as first report of the night,87,475,87%,87% reported,edison,2,unknown,,320,,,395,16,1,0,0,294,11,1,0,0,2020-11-16T15:47:53Z,91.99029,R+92,Trump +92,republican,91.99029,365,81.9,363,80.44,texas,2020-11-18T00:44:36.075698Z
48035,Bosque,9094,6535,11,12,Released as a precinct as first report of the night,98,9256,98%,98% reported,edison,2,unknown,,4229,,,7446,1552,83,13,,5274,1201,50,10,,2020-11-16T15:47:55Z,64.81196,R+65,Trump +65,republican,64.81196,7867,64.3,7356,61.42,texas,2020-11-18T00:44:36.075698Z
48037,Bowie,38194,30019,37,43,Released as a precinct as first report of the night,91,41804,91%,91% reported,edison,4,all,,32487,,,27053,10692,297,90,62,20555,9153,198,68,45,2020-11-16T15:47:57Z,42.83657,R+43,Trump +43,republican,42.83657,34602,46.5,35404,41.44,texas,2020-11-18T00:44:36.075698Z
48039,Brazoria,154037,139447,66,67,Released as a precinct as first report of the night,100,149605,>98%,>98% reported,edison,2,some,,131649,,,89939,61780,1856,417,45,80822,56749,1494,345,37,2020-11-16T15:47:58Z,18.28067,R+18,Trump +18,republican,18.28067,121181,24.4,106739,34.14,texas,2020-11-18T00:44:36.075698Z
48041,Brazos,84753,71847,96,99,Released as a precinct as first report of the night,100,84753,>98%,>98% reported,edison,6,all,,57474,,,47456,35242,1803,252,0,39853,30536,1295,163,0,2020-11-16T15:47:59Z,14.41129,R+14,Trump +14,republican,14.41129,67211,23.2,55962,35.26,texas,2020-11-18T00:44:36.075698Z
48043,Brewster,4805,3978,8,9,Released as a precinct as first report of the night,100,4805,>98%,>98% reported,edison,6,all,,4467,,,2451,2251,89,14,0,1985,1916,68,9,0,2020-11-16T15:48:01Z,4.16233,R+4,Trump +4,republican,4.16233,4252,4.8,3867,5.46,texas,2020-11-18T00:44:36.075698Z
48045,Briscoe,724,452,5,6,Released as a precinct as first report of the night,76,957,76%,76% reported,edison,2,unknown,,503,,,639,77,7,1,,396,51,5,0,,2020-11-16T15:48:02Z,77.62431,R+78,Trump +78,republican,77.62431,736,72.6,702,65.67,texas,2020-11-18T00:44:36.075698Z
48047,Brooks,2484,1821,4,6,Released as a precinct as first report of the night,74,3375,74%,74% reported,edison,2,unknown,,1853,,,998,1470,10,6,,650,1159,7,5,,2020-11-16T15:48:03Z,19.00161,D+19,Biden +19,democrat,-19.00161,2596,-51,2403,-57.39,texas,2020-11-18T00:44:36.075698Z
48049,Brown,15940,12544,17,19,Released as a precinct as first report of the night,96,16564,96%,96% reported,edison,2,some,,14372,,,13681,2103,132,24,,10745,1704,80,15,,2020-11-16T15:48:04Z,72.63488,R+73,Trump +73,republican,72.63488,14026,74.1,13947,71.64,texas,2020-11-18T00:44:36.075698Z
48051,Burleson,8604,6680,13,14,Released as a precinct as first report of the night,100,8219,>98%,>98% reported,edison,2,unknown,,5572,,,6740,1786,63,15,,5182,1451,34,13,,2020-11-16T15:48:05Z,57.57787,R+58,Trump +58,republican,57.57787,6960,55,6456,45.94,texas,2020-11-18T00:44:36.075698Z
48053,Burnet,24646,20840,21,21,Released as a precinct as first report of the night,100,23708,>98%,>98% reported,edison,2,unknown,,17630,,,18721,5615,266,34,10,15673,4932,203,25,7,2020-11-16T15:48:07Z,53.17699,R+53,Trump +53,republican,53.17699,19204,56.5,16796,54.59,texas,2020-11-18T00:44:36.075698Z
48055,Caldwell,14775,12320,30,32,Released as a precinct as first report of the night,100,14280,>98%,>98% reported,edison,2,unknown,,10580,,,7975,6536,185,46,33,6577,5550,141,31,21,2020-11-16T15:48:10Z,9.73942,R+10,Trump +10,republican,9.73942,12178,15.6,11068,11.11,texas,2020-11-18T00:44:36.075698Z
48057,Calhoun,7853,5695,23,26,Released as a precinct as first report of the night,95,8225,95%,95% reported,edison,2,unknown,,5674,,,5640,2146,61,6,,3878,1769,43,5,,2020-11-16T15:48:11Z,44.49255,R+44,Trump +44,republican,44.49255,6974,36.1,6648,26.08,texas,2020-11-18T00:44:36.075698Z
48059,Callahan,6826,5495,8,8,Released as a precinct as first report of the night,100,6589,>98%,>98% reported,edison,2,unknown,,4184,,,6006,734,71,15,,4819,623,43,10,,2020-11-16T15:48:13Z,77.2341,R+77,Trump +77,republican,77.2341,5579,77,5197,69.79,texas,2020-11-18T00:44:36.075698Z
48061,Cameron,113789,95867,99,104,Released as a precinct as first report of the night,95,119703,95%,95% reported,edison,4,some,,71585,,,48834,63732,725,334,164,40303,54592,574,275,123,2020-11-16T15:48:14Z,13.09265,D+13,Biden +13,democrat,-13.09265,92665,-32.3,76895,-31.05,texas,2020-11-18T00:44:36.075698Z
48063,Camp,5057,4296,4,5,Released as a precinct as first report of the night,94,5364,94%,94% reported,edison,2,unknown,,4295,,,3626,1392,31,7,1,3119,1147,24,5,1,2020-11-16T15:48:15Z,44.17639,R+44,Trump +44,republican,44.17639,4542,42.7,4335,33.52,texas,2020-11-18T00:44:36.075698Z
48065,Carson,3081,1895,7,9,Released as a precinct as first report of the night,84,3659,84%,84% reported,edison,2,unknown,,1767,,,2747,289,36,3,6,1649,216,23,2,5,2020-11-16T15:48:16Z,79.77929,R+80,Trump +80,republican,79.77929,2964,80,2778,77.72,texas,2020-11-18T00:44:36.075698Z
48067,Cass,13856,10773,16,19,Released as a precinct as first report of the night,95,14577,95%,95% reported,edison,2,unknown,,8478,,,10979,2777,79,17,4,8424,2281,56,10,2,2020-11-16T15:48:17Z,59.19457,R+59,Trump +59,republican,59.19457,12344,59.4,11788,49.53,texas,2020-11-18T00:44:36.075698Z
48069,Castro,2082,1106,7,9,Released as a precinct as first report of the night,76,2755,76%,76% reported,edison,2,unknown,,1417,,,1601,466,9,6,,834,269,2,1,,2020-11-16T15:48:18Z,54.51489,R+55,Trump +55,republican,54.51489,1997,44.5,2119,39.64,texas,2020-11-18T00:44:36.075698Z
48071,Chambers,21641,19074,15,15,Released as a precinct as first report of the night,100,19823,>98%,>98% reported,edison,2,some,,17808,,,17343,3997,250,49,2,15380,3457,201,34,2,2020-11-16T15:48:20Z,61.66998,R+62,Trump +62,republican,61.66998,16836,61.7,14735,61.06,texas,2020-11-18T00:44:36.075698Z
48073,Cherokee,19457,15460,22,25,Released as a precinct as first report of the night,98,19827,98%,98% reported,edison,2,unknown,,16073,,,15065,4196,160,36,,11818,3502,116,24,,2020-11-16T15:48:21Z,55.86164,R+56,Trump +56,republican,55.86164,16790,56.3,16126,50.97,texas,2020-11-18T00:44:36.075698Z
48075,Childress,2259,1785,4,5,Released as a precinct as first report of the night,92,2461,92%,92% reported,edison,2,unknown,,1817,,,1928,305,18,8,0,1525,244,12,4,0,2020-11-16T15:48:22Z,71.84595,R+72,Trump +72,republican,71.84595,2084,74.3,1996,67.38,texas,2020-11-18T00:44:36.075698Z
48077,Clay,5736,4166,14,17,Released as a precinct as first report of the night,96,5971,96%,96% reported,edison,2,unknown,,3005,,,5064,614,46,12,,3659,474,28,5,,2020-11-16T15:48:23Z,77.5802,R+78,Trump +78,republican,77.5802,5018,76.5,5057,69.73,texas,2020-11-18T00:44:36.075698Z
48079,Cochran,996,676,3,4,Released as a precinct as first report of the night,84,1192,84%,84% reported,edison,2,unknown,,604,,,806,176,11,3,0,550,118,5,3,0,2020-11-16T15:48:24Z,63.25301,R+63,Trump +63,republican,63.25301,901,54.3,917,42.86,texas,2020-11-18T00:44:36.075698Z
48081,Coke,1794,1278,5,5,Released as a precinct as first report of the night,100,1681,>98%,>98% reported,edison,2,unknown,,1206,,,1565,215,9,5,,1104,168,4,2,,2020-11-16T15:48:25Z,75.25084,R+75,Trump +75,republican,75.25084,1423,79.1,1408,73.79,texas,2020-11-18T00:44:36.075698Z
48083,Coleman,4128,3553,4,5,Released as a precinct as first report of the night,96,4302,96%,96% reported,edison,2,some,,3691,,,3640,451,23,9,5,3128,394,19,7,5,2020-11-16T15:48:26Z,77.25291,R+77,Trump +77,republican,77.25291,3643,76.6,3492,73.6,texas,2020-11-18T00:44:36.075698Z
48085,Collin,492216,455693,240,240,Released as a precinct as first report of the night,100,486391,>98%,>98% reported,edison,6,unknown,,368567,,,252318,230945,6075,1246,1632,231854,216264,5131,1051,1393,2020-11-16T15:48:26Z,4.3422,R+4,Trump +4,republican,4.3422,364430,16.6,302821,31.53,texas,2020-11-18T00:44:36.075698Z
48087,Collingsworth,1218,845,6,8,Released as a precinct as first report of the night,89,1365,89%,89% reported,edison,2,unknown,,1021,,,1048,155,12,1,2,724,112,8,1,0,2020-11-16T15:48:27Z,73.31691,R+73,Trump +73,republican,73.31691,1156,72.5,1150,68.26,texas,2020-11-18T00:44:36.075698Z
48089,Colorado,9912,8022,4,5,Released as a precinct as first report of the night,99,10053,>98%,>98% reported,edison,2,some,,6404,,,7440,2403,49,19,1,5894,2076,38,14,0,2020-11-16T15:48:28Z,50.81719,R+51,Trump +51,republican,50.81719,8513,51,8117,49.24,texas,2020-11-18T00:44:36.075698Z
48091,Comal,87942,79588,30,30,Released as a precinct as first report of the night,100,87942,>98%,>98% reported,edison,6,unknown,,64101,,,62260,24369,1094,190,29,56111,22457,843,155,22,2020-11-16T15:48:28Z,43.08635,R+43,Trump +43,republican,43.08635,62178,49.7,51529,54.08,texas,2020-11-18T00:44:36.075698Z
48093,Comanche,6084,4680,13,15,Released as a precinct as first report of the night,98,6184,98%,98% reported,edison,2,unknown,,4034,,,5177,852,49,5,1,3965,686,26,2,1,2020-11-16T15:48:29Z,71.0881,R+71,Trump +71,republican,71.0881,5237,67.7,4906,62.25,texas,2020-11-18T00:44:36.075698Z
48095,Concho,1268,783,8,9,Released as a precinct as first report of the night,100,1261,>98%,>98% reported,edison,2,unknown,,569,,,1058,197,10,3,,636,138,7,2,,2020-11-16T15:48:30Z,67.90221,R+68,Trump +68,republican,67.90221,1068,69,1001,59.84,texas,2020-11-18T00:44:36.075698Z
48097,Cooke,18966,13630,27,30,Released as a precinct as first report of the night,100,18842,>98%,>98% reported,edison,2,some,,10395,,,15579,3205,156,26,,10956,2555,100,19,,2020-11-16T15:48:30Z,65.24307,R+65,Trump +65,republican,65.24307,15955,67.9,14351,67.63,texas,2020-11-18T00:44:36.075698Z
48099,Coryell,23425,19277,16,16,Released as a precinct as first report of the night,100,21555,>98%,>98% reported,edison,2,some,,16701,,,15397,7542,406,77,3,12453,6479,285,57,3,2020-11-16T15:48:31Z,33.53255,R+34,Trump +34,republican,33.53255,18253,39.2,16604,36.51,texas,2020-11-18T00:44:36.075698Z
48101,Cottle,665,492,4,5,Released as a precinct as first report of the night,69,963,69%,69% reported,edison,2,unknown,,690,,,543,113,6,3,,399,88,4,1,,2020-11-16T15:48:32Z,64.66165,R+65,Trump +65,republican,64.66165,612,67.6,741,50.61,texas,2020-11-18T00:44:36.075698Z
48103,Crane,1503,1086,3,4,Released as a precinct as first report of the night,84,1799,84%,84% reported,edison,2,unknown,,1280,,,1247,241,10,4,1,906,170,7,2,1,2020-11-16T15:48:32Z,66.9328,R+67,Trump +67,republican,66.9328,1384,54.2,1283,55.34,texas,2020-11-18T00:44:36.075698Z
48105,Crockett,1573,1212,4,5,Released as a precinct as first report of the night,83,1894,83%,83% reported,edison,2,unknown,,1379,,,1219,344,9,1,,939,269,4,0,,2020-11-16T15:48:33Z,55.62619,R+56,Trump +56,republican,55.62619,1395,43.6,1457,32.74,texas,2020-11-18T00:44:36.075698Z
48107,Crosby,1953,1221,4,5,Released as a precinct as first report of the night,93,2110,93%,93% reported,edison,2,unknown,,1368,,,1396,527,22,8,,868,337,12,4,,2020-11-16T15:48:33Z,44.49565,R+44,Trump +44,republican,44.49565,1728,41.3,1787,27.59,texas,2020-11-18T00:44:36.075698Z
48109,Culberson,864,558,5,6,Released as a precinct as first report of the night,76,1143,76%,76% reported,edison,2,unknown,,681,,,415,438,9,2,,256,297,4,1,,2020-11-16T15:48:34Z,2.66204,D+3,Biden +3,democrat,-2.66204,767,-22.7,879,-31.06,texas,2020-11-18T00:44:36.075698Z
48111,Dallam,1605,1029,8,10,Released as a precinct as first report of the night,88,1823,88%,88% reported,edison,2,unknown,,954,,,1386,196,18,5,,889,128,8,4,,2020-11-16T15:48:34Z,74.1433,R+74,Trump +74,republican,74.1433,1544,67.3,1534,64.86,texas,2020-11-18T00:44:36.075698Z
48113,Dallas,921638,800089,1092,1170,Released as a precinct as first report of the night,93,986665,93%,93% reported,edison,4,some,,739551,,,307076,598576,9635,3667,2684,261349,526075,7250,2731,2684,2020-11-16T15:48:34Z,31.62847,D+32,Biden +32,democrat,-31.62847,765682,-25.9,710117,-15.46,texas,2020-11-18T00:44:36.075698Z
48115,Dawson,3789,2918,8,10,Released as a precinct as first report of the night,88,4301,88%,88% reported,edison,2,unknown,,3346,,,2951,808,25,5,,2307,589,18,4,,2020-11-16T15:48:35Z,56.55846,R+57,Trump +57,republican,56.55846,3563,50.5,3642,43.16,texas,2020-11-18T00:44:36.075698Z
48123,De Witt,8118,6229,9,10,Released as a precinct as first report of the night,100,8082,>98%,>98% reported,edison,2,unknown,,5965,,,6567,1494,46,11,0,5000,1187,35,7,0,2020-11-16T15:48:35Z,62.49076,R+62,Trump +62,republican,62.49076,6844,63.6,6638,55.06,texas,2020-11-18T00:44:36.075698Z
48117,Deaf Smith,4608,3634,4,5,Released as a precinct as first report of the night,82,5602,82%,82% reported,edison,2,unknown,,739,,,3293,1263,35,17,,2672,925,23,14,,2020-11-16T15:48:35Z,44.05382,R+44,Trump +44,republican,44.05382,4216,40.9,4309,41.84,texas,2020-11-18T00:44:36.075698Z
48119,Delta,2587,1829,7,8,Released as a precinct as first report of the night,96,2693,96%,96% reported,edison,2,unknown,,1505,,,2157,403,24,3,,1485,327,15,2,,2020-11-16T15:48:35Z,67.80054,R+68,Trump +68,republican,67.80054,2281,63,2018,53.02,texas,2020-11-18T00:44:36.075698Z
48121,Denton,417964,384152,186,186,Released as a precinct as first report of the night,100,416610,>98%,>98% reported,edison,6,all,,280830,,,222480,188695,5421,1092,276,203281,175169,4546,917,239,2020-11-16T19:21:54Z,8.08323,R+8,Trump +8,republican,8.08323,298645,20,242781,31.55,texas,2020-11-18T00:44:36.075698Z
48125,Dickens,985,676,6,7,Released as a precinct as first report of the night,74,1325,74%,74% reported,edison,2,unknown,,846,,,850,130,3,2,0,586,87,2,1,0,2020-11-16T15:48:35Z,73.09645,R+73,Trump +73,republican,73.09645,909,69,1019,56.62,texas,2020-11-18T00:44:36.075698Z
48127,Dimmit,3666,2455,7,8,Released as a precinct as first report of the night,87,4193,87%,87% reported,edison,2,unknown,,2084,,,1384,2264,10,8,,852,1592,8,3,,2020-11-16T15:48:36Z,24.00436,D+24,Biden +24,democrat,-24.00436,3225,-37.2,2917,-47.27,texas,2020-11-18T00:44:36.075698Z
48129,Donley,1648,1158,6,7,Released as a precinct as first report of the night,91,1811,91%,91% reported,edison,2,unknown,,1330,,,1438,198,11,1,,1009,143,6,0,,2020-11-16T15:48:36Z,75.24272,R+75,Trump +75,republican,75.24272,1465,70.6,1535,69.12,texas,2020-11-18T00:44:36.075698Z
48131,Duval,5050,5050,9,10,Released as a precinct as first report of the night,89,5647,89%,89% reported,edison,2,unknown,,4122,,,2442,2573,22,13,0,2442,2573,22,13,0,2020-11-16T15:48:36Z,2.59406,D+3,Biden +3,democrat,-2.59406,4168,-35.2,4344,-54.12,texas,2020-11-18T00:44:36.075698Z
48133,Eastland,8271,6521,9,10,Released as a precinct as first report of the night,100,8223,>98%,>98% reported,edison,2,unknown,,5907,,,7216,982,60,12,1,5683,792,35,10,1,2020-11-16T15:48:36Z,75.37178,R+75,Trump +75,republican,75.37178,6963,75.2,6495,68.88,texas,2020-11-18T00:44:36.075698Z
48135,Ector,44417,35430,38,41,Released as a precinct as first report of the night,100,43138,>98%,>98% reported,edison,2,unknown,,35298,,,32586,11310,428,89,4,25867,9211,292,56,4,2020-11-16T15:48:36Z,47.90058,R+48,Trump +48,republican,47.90058,36530,40.4,32513,48.88,texas,2020-11-18T00:44:36.075698Z
48137,Edwards,1064,773,4,5,Released as a precinct as first report of the night,84,1267,84%,84% reported,edison,2,unknown,,827,,,893,166,5,0,,646,125,2,0,,2020-11-16T15:48:36Z,68.32707,R+68,Trump +68,republican,68.32707,1073,41.3,884,46.38,texas,2020-11-18T00:44:36.075698Z
48141,El Paso,254576,208372,191,209,Released as a precinct as first report of the night,92,278210,92%,92% reported,edison,2,some,,157724,,,81235,168801,2592,1401,547,64255,141211,1889,1017,0,2020-11-16T15:48:37Z,34.3968,D+34,Biden +34,democrat,-34.3968,215922,-42.8,172412,-32.37,texas,2020-11-18T00:44:36.075698Z
48139,Ellis,85566,75249,50,50,Released as a precinct as first report of the night,100,85566,>98%,>98% reported,edison,6,all,,56843,,,56651,27513,951,220,231,49647,24503,734,168,197,2020-11-16T15:48:36Z,34.05325,R+34,Trump +34,republican,34.05325,64110,44.7,54151,47.45,texas,2020-11-18T00:44:36.075698Z
48143,Erath,16837,13626,21,22,Released as a precinct as first report of the night,98,17152,98%,98% reported,edison,2,unknown,,13085,,,13669,2914,217,35,2,11028,2407,164,26,1,2020-11-16T15:48:37Z,63.87718,R+64,Trump +64,republican,63.87718,13893,65.1,12473,67.06,texas,2020-11-18T00:44:36.075698Z
48145,Falls,6133,3683,12,13,Released as a precinct as first report of the night,96,6415,96%,96% reported,edison,2,unknown,,3515,,,4177,1899,44,13,,2342,1306,27,8,,2020-11-16T15:48:37Z,37.14332,R+37,Trump +37,republican,37.14332,5248,33.5,5434,24.35,texas,2020-11-18T00:44:36.075698Z
48147,Fannin,14969,11041,16,17,Released as a precinct as first report of the night,100,14223,>98%,>98% reported,edison,2,unknown,,8408,,,12150,2638,155,23,3,8804,2124,94,16,3,2020-11-16T15:48:37Z,63.54466,R+64,Trump +64,republican,63.54466,12044,61.6,10804,52.53,texas,2020-11-18T00:44:36.075698Z
48149,Fayette,12924,9289,24,27,Released as a precinct as first report of the night,98,13195,98%,98% reported,edison,2,unknown,,7646,,,10163,2650,83,26,2,7185,2032,53,17,2,2020-11-16T15:48:37Z,58.13216,R+58,Trump +58,republican,58.13216,11174,59.1,10551,54.89,texas,2020-11-18T00:44:36.075698Z
48151,Fisher,1826,1304,4,5,Released as a precinct as first report of the night,89,2042,89%,89% reported,edison,2,unknown,,1044,,,1448,352,21,5,,1022,262,17,3,,2020-11-16T15:48:37Z,60.02191,R+60,Trump +60,republican,60.02191,1729,49.9,1629,35.73,texas,2020-11-18T00:44:36.075698Z
48153,Floyd,2035,1663,6,7,Released as a precinct as first report of the night,83,2463,83%,83% reported,edison,2,unknown,,2191,,,1581,437,15,2,,1314,339,8,2,,2020-11-16T15:48:37Z,56.21622,R+56,Trump +56,republican,56.21622,1959,53,2085,46.62,texas,2020-11-18T00:44:36.075698Z
48155,Foard,551,412,4,5,Released as a precinct as first report of the night,83,667,83%,83% reported,edison,2,unknown,,398,,,445,99,6,1,,332,76,3,1,,2020-11-16T15:48:38Z,62.79492,R+63,Trump +63,republican,62.79492,513,52.6,495,42.02,texas,2020-11-18T00:44:36.075698Z
48157,Fort Bend,357833,327278,160,160,Released as a precinct as first report of the night,100,340686,>98%,>98% reported,edison,2,unknown,,267057,,,157595,195191,3019,1089,939,143623,180197,2555,903,0,2020-11-16T15:48:38Z,10.50658,D+11,Biden +11,democrat,-10.50658,262066,-6.6,219489,6.83,texas,2020-11-18T00:44:36.075698Z
48159,Franklin,5000,3938,8,9,Released as a precinct as first report of the night,92,5407,92%,92% reported,edison,2,unknown,,3878,,,4153,803,36,8,,3246,661,24,7,,2020-11-16T15:48:38Z,67,R+67,Trump +67,republican,67,4380,66.7,4257,63.31,texas,2020-11-18T00:44:36.075698Z
48161,Freestone,8678,6531,14,16,Released as a precinct as first report of the night,96,9074,96%,96% reported,edison,2,unknown,,7301,,,6966,1629,65,18,,5175,1313,33,10,,2020-11-16T15:48:38Z,61.50035,R+62,Trump +62,republican,61.50035,7684,59.3,7570,50.15,texas,2020-11-18T00:44:36.075698Z
48163,Frio,5264,3707,9,10,Released as a precinct as first report of the night,92,5720,92%,92% reported,edison,2,some,,2129,,,2812,2421,23,8,0,1865,1825,11,6,0,2020-11-16T15:48:39Z,7.42781,R+7,Trump +7,republican,7.42781,4400,-13.4,3968,-20.59,texas,2020-11-18T00:44:36.075698Z
48165,Gaines,5960,5217,9,9,Released as a precinct as first report of the night,100,5456,>98%,>98% reported,edison,2,unknown,,3944,,,5323,572,54,10,1,4709,463,37,7,1,2020-11-16T15:48:40Z,79.71477,R+80,Trump +80,republican,79.71477,4620,71.6,4066,72.53,texas,2020-11-18T00:44:36.075698Z
48167,Galveston,153843,139837,90,93,Released as a precinct as first report of the night,100,151732,>98%,>98% reported,edison,2,unknown,,137290,,,93306,58247,1899,391,,84668,53326,1533,310,,2020-11-16T15:48:41Z,22.78882,R+23,Trump +23,republican,22.78882,122903,24.5,110078,26.84,texas,2020-11-18T00:44:36.075698Z
48169,Garza,1651,1235,6,7,Released as a precinct as first report of the night,90,1842,90%,90% reported,edison,2,unknown,,1568,,,1411,231,5,4,,1058,169,4,4,,2020-11-16T15:48:41Z,71.47184,R+71,Trump +71,republican,71.47184,1484,67,1560,63.08,texas,2020-11-18T00:44:36.075698Z
48171,Gillespie,15817,12665,13,14,Released as a precinct as first report of the night,94,16761,94%,94% reported,edison,2,unknown,,13119,,,12495,3163,139,16,4,9747,2799,105,12,2,2020-11-16T15:48:41Z,58.99981,R+59,Trump +59,republican,58.99981,13214,61.7,12550,65.75,texas,2020-11-18T00:44:36.075698Z
48173,Glasscock,653,487,4,5,Released as a precinct as first report of the night,83,785,83%,83% reported,edison,2,unknown,,495,,,611,39,3,0,,454,32,1,0,,2020-11-16T15:47:44Z,87.59571,R+88,Trump +88,republican,87.59571,604,85.9,578,83.39,texas,2020-11-18T00:44:36.075698Z
48175,Goliad,3978,2901,8,10,Released as a precinct as first report of the night,91,4378,91%,91% reported,edison,2,unknown,,3358,,,3081,872,23,2,,2212,676,12,1,,2020-11-16T15:47:47Z,55.53042,R+56,Trump +56,republican,55.53042,3708,44.4,3458,33.75,texas,2020-11-18T00:44:36.075698Z
48177,Gonzales,7534,6010,15,16,Released as a precinct as first report of the night,100,7480,>98%,>98% reported,edison,2,unknown,,5788,,,5568,1894,57,14,1,4430,1532,37,10,1,2020-11-16T15:47:49Z,48.7656,R+49,Trump +49,republican,48.7656,6349,47.5,6057,40.27,texas,2020-11-18T00:44:36.075698Z
48179,Gray,7745,5742,6,8,Released as a precinct as first report of the night,89,8745,89%,89% reported,edison,2,unknown,,7277,,,6812,820,97,16,,5032,633,65,12,,2020-11-16T15:47:50Z,77.36604,R+77,Trump +77,republican,77.36604,7405,78.3,7389,75.21,texas,2020-11-18T00:44:36.075698Z
48181,Grayson,58760,50301,35,37,Released as a precinct as first report of the night,100,55994,>98%,>98% reported,edison,2,unknown,,43337,,,43776,14223,625,136,,37244,12511,460,86,,2020-11-16T15:47:51Z,50.29442,R+50,Trump +50,republican,50.29442,47416,52.8,42264,47.95,texas,2020-11-18T00:44:36.075698Z
48183,Gregg,47700,42687,19,22,Released as a precinct as first report of the night,97,49302,97%,97% reported,edison,4,all,,51605,,,32352,14657,550,113,28,29048,13102,424,92,21,2020-11-16T15:47:52Z,37.09644,R+37,Trump +37,republican,37.09644,41749,40.9,41507,39.38,texas,2020-11-18T00:44:36.075698Z
48185,Grimes,12398,9508,15,15,Released as a precinct as first report of the night,100,11258,>98%,>98% reported,edison,2,unknown,,7009,,,9419,2831,118,29,1,7142,2276,69,20,1,2020-11-16T15:47:54Z,53.1376,R+53,Trump +53,republican,53.1376,9533,51.1,8601,44.2,texas,2020-11-18T00:44:36.075698Z
48187,Guadalupe,77382,68026,72,72,Released as a precinct as first report of the night,100,71385,>98%,>98% reported,edison,2,some,,55597,,,47423,28706,1016,211,26,41279,25777,781,166,23,2020-11-16T15:47:56Z,24.1878,R+24,Trump +24,republican,24.1878,58123,31.4,49514,35.09,texas,2020-11-18T00:44:36.075698Z
48189,Hale,9560,7496,26,31,Released as a precinct as first report of the night,91,10460,91%,91% reported,edison,2,unknown,,8534,,,7162,2271,96,31,,5722,1687,65,22,,2020-11-16T15:47:57Z,51.16109,R+51,Trump +51,republican,51.16109,8858,48.1,8854,47.97,texas,2020-11-18T00:44:36.075698Z
48191,Hall,1165,808,4,5,Released as a precinct as first report of the night,89,1308,89%,89% reported,edison,2,unknown,,871,,,992,167,4,1,1,684,120,3,0,1,2020-11-16T15:47:59Z,70.81545,R+71,Trump +71,republican,70.81545,1091,66.8,1109,51.13,texas,2020-11-18T00:44:36.075698Z
48193,Hamilton,4347,3304,11,12,Released as a precinct as first report of the night,100,4275,>98%,>98% reported,edison,2,unknown,,3191,,,3613,641,52,40,1,2717,509,40,37,1,2020-11-16T15:48:00Z,68.36899,R+68,Trump +68,republican,68.36899,3620,71.3,3552,65.51,texas,2020-11-18T00:44:36.075698Z
48195,Hansford,2046,1363,6,8,Released as a precinct as first report of the night,88,2317,88%,88% reported,edison,2,unknown,,1429,,,1848,166,27,3,2,1237,110,13,2,1,2020-11-16T15:48:01Z,82.20919,R+82,Trump +82,republican,82.20919,1947,80.1,1962,83.03,texas,2020-11-18T00:44:36.075698Z
48197,Hardeman,1580,1014,3,4,Released as a precinct as first report of the night,88,1787,88%,88% reported,edison,2,unknown,,1239,,,1330,241,9,0,,836,173,5,0,,2020-11-16T15:48:02Z,68.92405,R+69,Trump +69,republican,68.92405,1513,63.3,1495,58.46,texas,2020-11-18T00:44:36.075698Z
48199,Hardin,27555,22767,19,20,Released as a precinct as first report of the night,100,26901,>98%,>98% reported,edison,2,unknown,,18988,,,23806,3449,273,27,,19557,2993,200,17,,2020-11-16T15:48:03Z,73.8777,R+74,Trump +74,republican,73.8777,22780,73.9,21297,67.55,texas,2020-11-18T00:44:36.075698Z
48201,Harris,1640818,1439920,974,1013,Released as a precinct as first report of the night,96,1705746,96%,96% reported,edison,2,some,,1267589,,,700630,918193,16819,5129,47,607230,815717,13033,3900,40,2020-11-16T20:02:47Z,13.25942,D+13,Biden +13,democrat,-13.25942,1312112,-12.3,1188585,-0.08,texas,2020-11-18T00:44:36.075698Z
48203,Harrison,29462,25555,23,27,Released as a precinct as first report of the night,94,31350,94%,94% reported,edison,2,some,,29321,,,21318,7812,290,42,,18389,6915,215,36,,2020-11-16T15:48:05Z,45.8421,R+46,Trump +46,republican,45.8421,26548,43.7,26170,34.6,texas,2020-11-18T00:44:36.075698Z
48205,Hartley,2076,1622,6,7,Released as a precinct as first report of the night,90,2305,90%,90% reported,edison,2,unknown,,1711,,,1866,195,14,1,,1460,151,10,1,,2020-11-16T15:48:06Z,80.49133,R+80,Trump +80,republican,80.49133,1952,79.8,1913,79.67,texas,2020-11-18T00:44:36.075698Z
48207,Haskell,2211,1374,5,5,Released as a precinct as first report of the night,93,2374,93%,93% reported,edison,2,unknown,,1208,,,1837,353,15,6,,1129,233,6,6,,2020-11-16T15:48:09Z,67.11895,R+67,Trump +67,republican,67.11895,1770,61.5,2013,43.27,texas,2020-11-18T00:44:36.075698Z
48209,Hays,108822,98242,69,69,Released as a precinct as first report of the night,100,91536,>98%,>98% reported,edison,2,some,,65929,,,47427,59213,1729,415,38,42289,54200,1395,325,33,2020-11-16T15:48:11Z,10.83053,D+11,Biden +11,democrat,-10.83053,72164,0.8,59011,10.38,texas,2020-11-18T00:44:36.075698Z
48211,Hemphill,1720,1175,7,9,Released as a precinct as first report of the night,86,2002,86%,86% reported,edison,2,unknown,,1081,,,1486,206,25,3,0,1007,153,15,0,0,2020-11-16T15:48:12Z,74.4186,R+74,Trump +74,republican,74.4186,1704,75.2,1509,73.29,texas,2020-11-18T00:44:36.075698Z
48213,Henderson,36197,29705,26,28,Released as a precinct as first report of the night,100,35481,>98%,>98% reported,edison,2,unknown,,26045,,,28816,7048,259,74,0,23519,5964,176,46,0,2020-11-16T15:48:14Z,60.13758,R+60,Trump +60,republican,60.13758,30045,59.8,27627,54.75,texas,2020-11-18T00:44:36.075698Z
48215,Hidalgo,220884,188351,251,256,Released as a precinct as first report of the night,98,225468,98%,98% reported,edison,2,some,,168180,,,90527,128199,1261,865,32,75345,111251,1013,722,20,2020-11-16T20:59:09Z,17.05511,D+17,Biden +17,democrat,-17.05511,174408,-40.2,139159,-41.75,texas,2020-11-18T00:44:36.075698Z
48217,Hill,14843,9632,19,22,Released as a precinct as first report of the night,100,14843,>98%,>98% reported,edison,6,all,,8740,,,11869,2829,119,26,,7506,2033,78,15,,2020-11-16T15:48:16Z,60.90413,R+61,Trump +61,republican,60.90413,12970,58.3,12045,52.97,texas,2020-11-18T00:44:36.075698Z
48219,Hockley,8091,6315,13,15,Released as a precinct as first report of the night,94,8633,94%,94% reported,edison,2,unknown,,6866,,,6534,1481,60,16,,5114,1157,35,9,,2020-11-16T15:48:17Z,62.45211,R+62,Trump +62,republican,62.45211,7311,62.2,7134,56.91,texas,2020-11-18T00:44:36.075698Z
48221,Hood,32580,25625,16,16,Released as a precinct as first report of the night,100,32582,>98%,>98% reported,edison,6,some,,23816,,,26487,5641,318,71,63,20646,4733,188,49,9,2020-11-16T15:48:18Z,63.98404,R+64,Trump +64,republican,63.98404,26262,66.2,22535,64.64,texas,2020-11-18T00:44:36.075698Z
48223,Hopkins,15932,12965,20,22,Released as a precinct as first report of the night,100,15987,>98%,>98% reported,edison,2,unknown,,12167,,,12713,3043,143,31,2,10311,2526,99,27,2,2020-11-16T15:48:19Z,60.69546,R+61,Trump +61,republican,60.69546,13538,60.5,12753,55.35,texas,2020-11-18T00:44:36.075698Z
48225,Houston,9425,7088,19,22,Released as a precinct as first report of the night,96,9864,96%,96% reported,edison,2,unknown,,7268,,,7050,2312,56,7,,5201,1846,39,2,,2020-11-16T15:48:20Z,50.27056,R+50,Trump +50,republican,50.27056,8353,50.6,8214,44.01,texas,2020-11-18T00:44:36.075698Z
48227,Howard,10043,8314,24,27,Released as a precinct as first report of the night,97,10301,97%,97% reported,edison,2,unknown,,8479,,,7899,2017,88,28,11,6512,1711,60,22,9,2020-11-16T15:48:22Z,58.56816,R+59,Trump +59,republican,58.56816,8723,55.8,8695,49.95,texas,2020-11-18T00:44:36.075698Z
48229,Hudspeth,1157,591,5,5,Released as a precinct as first report of the night,100,1132,>98%,>98% reported,edison,2,unknown,,355,,,771,371,10,5,,395,188,6,2,,2020-11-16T15:48:23Z,34.57217,R+35,Trump +35,republican,34.57217,871,20.6,863,10.66,texas,2020-11-18T00:44:36.075698Z
48231,Hunt,38517,28261,32,34,Released as a precinct as first report of the night,100,37262,>98%,>98% reported,edison,2,unknown,,22277,,,29135,8879,432,71,,21107,6864,249,41,,2020-11-16T15:48:24Z,52.58977,R+53,Trump +53,republican,52.58977,31554,55.5,28049,51.12,texas,2020-11-18T00:44:36.075698Z
48233,Hutchinson,8741,7006,7,9,Released as a precinct as first report of the night,91,9631,91%,91% reported,edison,2,unknown,,7976,,,7659,957,113,10,2,6150,772,76,6,2,2020-11-16T15:48:25Z,76.67315,R+77,Trump +77,republican,76.67315,8155,75.9,7928,72.64,texas,2020-11-18T00:44:36.075698Z
48235,Irion,889,670,4,5,Released as a precinct as first report of the night,87,1024,87%,87% reported,edison,2,unknown,,640,,,759,120,8,2,,569,93,6,2,,2020-11-16T15:48:26Z,71.87852,R+72,Trump +72,republican,71.87852,766,74.4,788,70.56,texas,2020-11-18T00:44:36.075698Z
48237,Jack,3779,2941,6,7,Released as a precinct as first report of the night,96,3956,96%,96% reported,edison,2,unknown,,2721,,,3415,331,24,9,,2643,276,16,6,,2020-11-16T15:48:27Z,81.60889,R+82,Trump +82,republican,81.60889,3350,79.4,2908,78.3,texas,2020-11-18T00:44:36.075698Z
48239,Jackson,6210,5098,9,10,Released as a precinct as first report of the night,99,6262,>98%,>98% reported,edison,2,unknown,,4125,,,5116,1018,51,23,2,4212,832,37,15,2,2020-11-16T15:48:27Z,65.99034,R+66,Trump +66,republican,65.99034,5302,63.4,5025,56.44,texas,2020-11-18T00:44:36.075698Z
48241,Jasper,15469,12707,19,21,Released as a precinct as first report of the night,97,15961,97%,97% reported,edison,2,unknown,,13365,,,12453,2906,101,6,3,10145,2484,72,4,2,2020-11-16T15:48:29Z,61.71698,R+62,Trump +62,republican,61.71698,13419,59.8,13517,48.34,texas,2020-11-18T00:44:36.075698Z
48243,Jeff Davis,1304,1039,5,6,Released as a precinct as first report of the night,86,1510,86%,86% reported,edison,2,unknown,,1320,,,783,501,17,3,,615,409,13,2,,2020-11-16T15:48:29Z,21.62577,R+22,Trump +22,republican,21.62577,1191,22.9,1192,23.41,texas,2020-11-18T00:44:36.075698Z
48245,Jefferson,94665,84167,116,140,Released as a precinct as first report of the night,90,104649,90%,90% reported,edison,2,all,,111555,,,47535,46022,891,197,20,42128,41177,687,157,18,2020-11-16T15:48:30Z,1.59827,R+1.6,Trump +1.6,republican,1.59827,87618,0.5,88627,-1.61,texas,2020-11-18T00:44:36.075698Z
48247,Jim Hogg,2034,1444,4,6,Released as a precinct as first report of the night,74,2755,74%,74% reported,edison,2,unknown,,974,,,831,1197,4,2,,500,940,2,2,,2020-11-16T15:48:31Z,17.9941,D+18,Biden +18,democrat,-17.9941,2119,-56.9,1667,-56.69,texas,2020-11-18T00:44:36.075698Z
48249,Jim Wells,13507,9935,18,22,Released as a precinct as first report of the night,84,16093,84%,84% reported,edison,2,unknown,,4321,,,7389,6025,65,28,,5252,4617,47,19,,2020-11-16T15:48:31Z,10.09847,R+10,Trump +10,republican,10.09847,12379,-10.3,11166,-16.96,texas,2020-11-18T00:44:36.075698Z
48251,Johnson,71928,61150,35,36,Released as a precinct as first report of the night,100,71928,>98%,>98% reported,edison,6,all,,51853,,,54523,16418,767,141,79,46104,14324,585,99,38,2020-11-16T15:48:32Z,52.97659,R+53,Trump +53,republican,52.97659,57606,58,48838,55.62,texas,2020-11-18T00:44:36.075698Z
48253,Jones,6691,4384,10,12,Released as a precinct as first report of the night,95,7038,95%,95% reported,edison,2,unknown,,3234,,,5621,989,62,19,,3626,710,36,12,,2020-11-16T15:48:33Z,69.22732,R+69,Trump +69,republican,69.22732,5960,65.2,5567,54.54,texas,2020-11-18T00:44:36.075698Z
48255,Karnes,5229,3671,14,15,Released as a precinct as first report of the night,100,4957,>98%,>98% reported,edison,2,unknown,,2303,,,3959,1220,30,17,3,2698,943,17,11,2,2020-11-16T15:48:33Z,52.38095,R+52,Trump +52,republican,52.38095,4198,43.4,4185,35.84,texas,2020-11-18T00:44:36.075698Z
48257,Kaufman,56435,48422,31,31,Released as a precinct as first report of the night,100,48730,>98%,>98% reported,edison,4,all,,36321,,,37474,18290,526,145,0,31791,16109,409,113,0,2020-11-16T15:48:34Z,33.99309,R+34,Trump +34,republican,33.99309,41265,46.8,34670,44.34,texas,2020-11-18T00:44:36.075698Z
48259,Kendall,26419,23524,11,11,Released as a precinct as first report of the night,100,25521,>98%,>98% reported,edison,2,unknown,,20363,,,20064,6008,288,46,13,17730,5534,220,32,8,2020-11-16T15:48:34Z,53.20413,R+53,Trump +53,republican,53.20413,20283,59.4,17783,64.47,texas,2020-11-18T00:44:36.075698Z
48261,Kenedy,194,129,5,6,Released as a precinct as first report of the night,80,242,80%,80% reported,edison,2,unknown,,104,,,127,65,1,1,,84,43,1,1,,2020-11-16T15:48:35Z,31.95876,R+32,Trump +32,republican,31.95876,186,-8.1,167,1.2,texas,2020-11-18T00:44:36.075698Z
48263,Kent,462,324,6,7,Released as a precinct as first report of the night,82,564,82%,82% reported,edison,2,unknown,,353,,,411,47,1,3,,279,44,0,1,,2020-11-16T15:48:35Z,78.78788,R+79,Trump +79,republican,78.78788,434,69.4,405,66.42,texas,2020-11-18T00:44:36.075698Z
48265,Kerr,27738,24064,19,21,Released as a precinct as first report of the night,96,28762,96%,96% reported,edison,4,unknown,,26771,,,20858,6510,283,51,36,17959,5816,217,36,36,2020-11-16T15:48:35Z,51.72687,R+52,Trump +52,republican,51.72687,23297,56,21879,59.13,texas,2020-11-18T00:44:36.075698Z
48267,Kimble,2292,1806,7,8,Released as a precinct as first report of the night,99,2305,>98%,>98% reported,edison,2,unknown,,1950,,,1987,284,17,4,,1570,223,11,2,,2020-11-16T15:48:35Z,74.30192,R+74,Trump +74,republican,74.30192,1952,76.4,1892,76.64,texas,2020-11-18T00:44:36.075698Z
48269,King,159,0,4,5,Released as a precinct as first report of the night,77,207,77%,77% reported,edison,2,unknown,,125,,,151,8,0,0,0,0,0,0,0,0,2020-11-16T15:48:35Z,89.93711,R+90,Trump +90,republican,89.93711,159,90.6,145,92.41,texas,2020-11-18T00:44:36.075698Z
48271,Kinney,1603,1327,3,4,Released as a precinct as first report of the night,86,1859,86%,86% reported,edison,2,unknown,,1498,,,1144,446,11,2,,939,379,8,1,,2020-11-16T15:48:35Z,43.54336,R+44,Trump +44,republican,43.54336,1430,33.4,1425,25.12,texas,2020-11-18T00:44:36.075698Z
48273,Kleberg,11041,8893,16,18,Released as a precinct as first report of the night,89,12366,89%,89% reported,edison,2,unknown,,8039,,,5557,5359,97,28,,4305,4493,77,18,,2020-11-16T15:48:36Z,1.79332,R+1.8,Trump +1.8,republican,1.79332,9587,-3.6,8907,-7.81,texas,2020-11-18T00:44:36.075698Z
48275,Knox,1456,772,6,7,Released as a precinct as first report of the night,82,1783,82%,82% reported,edison,2,unknown,,343,,,1180,265,7,4,,619,147,5,1,,2020-11-16T15:48:36Z,62.84341,R+63,Trump +63,republican,62.84341,1367,60.8,1510,54.83,texas,2020-11-18T00:44:36.075698Z
48283,La Salle,2406,1613,4,5,Released as a precinct as first report of the night,90,2677,90%,90% reported,edison,2,unknown,,1195,,,1335,1052,12,7,,865,739,6,3,,2020-11-16T15:48:36Z,11.76226,R+12,Trump +12,republican,11.76226,2059,-12.5,1646,-17.98,texas,2020-11-18T00:44:36.075698Z
48285,La Vaca,10195,7338,18,20,Released as a precinct as first report of the night,100,10228,>98%,>98% reported,edison,2,unknown,,5887,,,8802,1333,46,8,6,6274,1022,34,4,4,2020-11-16T15:48:37Z,73.2614,R+73,Trump +73,republican,73.2614,8665,71.3,8294,64.72,texas,2020-11-18T00:44:36.075698Z
48277,Lamar,21338,16690,24,27,Released as a precinct as first report of the night,100,21338,>98%,>98% reported,edison,6,unknown,,15300,,,16698,4420,169,27,24,12841,3699,114,15,21,2020-11-16T15:48:36Z,57.54054,R+58,Trump +58,republican,57.54054,18714,58.7,17197,50.27,texas,2020-11-18T00:44:36.075698Z
48279,Lamb,4394,3095,10,12,Released as a precinct as first report of the night,91,4831,91%,91% reported,edison,2,unknown,,2723,,,3513,835,38,7,1,2472,593,25,4,1,2020-11-16T15:48:36Z,60.94675,R+61,Trump +61,republican,60.94675,3995,58.6,4091,50.35,texas,2020-11-18T00:44:36.075698Z
48281,Lampasas,10373,8639,10,10,Released as a precinct as first report of the night,100,9690,>98%,>98% reported,edison,2,unknown,,6404,,,8070,2134,145,24,0,6651,1868,107,13,0,2020-11-16T15:48:36Z,57.22549,R+57,Trump +57,republican,57.22549,8205,59.7,7204,57.5,texas,2020-11-18T00:44:36.075698Z
48287,Lee,8075,6548,15,16,Released as a precinct as first report of the night,100,7718,>98%,>98% reported,edison,2,unknown,,5270,,,6248,1745,65,16,1,5021,1472,46,8,1,2020-11-16T15:48:37Z,55.76471,R+56,Trump +56,republican,55.76471,6558,55.3,6221,46.21,texas,2020-11-18T00:44:36.075698Z
48289,Leon,8672,5708,16,18,Released as a precinct as first report of the night,99,8785,>98%,>98% reported,edison,2,some,,4924,,,7522,1072,56,14,8,4910,752,33,10,3,2020-11-16T15:48:37Z,74.37731,R+74,Trump +74,republican,74.37731,7439,73.7,6945,68.42,texas,2020-11-18T00:44:36.075698Z
48291,Liberty,29314,24370,28,30,Released as a precinct as first report of the night,100,28657,>98%,>98% reported,edison,2,unknown,,23806,,,23288,5779,218,29,0,19555,4644,150,21,0,2020-11-16T15:48:37Z,59.72914,R+60,Trump +60,republican,59.72914,24267,57.8,22746,53.29,texas,2020-11-18T00:44:36.075698Z
48293,Limestone,9092,6885,19,21,Released as a precinct as first report of the night,99,9139,>98%,>98% reported,edison,2,unknown,,6531,,,6786,2213,66,27,,5037,1778,50,20,,2020-11-16T15:48:37Z,50.29696,R+50,Trump +50,republican,50.29696,7739,51.9,7563,40.72,texas,2020-11-18T00:44:36.075698Z
48295,Lipscomb,1351,568,5,7,Released as a precinct as first report of the night,86,1573,86%,86% reported,edison,2,unknown,,482,,,1203,131,17,0,,489,75,4,0,,2020-11-16T15:48:37Z,79.34863,R+79,Trump +79,republican,79.34863,1332,76.9,1168,79.2,texas,2020-11-18T00:44:36.075698Z
48297,Live Oak,5053,3438,14,15,Released as a precinct as first report of the night,99,5081,>98%,>98% reported,edison,2,unknown,,3171,,,4198,819,30,6,,2822,595,16,5,,2020-11-16T15:48:37Z,66.87117,R+67,Trump +67,republican,66.87117,4302,63.3,4113,54.34,texas,2020-11-18T00:44:36.075698Z
48299,Llano,13278,11919,10,10,Released as a precinct as first report of the night,100,12897,>98%,>98% reported,edison,2,unknown,,11573,,,9996,3167,99,16,,8861,2977,69,12,,2020-11-16T15:48:38Z,51.43094,R+51,Trump +51,republican,51.43094,10447,62,9558,60.56,texas,2020-11-18T00:44:36.075698Z
48301,Loving,66,45,4,5,Released as a precinct as first report of the night,78,85,78%,78% reported,edison,2,unknown,,56,,,60,4,2,0,,43,2,0,0,,2020-11-16T15:48:38Z,84.84848,R+85,Trump +85,republican,84.84848,65,83.1,64,70.31,texas,2020-11-18T00:44:36.075698Z
48303,Lubbock,120204,106281,92,98,Released as a precinct as first report of the night,100,120204,>98%,>98% reported,edison,6,all,,108791,,,78560,39757,1604,273,10,69740,35103,1223,205,10,2020-11-16T15:48:38Z,32.28096,R+32,Trump +32,republican,32.28096,99013,38,91184,40.79,texas,2020-11-18T00:44:36.075698Z
48305,Lynn,2293,2293,13,15,Released as a precinct as first report of the night,97,2373,97%,97% reported,edison,2,unknown,,1615,,,1853,428,10,2,0,1853,428,10,2,0,2020-11-16T15:48:38Z,62.14566,R+62,Trump +62,republican,62.14566,2009,56.9,1959,47.63,texas,2020-11-18T00:44:36.075698Z
48313,Madison,5289,4377,5,5,Released as a precinct as first report of the night,100,5065,>98%,>98% reported,edison,2,unknown,,4216,,,4165,1084,30,10,,3435,912,21,9,,2020-11-16T15:48:41Z,58.25298,R+58,Trump +58,republican,58.25298,4289,57.6,4028,51.17,texas,2020-11-18T00:44:36.075698Z
48315,Marion,4844,3723,9,10,Released as a precinct as first report of the night,96,5057,96%,96% reported,edison,2,unknown,,3462,,,3459,1331,46,8,,2607,1081,28,7,,2020-11-16T15:48:41Z,43.93064,R+44,Trump +44,republican,43.93064,4238,42.9,4282,28.91,texas,2020-11-18T00:44:36.075698Z
48317,Martin,2160,1710,6,6,Released as a precinct as first report of the night,100,2081,>98%,>98% reported,edison,2,unknown,,738,,,1857,288,13,2,,1483,217,9,1,,2020-11-16T15:48:41Z,72.63889,R+73,Trump +73,republican,72.63889,1762,67.5,1624,68.97,texas,2020-11-18T00:44:36.075698Z
48319,Mason,2700,2303,5,5,Released as a precinct as first report of the night,100,2429,>98%,>98% reported,edison,2,unknown,,2092,,,2108,566,19,2,5,1775,511,15,2,0,2020-11-16T15:48:41Z,57.11111,R+57,Trump +57,republican,57.11111,2057,63.3,1968,60.21,texas,2020-11-18T00:44:36.075698Z
48321,Matagorda,13710,10951,16,19,Released as a precinct as first report of the night,95,14402,95%,95% reported,edison,2,unknown,,12052,,,9836,3726,115,33,,7781,3065,79,26,,2020-11-16T15:48:41Z,44.56601,R+45,Trump +45,republican,44.56601,12196,39.9,12133,33.46,texas,2020-11-18T00:44:36.075698Z
48323,Maverick,15338,11383,14,14,Released as a precinct as first report of the night,87,17664,87%,87% reported,edison,2,unknown,,9456,,,6881,8324,73,60,0,4782,6504,54,43,0,2020-11-16T15:47:37Z,9.40801,D+9,Biden +9,democrat,-9.40801,13588,-55.8,10563,-58.05,texas,2020-11-18T00:44:36.075698Z
48307,McCulloch,3430,2668,3,4,Released as a precinct as first report of the night,94,3664,94%,94% reported,edison,2,unknown,,3128,,,2898,490,36,6,,2231,408,25,4,,2020-11-16T15:48:39Z,70.20408,R+70,Trump +70,republican,70.20408,3103,66.7,2993,62.88,texas,2020-11-18T00:44:36.075698Z
48309,McLennan,97617,80060,87,92,Released as a precinct as first report of the night,100,97624,>98%,>98% reported,edison,2,unknown,,70693,,,59432,36550,1291,243,101,47719,31185,904,177,75,2020-11-16T15:48:40Z,23.44059,R+23,Trump +23,republican,23.44059,79075,26.8,74541,29.79,texas,2020-11-18T00:44:36.075698Z
48311,McMullen,516,366,4,5,Released as a precinct as first report of the night,79,654,79%,79% reported,edison,2,unknown,,417,,,460,53,2,1,,337,27,2,0,,2020-11-16T15:48:41Z,78.87597,R+79,Trump +79,republican,78.87597,499,83,503,72.37,texas,2020-11-18T00:44:36.075698Z
48325,Medina,22568,19935,8,8,Released as a precinct as first report of the night,100,20366,>98%,>98% reported,edison,2,unknown,,18044,,,15599,6731,183,44,11,13809,5934,143,39,10,2020-11-16T15:47:45Z,39.29458,R+39,Trump +39,republican,39.29458,17246,43.2,16049,39.22,texas,2020-11-18T00:44:36.075698Z
48327,Menard,1023,798,6,7,Released as a precinct as first report of the night,91,1123,91%,91% reported,edison,2,unknown,,813,,,819,196,6,2,,632,160,5,1,,2020-11-16T15:47:46Z,60.89932,R+61,Trump +61,republican,60.89932,864,61.1,849,58.19,texas,2020-11-18T00:44:36.075698Z
48329,Midland,58752,49909,41,45,Released as a precinct as first report of the night,97,60756,97%,97% reported,edison,2,some,,52107,,,45463,12258,774,125,132,38631,10495,585,102,96,2020-11-16T15:47:47Z,56.51722,R+57,Trump +57,republican,56.51722,49212,54.8,44597,61.45,texas,2020-11-18T00:44:36.075698Z
48331,Milam,10523,8902,11,12,Released as a precinct as first report of the night,100,10231,>98%,>98% reported,edison,2,unknown,,7689,,,7950,2475,72,24,2,6732,2099,54,15,2,2020-11-16T15:47:48Z,52.02889,R+52,Trump +52,republican,52.02889,8664,49.8,8230,34.57,texas,2020-11-18T00:44:36.075698Z
48333,Mills,2502,1949,7,8,Released as a precinct as first report of the night,94,2652,94%,94% reported,edison,2,unknown,,2437,,,2214,271,15,2,,1711,228,9,1,,2020-11-16T15:47:50Z,77.65787,R+78,Trump +78,republican,77.65787,2245,76.1,2201,72.83,texas,2020-11-18T00:44:36.075698Z
48335,Mitchell,2578,1893,6,7,Released as a precinct as first report of the night,94,2735,94%,94% reported,edison,2,some,,2166,,,2169,397,11,1,,1591,294,8,0,,2020-11-16T15:47:51Z,68.73545,R+69,Trump +69,republican,68.73545,2196,64.9,2316,52.59,texas,2020-11-18T00:44:36.075698Z
48337,Montague,9812,8042,14,16,Released as a precinct as first report of the night,97,10160,97%,97% reported,edison,2,some,,582,,,8613,1097,78,24,,7020,938,64,20,,2020-11-16T15:47:52Z,76.60008,R+77,Trump +77,republican,76.60008,8604,77.2,7751,70.09,texas,2020-11-18T00:44:36.075698Z
48339,Montgomery,271175,236503,101,101,Released as a precinct as first report of the night,100,259565,>98%,>98% reported,edison,4,some,,200221,,,193224,74255,3161,522,13,167808,65877,2402,403,13,2020-11-16T15:47:53Z,43.87167,R+44,Trump +44,republican,43.87167,205904,50.7,173113,60.68,texas,2020-11-18T00:44:36.075698Z
48341,Moore,5502,3753,6,8,Released as a precinct as first report of the night,88,6240,88%,88% reported,edison,2,unknown,,3973,,,4356,1059,66,21,,3152,565,32,4,,2020-11-16T15:47:54Z,59.92366,R+60,Trump +60,republican,59.92366,5284,54.5,4985,60.26,texas,2020-11-18T00:44:36.075698Z
48343,Morris,5548,4130,8,9,Released as a precinct as first report of the night,91,6066,91%,91% reported,edison,2,unknown,,4099,,,3841,1664,36,7,,2805,1300,20,5,,2020-11-16T15:47:56Z,39.23937,R+39,Trump +39,republican,39.23937,4973,40.6,5139,26.74,texas,2020-11-18T00:44:36.075698Z
48345,Motley,652,443,6,7,Released as a precinct as first report of the night,82,800,82%,82% reported,edison,2,unknown,,503,,,604,46,2,0,,408,34,1,0,,2020-11-16T15:47:58Z,85.58282,R+86,Trump +86,republican,85.58282,615,85.5,600,80.5,texas,2020-11-18T00:44:36.075698Z
48347,Nacogdoches,26755,22394,24,26,Released as a precinct as first report of the night,96,27929,96%,96% reported,edison,2,unknown,,20976,,,17359,8989,302,83,22,14136,7953,222,67,16,2020-11-16T15:47:59Z,31.28387,R+31,Trump +31,republican,31.28387,22622,35,20653,36.12,texas,2020-11-18T00:44:36.075698Z
48349,Navarro,19105,14686,27,30,Released as a precinct as first report of the night,98,19406,98%,98% reported,edison,2,unknown,,13004,,,13787,5097,167,52,2,10041,4431,161,51,2,2020-11-16T15:48:00Z,45.48548,R+45,Trump +45,republican,45.48548,16433,48.6,15364,42.29,texas,2020-11-18T00:44:36.075698Z
48351,Newton,6096,4081,19,23,Released as a precinct as first report of the night,88,6911,88%,88% reported,edison,2,unknown,,3864,,,4882,1175,34,5,,3220,840,19,2,,2020-11-16T15:48:01Z,60.81037,R+61,Trump +61,republican,60.81037,5534,56.6,5869,41.49,texas,2020-11-18T00:44:36.075698Z
48353,Nolan,5352,3565,8,10,Released as a precinct as first report of the night,93,5736,93%,93% reported,edison,2,unknown,,3284,,,4127,1161,53,10,1,2690,839,28,7,1,2020-11-16T15:48:03Z,55.41854,R+55,Trump +55,republican,55.41854,4857,51.9,4575,45.16,texas,2020-11-18T00:44:36.075698Z
48355,Nueces,126984,110991,120,128,Released as a precinct as first report of the night,94,135727,94%,94% reported,edison,2,unknown,,100673,,,64467,60749,1394,368,6,55697,53921,1092,275,6,2020-11-16T15:48:04Z,2.92793,R+3,Trump +3,republican,2.92793,104405,1.5,96104,3.32,texas,2020-11-18T00:44:36.075698Z
48357,Ochiltree,3155,2242,4,5,Released as a precinct as first report of the night,89,3545,89%,89% reported,edison,2,unknown,,2376,,,2811,302,37,3,2,2006,204,28,3,1,2020-11-16T15:48:04Z,79.52456,R+80,Trump +80,republican,79.52456,3002,78.4,2993,82.39,texas,2020-11-18T00:44:36.075698Z
48359,Oldham,1009,623,7,8,Released as a precinct as first report of the night,82,1232,82%,82% reported,edison,2,unknown,,538,,,917,81,10,1,,578,40,5,0,,2020-11-16T15:48:06Z,82.85431,R+83,Trump +83,republican,82.85431,953,81,869,82.74,texas,2020-11-18T00:44:36.075698Z
48361,Orange,35974,30494,30,35,Released as a precinct as first report of the night,95,37789,95%,95% reported,edison,2,unknown,,33059,,,29170,6354,375,51,24,24655,5487,288,42,22,2020-11-16T15:48:08Z,63.42358,R+63,Trump +63,republican,63.42358,32000,61.8,30518,54.28,texas,2020-11-18T00:44:36.075698Z
48363,Palo Pinto,12478,9607,26,28,Released as a precinct as first report of the night,100,12128,>98%,>98% reported,edison,2,unknown,,7232,,,10170,2177,100,27,4,7703,1817,64,19,4,2020-11-16T15:48:10Z,64.05674,R+64,Trump +64,republican,64.05674,10270,64,9337,59.78,texas,2020-11-18T00:44:36.075698Z
48365,Panola,11452,8092,17,20,Released as a precinct as first report of the night,93,12300,93%,93% reported,edison,2,unknown,,9139,,,9322,2057,57,11,5,6518,1526,37,6,5,2020-11-16T15:48:12Z,63.4387,R+63,Trump +63,republican,63.4387,10416,63.5,10230,56.1,texas,2020-11-18T00:44:36.075698Z
48367,Parker,75434,65348,44,44,Released as a precinct as first report of the night,97,78000,97%,97% reported,edison,2,all,,50658,,,61584,12789,878,155,28,53181,11343,678,122,24,2020-11-16T15:48:13Z,64.68569,R+65,Trump +65,republican,64.68569,56817,67.1,47694,65.82,texas,2020-11-18T00:44:36.075698Z
48369,Parmer,2648,1316,8,10,Released as a precinct as first report of the night,80,3309,80%,80% reported,edison,2,unknown,,1526,,,2133,488,23,4,,1102,207,6,1,,2020-11-16T15:48:14Z,62.12236,R+62,Trump +62,republican,62.12236,2466,58,2554,58.03,texas,2020-11-18T00:44:36.075698Z
48371,Pecos,4662,3869,9,10,Released as a precinct as first report of the night,86,5441,86%,86% reported,edison,2,some,,4379,,,3213,1378,50,21,,2633,1184,36,16,,2020-11-16T15:48:15Z,39.36079,R+39,Trump +39,republican,39.36079,4185,21.8,4150,22.19,texas,2020-11-18T00:44:36.075698Z
48373,Polk,24072,20352,21,22,Released as a precinct as first report of the night,100,23444,>98%,>98% reported,edison,2,unknown,,22445,,,18496,5353,170,50,3,15525,4649,136,39,3,2020-11-16T15:48:16Z,54.5987,R+55,Trump +55,republican,54.5987,19852,55.4,19134,48.14,texas,2020-11-18T00:44:36.075698Z
48375,Potter,33177,26841,22,25,Released as a precinct as first report of the night,100,33177,>98%,>98% reported,edison,6,some,,24501,,,22732,9867,454,124,,18453,7985,317,86,,2020-11-16T15:48:17Z,38.77686,R+39,Trump +39,republican,38.77686,28831,41.5,26450,44.58,texas,2020-11-18T00:44:36.075698Z
48377,Presidio,2217,1806,6,8,Released as a precinct as first report of the night,77,2870,77%,77% reported,edison,2,unknown,,1723,,,721,1463,21,12,0,532,1249,17,8,0,2020-11-16T15:48:19Z,33.46865,D+33,Biden +33,democrat,-33.46865,2208,-36.5,1817,-42.82,texas,2020-11-18T00:44:36.075698Z
48379,Rains,6044,5032,9,9,Released as a precinct as first report of the night,100,5551,>98%,>98% reported,edison,2,unknown,,3940,,,5147,841,43,13,,4285,711,27,9,,2020-11-16T15:48:20Z,71.24421,R+71,Trump +71,republican,71.24421,4701,71,4087,61.61,texas,2020-11-18T00:44:36.075698Z
48381,Randall,64412,56094,23,23,Released as a precinct as first report of the night,94,68884,94%,94% reported,edison,4,all,,56579,,,50597,12750,908,127,30,44115,11171,686,93,29,2020-11-16T15:48:21Z,58.75768,R+59,Trump +59,republican,58.75768,54305,64.6,49696,68.16,texas,2020-11-18T00:44:36.075698Z
48383,Reagan,1124,902,5,5,Released as a precinct as first report of the night,96,1175,96%,96% reported,edison,2,unknown,,756,,,942,172,7,3,,753,142,4,3,,2020-11-16T15:48:23Z,68.50534,R+69,Trump +69,republican,68.50534,904,60,843,61.45,texas,2020-11-18T00:44:36.075698Z
48385,Real,1982,1638,5,6,Released as a precinct as first report of the night,100,1985,>98%,>98% reported,edison,2,unknown,,1530,,,1643,320,14,5,,1353,271,10,4,,2020-11-16T15:48:23Z,66.75076,R+67,Trump +67,republican,66.75076,1681,66.6,1535,62.48,texas,2020-11-18T00:44:36.075698Z
48387,Red River,5800,4263,17,20,Released as a precinct as first report of the night,95,6094,95%,95% reported,edison,2,unknown,,5311,,,4513,1244,36,7,0,3230,1008,21,4,0,2020-11-16T15:48:25Z,56.36207,R+56,Trump +56,republican,56.36207,5161,53.8,5074,40.74,texas,2020-11-18T00:44:36.075698Z
48389,Reeves,3683,2739,11,12,Released as a precinct as first report of the night,89,4139,89%,89% reported,edison,2,unknown,,2241,,,2249,1394,30,8,2,1583,1130,18,6,2,2020-11-16T15:48:26Z,23.21477,R+23,Trump +23,republican,23.21477,3184,-7.6,2877,-16.23,texas,2020-11-18T00:44:36.075698Z
48391,Refugio,3366,2532,10,11,Released as a precinct as first report of the night,97,3481,97%,97% reported,edison,2,unknown,,2120,,,2210,1108,26,21,1,1669,832,15,15,1,2020-11-16T15:48:26Z,32.73916,R+33,Trump +33,republican,32.73916,2948,27,2677,24.84,texas,2020-11-18T00:44:36.075698Z
48393,Roberts,550,364,4,5,Released as a precinct as first report of the night,76,720,76%,76% reported,edison,2,unknown,,399,,,529,17,4,0,,351,10,3,0,,2020-11-16T15:48:27Z,93.09091,R+93,Trump +93,republican,93.09091,554,91,508,85.63,texas,2020-11-18T00:44:36.075698Z
48395,Robertson,8080,6537,14,16,Released as a precinct as first report of the night,94,8605,94%,94% reported,edison,2,unknown,,7781,,,5631,2359,66,13,11,4586,1884,50,8,9,2020-11-16T15:48:28Z,40.49505,R+40,Trump +40,republican,40.49505,7035,35,7287,22.25,texas,2020-11-18T00:44:36.075698Z
48397,Rockwall,57792,52457,18,18,Released as a precinct as first report of the night,100,50672,>98%,>98% reported,edison,2,unknown,,36546,,,38842,18149,642,132,27,35063,16726,531,111,26,2020-11-16T15:48:28Z,35.80599,R+36,Trump +36,republican,35.80599,40180,46.8,35678,53.23,texas,2020-11-18T00:44:36.075698Z
48399,Runnels,4262,3082,10,11,Released as a precinct as first report of the night,95,4467,95%,95% reported,edison,2,unknown,,,,,3682,531,38,11,0,2667,386,22,7,0,2020-11-16T15:48:29Z,73.93243,R+74,Trump +74,republican,73.93243,3782,74,3668,70.47,texas,2020-11-18T00:44:36.075698Z
48401,Rusk,21367,16184,20,23,Released as a precinct as first report of the night,95,22430,95%,95% reported,edison,4,some,,18369,,,16511,4624,154,50,28,12377,3677,98,28,4,2020-11-16T15:48:30Z,55.63252,R+56,Trump +56,republican,55.63252,19134,56.1,18546,51.08,texas,2020-11-18T00:44:36.075698Z
48403,Sabine,5461,4301,8,9,Released as a precinct as first report of the night,99,5492,>98%,>98% reported,edison,2,unknown,,4544,,,4767,662,25,7,,3741,536,19,5,,2020-11-16T15:48:30Z,75.16938,R+75,Trump +75,republican,75.16938,4651,72.8,4578,63.78,texas,2020-11-18T00:44:36.075698Z
48405,San Augustine,3998,2931,10,12,Released as a precinct as first report of the night,92,4358,92%,92% reported,edison,2,unknown,,3105,,,3005,979,12,2,,2125,798,7,1,,2020-11-16T15:48:31Z,50.67534,R+51,Trump +51,republican,50.67534,3569,48,3690,34.58,texas,2020-11-18T00:44:36.075698Z
48407,San Jacinto,12628,10413,11,12,Released as a precinct as first report of the night,100,12214,>98%,>98% reported,edison,2,unknown,,9360,,,10154,2332,101,39,2,8343,1966,73,29,2,2020-11-16T15:48:32Z,61.94172,R+62,Trump +62,republican,61.94172,10343,58.2,9616,48.85,texas,2020-11-18T00:44:36.075698Z
48409,San Patricio,25850,21966,24,26,Released as a precinct as first report of the night,100,25280,>98%,>98% reported,edison,6,all,,19161,,,16495,8971,289,93,2,13994,7674,223,73,2,2020-11-16T15:48:32Z,29.10638,R+29,Trump +29,republican,29.10638,21656,23.8,20078,20.66,texas,2020-11-18T00:44:36.075698Z
48411,San Saba,2602,1870,3,4,Released as a precinct as first report of the night,93,2783,93%,93% reported,edison,2,unknown,,1940,,,2308,287,7,0,,1638,225,7,0,,2020-11-16T15:48:33Z,77.67102,R+78,Trump +78,republican,77.67102,2357,73.5,2259,70.03,texas,2020-11-18T00:44:36.075698Z
48413,Schleicher,1158,909,4,5,Released as a precinct as first report of the night,93,1251,93%,93% reported,edison,2,unknown,,1035,,,939,211,6,2,,739,165,3,2,,2020-11-16T15:48:34Z,62.86701,R+63,Trump +63,republican,62.86701,1059,57.9,1017,55.65,texas,2020-11-18T00:44:36.075698Z
48415,Scurry,5865,4639,10,12,Released as a precinct as first report of the night,94,6246,94%,94% reported,edison,2,unknown,,4983,,,4978,818,53,15,1,3945,649,34,11,0,2020-11-16T15:48:34Z,70.92924,R+71,Trump +71,republican,70.92924,5312,69.2,5027,65.37,texas,2020-11-18T00:44:36.075698Z
48417,Shackelford,1628,1250,7,8,Released as a precinct as first report of the night,88,1857,88%,88% reported,edison,2,unknown,,1206,,,1484,130,10,4,0,1145,99,3,3,0,2020-11-16T15:48:34Z,83.16953,R+83,Trump +83,republican,83.16953,1504,84.8,1363,79.75,texas,2020-11-18T00:44:36.075698Z
48419,Shelby,10063,6975,13,15,Released as a precinct as first report of the night,92,10952,92%,92% reported,edison,2,unknown,,7145,,,7962,2058,36,4,3,5398,1552,22,2,1,2020-11-16T15:48:35Z,58.67038,R+59,Trump +59,republican,58.67038,9086,59.7,9284,49.08,texas,2020-11-18T00:44:36.075698Z
48421,Sherman,990,684,4,5,Released as a precinct as first report of the night,73,1349,73%,73% reported,edison,2,unknown,,974,,,885,91,9,5,,601,74,6,3,,2020-11-16T15:48:35Z,80.20202,R+80,Trump +80,republican,80.20202,935,76,1038,75.82,texas,2020-11-18T00:44:36.075698Z
48423,Smith,99521,87030,67,74,Released as a precinct as first report of the night,100,99521,>98%,>98% reported,edison,6,all,,90067,,,68546,29343,1121,253,258,60102,25706,838,196,188,2020-11-16T15:48:35Z,39.39169,R+39,Trump +39,republican,39.39169,84768,43.2,79601,45.07,texas,2020-11-18T00:44:36.075698Z
48425,Somervell,4940,4268,4,4,Released as a precinct as first report of the night,100,4811,>98%,>98% reported,edison,2,unknown,,3539,,,4099,768,56,10,7,3543,672,39,9,5,2020-11-16T15:48:35Z,67.42915,R+67,Trump +67,republican,67.42915,3897,68.4,3538,63.82,texas,2020-11-18T00:44:36.075698Z
48427,Starr,17478,14282,10,10,Released as a precinct as first report of the night,99,17600,>98%,>98% reported,edison,2,unknown,,12032,,,8224,9099,91,63,1,6515,7636,74,56,1,2020-11-16T15:48:35Z,5.00629,D+5,Biden +5,democrat,-5.00629,11740,-60.2,11883,-73.32,texas,2020-11-18T00:44:36.075698Z
48429,Stephens,3799,3017,8,9,Released as a precinct as first report of the night,93,4087,93%,93% reported,edison,2,unknown,,3737,,,3385,396,16,2,,2678,330,8,1,,2020-11-16T15:48:36Z,78.6786,R+79,Trump +79,republican,78.6786,3470,77.4,3412,70.84,texas,2020-11-18T00:44:36.075698Z
48431,Sterling,639,484,3,4,Released as a precinct as first report of the night,78,823,78%,78% reported,edison,2,unknown,,408,,,584,51,1,3,,445,36,1,2,,2020-11-16T15:48:36Z,83.41158,R+83,Trump +83,republican,83.41158,633,75.7,494,86.64,texas,2020-11-18T00:44:36.075698Z
48433,Stonewall,736,736,3,4,Released as a precinct as first report of the night,81,911,81%,81% reported,edison,2,unknown,,437,,,615,116,4,1,,615,116,4,1,,2020-11-16T15:48:36Z,67.79891,R+68,Trump +68,republican,67.79891,701,59.9,675,51.41,texas,2020-11-18T00:44:36.075698Z
48435,Sutton,1557,1333,4,5,Released as a precinct as first report of the night,80,1936,80%,80% reported,edison,2,unknown,,1807,,,1222,322,9,4,,1053,273,4,3,,2020-11-16T15:48:36Z,57.80347,R+58,Trump +58,republican,57.80347,1416,53.8,1489,49.76,texas,2020-11-18T00:44:36.075698Z
48437,Swisher,2353,1759,7,9,Released as a precinct as first report of the night,88,2676,88%,88% reported,edison,2,unknown,,1756,,,1842,478,22,10,1,1383,357,14,5,0,2020-11-16T15:48:36Z,57.96855,R+58,Trump +58,republican,57.96855,2204,54.9,2270,47.4,texas,2020-11-18T00:44:36.075698Z
48439,Tarrant,834697,733248,701,730,Released as a precinct as first report of the night,96,869068,96%,96% reported,edison,4,some,,685898,,,409741,411567,10368,2617,404,357997,364873,8067,1972,339,2020-11-16T21:12:09Z,0.21876,D+0.22,Biden +0.22,democrat,-0.21876,668514,8.6,610890,15.69,texas,2020-11-18T00:44:36.075698Z
48441,Taylor,54924,45426,32,35,Released as a precinct as first report of the night,100,54924,>98%,>98% reported,edison,6,all,,48518,,,39439,14489,825,148,23,32250,12448,596,113,19,2020-11-16T15:48:37Z,45.42641,R+45,Trump +45,republican,45.42641,45759,50.6,43263,53.52,texas,2020-11-18T00:44:36.075698Z
48443,Terrell,458,360,4,5,Released as a precinct as first report of the night,64,719,64%,64% reported,edison,2,unknown,,648,,,334,119,3,2,,258,100,2,0,,2020-11-16T15:48:37Z,46.94323,R+47,Trump +47,republican,46.94323,438,33.8,555,31.35,texas,2020-11-18T00:44:36.075698Z
48445,Terry,3608,2879,7,8,Released as a precinct as first report of the night,82,4378,82%,82% reported,edison,2,unknown,,3782,,,2809,757,33,9,,2257,596,23,3,,2020-11-16T15:48:37Z,56.87361,R+57,Trump +57,republican,56.87361,3355,50.8,3709,41.6,texas,2020-11-18T00:44:36.075698Z
48447,Throckmorton,899,543,5,6,Released as a precinct as first report of the night,85,1057,85%,85% reported,edison,2,unknown,,614,,,806,82,5,1,5,484,53,0,1,5,2020-11-16T15:48:37Z,80.53393,R+81,Trump +81,republican,80.53393,808,78.1,813,72.69,texas,2020-11-18T00:44:36.075698Z
48449,Titus,10530,8230,16,19,Released as a precinct as first report of the night,95,11123,95%,95% reported,edison,2,unknown,,7555,,,7563,2852,94,19,2,5947,2206,65,10,2,2020-11-16T15:48:37Z,44.73884,R+45,Trump +45,republican,44.73884,9419,41.6,8854,38.81,texas,2020-11-18T00:44:36.075698Z
48451,Tom Green,44891,33289,35,35,Released as a precinct as first report of the night,94,47505,94%,94% reported,edison,2,unknown,,37998,,,32129,12106,539,96,21,23291,9615,322,51,10,2020-11-16T15:48:37Z,44.6036,R+45,Trump +45,republican,44.6036,38479,47.6,36720,47.89,texas,2020-11-18T00:44:36.075698Z
48453,Travis,610349,553103,248,248,Released as a precinct as first report of the night,100,609336,>98%,>98% reported,edison,4,some,,391428,,,161337,435860,8905,2094,2153,140321,403939,7161,1682,0,2020-11-16T15:48:37Z,44.97804,D+45,Biden +45,democrat,-44.97804,468720,-38.6,387057,-23.93,texas,2020-11-18T00:44:36.075698Z
48455,Trinity,6938,5334,18,20,Released as a precinct as first report of the night,94,7362,94%,94% reported,edison,2,unknown,,6125,,,5579,1323,25,11,,4281,1027,17,9,,2020-11-16T15:48:38Z,61.34333,R+61,Trump +61,republican,61.34333,5985,59.9,6235,46.88,texas,2020-11-18T00:44:36.075698Z
48457,Tyler,9547,6706,11,18,Released as a precinct as first report of the night,100,9466,>98%,>98% reported,edison,2,unknown,,6461,,,8095,1390,51,11,0,5581,1094,25,6,0,2020-11-16T15:48:38Z,70.23149,R+70,Trump +70,republican,70.23149,8016,67.1,7654,55.42,texas,2020-11-18T00:44:36.075698Z
48459,Upshur,18850,15342,20,22,Released as a precinct as first report of the night,100,18910,>98%,>98% reported,edison,2,unknown,,12933,,,15775,2869,179,22,5,12770,2448,105,15,4,2020-11-16T15:48:38Z,68.46684,R+68,Trump +68,republican,68.46684,16013,67.6,15138,59.74,texas,2020-11-18T00:44:36.075698Z
48461,Upton,1365,1063,4,5,Released as a precinct as first report of the night,86,1591,86%,86% reported,edison,2,unknown,,1421,,,1176,169,13,7,0,910,137,10,6,0,2020-11-16T15:48:38Z,73.77289,R+74,Trump +74,republican,73.77289,1347,53.5,1300,47.69,texas,2020-11-18T00:44:36.075698Z
48463,Uvalde,10323,8194,12,14,Released as a precinct as first report of the night,89,11653,89%,89% reported,edison,2,unknown,,10291,,,6160,4066,66,29,2,4661,3464,46,21,2,2020-11-16T15:48:39Z,20.2848,R+20,Trump +20,republican,20.2848,8964,10.8,8435,8.35,texas,2020-11-18T00:44:36.075698Z
48465,Val Verde,14417,12008,14,17,Released as a precinct as first report of the night,81,17702,81%,81% reported,edison,4,some,,12685,,,7839,6401,132,45,,6413,5460,102,33,,2020-11-16T15:48:40Z,9.97434,R+10,Trump +10,republican,9.97434,13617,-7.9,12081,-5.38,texas,2020-11-18T00:44:36.075698Z
48467,Van Zandt,25753,17151,17,19,Released as a precinct as first report of the night,100,25850,>98%,>98% reported,edison,2,unknown,,15091,,,22126,3419,175,33,,14633,2407,96,15,,2020-11-16T15:48:41Z,72.64008,R+73,Trump +73,republican,72.64008,21890,71.6,19100,66.54,texas,2020-11-18T00:44:36.075698Z
48469,Victoria,34205,27933,30,35,Released as a precinct as first report of the night,93,36753,93%,93% reported,edison,2,unknown,,29340,,,23347,10371,338,103,46,18864,8730,229,74,36,2020-11-16T15:48:41Z,37.93597,R+38,Trump +38,republican,37.93597,31324,39.6,28853,37.74,texas,2020-11-18T00:44:36.075698Z
48471,Walker,23641,19474,16,17,Released as a precinct as first report of the night,100,23641,>98%,>98% reported,edison,6,all,,16785,,,15368,7875,286,63,49,12520,6682,197,46,29,2020-11-16T15:48:41Z,31.69494,R+32,Trump +32,republican,31.69494,19796,34.3,18685,31.51,texas,2020-11-18T00:44:36.075698Z
48473,Waller,22617,19211,21,21,Released as a precinct as first report of the night,100,19820,>98%,>98% reported,edison,2,some,,15909,,,14206,8130,199,82,,12102,6902,143,64,,2020-11-16T15:47:46Z,26.86475,R+27,Trump +27,republican,26.86475,16784,28.5,15902,17.17,texas,2020-11-18T00:44:36.075698Z
48475,Ward,4034,3108,8,9,Released as a precinct as first report of the night,99,4069,>98%,>98% reported,edison,2,unknown,,3020,,,3238,761,29,6,0,2510,578,18,2,0,2020-11-16T15:47:50Z,61.40307,R+61,Trump +61,republican,61.40307,3445,51.2,3245,47,texas,2020-11-18T00:44:36.075698Z
48477,Washington,17410,14507,20,22,Released as a precinct as first report of the night,95,18306,95%,95% reported,edison,2,unknown,,15246,,,12949,4254,178,20,9,10705,3661,121,12,8,2020-11-16T15:47:51Z,49.94256,R+50,Trump +50,republican,49.94256,14832,51,14397,51.93,texas,2020-11-18T00:44:36.075698Z
48479,Webb,68397,53357,65,70,Released as a precinct as first report of the night,92,73977,92%,92% reported,edison,2,some,,48936,,,25898,41820,446,233,,19424,33454,312,167,,2020-11-16T15:47:52Z,23.2788,D+23,Biden +23,democrat,-23.2788,57585,-51,49110,-54,texas,2020-11-18T00:44:36.075698Z
48481,Wharton,16709,14497,11,13,Released as a precinct as first report of the night,96,17397,96%,96% reported,edison,2,unknown,,14576,,,11892,4671,105,36,5,10422,3961,85,29,0,2020-11-16T15:47:54Z,43.21623,R+43,Trump +43,republican,43.21623,14732,40.1,14087,39.15,texas,2020-11-18T00:44:36.075698Z
48483,Wheeler,2336,1643,9,11,Released as a precinct as first report of the night,86,2723,86%,86% reported,edison,2,unknown,,1640,,,2158,168,7,3,,1509,129,3,2,,2020-11-16T15:47:56Z,85.18836,R+85,Trump +85,republican,85.18836,2306,82.1,2128,77.35,texas,2020-11-18T00:44:36.075698Z
48485,Wichita,45753,37719,57,62,Released as a precinct as first report of the night,90,50639,90%,90% reported,edison,2,some,,45995,,,31930,13024,664,125,10,26350,10796,474,90,9,2020-11-16T15:47:57Z,41.32188,R+41,Trump +41,republican,41.32188,38119,49.5,41018,47.02,texas,2020-11-18T00:44:36.075698Z
48487,Wilbarger,4518,3739,4,5,Released as a precinct as first report of the night,93,4848,93%,93% reported,edison,2,unknown,,4072,,,3520,954,33,11,,2934,777,23,5,,2020-11-16T15:47:59Z,56.79504,R+57,Trump +57,republican,56.79504,4105,57.4,3980,49.87,texas,2020-11-18T00:44:36.075698Z
48489,Willacy,5575,3554,14,17,Released as a precinct as first report of the night,84,6624,84%,84% reported,edison,2,unknown,,3321,,,2437,3097,25,16,,1416,2116,15,7,,2020-11-16T15:48:01Z,11.83857,D+12,Biden +12,democrat,-11.83857,5095,-36.8,5064,-43.13,texas,2020-11-18T00:44:36.075698Z
48491,Williamson,287696,261300,58,58,Released as a precinct as first report of the night,100,285000,>98%,>98% reported,edison,4,all,,172960,,,138649,142457,4961,782,847,123803,132612,4048,637,200,2020-11-16T15:48:03Z,1.32362,D+1.3,Biden +1.3,democrat,-1.32362,204659,9.6,163271,21.52,texas,2020-11-18T00:44:36.075698Z
48493,Wilson,25006,20881,17,17,Released as a precinct as first report of the night,100,22948,>98%,>98% reported,edison,2,unknown,,17031,,,18457,6350,150,39,10,15243,5485,123,30,0,2020-11-16T15:48:03Z,48.41638,R+48,Trump +48,republican,48.41638,19395,47.5,17205,42.99,texas,2020-11-18T00:44:36.075698Z
48495,Winkler,2126,1469,5,6,Released as a precinct as first report of the night,87,2439,87%,87% reported,edison,2,unknown,,1480,,,1753,358,14,1,,1197,262,9,1,,2020-11-16T15:48:04Z,65.61618,R+66,Trump +66,republican,65.61618,1876,52.4,1725,52.93,texas,2020-11-18T00:44:36.075698Z
48497,Wise,32297,27362,26,26,Released as a precinct as first report of the night,100,29258,>98%,>98% reported,edison,2,unknown,,19355,,,26986,4953,308,47,3,22836,4265,229,31,1,2020-11-16T15:48:05Z,68.21996,R+68,Trump +68,republican,68.21996,24776,69.7,20745,67.42,texas,2020-11-18T00:44:36.075698Z
48499,Wood,22665,19451,13,14,Released as a precinct as first report of the night,100,22115,>98%,>98% reported,edison,2,unknown,,14753,,,18962,3487,175,40,1,16178,3114,126,33,0,2020-11-16T15:48:07Z,68.27708,R+68,Trump +68,republican,68.27708,18727,69.8,17581,64.25,texas,2020-11-18T00:44:36.075698Z
48501,Yoakum,2633,2134,6,7,Released as a precinct as first report of the night,88,2994,88%,88% reported,edison,2,some,,2155,,,2172,419,31,6,5,1795,308,21,5,5,2020-11-16T15:48:10Z,66.57805,R+67,Trump +67,republican,66.57805,2303,59.5,2128,60.57,texas,2020-11-18T00:44:36.075698Z
48503,Young,8242,7088,8,10,Released as a precinct as first report of the night,91,9101,91%,91% reported,edison,2,unknown,,9164,,,7112,1036,76,18,,6114,895,63,16,,2020-11-16T15:48:11Z,73.71997,R+74,Trump +74,republican,73.71997,7707,74.3,7316,71.53,texas,2020-11-18T00:44:36.075698Z
48505,Zapata,3867,2438,8,8,Released as a precinct as first report of the night,84,4606,84%,84% reported,edison,2,unknown,,3125,,,2032,1820,11,4,,1192,1235,9,2,,2020-11-16T15:48:13Z,5.48229,R+5,Trump +5,republican,5.48229,3142,-32.9,3543,-43.18,texas,2020-11-18T00:44:36.075698Z
48507,Zavala,4379,2968,6,6,Released as a precinct as first report of the night,92,4749,92%,92% reported,edison,2,unknown,,3597,,,1490,2864,13,12,,841,2117,5,5,,2020-11-16T15:48:14Z,31.37703,D+31,Biden +31,democrat,-31.37703,3396,-57.2,3653,-67.56,texas,2020-11-18T00:44:36.075698Z
