fips,name,votes,absentee_votes,reporting,precincts,absentee_method,eevp,tot_exp_vote,eevp_value,eevp_display,eevp_source,turnout_stage,absentee_count_progress,absentee_max_ballots,results_higginsc,results_harrisb,results_andersonr,results_leleuxb,results_absentee_higginsc,results_absentee_harrisb,results_absentee_andersonr,results_absentee_leleuxb,last_updated,leader_margin_value,leader_margin_display,leader_margin_name_display,leader_party_id,race_id_race,race_slug_race,url_race,state_page_url_race,ap_polls_page_race,race_type_race,election_type_race,election_date_race,runoff_race,race_name_race,office_race,officeid_race,race_rating_race,seat_race,seat_name_race,state_id_race,state_slug_race,state_name_race,state_nyt_abbrev_race,state_shape_race,party_id_race,uncontested_race,report_race,result_race,result_source_race,gain_race,lost_seat_race,votes_race,absentee_votes_race,absentee_counties_race,absentee_count_progress_race,poll_display_race,poll_countdown_display_race,poll_waiting_display_race,poll_time_race,poll_time_short_race,precincts_reporting_race,precincts_total_race,reporting_display_race,reporting_value_race,eevp_race,tot_exp_vote_race,eevp_source_race,eevp_value_race,eevp_display_race,county_data_source_race,incumbent_party_race,no_forecast_race,last_updated_race,has_incumbent_race,leader_margin_value_race,leader_margin_votes_race,leader_margin_display_race,leader_margin_name_display_race,leader_party_id_race,edison_certified_race,absentee_ballot_deadline_race,absentee_postmark_deadline_race,winner_called_timestamp_race
22001,Acadia,27361,9218,55,55,Released as a separate subtotal as first report of the night,100,27361,>98%,>98% reported,edison,10,all,7053,21843,3090,1915,513,7095,1196,776,151,2020-11-24T13:22:11Z,68.53916,R+69,Higgins +69,republican,LA-G-H-3-2020-11-03,la-house-general-district-003-2020-11-03,https://www.nytimes.com/interactive/2020/11/03/us/elections/results-louisiana-house-district-3.html,https://www.nytimes.com/interactive/2020/11/03/us/elections/results-louisiana.html,https://www.nytimes.com/interactive/2020/11/03/us/elections/ap-polls-louisiana.html,house,general,2020-11-03,FALSE,U.S. House District 3,U.S. House,H,solid-rep,3,District 3,LA,louisiana,Louisiana,La.,horizontal,"",FALSE,TRUE,winner,AP,FALSE,"",340120,158744,10,unknown,Polls close at 9 p.m. Eastern time.,Polls close in,Polls have closed.,2020-11-04T02:00:00.000Z,9 p.m.,566,566,100% reporting,100%,100,340120,edison,>98%,>98% reported,edison,republican,FALSE,2020-11-24T13:22:34Z,TRUE,49.87299,169628,R+50,Higgins +50,republican,TRUE,-1,-1,1604457287384
22019,Calcasieu,79193,45324,123,123,Released as a separate subtotal as first report of the night,100,79193,>98%,>98% reported,edison,10,all,21757,52229,15663,9118,2183,27897,10542,5849,1036,2020-11-24T13:22:13Z,46.17327,R+46,Higgins +46,republican,LA-G-H-3-2020-11-03,la-house-general-district-003-2020-11-03,https://www.nytimes.com/interactive/2020/11/03/us/elections/results-louisiana-house-district-3.html,https://www.nytimes.com/interactive/2020/11/03/us/elections/results-louisiana.html,https://www.nytimes.com/interactive/2020/11/03/us/elections/ap-polls-louisiana.html,house,general,2020-11-03,FALSE,U.S. House District 3,U.S. House,H,solid-rep,3,District 3,LA,louisiana,Louisiana,La.,horizontal,"",FALSE,TRUE,winner,AP,FALSE,"",340120,158744,10,unknown,Polls close at 9 p.m. Eastern time.,Polls close in,Polls have closed.,2020-11-04T02:00:00.000Z,9 p.m.,566,566,100% reporting,100%,100,340120,edison,>98%,>98% reported,edison,republican,FALSE,2020-11-24T13:22:34Z,TRUE,49.87299,169628,R+50,Higgins +50,republican,TRUE,-1,-1,1604457287384
22023,Cameron,3850,2364,14,14,Released as a separate subtotal as first report of the night,100,3850,>98%,>98% reported,edison,10,all,1277,3454,141,193,62,2110,88,135,31,2020-11-24T13:22:15Z,84.7013,R+85,Higgins +85,republican,LA-G-H-3-2020-11-03,la-house-general-district-003-2020-11-03,https://www.nytimes.com/interactive/2020/11/03/us/elections/results-louisiana-house-district-3.html,https://www.nytimes.com/interactive/2020/11/03/us/elections/results-louisiana.html,https://www.nytimes.com/interactive/2020/11/03/us/elections/ap-polls-louisiana.html,house,general,2020-11-03,FALSE,U.S. House District 3,U.S. House,H,solid-rep,3,District 3,LA,louisiana,Louisiana,La.,horizontal,"",FALSE,TRUE,winner,AP,FALSE,"",340120,158744,10,unknown,Polls close at 9 p.m. Eastern time.,Polls close in,Polls have closed.,2020-11-04T02:00:00.000Z,9 p.m.,566,566,100% reporting,100%,100,340120,edison,>98%,>98% reported,edison,republican,FALSE,2020-11-24T13:22:34Z,TRUE,49.87299,169628,R+50,Higgins +50,republican,TRUE,-1,-1,1604457287384
22045,Iberia,30797,13934,64,64,Released as a separate subtotal as first report of the night,100,30797,>98%,>98% reported,edison,10,all,10381,20406,6518,3299,574,8790,3291,1657,196,2020-11-24T13:22:03Z,45.0953,R+45,Higgins +45,republican,LA-G-H-3-2020-11-03,la-house-general-district-003-2020-11-03,https://www.nytimes.com/interactive/2020/11/03/us/elections/results-louisiana-house-district-3.html,https://www.nytimes.com/interactive/2020/11/03/us/elections/results-louisiana.html,https://www.nytimes.com/interactive/2020/11/03/us/elections/ap-polls-louisiana.html,house,general,2020-11-03,FALSE,U.S. House District 3,U.S. House,H,solid-rep,3,District 3,LA,louisiana,Louisiana,La.,horizontal,"",FALSE,TRUE,winner,AP,FALSE,"",340120,158744,10,unknown,Polls close at 9 p.m. Eastern time.,Polls close in,Polls have closed.,2020-11-04T02:00:00.000Z,9 p.m.,566,566,100% reporting,100%,100,340120,edison,>98%,>98% reported,edison,republican,FALSE,2020-11-24T13:22:34Z,TRUE,49.87299,169628,R+50,Higgins +50,republican,TRUE,-1,-1,1604457287384
22053,Jeff Davis,13995,6855,22,22,Released as a separate subtotal as first report of the night,100,13995,>98%,>98% reported,edison,10,all,5659,10853,1668,1203,271,5176,934,640,105,2020-11-24T13:22:16Z,65.63058,R+66,Higgins +66,republican,LA-G-H-3-2020-11-03,la-house-general-district-003-2020-11-03,https://www.nytimes.com/interactive/2020/11/03/us/elections/results-louisiana-house-district-3.html,https://www.nytimes.com/interactive/2020/11/03/us/elections/results-louisiana.html,https://www.nytimes.com/interactive/2020/11/03/us/elections/ap-polls-louisiana.html,house,general,2020-11-03,FALSE,U.S. House District 3,U.S. House,H,solid-rep,3,District 3,LA,louisiana,Louisiana,La.,horizontal,"",FALSE,TRUE,winner,AP,FALSE,"",340120,158744,10,unknown,Polls close at 9 p.m. Eastern time.,Polls close in,Polls have closed.,2020-11-04T02:00:00.000Z,9 p.m.,566,566,100% reporting,100%,100,340120,edison,>98%,>98% reported,edison,republican,FALSE,2020-11-24T13:22:34Z,TRUE,49.87299,169628,R+50,Higgins +50,republican,TRUE,-1,-1,1604457287384
22055,Lafayette,110153,47194,127,127,Released as a separate subtotal as first report of the night,100,110153,>98%,>98% reported,edison,10,all,17606,68286,20774,16909,4184,25904,10993,8961,1336,2020-11-24T13:22:19Z,43.13273,R+43,Higgins +43,republican,LA-G-H-3-2020-11-03,la-house-general-district-003-2020-11-03,https://www.nytimes.com/interactive/2020/11/03/us/elections/results-louisiana-house-district-3.html,https://www.nytimes.com/interactive/2020/11/03/us/elections/results-louisiana.html,https://www.nytimes.com/interactive/2020/11/03/us/elections/ap-polls-louisiana.html,house,general,2020-11-03,FALSE,U.S. House District 3,U.S. House,H,solid-rep,3,District 3,LA,louisiana,Louisiana,La.,horizontal,"",FALSE,TRUE,winner,AP,FALSE,"",340120,158744,10,unknown,Polls close at 9 p.m. Eastern time.,Polls close in,Polls have closed.,2020-11-04T02:00:00.000Z,9 p.m.,566,566,100% reporting,100%,100,340120,edison,>98%,>98% reported,edison,republican,FALSE,2020-11-24T13:22:34Z,TRUE,49.87299,169628,R+50,Higgins +50,republican,TRUE,-1,-1,1604457287384
22097,St. Landry,1481,258,4,4,Released as a separate subtotal as first report of the night,100,1481,>98%,>98% reported,edison,10,all,8342,1193,137,114,37,182,41,30,5,2020-11-24T13:22:22Z,71.30317,R+71,Higgins +71,republican,LA-G-H-3-2020-11-03,la-house-general-district-003-2020-11-03,https://www.nytimes.com/interactive/2020/11/03/us/elections/results-louisiana-house-district-3.html,https://www.nytimes.com/interactive/2020/11/03/us/elections/results-louisiana.html,https://www.nytimes.com/interactive/2020/11/03/us/elections/ap-polls-louisiana.html,house,general,2020-11-03,FALSE,U.S. House District 3,U.S. House,H,solid-rep,3,District 3,LA,louisiana,Louisiana,La.,horizontal,"",FALSE,TRUE,winner,AP,FALSE,"",340120,158744,10,unknown,Polls close at 9 p.m. Eastern time.,Polls close in,Polls have closed.,2020-11-04T02:00:00.000Z,9 p.m.,566,566,100% reporting,100%,100,340120,edison,>98%,>98% reported,edison,republican,FALSE,2020-11-24T13:22:34Z,TRUE,49.87299,169628,R+50,Higgins +50,republican,TRUE,-1,-1,1604457287384
22099,St. Martin,25519,12939,51,51,Released as a separate subtotal as first report of the night,100,25519,>98%,>98% reported,edison,10,all,7030,17294,4891,2730,604,8673,2549,1470,247,2020-11-24T13:22:04Z,48.603,R+49,Higgins +49,republican,LA-G-H-3-2020-11-03,la-house-general-district-003-2020-11-03,https://www.nytimes.com/interactive/2020/11/03/us/elections/results-louisiana-house-district-3.html,https://www.nytimes.com/interactive/2020/11/03/us/elections/results-louisiana.html,https://www.nytimes.com/interactive/2020/11/03/us/elections/ap-polls-louisiana.html,house,general,2020-11-03,FALSE,U.S. House District 3,U.S. House,H,solid-rep,3,District 3,LA,louisiana,Louisiana,La.,horizontal,"",FALSE,TRUE,winner,AP,FALSE,"",340120,158744,10,unknown,Polls close at 9 p.m. Eastern time.,Polls close in,Polls have closed.,2020-11-04T02:00:00.000Z,9 p.m.,566,566,100% reporting,100%,100,340120,edison,>98%,>98% reported,edison,republican,FALSE,2020-11-24T13:22:34Z,TRUE,49.87299,169628,R+50,Higgins +50,republican,TRUE,-1,-1,1604457287384
22101,St. Mary,21698,10483,51,51,Released as a separate subtotal as first report of the night,100,21698,>98%,>98% reported,edison,10,all,8451,14041,5528,1752,377,6813,2659,867,144,2020-11-24T13:22:08Z,39.23403,R+39,Higgins +39,republican,LA-G-H-3-2020-11-03,la-house-general-district-003-2020-11-03,https://www.nytimes.com/interactive/2020/11/03/us/elections/results-louisiana-house-district-3.html,https://www.nytimes.com/interactive/2020/11/03/us/elections/results-louisiana.html,https://www.nytimes.com/interactive/2020/11/03/us/elections/ap-polls-louisiana.html,house,general,2020-11-03,FALSE,U.S. House District 3,U.S. House,H,solid-rep,3,District 3,LA,louisiana,Louisiana,La.,horizontal,"",FALSE,TRUE,winner,AP,FALSE,"",340120,158744,10,unknown,Polls close at 9 p.m. Eastern time.,Polls close in,Polls have closed.,2020-11-04T02:00:00.000Z,9 p.m.,566,566,100% reporting,100%,100,340120,edison,>98%,>98% reported,edison,republican,FALSE,2020-11-24T13:22:34Z,TRUE,49.87299,169628,R+50,Higgins +50,republican,TRUE,-1,-1,1604457287384
22113,Vermilion,26073,10175,55,55,Released as a separate subtotal as first report of the night,100,26073,>98%,>98% reported,edison,10,all,6541,20881,2442,2190,560,7893,1074,1045,163,2020-11-28T04:51:48Z,70.72067,R+71,Higgins +71,republican,LA-G-H-3-2020-11-03,la-house-general-district-003-2020-11-03,https://www.nytimes.com/interactive/2020/11/03/us/elections/results-louisiana-house-district-3.html,https://www.nytimes.com/interactive/2020/11/03/us/elections/results-louisiana.html,https://www.nytimes.com/interactive/2020/11/03/us/elections/ap-polls-louisiana.html,house,general,2020-11-03,FALSE,U.S. House District 3,U.S. House,H,solid-rep,3,District 3,LA,louisiana,Louisiana,La.,horizontal,"",FALSE,TRUE,winner,AP,FALSE,"",340120,158744,10,unknown,Polls close at 9 p.m. Eastern time.,Polls close in,Polls have closed.,2020-11-04T02:00:00.000Z,9 p.m.,566,566,100% reporting,100%,100,340120,edison,>98%,>98% reported,edison,republican,FALSE,2020-11-24T13:22:34Z,TRUE,49.87299,169628,R+50,Higgins +50,republican,TRUE,-1,-1,1604457287384
