fips,name,votes,absentee_votes,reporting,precincts,absentee_method,eevp,tot_exp_vote,eevp_value,eevp_display,eevp_source,turnout_stage,absentee_count_progress,absentee_max_ballots,results_malinowskit,results_keant,results_absentee_malinowskit,results_absentee_keant,last_updated,leader_margin_value,leader_margin_display,leader_margin_name_display,leader_party_id,race_id_race,race_slug_race,url_race,state_page_url_race,ap_polls_page_race,race_type_race,election_type_race,election_date_race,runoff_race,race_name_race,office_race,officeid_race,race_rating_race,seat_race,seat_name_race,state_id_race,state_slug_race,state_name_race,state_nyt_abbrev_race,state_shape_race,state_aspect_ratio_race,party_id_race,uncontested_race,report_race,result_race,result_source_race,gain_race,lost_seat_race,votes_race,absentee_votes_race,absentee_counties_race,absentee_count_progress_race,poll_display_race,poll_countdown_display_race,poll_waiting_display_race,poll_time_race,poll_time_short_race,precincts_reporting_race,precincts_total_race,reporting_display_race,reporting_value_race,eevp_race,tot_exp_vote_race,eevp_source_race,eevp_value_race,eevp_display_race,county_data_source_race,incumbent_party_race,no_forecast_race,last_updated_race,has_incumbent_race,leader_margin_value_race,leader_margin_votes_race,leader_margin_display_race,leader_margin_name_display_race,leader_party_id_race,edison_certified_race,expectations_text_race,expectations_text_short_race,absentee_ballot_deadline_race,absentee_postmark_deadline_race,winner_called_timestamp_race
34013,Essex,11529,0,18,18,Released as a separate subtotal as first report of the night,100,11507,>98%,>98% reported,edison,2,unknown,24131,7625,3904,0,0,2020-11-24T13:22:52Z,32.27513,D+32,Malinowski +32,democrat,NJ-G-H-7-2020-11-03,nj-house-general-district-007-2020-11-03,https://www.nytimes.com/interactive/2020/11/03/us/elections/results-new-jersey-house-district-7.html,https://www.nytimes.com/interactive/2020/11/03/us/elections/results-new-jersey.html,https://www.nytimes.com/interactive/2020/11/03/us/elections/ap-polls-new-jersey.html,house,general,2020-11-03,FALSE,U.S. House District 7,U.S. House,H,lean-dem,7,District 7,NJ,new-jersey,New Jersey,N.J.,vertical,0.7,"",FALSE,TRUE,winner,AP,FALSE,"",433944,150779,3,unknown,Polls close at 8 p.m. Eastern time.,Polls close in,Polls have closed.,2020-11-04T01:00:00.000Z,8 p.m.,620,622,99% reporting,99%,100,431000,edison,>98%,>98% reported,edison,democrat,FALSE,2020-11-24T13:23:39Z,TRUE,1.22458,5314,D+1.2,Malinowski +1.2,democrat,FALSE,"","",7,0,1605752366241
34019,Hunterdon,83258,71548,116,116,Released as a separate subtotal as first report of the night,100,82170,>98%,>98% reported,edison,4,some,13401,36815,46443,32918,38630,2020-11-24T13:22:50Z,,–,–,"",NJ-G-H-7-2020-11-03,nj-house-general-district-007-2020-11-03,https://www.nytimes.com/interactive/2020/11/03/us/elections/results-new-jersey-house-district-7.html,https://www.nytimes.com/interactive/2020/11/03/us/elections/results-new-jersey.html,https://www.nytimes.com/interactive/2020/11/03/us/elections/ap-polls-new-jersey.html,house,general,2020-11-03,FALSE,U.S. House District 7,U.S. House,H,lean-dem,7,District 7,NJ,new-jersey,New Jersey,N.J.,vertical,0.7,"",FALSE,TRUE,winner,AP,FALSE,"",433944,150779,3,unknown,Polls close at 8 p.m. Eastern time.,Polls close in,Polls have closed.,2020-11-04T01:00:00.000Z,8 p.m.,620,622,99% reporting,99%,100,431000,edison,>98%,>98% reported,edison,democrat,FALSE,2020-11-24T13:23:39Z,TRUE,1.22458,5314,D+1.2,Malinowski +1.2,democrat,FALSE,"","",7,0,1605752366241
34027,Morris,69238,0,94,94,Merged into voters' home precincts and released with cumulative results,100,68954,>98%,>98% reported,edison,2,unknown,33525,32400,36838,0,0,2020-11-24T13:22:52Z,,–,–,"",NJ-G-H-7-2020-11-03,nj-house-general-district-007-2020-11-03,https://www.nytimes.com/interactive/2020/11/03/us/elections/results-new-jersey-house-district-7.html,https://www.nytimes.com/interactive/2020/11/03/us/elections/results-new-jersey.html,https://www.nytimes.com/interactive/2020/11/03/us/elections/ap-polls-new-jersey.html,house,general,2020-11-03,FALSE,U.S. House District 7,U.S. House,H,lean-dem,7,District 7,NJ,new-jersey,New Jersey,N.J.,vertical,0.7,"",FALSE,TRUE,winner,AP,FALSE,"",433944,150779,3,unknown,Polls close at 8 p.m. Eastern time.,Polls close in,Polls have closed.,2020-11-04T01:00:00.000Z,8 p.m.,620,622,99% reporting,99%,100,431000,edison,>98%,>98% reported,edison,democrat,FALSE,2020-11-24T13:23:39Z,TRUE,1.22458,5314,D+1.2,Malinowski +1.2,democrat,FALSE,"","",7,0,1605752366241
34035,Somerset,138616,0,199,199,Released as a separate subtotal as first report of the night,100,137185,>98%,>98% reported,edison,2,some,24227,73466,65150,0,0,2020-11-24T13:22:50Z,5.99931,D+6,Malinowski +6,democrat,NJ-G-H-7-2020-11-03,nj-house-general-district-007-2020-11-03,https://www.nytimes.com/interactive/2020/11/03/us/elections/results-new-jersey-house-district-7.html,https://www.nytimes.com/interactive/2020/11/03/us/elections/results-new-jersey.html,https://www.nytimes.com/interactive/2020/11/03/us/elections/ap-polls-new-jersey.html,house,general,2020-11-03,FALSE,U.S. House District 7,U.S. House,H,lean-dem,7,District 7,NJ,new-jersey,New Jersey,N.J.,vertical,0.7,"",FALSE,TRUE,winner,AP,FALSE,"",433944,150779,3,unknown,Polls close at 8 p.m. Eastern time.,Polls close in,Polls have closed.,2020-11-04T01:00:00.000Z,8 p.m.,620,622,99% reporting,99%,100,431000,edison,>98%,>98% reported,edison,democrat,FALSE,2020-11-24T13:23:39Z,TRUE,1.22458,5314,D+1.2,Malinowski +1.2,democrat,FALSE,"","",7,0,1605752366241
34039,Union,110723,61498,185,187,Merged into voters' home precincts and released with cumulative results,100,61525,>98%,>98% reported,edison,6,all,25247,60532,50191,37916,23582,2020-11-24T13:22:51Z,9.33952,D+9,Malinowski +9,democrat,NJ-G-H-7-2020-11-03,nj-house-general-district-007-2020-11-03,https://www.nytimes.com/interactive/2020/11/03/us/elections/results-new-jersey-house-district-7.html,https://www.nytimes.com/interactive/2020/11/03/us/elections/results-new-jersey.html,https://www.nytimes.com/interactive/2020/11/03/us/elections/ap-polls-new-jersey.html,house,general,2020-11-03,FALSE,U.S. House District 7,U.S. House,H,lean-dem,7,District 7,NJ,new-jersey,New Jersey,N.J.,vertical,0.7,"",FALSE,TRUE,winner,AP,FALSE,"",433944,150779,3,unknown,Polls close at 8 p.m. Eastern time.,Polls close in,Polls have closed.,2020-11-04T01:00:00.000Z,8 p.m.,620,622,99% reporting,99%,100,431000,edison,>98%,>98% reported,edison,democrat,FALSE,2020-11-24T13:23:39Z,TRUE,1.22458,5314,D+1.2,Malinowski +1.2,democrat,FALSE,"","",7,0,1605752366241
34041,Warren,20580,17733,8,8,Merged into voters' home precincts and released with cumulative results,100,19545,>98%,>98% reported,edison,4,some,7469,8791,11789,7727,10006,2020-11-24T13:22:53Z,,–,–,"",NJ-G-H-7-2020-11-03,nj-house-general-district-007-2020-11-03,https://www.nytimes.com/interactive/2020/11/03/us/elections/results-new-jersey-house-district-7.html,https://www.nytimes.com/interactive/2020/11/03/us/elections/results-new-jersey.html,https://www.nytimes.com/interactive/2020/11/03/us/elections/ap-polls-new-jersey.html,house,general,2020-11-03,FALSE,U.S. House District 7,U.S. House,H,lean-dem,7,District 7,NJ,new-jersey,New Jersey,N.J.,vertical,0.7,"",FALSE,TRUE,winner,AP,FALSE,"",433944,150779,3,unknown,Polls close at 8 p.m. Eastern time.,Polls close in,Polls have closed.,2020-11-04T01:00:00.000Z,8 p.m.,620,622,99% reporting,99%,100,431000,edison,>98%,>98% reported,edison,democrat,FALSE,2020-11-24T13:23:39Z,TRUE,1.22458,5314,D+1.2,Malinowski +1.2,democrat,FALSE,"","",7,0,1605752366241
