fips,name,votes,absentee_votes,reporting,precincts,absentee_method,eevp,tot_exp_vote,eevp_value,eevp_display,eevp_source,turnout_stage,absentee_count_progress,absentee_max_ballots,results_tiffanyt,results_zunkert,results_absentee_tiffanyt,results_absentee_zunkert,last_updated,leader_margin_value,leader_margin_display,leader_margin_name_display,leader_party_id,race_id_race,race_slug_race,url_race,state_page_url_race,ap_polls_page_race,edison_exit_polls_page_race,race_type_race,election_type_race,election_date_race,runoff_race,race_name_race,office_race,officeid_race,race_rating_race,seat_race,seat_name_race,state_id_race,state_slug_race,state_name_race,state_nyt_abbrev_race,state_shape_race,party_id_race,uncontested_race,report_race,result_race,result_source_race,gain_race,lost_seat_race,votes_race,absentee_votes_race,absentee_count_progress_race,poll_display_race,poll_countdown_display_race,poll_waiting_display_race,poll_time_race,poll_time_short_race,precincts_reporting_race,precincts_total_race,reporting_display_race,reporting_value_race,eevp_race,tot_exp_vote_race,eevp_source_race,eevp_value_race,eevp_display_race,county_data_source_race,incumbent_party_race,no_forecast_race,last_updated_race,has_incumbent_race,leader_margin_value_race,leader_margin_votes_race,leader_margin_display_race,leader_margin_name_display_race,leader_party_id_race,edison_certified_race,expectations_text_race,expectations_text_short_race,absentee_ballot_deadline_race,absentee_postmark_deadline_race,winner_called_timestamp_race
55003,Ashland,8541,0,17,17,Merged into voters' home precincts and released with cumulative results,100,8541,>98%,>98% reported,edison,10,unknown,1553,3746,4795,0,0,2020-11-24T13:22:34Z,12.28193,D+12,Zunker +12,democrat,WI-G-H-7-2020-11-03,wi-house-general-district-007-2020-11-03,https://www.nytimes.com/interactive/2020/11/03/us/elections/results-wisconsin-house-district-7.html,https://www.nytimes.com/interactive/2020/11/03/us/elections/results-wisconsin.html,https://www.nytimes.com/interactive/2020/11/03/us/elections/ap-polls-wisconsin.html,https://www.nytimes.com/interactive/2020/11/03/us/elections/exit-polls-wisconsin.html,house,general,2020-11-03,FALSE,U.S. House District 7,U.S. House,H,solid-rep,7,District 7,WI,wisconsin,Wisconsin,Wis.,horizontal,"",FALSE,TRUE,winner,AP,FALSE,"",414787,0,unknown,Polls close at 9 p.m. Eastern time.,Polls close in,Polls have closed.,2020-11-04T02:00:00.000Z,9 p.m.,691,691,100% reporting,100%,100,414787,edison,>98%,>98% reported,edison,republican,FALSE,2020-11-24T13:24:01Z,TRUE,21.53033,89305,R+22,Tiffany +22,republican,TRUE,"","",0,0,1604467082936
55005,Barron,25055,0,36,36,Merged into voters' home precincts and released with cumulative results,100,25055,>98%,>98% reported,edison,10,unknown,4648,15936,9119,0,0,2020-11-24T13:22:35Z,27.20814,R+27,Tiffany +27,republican,WI-G-H-7-2020-11-03,wi-house-general-district-007-2020-11-03,https://www.nytimes.com/interactive/2020/11/03/us/elections/results-wisconsin-house-district-7.html,https://www.nytimes.com/interactive/2020/11/03/us/elections/results-wisconsin.html,https://www.nytimes.com/interactive/2020/11/03/us/elections/ap-polls-wisconsin.html,https://www.nytimes.com/interactive/2020/11/03/us/elections/exit-polls-wisconsin.html,house,general,2020-11-03,FALSE,U.S. House District 7,U.S. House,H,solid-rep,7,District 7,WI,wisconsin,Wisconsin,Wis.,horizontal,"",FALSE,TRUE,winner,AP,FALSE,"",414787,0,unknown,Polls close at 9 p.m. Eastern time.,Polls close in,Polls have closed.,2020-11-04T02:00:00.000Z,9 p.m.,691,691,100% reporting,100%,100,414787,edison,>98%,>98% reported,edison,republican,FALSE,2020-11-24T13:24:01Z,TRUE,21.53033,89305,R+22,Tiffany +22,republican,TRUE,"","",0,0,1604467082936
55007,Bayfield,10696,0,29,29,Merged into voters' home precincts and released with cumulative results,100,10696,>98%,>98% reported,edison,10,unknown,2054,4589,6107,0,0,2020-11-24T13:22:35Z,14.19222,D+14,Zunker +14,democrat,WI-G-H-7-2020-11-03,wi-house-general-district-007-2020-11-03,https://www.nytimes.com/interactive/2020/11/03/us/elections/results-wisconsin-house-district-7.html,https://www.nytimes.com/interactive/2020/11/03/us/elections/results-wisconsin.html,https://www.nytimes.com/interactive/2020/11/03/us/elections/ap-polls-wisconsin.html,https://www.nytimes.com/interactive/2020/11/03/us/elections/exit-polls-wisconsin.html,house,general,2020-11-03,FALSE,U.S. House District 7,U.S. House,H,solid-rep,7,District 7,WI,wisconsin,Wisconsin,Wis.,horizontal,"",FALSE,TRUE,winner,AP,FALSE,"",414787,0,unknown,Polls close at 9 p.m. Eastern time.,Polls close in,Polls have closed.,2020-11-04T02:00:00.000Z,9 p.m.,691,691,100% reporting,100%,100,414787,edison,>98%,>98% reported,edison,republican,FALSE,2020-11-24T13:24:01Z,TRUE,21.53033,89305,R+22,Tiffany +22,republican,TRUE,"","",0,0,1604467082936
55013,Burnett,9996,0,24,24,Merged into voters' home precincts and released with cumulative results,100,9996,>98%,>98% reported,edison,10,all,1150,6497,3499,0,0,2020-11-24T13:22:36Z,29.992,R+30,Tiffany +30,republican,WI-G-H-7-2020-11-03,wi-house-general-district-007-2020-11-03,https://www.nytimes.com/interactive/2020/11/03/us/elections/results-wisconsin-house-district-7.html,https://www.nytimes.com/interactive/2020/11/03/us/elections/results-wisconsin.html,https://www.nytimes.com/interactive/2020/11/03/us/elections/ap-polls-wisconsin.html,https://www.nytimes.com/interactive/2020/11/03/us/elections/exit-polls-wisconsin.html,house,general,2020-11-03,FALSE,U.S. House District 7,U.S. House,H,solid-rep,7,District 7,WI,wisconsin,Wisconsin,Wis.,horizontal,"",FALSE,TRUE,winner,AP,FALSE,"",414787,0,unknown,Polls close at 9 p.m. Eastern time.,Polls close in,Polls have closed.,2020-11-04T02:00:00.000Z,9 p.m.,691,691,100% reporting,100%,100,414787,edison,>98%,>98% reported,edison,republican,FALSE,2020-11-24T13:24:01Z,TRUE,21.53033,89305,R+22,Tiffany +22,republican,TRUE,"","",0,0,1604467082936
55017,Chippewa,14473,0,19,19,Merged into voters' home precincts and released with cumulative results,100,14492,>98%,>98% reported,edison,10,some,5366,9722,4751,0,0,2020-11-24T13:22:37Z,34.34671,R+34,Tiffany +34,republican,WI-G-H-7-2020-11-03,wi-house-general-district-007-2020-11-03,https://www.nytimes.com/interactive/2020/11/03/us/elections/results-wisconsin-house-district-7.html,https://www.nytimes.com/interactive/2020/11/03/us/elections/results-wisconsin.html,https://www.nytimes.com/interactive/2020/11/03/us/elections/ap-polls-wisconsin.html,https://www.nytimes.com/interactive/2020/11/03/us/elections/exit-polls-wisconsin.html,house,general,2020-11-03,FALSE,U.S. House District 7,U.S. House,H,solid-rep,7,District 7,WI,wisconsin,Wisconsin,Wis.,horizontal,"",FALSE,TRUE,winner,AP,FALSE,"",414787,0,unknown,Polls close at 9 p.m. Eastern time.,Polls close in,Polls have closed.,2020-11-04T02:00:00.000Z,9 p.m.,691,691,100% reporting,100%,100,414787,edison,>98%,>98% reported,edison,republican,FALSE,2020-11-24T13:24:01Z,TRUE,21.53033,89305,R+22,Tiffany +22,republican,TRUE,"","",0,0,1604467082936
55019,Clark,14640,0,51,51,Merged into voters' home precincts and released with cumulative results,100,14640,>98%,>98% reported,edison,10,unknown,1937,9968,4672,0,0,2020-11-24T13:22:37Z,36.17486,R+36,Tiffany +36,republican,WI-G-H-7-2020-11-03,wi-house-general-district-007-2020-11-03,https://www.nytimes.com/interactive/2020/11/03/us/elections/results-wisconsin-house-district-7.html,https://www.nytimes.com/interactive/2020/11/03/us/elections/results-wisconsin.html,https://www.nytimes.com/interactive/2020/11/03/us/elections/ap-polls-wisconsin.html,https://www.nytimes.com/interactive/2020/11/03/us/elections/exit-polls-wisconsin.html,house,general,2020-11-03,FALSE,U.S. House District 7,U.S. House,H,solid-rep,7,District 7,WI,wisconsin,Wisconsin,Wis.,horizontal,"",FALSE,TRUE,winner,AP,FALSE,"",414787,0,unknown,Polls close at 9 p.m. Eastern time.,Polls close in,Polls have closed.,2020-11-04T02:00:00.000Z,9 p.m.,691,691,100% reporting,100%,100,414787,edison,>98%,>98% reported,edison,republican,FALSE,2020-11-24T13:24:01Z,TRUE,21.53033,89305,R+22,Tiffany +22,republican,TRUE,"","",0,0,1604467082936
55031,Douglas,24228,0,26,26,Merged into voters' home precincts and released with cumulative results,100,24228,>98%,>98% reported,edison,10,unknown,4935,10962,13266,0,0,2020-11-24T13:22:39Z,9.50966,D+10,Zunker +10,democrat,WI-G-H-7-2020-11-03,wi-house-general-district-007-2020-11-03,https://www.nytimes.com/interactive/2020/11/03/us/elections/results-wisconsin-house-district-7.html,https://www.nytimes.com/interactive/2020/11/03/us/elections/results-wisconsin.html,https://www.nytimes.com/interactive/2020/11/03/us/elections/ap-polls-wisconsin.html,https://www.nytimes.com/interactive/2020/11/03/us/elections/exit-polls-wisconsin.html,house,general,2020-11-03,FALSE,U.S. House District 7,U.S. House,H,solid-rep,7,District 7,WI,wisconsin,Wisconsin,Wis.,horizontal,"",FALSE,TRUE,winner,AP,FALSE,"",414787,0,unknown,Polls close at 9 p.m. Eastern time.,Polls close in,Polls have closed.,2020-11-04T02:00:00.000Z,9 p.m.,691,691,100% reporting,100%,100,414787,edison,>98%,>98% reported,edison,republican,FALSE,2020-11-24T13:24:01Z,TRUE,21.53033,89305,R+22,Tiffany +22,republican,TRUE,"","",0,0,1604467082936
55037,Florence,2901,0,8,8,Released as a separate subtotal at the end of tabulation,100,2901,>98%,>98% reported,edison,10,unknown,602,2149,752,0,0,2020-11-24T13:22:50Z,48.15581,R+48,Tiffany +48,republican,WI-G-H-7-2020-11-03,wi-house-general-district-007-2020-11-03,https://www.nytimes.com/interactive/2020/11/03/us/elections/results-wisconsin-house-district-7.html,https://www.nytimes.com/interactive/2020/11/03/us/elections/results-wisconsin.html,https://www.nytimes.com/interactive/2020/11/03/us/elections/ap-polls-wisconsin.html,https://www.nytimes.com/interactive/2020/11/03/us/elections/exit-polls-wisconsin.html,house,general,2020-11-03,FALSE,U.S. House District 7,U.S. House,H,solid-rep,7,District 7,WI,wisconsin,Wisconsin,Wis.,horizontal,"",FALSE,TRUE,winner,AP,FALSE,"",414787,0,unknown,Polls close at 9 p.m. Eastern time.,Polls close in,Polls have closed.,2020-11-04T02:00:00.000Z,9 p.m.,691,691,100% reporting,100%,100,414787,edison,>98%,>98% reported,edison,republican,FALSE,2020-11-24T13:24:01Z,TRUE,21.53033,89305,R+22,Tiffany +22,republican,TRUE,"","",0,0,1604467082936
55041,Forest,4989,0,15,15,Released as a separate subtotal at the end of tabulation,100,4989,>98%,>98% reported,edison,10,unknown,878,3212,1777,0,0,2020-11-24T13:22:51Z,28.76328,R+29,Tiffany +29,republican,WI-G-H-7-2020-11-03,wi-house-general-district-007-2020-11-03,https://www.nytimes.com/interactive/2020/11/03/us/elections/results-wisconsin-house-district-7.html,https://www.nytimes.com/interactive/2020/11/03/us/elections/results-wisconsin.html,https://www.nytimes.com/interactive/2020/11/03/us/elections/ap-polls-wisconsin.html,https://www.nytimes.com/interactive/2020/11/03/us/elections/exit-polls-wisconsin.html,house,general,2020-11-03,FALSE,U.S. House District 7,U.S. House,H,solid-rep,7,District 7,WI,wisconsin,Wisconsin,Wis.,horizontal,"",FALSE,TRUE,winner,AP,FALSE,"",414787,0,unknown,Polls close at 9 p.m. Eastern time.,Polls close in,Polls have closed.,2020-11-04T02:00:00.000Z,9 p.m.,691,691,100% reporting,100%,100,414787,edison,>98%,>98% reported,edison,republican,FALSE,2020-11-24T13:24:01Z,TRUE,21.53033,89305,R+22,Tiffany +22,republican,TRUE,"","",0,0,1604467082936
55051,Iron,3938,0,19,19,Merged into voters' home precincts and released with cumulative results,100,3938,>98%,>98% reported,edison,10,unknown,1020,2396,1542,0,0,2020-11-24T13:22:40Z,21.68614,R+22,Tiffany +22,republican,WI-G-H-7-2020-11-03,wi-house-general-district-007-2020-11-03,https://www.nytimes.com/interactive/2020/11/03/us/elections/results-wisconsin-house-district-7.html,https://www.nytimes.com/interactive/2020/11/03/us/elections/results-wisconsin.html,https://www.nytimes.com/interactive/2020/11/03/us/elections/ap-polls-wisconsin.html,https://www.nytimes.com/interactive/2020/11/03/us/elections/exit-polls-wisconsin.html,house,general,2020-11-03,FALSE,U.S. House District 7,U.S. House,H,solid-rep,7,District 7,WI,wisconsin,Wisconsin,Wis.,horizontal,"",FALSE,TRUE,winner,AP,FALSE,"",414787,0,unknown,Polls close at 9 p.m. Eastern time.,Polls close in,Polls have closed.,2020-11-04T02:00:00.000Z,9 p.m.,691,691,100% reporting,100%,100,414787,edison,>98%,>98% reported,edison,republican,FALSE,2020-11-24T13:24:01Z,TRUE,21.53033,89305,R+22,Tiffany +22,republican,TRUE,"","",0,0,1604467082936
55053,Jackson,1090,0,3,3,None,100,1090,>98%,>98% reported,edison,10,unknown,1378,764,326,0,0,2020-11-24T13:22:52Z,40.18349,R+40,Tiffany +40,republican,WI-G-H-7-2020-11-03,wi-house-general-district-007-2020-11-03,https://www.nytimes.com/interactive/2020/11/03/us/elections/results-wisconsin-house-district-7.html,https://www.nytimes.com/interactive/2020/11/03/us/elections/results-wisconsin.html,https://www.nytimes.com/interactive/2020/11/03/us/elections/ap-polls-wisconsin.html,https://www.nytimes.com/interactive/2020/11/03/us/elections/exit-polls-wisconsin.html,house,general,2020-11-03,FALSE,U.S. House District 7,U.S. House,H,solid-rep,7,District 7,WI,wisconsin,Wisconsin,Wis.,horizontal,"",FALSE,TRUE,winner,AP,FALSE,"",414787,0,unknown,Polls close at 9 p.m. Eastern time.,Polls close in,Polls have closed.,2020-11-04T02:00:00.000Z,9 p.m.,691,691,100% reporting,100%,100,414787,edison,>98%,>98% reported,edison,republican,FALSE,2020-11-24T13:24:01Z,TRUE,21.53033,89305,R+22,Tiffany +22,republican,TRUE,"","",0,0,1604467082936
55057,Juneau,3443,0,7,7,Released as a separate subtotal at the end of tabulation,100,3443,>98%,>98% reported,edison,10,unknown,1959,2403,1040,0,0,2020-11-24T13:22:52Z,39.58757,R+40,Tiffany +40,republican,WI-G-H-7-2020-11-03,wi-house-general-district-007-2020-11-03,https://www.nytimes.com/interactive/2020/11/03/us/elections/results-wisconsin-house-district-7.html,https://www.nytimes.com/interactive/2020/11/03/us/elections/results-wisconsin.html,https://www.nytimes.com/interactive/2020/11/03/us/elections/ap-polls-wisconsin.html,https://www.nytimes.com/interactive/2020/11/03/us/elections/exit-polls-wisconsin.html,house,general,2020-11-03,FALSE,U.S. House District 7,U.S. House,H,solid-rep,7,District 7,WI,wisconsin,Wisconsin,Wis.,horizontal,"",FALSE,TRUE,winner,AP,FALSE,"",414787,0,unknown,Polls close at 9 p.m. Eastern time.,Polls close in,Polls have closed.,2020-11-04T02:00:00.000Z,9 p.m.,691,691,100% reporting,100%,100,414787,edison,>98%,>98% reported,edison,republican,FALSE,2020-11-24T13:24:01Z,TRUE,21.53033,89305,R+22,Tiffany +22,republican,TRUE,"","",0,0,1604467082936
55067,Langlade,11089,0,27,27,Merged into voters' home precincts and released with cumulative results,100,11089,>98%,>98% reported,edison,10,unknown,2079,7413,3676,0,0,2020-11-24T13:22:41Z,33.70006,R+34,Tiffany +34,republican,WI-G-H-7-2020-11-03,wi-house-general-district-007-2020-11-03,https://www.nytimes.com/interactive/2020/11/03/us/elections/results-wisconsin-house-district-7.html,https://www.nytimes.com/interactive/2020/11/03/us/elections/results-wisconsin.html,https://www.nytimes.com/interactive/2020/11/03/us/elections/ap-polls-wisconsin.html,https://www.nytimes.com/interactive/2020/11/03/us/elections/exit-polls-wisconsin.html,house,general,2020-11-03,FALSE,U.S. House District 7,U.S. House,H,solid-rep,7,District 7,WI,wisconsin,Wisconsin,Wis.,horizontal,"",FALSE,TRUE,winner,AP,FALSE,"",414787,0,unknown,Polls close at 9 p.m. Eastern time.,Polls close in,Polls have closed.,2020-11-04T02:00:00.000Z,9 p.m.,691,691,100% reporting,100%,100,414787,edison,>98%,>98% reported,edison,republican,FALSE,2020-11-24T13:24:01Z,TRUE,21.53033,89305,R+22,Tiffany +22,republican,TRUE,"","",0,0,1604467082936
55069,Lincoln,16252,0,27,27,Merged into voters' home precincts and released with cumulative results,100,16252,>98%,>98% reported,edison,10,unknown,2972,10123,6129,0,0,2020-11-24T13:22:50Z,24.57544,R+25,Tiffany +25,republican,WI-G-H-7-2020-11-03,wi-house-general-district-007-2020-11-03,https://www.nytimes.com/interactive/2020/11/03/us/elections/results-wisconsin-house-district-7.html,https://www.nytimes.com/interactive/2020/11/03/us/elections/results-wisconsin.html,https://www.nytimes.com/interactive/2020/11/03/us/elections/ap-polls-wisconsin.html,https://www.nytimes.com/interactive/2020/11/03/us/elections/exit-polls-wisconsin.html,house,general,2020-11-03,FALSE,U.S. House District 7,U.S. House,H,solid-rep,7,District 7,WI,wisconsin,Wisconsin,Wis.,horizontal,"",FALSE,TRUE,winner,AP,FALSE,"",414787,0,unknown,Polls close at 9 p.m. Eastern time.,Polls close in,Polls have closed.,2020-11-04T02:00:00.000Z,9 p.m.,691,691,100% reporting,100%,100,414787,edison,>98%,>98% reported,edison,republican,FALSE,2020-11-24T13:24:01Z,TRUE,21.53033,89305,R+22,Tiffany +22,republican,TRUE,"","",0,0,1604467082936
55073,Marathon,75866,0,109,109,Merged into voters' home precincts and released with cumulative results,100,75866,>98%,>98% reported,edison,10,unknown,23595,46096,29770,0,0,2020-11-24T13:22:42Z,21.51952,R+22,Tiffany +22,republican,WI-G-H-7-2020-11-03,wi-house-general-district-007-2020-11-03,https://www.nytimes.com/interactive/2020/11/03/us/elections/results-wisconsin-house-district-7.html,https://www.nytimes.com/interactive/2020/11/03/us/elections/results-wisconsin.html,https://www.nytimes.com/interactive/2020/11/03/us/elections/ap-polls-wisconsin.html,https://www.nytimes.com/interactive/2020/11/03/us/elections/exit-polls-wisconsin.html,house,general,2020-11-03,FALSE,U.S. House District 7,U.S. House,H,solid-rep,7,District 7,WI,wisconsin,Wisconsin,Wis.,horizontal,"",FALSE,TRUE,winner,AP,FALSE,"",414787,0,unknown,Polls close at 9 p.m. Eastern time.,Polls close in,Polls have closed.,2020-11-04T02:00:00.000Z,9 p.m.,691,691,100% reporting,100%,100,414787,edison,>98%,>98% reported,edison,republican,FALSE,2020-11-24T13:24:01Z,TRUE,21.53033,89305,R+22,Tiffany +22,republican,TRUE,"","",0,0,1604467082936
55081,Monroe,2635,0,5,5,Merged into voters' home precincts and released with cumulative results,100,2635,>98%,>98% reported,edison,10,unknown,5014,1839,796,0,0,2020-11-24T13:22:52Z,39.58254,R+40,Tiffany +40,republican,WI-G-H-7-2020-11-03,wi-house-general-district-007-2020-11-03,https://www.nytimes.com/interactive/2020/11/03/us/elections/results-wisconsin-house-district-7.html,https://www.nytimes.com/interactive/2020/11/03/us/elections/results-wisconsin.html,https://www.nytimes.com/interactive/2020/11/03/us/elections/ap-polls-wisconsin.html,https://www.nytimes.com/interactive/2020/11/03/us/elections/exit-polls-wisconsin.html,house,general,2020-11-03,FALSE,U.S. House District 7,U.S. House,H,solid-rep,7,District 7,WI,wisconsin,Wisconsin,Wis.,horizontal,"",FALSE,TRUE,winner,AP,FALSE,"",414787,0,unknown,Polls close at 9 p.m. Eastern time.,Polls close in,Polls have closed.,2020-11-04T02:00:00.000Z,9 p.m.,691,691,100% reporting,100%,100,414787,edison,>98%,>98% reported,edison,republican,FALSE,2020-11-24T13:24:01Z,TRUE,21.53033,89305,R+22,Tiffany +22,republican,TRUE,"","",0,0,1604467082936
55085,Oneida,23856,0,29,29,Merged into voters' home precincts and released with cumulative results,100,23856,>98%,>98% reported,edison,10,unknown,3561,13877,9979,0,0,2020-11-24T13:22:43Z,16.3397,R+16,Tiffany +16,republican,WI-G-H-7-2020-11-03,wi-house-general-district-007-2020-11-03,https://www.nytimes.com/interactive/2020/11/03/us/elections/results-wisconsin-house-district-7.html,https://www.nytimes.com/interactive/2020/11/03/us/elections/results-wisconsin.html,https://www.nytimes.com/interactive/2020/11/03/us/elections/ap-polls-wisconsin.html,https://www.nytimes.com/interactive/2020/11/03/us/elections/exit-polls-wisconsin.html,house,general,2020-11-03,FALSE,U.S. House District 7,U.S. House,H,solid-rep,7,District 7,WI,wisconsin,Wisconsin,Wis.,horizontal,"",FALSE,TRUE,winner,AP,FALSE,"",414787,0,unknown,Polls close at 9 p.m. Eastern time.,Polls close in,Polls have closed.,2020-11-04T02:00:00.000Z,9 p.m.,691,691,100% reporting,100%,100,414787,edison,>98%,>98% reported,edison,republican,FALSE,2020-11-24T13:24:01Z,TRUE,21.53033,89305,R+22,Tiffany +22,republican,TRUE,"","",0,0,1604467082936
55095,Polk,25972,0,36,36,Merged into voters' home precincts and released with cumulative results,100,25972,>98%,>98% reported,edison,10,unknown,3181,16701,9271,0,0,2020-11-24T13:22:43Z,28.60773,R+29,Tiffany +29,republican,WI-G-H-7-2020-11-03,wi-house-general-district-007-2020-11-03,https://www.nytimes.com/interactive/2020/11/03/us/elections/results-wisconsin-house-district-7.html,https://www.nytimes.com/interactive/2020/11/03/us/elections/results-wisconsin.html,https://www.nytimes.com/interactive/2020/11/03/us/elections/ap-polls-wisconsin.html,https://www.nytimes.com/interactive/2020/11/03/us/elections/exit-polls-wisconsin.html,house,general,2020-11-03,FALSE,U.S. House District 7,U.S. House,H,solid-rep,7,District 7,WI,wisconsin,Wisconsin,Wis.,horizontal,"",FALSE,TRUE,winner,AP,FALSE,"",414787,0,unknown,Polls close at 9 p.m. Eastern time.,Polls close in,Polls have closed.,2020-11-04T02:00:00.000Z,9 p.m.,691,691,100% reporting,100%,100,414787,edison,>98%,>98% reported,edison,republican,FALSE,2020-11-24T13:24:01Z,TRUE,21.53033,89305,R+22,Tiffany +22,republican,TRUE,"","",0,0,1604467082936
55099,Price,8443,0,23,23,Merged into voters' home precincts and released with cumulative results,100,8443,>98%,>98% reported,edison,10,unknown,1569,5327,3116,0,0,2020-11-24T13:22:43Z,26.18737,R+26,Tiffany +26,republican,WI-G-H-7-2020-11-03,wi-house-general-district-007-2020-11-03,https://www.nytimes.com/interactive/2020/11/03/us/elections/results-wisconsin-house-district-7.html,https://www.nytimes.com/interactive/2020/11/03/us/elections/results-wisconsin.html,https://www.nytimes.com/interactive/2020/11/03/us/elections/ap-polls-wisconsin.html,https://www.nytimes.com/interactive/2020/11/03/us/elections/exit-polls-wisconsin.html,house,general,2020-11-03,FALSE,U.S. House District 7,U.S. House,H,solid-rep,7,District 7,WI,wisconsin,Wisconsin,Wis.,horizontal,"",FALSE,TRUE,winner,AP,FALSE,"",414787,0,unknown,Polls close at 9 p.m. Eastern time.,Polls close in,Polls have closed.,2020-11-04T02:00:00.000Z,9 p.m.,691,691,100% reporting,100%,100,414787,edison,>98%,>98% reported,edison,republican,FALSE,2020-11-24T13:24:01Z,TRUE,21.53033,89305,R+22,Tiffany +22,republican,TRUE,"","",0,0,1604467082936
55107,Rusk,7725,0,33,33,Released as a separate subtotal at the end of tabulation,100,7725,>98%,>98% reported,edison,10,unknown,1175,5172,2553,0,0,2020-11-24T13:22:44Z,33.90291,R+34,Tiffany +34,republican,WI-G-H-7-2020-11-03,wi-house-general-district-007-2020-11-03,https://www.nytimes.com/interactive/2020/11/03/us/elections/results-wisconsin-house-district-7.html,https://www.nytimes.com/interactive/2020/11/03/us/elections/results-wisconsin.html,https://www.nytimes.com/interactive/2020/11/03/us/elections/ap-polls-wisconsin.html,https://www.nytimes.com/interactive/2020/11/03/us/elections/exit-polls-wisconsin.html,house,general,2020-11-03,FALSE,U.S. House District 7,U.S. House,H,solid-rep,7,District 7,WI,wisconsin,Wisconsin,Wis.,horizontal,"",FALSE,TRUE,winner,AP,FALSE,"",414787,0,unknown,Polls close at 9 p.m. Eastern time.,Polls close in,Polls have closed.,2020-11-04T02:00:00.000Z,9 p.m.,691,691,100% reporting,100%,100,414787,edison,>98%,>98% reported,edison,republican,FALSE,2020-11-24T13:24:01Z,TRUE,21.53033,89305,R+22,Tiffany +22,republican,TRUE,"","",0,0,1604467082936
55113,Sawyer,10365,0,21,21,Merged into voters' home precincts and released with cumulative results,100,10365,>98%,>98% reported,edison,10,unknown,2219,5917,4448,0,0,2020-11-24T13:22:44Z,14.1727,R+14,Tiffany +14,republican,WI-G-H-7-2020-11-03,wi-house-general-district-007-2020-11-03,https://www.nytimes.com/interactive/2020/11/03/us/elections/results-wisconsin-house-district-7.html,https://www.nytimes.com/interactive/2020/11/03/us/elections/results-wisconsin.html,https://www.nytimes.com/interactive/2020/11/03/us/elections/ap-polls-wisconsin.html,https://www.nytimes.com/interactive/2020/11/03/us/elections/exit-polls-wisconsin.html,house,general,2020-11-03,FALSE,U.S. House District 7,U.S. House,H,solid-rep,7,District 7,WI,wisconsin,Wisconsin,Wis.,horizontal,"",FALSE,TRUE,winner,AP,FALSE,"",414787,0,unknown,Polls close at 9 p.m. Eastern time.,Polls close in,Polls have closed.,2020-11-04T02:00:00.000Z,9 p.m.,691,691,100% reporting,100%,100,414787,edison,>98%,>98% reported,edison,republican,FALSE,2020-11-24T13:24:01Z,TRUE,21.53033,89305,R+22,Tiffany +22,republican,TRUE,"","",0,0,1604467082936
55109,St. Croix,55650,0,42,42,Merged into voters' home precincts and released with cumulative results,100,55650,>98%,>98% reported,edison,10,unknown,11700,33296,22354,0,0,2020-11-24T13:22:53Z,19.66217,R+20,Tiffany +20,republican,WI-G-H-7-2020-11-03,wi-house-general-district-007-2020-11-03,https://www.nytimes.com/interactive/2020/11/03/us/elections/results-wisconsin-house-district-7.html,https://www.nytimes.com/interactive/2020/11/03/us/elections/results-wisconsin.html,https://www.nytimes.com/interactive/2020/11/03/us/elections/ap-polls-wisconsin.html,https://www.nytimes.com/interactive/2020/11/03/us/elections/exit-polls-wisconsin.html,house,general,2020-11-03,FALSE,U.S. House District 7,U.S. House,H,solid-rep,7,District 7,WI,wisconsin,Wisconsin,Wis.,horizontal,"",FALSE,TRUE,winner,AP,FALSE,"",414787,0,unknown,Polls close at 9 p.m. Eastern time.,Polls close in,Polls have closed.,2020-11-04T02:00:00.000Z,9 p.m.,691,691,100% reporting,100%,100,414787,edison,>98%,>98% reported,edison,republican,FALSE,2020-11-24T13:24:01Z,TRUE,21.53033,89305,R+22,Tiffany +22,republican,TRUE,"","",0,0,1604467082936
55119,Taylor,10524,0,27,27,Merged into voters' home precincts and released with cumulative results,100,10524,>98%,>98% reported,edison,10,unknown,1742,7841,2683,0,0,2020-11-24T13:22:45Z,49.01178,R+49,Tiffany +49,republican,WI-G-H-7-2020-11-03,wi-house-general-district-007-2020-11-03,https://www.nytimes.com/interactive/2020/11/03/us/elections/results-wisconsin-house-district-7.html,https://www.nytimes.com/interactive/2020/11/03/us/elections/results-wisconsin.html,https://www.nytimes.com/interactive/2020/11/03/us/elections/ap-polls-wisconsin.html,https://www.nytimes.com/interactive/2020/11/03/us/elections/exit-polls-wisconsin.html,house,general,2020-11-03,FALSE,U.S. House District 7,U.S. House,H,solid-rep,7,District 7,WI,wisconsin,Wisconsin,Wis.,horizontal,"",FALSE,TRUE,winner,AP,FALSE,"",414787,0,unknown,Polls close at 9 p.m. Eastern time.,Polls close in,Polls have closed.,2020-11-04T02:00:00.000Z,9 p.m.,691,691,100% reporting,100%,100,414787,edison,>98%,>98% reported,edison,republican,FALSE,2020-11-24T13:24:01Z,TRUE,21.53033,89305,R+22,Tiffany +22,republican,TRUE,"","",0,0,1604467082936
55125,Vilas,15260,0,15,15,Released as a separate subtotal at the end of tabulation,100,15260,>98%,>98% reported,edison,10,unknown,3774,9499,5761,0,0,2020-11-24T13:22:53Z,24.49541,R+24,Tiffany +24,republican,WI-G-H-7-2020-11-03,wi-house-general-district-007-2020-11-03,https://www.nytimes.com/interactive/2020/11/03/us/elections/results-wisconsin-house-district-7.html,https://www.nytimes.com/interactive/2020/11/03/us/elections/results-wisconsin.html,https://www.nytimes.com/interactive/2020/11/03/us/elections/ap-polls-wisconsin.html,https://www.nytimes.com/interactive/2020/11/03/us/elections/exit-polls-wisconsin.html,house,general,2020-11-03,FALSE,U.S. House District 7,U.S. House,H,solid-rep,7,District 7,WI,wisconsin,Wisconsin,Wis.,horizontal,"",FALSE,TRUE,winner,AP,FALSE,"",414787,0,unknown,Polls close at 9 p.m. Eastern time.,Polls close in,Polls have closed.,2020-11-04T02:00:00.000Z,9 p.m.,691,691,100% reporting,100%,100,414787,edison,>98%,>98% reported,edison,republican,FALSE,2020-11-24T13:24:01Z,TRUE,21.53033,89305,R+22,Tiffany +22,republican,TRUE,"","",0,0,1604467082936
55129,Washburn,10231,0,25,25,Merged into voters' home precincts and released with cumulative results,100,10231,>98%,>98% reported,edison,10,unknown,1629,6385,3846,0,0,2020-11-24T13:22:47Z,24.81673,R+25,Tiffany +25,republican,WI-G-H-7-2020-11-03,wi-house-general-district-007-2020-11-03,https://www.nytimes.com/interactive/2020/11/03/us/elections/results-wisconsin-house-district-7.html,https://www.nytimes.com/interactive/2020/11/03/us/elections/results-wisconsin.html,https://www.nytimes.com/interactive/2020/11/03/us/elections/ap-polls-wisconsin.html,https://www.nytimes.com/interactive/2020/11/03/us/elections/exit-polls-wisconsin.html,house,general,2020-11-03,FALSE,U.S. House District 7,U.S. House,H,solid-rep,7,District 7,WI,wisconsin,Wisconsin,Wis.,horizontal,"",FALSE,TRUE,winner,AP,FALSE,"",414787,0,unknown,Polls close at 9 p.m. Eastern time.,Polls close in,Polls have closed.,2020-11-04T02:00:00.000Z,9 p.m.,691,691,100% reporting,100%,100,414787,edison,>98%,>98% reported,edison,republican,FALSE,2020-11-24T13:24:01Z,TRUE,21.53033,89305,R+22,Tiffany +22,republican,TRUE,"","",0,0,1604467082936
55141,Wood,16929,0,18,18,Merged into voters' home precincts and released with cumulative results,100,16929,>98%,>98% reported,edison,10,unknown,11250,10216,6713,0,0,2020-11-24T13:22:48Z,20.6923,R+21,Tiffany +21,republican,WI-G-H-7-2020-11-03,wi-house-general-district-007-2020-11-03,https://www.nytimes.com/interactive/2020/11/03/us/elections/results-wisconsin-house-district-7.html,https://www.nytimes.com/interactive/2020/11/03/us/elections/results-wisconsin.html,https://www.nytimes.com/interactive/2020/11/03/us/elections/ap-polls-wisconsin.html,https://www.nytimes.com/interactive/2020/11/03/us/elections/exit-polls-wisconsin.html,house,general,2020-11-03,FALSE,U.S. House District 7,U.S. House,H,solid-rep,7,District 7,WI,wisconsin,Wisconsin,Wis.,horizontal,"",FALSE,TRUE,winner,AP,FALSE,"",414787,0,unknown,Polls close at 9 p.m. Eastern time.,Polls close in,Polls have closed.,2020-11-04T02:00:00.000Z,9 p.m.,691,691,100% reporting,100%,100,414787,edison,>98%,>98% reported,edison,republican,FALSE,2020-11-24T13:24:01Z,TRUE,21.53033,89305,R+22,Tiffany +22,republican,TRUE,"","",0,0,1604467082936
