fips,name,votes,absentee_votes,reporting,precincts,absentee_method,eevp,tot_exp_vote,eevp_value,eevp_display,eevp_source,turnout_stage,absentee_count_progress,absentee_max_ballots,results_williamsn,results_stanton_kinga,results_absentee_williamsn,results_absentee_stanton_kinga,last_updated,leader_margin_value,leader_margin_display,leader_margin_name_display,leader_party_id,race_id_race,race_slug_race,url_race,state_page_url_race,ap_polls_page_race,edison_exit_polls_page_race,race_type_race,election_type_race,election_date_race,runoff_race,race_name_race,office_race,officeid_race,race_rating_race,seat_race,seat_name_race,state_id_race,state_slug_race,state_name_race,state_nyt_abbrev_race,state_shape_race,state_aspect_ratio_race,party_id_race,uncontested_race,report_race,result_race,result_source_race,gain_race,lost_seat_race,votes_race,absentee_votes_race,absentee_counties_race,absentee_count_progress_race,poll_display_race,poll_countdown_display_race,poll_waiting_display_race,poll_time_race,poll_time_short_race,precincts_reporting_race,precincts_total_race,reporting_display_race,reporting_value_race,eevp_race,tot_exp_vote_race,eevp_source_race,eevp_value_race,eevp_display_race,county_data_source_race,incumbent_party_race,no_forecast_race,last_updated_race,has_incumbent_race,leader_margin_value_race,leader_margin_votes_race,leader_margin_display_race,leader_margin_name_display_race,leader_party_id_race,edison_certified_race,expectations_text_race,expectations_text_short_race,absentee_ballot_deadline_race,absentee_postmark_deadline_race,winner_called_timestamp_race
13063,Clayton,38661,30764,23,23,None,100,38661,>98%,>98% reported,edison,10,unknown,91435,32960,5701,26367,4397,2020-11-24T13:26:07Z,70.50775,D+71,Williams +71,democrat,GA-G-H-5-2020-11-03,ga-house-general-district-005-2020-11-03,https://www.nytimes.com/interactive/2020/11/03/us/elections/results-georgia-house-district-5.html,https://www.nytimes.com/interactive/2020/11/03/us/elections/results-georgia.html,https://www.nytimes.com/interactive/2020/11/03/us/elections/ap-polls-georgia.html,https://www.nytimes.com/interactive/2020/11/03/us/elections/exit-polls-georgia.html,house,general,2020-11-03,FALSE,U.S. House District 5,U.S. House,H,solid-dem,5,District 5,GA,georgia,Georgia,Ga.,vertical,1.3,"",FALSE,TRUE,winner,AP,FALSE,"",354503,307032,3,unknown,Polls close at 7 p.m. Eastern time.,Polls close in,Polls have closed.,2020-11-04T00:00:00.000Z,7 p.m.,245,245,100% reporting,100%,100,354503,edison,>98%,>98% reported,edison,democrat,FALSE,2020-11-24T13:24:05Z,FALSE,70.2987,249211,D+70,Williams +70,democrat,TRUE,"Because of the small margin between the candidates, the secretary of state authorized a hand recount of the presidential election in the state.","Because of the small margin between the candidates, the secretary of state authorized a hand recount of the presidential election in the state.",0,0,1604466742383
13089,DeKalb,91751,81786,48,48,Released with cumulative results periodically election night,100,91751,>98%,>98% reported,edison,10,unknown,261315,80848,10903,73241,8545,2020-11-24T13:26:07Z,76.2335,D+76,Williams +76,democrat,GA-G-H-5-2020-11-03,ga-house-general-district-005-2020-11-03,https://www.nytimes.com/interactive/2020/11/03/us/elections/results-georgia-house-district-5.html,https://www.nytimes.com/interactive/2020/11/03/us/elections/results-georgia.html,https://www.nytimes.com/interactive/2020/11/03/us/elections/ap-polls-georgia.html,https://www.nytimes.com/interactive/2020/11/03/us/elections/exit-polls-georgia.html,house,general,2020-11-03,FALSE,U.S. House District 5,U.S. House,H,solid-dem,5,District 5,GA,georgia,Georgia,Ga.,vertical,1.3,"",FALSE,TRUE,winner,AP,FALSE,"",354503,307032,3,unknown,Polls close at 7 p.m. Eastern time.,Polls close in,Polls have closed.,2020-11-04T00:00:00.000Z,7 p.m.,245,245,100% reporting,100%,100,354503,edison,>98%,>98% reported,edison,democrat,FALSE,2020-11-24T13:24:05Z,FALSE,70.2987,249211,D+70,Williams +70,democrat,TRUE,"Because of the small margin between the candidates, the secretary of state authorized a hand recount of the presidential election in the state.","Because of the small margin between the candidates, the secretary of state authorized a hand recount of the presidential election in the state.",0,0,1604466742383
13121,Fulton,224091,194482,174,174,Released as a precinct as first report of the night,100,224091,>98%,>98% reported,edison,10,unknown,262589,188049,36042,164914,29568,2020-11-24T13:26:07Z,67.83271,D+68,Williams +68,democrat,GA-G-H-5-2020-11-03,ga-house-general-district-005-2020-11-03,https://www.nytimes.com/interactive/2020/11/03/us/elections/results-georgia-house-district-5.html,https://www.nytimes.com/interactive/2020/11/03/us/elections/results-georgia.html,https://www.nytimes.com/interactive/2020/11/03/us/elections/ap-polls-georgia.html,https://www.nytimes.com/interactive/2020/11/03/us/elections/exit-polls-georgia.html,house,general,2020-11-03,FALSE,U.S. House District 5,U.S. House,H,solid-dem,5,District 5,GA,georgia,Georgia,Ga.,vertical,1.3,"",FALSE,TRUE,winner,AP,FALSE,"",354503,307032,3,unknown,Polls close at 7 p.m. Eastern time.,Polls close in,Polls have closed.,2020-11-04T00:00:00.000Z,7 p.m.,245,245,100% reporting,100%,100,354503,edison,>98%,>98% reported,edison,democrat,FALSE,2020-11-24T13:24:05Z,FALSE,70.2987,249211,D+70,Williams +70,democrat,TRUE,"Because of the small margin between the candidates, the secretary of state authorized a hand recount of the presidential election in the state.","Because of the small margin between the candidates, the secretary of state authorized a hand recount of the presidential election in the state.",0,0,1604466742383
