fips,name,votes,absentee_votes,reporting,precincts,absentee_method,eevp,tot_exp_vote,eevp_value,eevp_display,eevp_source,turnout_stage,absentee_count_progress,absentee_max_ballots,results_rogersh,results_bestm,results_write_ins,results_absentee_rogersh,results_absentee_bestm,results_absentee_write_ins,last_updated,leader_margin_value,leader_margin_display,leader_margin_name_display,leader_party_id,race_id_race,race_slug_race,url_race,state_page_url_race,ap_polls_page_race,edison_exit_polls_page_race,race_type_race,election_type_race,election_date_race,runoff_race,race_name_race,office_race,officeid_race,race_rating_race,seat_race,seat_name_race,state_id_race,state_slug_race,state_name_race,state_nyt_abbrev_race,state_shape_race,party_id_race,uncontested_race,report_race,result_race,result_source_race,gain_race,lost_seat_race,votes_race,absentee_votes_race,absentee_counties_race,absentee_count_progress_race,poll_display_race,poll_countdown_display_race,poll_waiting_display_race,poll_time_race,poll_time_short_race,precincts_reporting_race,precincts_total_race,reporting_display_race,reporting_value_race,eevp_race,tot_exp_vote_race,eevp_source_race,eevp_value_race,eevp_display_race,county_data_source_race,incumbent_party_race,no_forecast_race,last_updated_race,has_incumbent_race,leader_margin_value_race,leader_margin_votes_race,leader_margin_display_race,leader_margin_name_display_race,leader_party_id_race,edison_certified_race,expectations_text_race,expectations_text_short_race,absentee_ballot_deadline_race,absentee_postmark_deadline_race,winner_called_timestamp_race
21013,Bell,9866,0,30,30,Merged into voters' home precincts and released with cumulative results,100,9866,>98%,>98% reported,edison,10,all,963,8428,1438,0,0,0,0,2020-11-24T13:25:51Z,70.84938,R+71,Rogers +71,republican,KY-G-H-5-2020-11-03,ky-house-general-district-005-2020-11-03,https://www.nytimes.com/interactive/2020/11/03/us/elections/results-kentucky-house-district-5.html,https://www.nytimes.com/interactive/2020/11/03/us/elections/results-kentucky.html,https://www.nytimes.com/interactive/2020/11/03/us/elections/ap-polls-kentucky.html,https://www.nytimes.com/interactive/2020/11/03/us/elections/exit-polls-kentucky.html,house,general,2020-11-03,FALSE,U.S. House District 5,U.S. House,H,solid-rep,5,District 5,KY,kentucky,Kentucky,Ky.,horizontal,"",FALSE,TRUE,winner,AP,FALSE,"",297977,33480,11,unknown,First polls close at 6 p.m. Eastern time.,First polls close in,Most polls have closed.,2020-11-03T23:00:00.000Z,6 p.m.,734,734,100% reporting,100%,100,297977,edison,>98%,>98% reported,edison,republican,FALSE,2020-11-24T13:22:43Z,TRUE,68.41401,203858,R+68,Rogers +68,republican,TRUE,"","",3,0,1604446196365
21019,Boyd,4515,0,10,10,Merged into voters' home precincts and released with cumulative results,100,4515,>98%,>98% reported,edison,10,all,1979,3315,1200,0,0,0,0,2020-11-24T13:25:53Z,46.84385,R+47,Rogers +47,republican,KY-G-H-5-2020-11-03,ky-house-general-district-005-2020-11-03,https://www.nytimes.com/interactive/2020/11/03/us/elections/results-kentucky-house-district-5.html,https://www.nytimes.com/interactive/2020/11/03/us/elections/results-kentucky.html,https://www.nytimes.com/interactive/2020/11/03/us/elections/ap-polls-kentucky.html,https://www.nytimes.com/interactive/2020/11/03/us/elections/exit-polls-kentucky.html,house,general,2020-11-03,FALSE,U.S. House District 5,U.S. House,H,solid-rep,5,District 5,KY,kentucky,Kentucky,Ky.,horizontal,"",FALSE,TRUE,winner,AP,FALSE,"",297977,33480,11,unknown,First polls close at 6 p.m. Eastern time.,First polls close in,Most polls have closed.,2020-11-03T23:00:00.000Z,6 p.m.,734,734,100% reporting,100%,100,297977,edison,>98%,>98% reported,edison,republican,FALSE,2020-11-24T13:22:43Z,TRUE,68.41401,203858,R+68,Rogers +68,republican,TRUE,"","",3,0,1604446196365
21025,Breathitt,5580,1444,21,21,Released as a separate subtotal as first report of the night,100,5580,>98%,>98% reported,edison,10,all,454,4428,1145,7,891,550,3,2020-11-24T13:25:51Z,58.83513,R+59,Rogers +59,republican,KY-G-H-5-2020-11-03,ky-house-general-district-005-2020-11-03,https://www.nytimes.com/interactive/2020/11/03/us/elections/results-kentucky-house-district-5.html,https://www.nytimes.com/interactive/2020/11/03/us/elections/results-kentucky.html,https://www.nytimes.com/interactive/2020/11/03/us/elections/ap-polls-kentucky.html,https://www.nytimes.com/interactive/2020/11/03/us/elections/exit-polls-kentucky.html,house,general,2020-11-03,FALSE,U.S. House District 5,U.S. House,H,solid-rep,5,District 5,KY,kentucky,Kentucky,Ky.,horizontal,"",FALSE,TRUE,winner,AP,FALSE,"",297977,33480,11,unknown,First polls close at 6 p.m. Eastern time.,First polls close in,Most polls have closed.,2020-11-03T23:00:00.000Z,6 p.m.,734,734,100% reporting,100%,100,297977,edison,>98%,>98% reported,edison,republican,FALSE,2020-11-24T13:22:43Z,TRUE,68.41401,203858,R+68,Rogers +68,republican,TRUE,"","",3,0,1604446196365
21043,Carter,11260,0,26,26,Released as a separate subtotal as first report of the night,100,11260,>98%,>98% reported,edison,10,all,899,8506,2754,0,0,0,0,2020-11-24T13:23:51Z,51.08348,R+51,Rogers +51,republican,KY-G-H-5-2020-11-03,ky-house-general-district-005-2020-11-03,https://www.nytimes.com/interactive/2020/11/03/us/elections/results-kentucky-house-district-5.html,https://www.nytimes.com/interactive/2020/11/03/us/elections/results-kentucky.html,https://www.nytimes.com/interactive/2020/11/03/us/elections/ap-polls-kentucky.html,https://www.nytimes.com/interactive/2020/11/03/us/elections/exit-polls-kentucky.html,house,general,2020-11-03,FALSE,U.S. House District 5,U.S. House,H,solid-rep,5,District 5,KY,kentucky,Kentucky,Ky.,horizontal,"",FALSE,TRUE,winner,AP,FALSE,"",297977,33480,11,unknown,First polls close at 6 p.m. Eastern time.,First polls close in,Most polls have closed.,2020-11-03T23:00:00.000Z,6 p.m.,734,734,100% reporting,100%,100,297977,edison,>98%,>98% reported,edison,republican,FALSE,2020-11-24T13:22:43Z,TRUE,68.41401,203858,R+68,Rogers +68,republican,TRUE,"","",3,0,1604446196365
21051,Clay,7540,0,20,20,Merged into voters' home precincts and released with cumulative results,100,7540,>98%,>98% reported,edison,10,all,659,6842,698,0,0,0,0,2020-11-24T13:25:51Z,81.48541,R+81,Rogers +81,republican,KY-G-H-5-2020-11-03,ky-house-general-district-005-2020-11-03,https://www.nytimes.com/interactive/2020/11/03/us/elections/results-kentucky-house-district-5.html,https://www.nytimes.com/interactive/2020/11/03/us/elections/results-kentucky.html,https://www.nytimes.com/interactive/2020/11/03/us/elections/ap-polls-kentucky.html,https://www.nytimes.com/interactive/2020/11/03/us/elections/exit-polls-kentucky.html,house,general,2020-11-03,FALSE,U.S. House District 5,U.S. House,H,solid-rep,5,District 5,KY,kentucky,Kentucky,Ky.,horizontal,"",FALSE,TRUE,winner,AP,FALSE,"",297977,33480,11,unknown,First polls close at 6 p.m. Eastern time.,First polls close in,Most polls have closed.,2020-11-03T23:00:00.000Z,6 p.m.,734,734,100% reporting,100%,100,297977,edison,>98%,>98% reported,edison,republican,FALSE,2020-11-24T13:22:43Z,TRUE,68.41401,203858,R+68,Rogers +68,republican,TRUE,"","",3,0,1604446196365
21063,Elliott,2900,584,7,7,None,100,2900,>98%,>98% reported,edison,10,all,344,2070,830,0,265,319,0,2020-11-24T13:23:52Z,42.75862,R+43,Rogers +43,republican,KY-G-H-5-2020-11-03,ky-house-general-district-005-2020-11-03,https://www.nytimes.com/interactive/2020/11/03/us/elections/results-kentucky-house-district-5.html,https://www.nytimes.com/interactive/2020/11/03/us/elections/results-kentucky.html,https://www.nytimes.com/interactive/2020/11/03/us/elections/ap-polls-kentucky.html,https://www.nytimes.com/interactive/2020/11/03/us/elections/exit-polls-kentucky.html,house,general,2020-11-03,FALSE,U.S. House District 5,U.S. House,H,solid-rep,5,District 5,KY,kentucky,Kentucky,Ky.,horizontal,"",FALSE,TRUE,winner,AP,FALSE,"",297977,33480,11,unknown,First polls close at 6 p.m. Eastern time.,First polls close in,Most polls have closed.,2020-11-03T23:00:00.000Z,6 p.m.,734,734,100% reporting,100%,100,297977,edison,>98%,>98% reported,edison,republican,FALSE,2020-11-24T13:22:43Z,TRUE,68.41401,203858,R+68,Rogers +68,republican,TRUE,"","",3,0,1604446196365
21071,Floyd,16245,3986,42,42,Released as a precinct as first report of the night,100,16245,>98%,>98% reported,edison,10,all,981,12980,3265,0,2360,1626,0,2020-11-24T13:25:52Z,59.80302,R+60,Rogers +60,republican,KY-G-H-5-2020-11-03,ky-house-general-district-005-2020-11-03,https://www.nytimes.com/interactive/2020/11/03/us/elections/results-kentucky-house-district-5.html,https://www.nytimes.com/interactive/2020/11/03/us/elections/results-kentucky.html,https://www.nytimes.com/interactive/2020/11/03/us/elections/ap-polls-kentucky.html,https://www.nytimes.com/interactive/2020/11/03/us/elections/exit-polls-kentucky.html,house,general,2020-11-03,FALSE,U.S. House District 5,U.S. House,H,solid-rep,5,District 5,KY,kentucky,Kentucky,Ky.,horizontal,"",FALSE,TRUE,winner,AP,FALSE,"",297977,33480,11,unknown,First polls close at 6 p.m. Eastern time.,First polls close in,Most polls have closed.,2020-11-03T23:00:00.000Z,6 p.m.,734,734,100% reporting,100%,100,297977,edison,>98%,>98% reported,edison,republican,FALSE,2020-11-24T13:22:43Z,TRUE,68.41401,203858,R+68,Rogers +68,republican,TRUE,"","",3,0,1604446196365
21095,Harlan,10860,0,32,32,None,100,10860,>98%,>98% reported,edison,10,all,586,9554,1306,0,0,0,0,2020-11-24T13:25:52Z,75.94843,R+76,Rogers +76,republican,KY-G-H-5-2020-11-03,ky-house-general-district-005-2020-11-03,https://www.nytimes.com/interactive/2020/11/03/us/elections/results-kentucky-house-district-5.html,https://www.nytimes.com/interactive/2020/11/03/us/elections/results-kentucky.html,https://www.nytimes.com/interactive/2020/11/03/us/elections/ap-polls-kentucky.html,https://www.nytimes.com/interactive/2020/11/03/us/elections/exit-polls-kentucky.html,house,general,2020-11-03,FALSE,U.S. House District 5,U.S. House,H,solid-rep,5,District 5,KY,kentucky,Kentucky,Ky.,horizontal,"",FALSE,TRUE,winner,AP,FALSE,"",297977,33480,11,unknown,First polls close at 6 p.m. Eastern time.,First polls close in,Most polls have closed.,2020-11-03T23:00:00.000Z,6 p.m.,734,734,100% reporting,100%,100,297977,edison,>98%,>98% reported,edison,republican,FALSE,2020-11-24T13:22:43Z,TRUE,68.41401,203858,R+68,Rogers +68,republican,TRUE,"","",3,0,1604446196365
21109,Jackson,6050,1183,14,14,Released as a separate subtotal as first report of the night,100,6050,>98%,>98% reported,edison,10,all,666,5556,494,0,928,255,0,2020-11-24T13:25:52Z,83.66942,R+84,Rogers +84,republican,KY-G-H-5-2020-11-03,ky-house-general-district-005-2020-11-03,https://www.nytimes.com/interactive/2020/11/03/us/elections/results-kentucky-house-district-5.html,https://www.nytimes.com/interactive/2020/11/03/us/elections/results-kentucky.html,https://www.nytimes.com/interactive/2020/11/03/us/elections/ap-polls-kentucky.html,https://www.nytimes.com/interactive/2020/11/03/us/elections/exit-polls-kentucky.html,house,general,2020-11-03,FALSE,U.S. House District 5,U.S. House,H,solid-rep,5,District 5,KY,kentucky,Kentucky,Ky.,horizontal,"",FALSE,TRUE,winner,AP,FALSE,"",297977,33480,11,unknown,First polls close at 6 p.m. Eastern time.,First polls close in,Most polls have closed.,2020-11-03T23:00:00.000Z,6 p.m.,734,734,100% reporting,100%,100,297977,edison,>98%,>98% reported,edison,republican,FALSE,2020-11-24T13:22:43Z,TRUE,68.41401,203858,R+68,Rogers +68,republican,TRUE,"","",3,0,1604446196365
21115,Johnson,10138,2253,31,31,Released as a separate subtotal as first report of the night,100,10138,>98%,>98% reported,edison,10,all,992,8862,1276,0,1611,642,0,2020-11-24T13:25:52Z,74.82738,R+75,Rogers +75,republican,KY-G-H-5-2020-11-03,ky-house-general-district-005-2020-11-03,https://www.nytimes.com/interactive/2020/11/03/us/elections/results-kentucky-house-district-5.html,https://www.nytimes.com/interactive/2020/11/03/us/elections/results-kentucky.html,https://www.nytimes.com/interactive/2020/11/03/us/elections/ap-polls-kentucky.html,https://www.nytimes.com/interactive/2020/11/03/us/elections/exit-polls-kentucky.html,house,general,2020-11-03,FALSE,U.S. House District 5,U.S. House,H,solid-rep,5,District 5,KY,kentucky,Kentucky,Ky.,horizontal,"",FALSE,TRUE,winner,AP,FALSE,"",297977,33480,11,unknown,First polls close at 6 p.m. Eastern time.,First polls close in,Most polls have closed.,2020-11-03T23:00:00.000Z,6 p.m.,734,734,100% reporting,100%,100,297977,edison,>98%,>98% reported,edison,republican,FALSE,2020-11-24T13:22:43Z,TRUE,68.41401,203858,R+68,Rogers +68,republican,TRUE,"","",3,0,1604446196365
21119,Knott,6181,0,30,30,Other,100,6181,>98%,>98% reported,edison,10,all,376,4920,1261,0,0,0,0,2020-11-24T13:23:25Z,59.19754,R+59,Rogers +59,republican,KY-G-H-5-2020-11-03,ky-house-general-district-005-2020-11-03,https://www.nytimes.com/interactive/2020/11/03/us/elections/results-kentucky-house-district-5.html,https://www.nytimes.com/interactive/2020/11/03/us/elections/results-kentucky.html,https://www.nytimes.com/interactive/2020/11/03/us/elections/ap-polls-kentucky.html,https://www.nytimes.com/interactive/2020/11/03/us/elections/exit-polls-kentucky.html,house,general,2020-11-03,FALSE,U.S. House District 5,U.S. House,H,solid-rep,5,District 5,KY,kentucky,Kentucky,Ky.,horizontal,"",FALSE,TRUE,winner,AP,FALSE,"",297977,33480,11,unknown,First polls close at 6 p.m. Eastern time.,First polls close in,Most polls have closed.,2020-11-03T23:00:00.000Z,6 p.m.,734,734,100% reporting,100%,100,297977,edison,>98%,>98% reported,edison,republican,FALSE,2020-11-24T13:22:43Z,TRUE,68.41401,203858,R+68,Rogers +68,republican,TRUE,"","",3,0,1604446196365
21121,Knox,13124,2455,30,30,"Released as first report, then NOT included in cumulative results",100,13124,>98%,>98% reported,edison,10,all,1179,11523,1601,0,1723,732,0,2020-11-24T13:23:30Z,75.60195,R+76,Rogers +76,republican,KY-G-H-5-2020-11-03,ky-house-general-district-005-2020-11-03,https://www.nytimes.com/interactive/2020/11/03/us/elections/results-kentucky-house-district-5.html,https://www.nytimes.com/interactive/2020/11/03/us/elections/results-kentucky.html,https://www.nytimes.com/interactive/2020/11/03/us/elections/ap-polls-kentucky.html,https://www.nytimes.com/interactive/2020/11/03/us/elections/exit-polls-kentucky.html,house,general,2020-11-03,FALSE,U.S. House District 5,U.S. House,H,solid-rep,5,District 5,KY,kentucky,Kentucky,Ky.,horizontal,"",FALSE,TRUE,winner,AP,FALSE,"",297977,33480,11,unknown,First polls close at 6 p.m. Eastern time.,First polls close in,Most polls have closed.,2020-11-03T23:00:00.000Z,6 p.m.,734,734,100% reporting,100%,100,297977,edison,>98%,>98% reported,edison,republican,FALSE,2020-11-24T13:22:43Z,TRUE,68.41401,203858,R+68,Rogers +68,republican,TRUE,"","",3,0,1604446196365
21125,Laurel,28036,0,45,45,Released as a precinct as first report of the night,100,28036,>98%,>98% reported,edison,10,all,2752,24267,3769,0,0,0,0,2020-11-24T13:23:31Z,73.11314,R+73,Rogers +73,republican,KY-G-H-5-2020-11-03,ky-house-general-district-005-2020-11-03,https://www.nytimes.com/interactive/2020/11/03/us/elections/results-kentucky-house-district-5.html,https://www.nytimes.com/interactive/2020/11/03/us/elections/results-kentucky.html,https://www.nytimes.com/interactive/2020/11/03/us/elections/ap-polls-kentucky.html,https://www.nytimes.com/interactive/2020/11/03/us/elections/exit-polls-kentucky.html,house,general,2020-11-03,FALSE,U.S. House District 5,U.S. House,H,solid-rep,5,District 5,KY,kentucky,Kentucky,Ky.,horizontal,"",FALSE,TRUE,winner,AP,FALSE,"",297977,33480,11,unknown,First polls close at 6 p.m. Eastern time.,First polls close in,Most polls have closed.,2020-11-03T23:00:00.000Z,6 p.m.,734,734,100% reporting,100%,100,297977,edison,>98%,>98% reported,edison,republican,FALSE,2020-11-24T13:22:43Z,TRUE,68.41401,203858,R+68,Rogers +68,republican,TRUE,"","",3,0,1604446196365
21127,Lawrence,6835,0,18,18,None,100,6835,>98%,>98% reported,edison,10,all,506,5658,1177,0,0,0,0,2020-11-24T13:23:32Z,65.55962,R+66,Rogers +66,republican,KY-G-H-5-2020-11-03,ky-house-general-district-005-2020-11-03,https://www.nytimes.com/interactive/2020/11/03/us/elections/results-kentucky-house-district-5.html,https://www.nytimes.com/interactive/2020/11/03/us/elections/results-kentucky.html,https://www.nytimes.com/interactive/2020/11/03/us/elections/ap-polls-kentucky.html,https://www.nytimes.com/interactive/2020/11/03/us/elections/exit-polls-kentucky.html,house,general,2020-11-03,FALSE,U.S. House District 5,U.S. House,H,solid-rep,5,District 5,KY,kentucky,Kentucky,Ky.,horizontal,"",FALSE,TRUE,winner,AP,FALSE,"",297977,33480,11,unknown,First polls close at 6 p.m. Eastern time.,First polls close in,Most polls have closed.,2020-11-03T23:00:00.000Z,6 p.m.,734,734,100% reporting,100%,100,297977,edison,>98%,>98% reported,edison,republican,FALSE,2020-11-24T13:22:43Z,TRUE,68.41401,203858,R+68,Rogers +68,republican,TRUE,"","",3,0,1604446196365
21129,Lee,2766,0,10,10,Merged into voters' home precincts and released with cumulative results,100,2766,>98%,>98% reported,edison,10,all,299,2366,400,0,0,0,0,2020-11-24T13:23:33Z,71.07737,R+71,Rogers +71,republican,KY-G-H-5-2020-11-03,ky-house-general-district-005-2020-11-03,https://www.nytimes.com/interactive/2020/11/03/us/elections/results-kentucky-house-district-5.html,https://www.nytimes.com/interactive/2020/11/03/us/elections/results-kentucky.html,https://www.nytimes.com/interactive/2020/11/03/us/elections/ap-polls-kentucky.html,https://www.nytimes.com/interactive/2020/11/03/us/elections/exit-polls-kentucky.html,house,general,2020-11-03,FALSE,U.S. House District 5,U.S. House,H,solid-rep,5,District 5,KY,kentucky,Kentucky,Ky.,horizontal,"",FALSE,TRUE,winner,AP,FALSE,"",297977,33480,11,unknown,First polls close at 6 p.m. Eastern time.,First polls close in,Most polls have closed.,2020-11-03T23:00:00.000Z,6 p.m.,734,734,100% reporting,100%,100,297977,edison,>98%,>98% reported,edison,republican,FALSE,2020-11-24T13:22:43Z,TRUE,68.41401,203858,R+68,Rogers +68,republican,TRUE,"","",3,0,1604446196365
21131,Leslie,4794,776,17,17,Released as a separate subtotal as first report of the night,100,4794,>98%,>98% reported,edison,10,all,445,4434,360,0,649,127,0,2020-11-24T13:23:37Z,84.98123,R+85,Rogers +85,republican,KY-G-H-5-2020-11-03,ky-house-general-district-005-2020-11-03,https://www.nytimes.com/interactive/2020/11/03/us/elections/results-kentucky-house-district-5.html,https://www.nytimes.com/interactive/2020/11/03/us/elections/results-kentucky.html,https://www.nytimes.com/interactive/2020/11/03/us/elections/ap-polls-kentucky.html,https://www.nytimes.com/interactive/2020/11/03/us/elections/exit-polls-kentucky.html,house,general,2020-11-03,FALSE,U.S. House District 5,U.S. House,H,solid-rep,5,District 5,KY,kentucky,Kentucky,Ky.,horizontal,"",FALSE,TRUE,winner,AP,FALSE,"",297977,33480,11,unknown,First polls close at 6 p.m. Eastern time.,First polls close in,Most polls have closed.,2020-11-03T23:00:00.000Z,6 p.m.,734,734,100% reporting,100%,100,297977,edison,>98%,>98% reported,edison,republican,FALSE,2020-11-24T13:22:43Z,TRUE,68.41401,203858,R+68,Rogers +68,republican,TRUE,"","",3,0,1604446196365
21133,Letcher,9032,5833,30,30,Merged into voters' home precincts and released with cumulative results,100,9032,>98%,>98% reported,edison,10,all,618,7496,1536,0,4701,1132,0,2020-11-24T13:23:39Z,65.9876,R+66,Rogers +66,republican,KY-G-H-5-2020-11-03,ky-house-general-district-005-2020-11-03,https://www.nytimes.com/interactive/2020/11/03/us/elections/results-kentucky-house-district-5.html,https://www.nytimes.com/interactive/2020/11/03/us/elections/results-kentucky.html,https://www.nytimes.com/interactive/2020/11/03/us/elections/ap-polls-kentucky.html,https://www.nytimes.com/interactive/2020/11/03/us/elections/exit-polls-kentucky.html,house,general,2020-11-03,FALSE,U.S. House District 5,U.S. House,H,solid-rep,5,District 5,KY,kentucky,Kentucky,Ky.,horizontal,"",FALSE,TRUE,winner,AP,FALSE,"",297977,33480,11,unknown,First polls close at 6 p.m. Eastern time.,First polls close in,Most polls have closed.,2020-11-03T23:00:00.000Z,6 p.m.,734,734,100% reporting,100%,100,297977,edison,>98%,>98% reported,edison,republican,FALSE,2020-11-24T13:22:43Z,TRUE,68.41401,203858,R+68,Rogers +68,republican,TRUE,"","",3,0,1604446196365
21137,Lincoln,10766,2406,17,17,Other,100,10766,>98%,>98% reported,edison,10,all,846,8829,1937,0,1474,932,0,2020-11-24T13:23:53Z,64.01635,R+64,Rogers +64,republican,KY-G-H-5-2020-11-03,ky-house-general-district-005-2020-11-03,https://www.nytimes.com/interactive/2020/11/03/us/elections/results-kentucky-house-district-5.html,https://www.nytimes.com/interactive/2020/11/03/us/elections/results-kentucky.html,https://www.nytimes.com/interactive/2020/11/03/us/elections/ap-polls-kentucky.html,https://www.nytimes.com/interactive/2020/11/03/us/elections/exit-polls-kentucky.html,house,general,2020-11-03,FALSE,U.S. House District 5,U.S. House,H,solid-rep,5,District 5,KY,kentucky,Kentucky,Ky.,horizontal,"",FALSE,TRUE,winner,AP,FALSE,"",297977,33480,11,unknown,First polls close at 6 p.m. Eastern time.,First polls close in,Most polls have closed.,2020-11-03T23:00:00.000Z,6 p.m.,734,734,100% reporting,100%,100,297977,edison,>98%,>98% reported,edison,republican,FALSE,2020-11-24T13:22:43Z,TRUE,68.41401,203858,R+68,Rogers +68,republican,TRUE,"","",3,0,1604446196365
21153,Magoffin,5437,1530,14,14,Merged into voters' home precincts and released with cumulative results,100,5437,>98%,>98% reported,edison,10,all,1374,4367,1070,0,904,626,0,2020-11-24T13:23:41Z,60.64006,R+61,Rogers +61,republican,KY-G-H-5-2020-11-03,ky-house-general-district-005-2020-11-03,https://www.nytimes.com/interactive/2020/11/03/us/elections/results-kentucky-house-district-5.html,https://www.nytimes.com/interactive/2020/11/03/us/elections/results-kentucky.html,https://www.nytimes.com/interactive/2020/11/03/us/elections/ap-polls-kentucky.html,https://www.nytimes.com/interactive/2020/11/03/us/elections/exit-polls-kentucky.html,house,general,2020-11-03,FALSE,U.S. House District 5,U.S. House,H,solid-rep,5,District 5,KY,kentucky,Kentucky,Ky.,horizontal,"",FALSE,TRUE,winner,AP,FALSE,"",297977,33480,11,unknown,First polls close at 6 p.m. Eastern time.,First polls close in,Most polls have closed.,2020-11-03T23:00:00.000Z,6 p.m.,734,734,100% reporting,100%,100,297977,edison,>98%,>98% reported,edison,republican,FALSE,2020-11-24T13:22:43Z,TRUE,68.41401,203858,R+68,Rogers +68,republican,TRUE,"","",3,0,1604446196365
21159,Martin,3933,0,14,14,Merged into voters' home precincts AFTER election night,100,3933,>98%,>98% reported,edison,10,all,578,3580,353,0,0,0,0,2020-11-24T13:23:42Z,82.04933,R+82,Rogers +82,republican,KY-G-H-5-2020-11-03,ky-house-general-district-005-2020-11-03,https://www.nytimes.com/interactive/2020/11/03/us/elections/results-kentucky-house-district-5.html,https://www.nytimes.com/interactive/2020/11/03/us/elections/results-kentucky.html,https://www.nytimes.com/interactive/2020/11/03/us/elections/ap-polls-kentucky.html,https://www.nytimes.com/interactive/2020/11/03/us/elections/exit-polls-kentucky.html,house,general,2020-11-03,FALSE,U.S. House District 5,U.S. House,H,solid-rep,5,District 5,KY,kentucky,Kentucky,Ky.,horizontal,"",FALSE,TRUE,winner,AP,FALSE,"",297977,33480,11,unknown,First polls close at 6 p.m. Eastern time.,First polls close in,Most polls have closed.,2020-11-03T23:00:00.000Z,6 p.m.,734,734,100% reporting,100%,100,297977,edison,>98%,>98% reported,edison,republican,FALSE,2020-11-24T13:22:43Z,TRUE,68.41401,203858,R+68,Rogers +68,republican,TRUE,"","",3,0,1604446196365
21147,McCreary,6361,0,18,18,None,100,6361,>98%,>98% reported,edison,10,all,715,5772,589,0,0,0,0,2020-11-24T13:23:40Z,81.4809,R+81,Rogers +81,republican,KY-G-H-5-2020-11-03,ky-house-general-district-005-2020-11-03,https://www.nytimes.com/interactive/2020/11/03/us/elections/results-kentucky-house-district-5.html,https://www.nytimes.com/interactive/2020/11/03/us/elections/results-kentucky.html,https://www.nytimes.com/interactive/2020/11/03/us/elections/ap-polls-kentucky.html,https://www.nytimes.com/interactive/2020/11/03/us/elections/exit-polls-kentucky.html,house,general,2020-11-03,FALSE,U.S. House District 5,U.S. House,H,solid-rep,5,District 5,KY,kentucky,Kentucky,Ky.,horizontal,"",FALSE,TRUE,winner,AP,FALSE,"",297977,33480,11,unknown,First polls close at 6 p.m. Eastern time.,First polls close in,Most polls have closed.,2020-11-03T23:00:00.000Z,6 p.m.,734,734,100% reporting,100%,100,297977,edison,>98%,>98% reported,edison,republican,FALSE,2020-11-24T13:22:43Z,TRUE,68.41401,203858,R+68,Rogers +68,republican,TRUE,"","",3,0,1604446196365
21175,Morgan,5492,0,12,12,Merged into voters' home precincts and released with cumulative results,100,5492,>98%,>98% reported,edison,10,all,523,4480,1012,0,0,0,0,2020-11-24T13:23:43Z,63.14639,R+63,Rogers +63,republican,KY-G-H-5-2020-11-03,ky-house-general-district-005-2020-11-03,https://www.nytimes.com/interactive/2020/11/03/us/elections/results-kentucky-house-district-5.html,https://www.nytimes.com/interactive/2020/11/03/us/elections/results-kentucky.html,https://www.nytimes.com/interactive/2020/11/03/us/elections/ap-polls-kentucky.html,https://www.nytimes.com/interactive/2020/11/03/us/elections/exit-polls-kentucky.html,house,general,2020-11-03,FALSE,U.S. House District 5,U.S. House,H,solid-rep,5,District 5,KY,kentucky,Kentucky,Ky.,horizontal,"",FALSE,TRUE,winner,AP,FALSE,"",297977,33480,11,unknown,First polls close at 6 p.m. Eastern time.,First polls close in,Most polls have closed.,2020-11-03T23:00:00.000Z,6 p.m.,734,734,100% reporting,100%,100,297977,edison,>98%,>98% reported,edison,republican,FALSE,2020-11-24T13:22:43Z,TRUE,68.41401,203858,R+68,Rogers +68,republican,TRUE,"","",3,0,1604446196365
21189,Owsley,1850,0,8,8,Released as a precinct as first report of the night,100,1850,>98%,>98% reported,edison,10,all,350,1660,190,0,0,0,0,2020-11-24T13:23:44Z,79.45946,R+79,Rogers +79,republican,KY-G-H-5-2020-11-03,ky-house-general-district-005-2020-11-03,https://www.nytimes.com/interactive/2020/11/03/us/elections/results-kentucky-house-district-5.html,https://www.nytimes.com/interactive/2020/11/03/us/elections/results-kentucky.html,https://www.nytimes.com/interactive/2020/11/03/us/elections/ap-polls-kentucky.html,https://www.nytimes.com/interactive/2020/11/03/us/elections/exit-polls-kentucky.html,house,general,2020-11-03,FALSE,U.S. House District 5,U.S. House,H,solid-rep,5,District 5,KY,kentucky,Kentucky,Ky.,horizontal,"",FALSE,TRUE,winner,AP,FALSE,"",297977,33480,11,unknown,First polls close at 6 p.m. Eastern time.,First polls close in,Most polls have closed.,2020-11-03T23:00:00.000Z,6 p.m.,734,734,100% reporting,100%,100,297977,edison,>98%,>98% reported,edison,republican,FALSE,2020-11-24T13:22:43Z,TRUE,68.41401,203858,R+68,Rogers +68,republican,TRUE,"","",3,0,1604446196365
21193,Perry,10450,0,37,37,Released as a separate subtotal as first report of the night,100,10450,>98%,>98% reported,edison,10,all,659,8521,1929,0,0,0,0,2020-11-24T13:23:45Z,63.08134,R+63,Rogers +63,republican,KY-G-H-5-2020-11-03,ky-house-general-district-005-2020-11-03,https://www.nytimes.com/interactive/2020/11/03/us/elections/results-kentucky-house-district-5.html,https://www.nytimes.com/interactive/2020/11/03/us/elections/results-kentucky.html,https://www.nytimes.com/interactive/2020/11/03/us/elections/ap-polls-kentucky.html,https://www.nytimes.com/interactive/2020/11/03/us/elections/exit-polls-kentucky.html,house,general,2020-11-03,FALSE,U.S. House District 5,U.S. House,H,solid-rep,5,District 5,KY,kentucky,Kentucky,Ky.,horizontal,"",FALSE,TRUE,winner,AP,FALSE,"",297977,33480,11,unknown,First polls close at 6 p.m. Eastern time.,First polls close in,Most polls have closed.,2020-11-03T23:00:00.000Z,6 p.m.,734,734,100% reporting,100%,100,297977,edison,>98%,>98% reported,edison,republican,FALSE,2020-11-24T13:22:43Z,TRUE,68.41401,203858,R+68,Rogers +68,republican,TRUE,"","",3,0,1604446196365
21195,Pike,24932,11030,57,57,Released as a precinct as first report of the night,100,24932,>98%,>98% reported,edison,10,all,1274,20954,3978,0,9768,1262,0,2020-11-24T13:23:47Z,68.0892,R+68,Rogers +68,republican,KY-G-H-5-2020-11-03,ky-house-general-district-005-2020-11-03,https://www.nytimes.com/interactive/2020/11/03/us/elections/results-kentucky-house-district-5.html,https://www.nytimes.com/interactive/2020/11/03/us/elections/results-kentucky.html,https://www.nytimes.com/interactive/2020/11/03/us/elections/ap-polls-kentucky.html,https://www.nytimes.com/interactive/2020/11/03/us/elections/exit-polls-kentucky.html,house,general,2020-11-03,FALSE,U.S. House District 5,U.S. House,H,solid-rep,5,District 5,KY,kentucky,Kentucky,Ky.,horizontal,"",FALSE,TRUE,winner,AP,FALSE,"",297977,33480,11,unknown,First polls close at 6 p.m. Eastern time.,First polls close in,Most polls have closed.,2020-11-03T23:00:00.000Z,6 p.m.,734,734,100% reporting,100%,100,297977,edison,>98%,>98% reported,edison,republican,FALSE,2020-11-24T13:22:43Z,TRUE,68.41401,203858,R+68,Rogers +68,republican,TRUE,"","",3,0,1604446196365
21199,Pulaski,31289,0,56,56,Merged into voters' home precincts and released with cumulative results,100,31289,>98%,>98% reported,edison,10,all,2258,27109,4180,0,0,0,0,2020-11-24T13:23:48Z,73.28134,R+73,Rogers +73,republican,KY-G-H-5-2020-11-03,ky-house-general-district-005-2020-11-03,https://www.nytimes.com/interactive/2020/11/03/us/elections/results-kentucky-house-district-5.html,https://www.nytimes.com/interactive/2020/11/03/us/elections/results-kentucky.html,https://www.nytimes.com/interactive/2020/11/03/us/elections/ap-polls-kentucky.html,https://www.nytimes.com/interactive/2020/11/03/us/elections/exit-polls-kentucky.html,house,general,2020-11-03,FALSE,U.S. House District 5,U.S. House,H,solid-rep,5,District 5,KY,kentucky,Kentucky,Ky.,horizontal,"",FALSE,TRUE,winner,AP,FALSE,"",297977,33480,11,unknown,First polls close at 6 p.m. Eastern time.,First polls close in,Most polls have closed.,2020-11-03T23:00:00.000Z,6 p.m.,734,734,100% reporting,100%,100,297977,edison,>98%,>98% reported,edison,republican,FALSE,2020-11-24T13:22:43Z,TRUE,68.41401,203858,R+68,Rogers +68,republican,TRUE,"","",3,0,1604446196365
21203,Rockcastle,7713,0,15,15,Merged into voters' home precincts and released with cumulative results,100,7713,>98%,>98% reported,edison,10,all,541,6885,828,0,0,0,0,2020-11-24T13:25:52Z,78.52975,R+79,Rogers +79,republican,KY-G-H-5-2020-11-03,ky-house-general-district-005-2020-11-03,https://www.nytimes.com/interactive/2020/11/03/us/elections/results-kentucky-house-district-5.html,https://www.nytimes.com/interactive/2020/11/03/us/elections/results-kentucky.html,https://www.nytimes.com/interactive/2020/11/03/us/elections/ap-polls-kentucky.html,https://www.nytimes.com/interactive/2020/11/03/us/elections/exit-polls-kentucky.html,house,general,2020-11-03,FALSE,U.S. House District 5,U.S. House,H,solid-rep,5,District 5,KY,kentucky,Kentucky,Ky.,horizontal,"",FALSE,TRUE,winner,AP,FALSE,"",297977,33480,11,unknown,First polls close at 6 p.m. Eastern time.,First polls close in,Most polls have closed.,2020-11-03T23:00:00.000Z,6 p.m.,734,734,100% reporting,100%,100,297977,edison,>98%,>98% reported,edison,republican,FALSE,2020-11-24T13:22:43Z,TRUE,68.41401,203858,R+68,Rogers +68,republican,TRUE,"","",3,0,1604446196365
21205,Rowan,9872,0,18,18,Merged into voters' home precincts and released with cumulative results,100,9872,>98%,>98% reported,edison,10,all,749,6549,3323,0,0,0,0,2020-11-24T13:25:52Z,32.67828,R+33,Rogers +33,republican,KY-G-H-5-2020-11-03,ky-house-general-district-005-2020-11-03,https://www.nytimes.com/interactive/2020/11/03/us/elections/results-kentucky-house-district-5.html,https://www.nytimes.com/interactive/2020/11/03/us/elections/results-kentucky.html,https://www.nytimes.com/interactive/2020/11/03/us/elections/ap-polls-kentucky.html,https://www.nytimes.com/interactive/2020/11/03/us/elections/exit-polls-kentucky.html,house,general,2020-11-03,FALSE,U.S. House District 5,U.S. House,H,solid-rep,5,District 5,KY,kentucky,Kentucky,Ky.,horizontal,"",FALSE,TRUE,winner,AP,FALSE,"",297977,33480,11,unknown,First polls close at 6 p.m. Eastern time.,First polls close in,Most polls have closed.,2020-11-03T23:00:00.000Z,6 p.m.,734,734,100% reporting,100%,100,297977,edison,>98%,>98% reported,edison,republican,FALSE,2020-11-24T13:22:43Z,TRUE,68.41401,203858,R+68,Rogers +68,republican,TRUE,"","",3,0,1604446196365
21231,Wayne,8994,0,19,19,Other,100,8994,>98%,>98% reported,edison,10,all,1027,7693,1301,0,0,0,0,2020-11-24T13:25:52Z,71.0696,R+71,Rogers +71,republican,KY-G-H-5-2020-11-03,ky-house-general-district-005-2020-11-03,https://www.nytimes.com/interactive/2020/11/03/us/elections/results-kentucky-house-district-5.html,https://www.nytimes.com/interactive/2020/11/03/us/elections/results-kentucky.html,https://www.nytimes.com/interactive/2020/11/03/us/elections/ap-polls-kentucky.html,https://www.nytimes.com/interactive/2020/11/03/us/elections/exit-polls-kentucky.html,house,general,2020-11-03,FALSE,U.S. House District 5,U.S. House,H,solid-rep,5,District 5,KY,kentucky,Kentucky,Ky.,horizontal,"",FALSE,TRUE,winner,AP,FALSE,"",297977,33480,11,unknown,First polls close at 6 p.m. Eastern time.,First polls close in,Most polls have closed.,2020-11-03T23:00:00.000Z,6 p.m.,734,734,100% reporting,100%,100,297977,edison,>98%,>98% reported,edison,republican,FALSE,2020-11-24T13:22:43Z,TRUE,68.41401,203858,R+68,Rogers +68,republican,TRUE,"","",3,0,1604446196365
21235,Whitley,15166,0,36,36,Merged into voters' home precincts and released with cumulative results,100,15166,>98%,>98% reported,edison,10,all,1038,13310,1856,0,0,0,0,2020-11-24T13:25:52Z,75.5242,R+76,Rogers +76,republican,KY-G-H-5-2020-11-03,ky-house-general-district-005-2020-11-03,https://www.nytimes.com/interactive/2020/11/03/us/elections/results-kentucky-house-district-5.html,https://www.nytimes.com/interactive/2020/11/03/us/elections/results-kentucky.html,https://www.nytimes.com/interactive/2020/11/03/us/elections/ap-polls-kentucky.html,https://www.nytimes.com/interactive/2020/11/03/us/elections/exit-polls-kentucky.html,house,general,2020-11-03,FALSE,U.S. House District 5,U.S. House,H,solid-rep,5,District 5,KY,kentucky,Kentucky,Ky.,horizontal,"",FALSE,TRUE,winner,AP,FALSE,"",297977,33480,11,unknown,First polls close at 6 p.m. Eastern time.,First polls close in,Most polls have closed.,2020-11-03T23:00:00.000Z,6 p.m.,734,734,100% reporting,100%,100,297977,edison,>98%,>98% reported,edison,republican,FALSE,2020-11-24T13:22:43Z,TRUE,68.41401,203858,R+68,Rogers +68,republican,TRUE,"","",3,0,1604446196365
