fips,name,votes,absentee_votes,reporting,precincts,absentee_method,eevp,tot_exp_vote,eevp_value,eevp_display,eevp_source,turnout_stage,absentee_count_progress,absentee_max_ballots,results_rosendalem,results_williamsk,results_absentee_rosendalem,results_absentee_williamsk,last_updated,leader_margin_value,leader_margin_display,leader_margin_name_display,leader_party_id,race_id_race,race_slug_race,url_race,state_page_url_race,ap_polls_page_race,edison_exit_polls_page_race,race_type_race,election_type_race,election_date_race,runoff_race,race_name_race,office_race,officeid_race,race_rating_race,seat_race,seat_name_race,state_id_race,state_slug_race,state_name_race,state_nyt_abbrev_race,state_shape_race,party_id_race,uncontested_race,report_race,result_race,result_source_race,gain_race,lost_seat_race,votes_race,absentee_votes_race,absentee_count_progress_race,poll_display_race,poll_countdown_display_race,poll_waiting_display_race,poll_time_race,poll_time_short_race,precincts_reporting_race,precincts_total_race,reporting_display_race,reporting_value_race,eevp_race,tot_exp_vote_race,eevp_source_race,eevp_value_race,eevp_display_race,county_data_source_race,incumbent_party_race,no_forecast_race,last_updated_race,has_incumbent_race,leader_margin_value_race,leader_margin_votes_race,leader_margin_display_race,leader_margin_name_display_race,leader_party_id_race,edison_certified_race,expectations_text_race,expectations_text_short_race,absentee_ballot_deadline_race,absentee_postmark_deadline_race,winner_called_timestamp_race
30001,Beaverhead,5628,0,16,16,Merged into voters' home precincts AFTER election night,100,5628,>98%,>98% reported,edison,8,all,4174,3811,1817,0,0,2020-11-24T13:24:30Z,35.42999,R+35,Rosendale +35,republican,MT-G-H-1-2020-11-03,mt-house-general-district-001-2020-11-03,https://www.nytimes.com/interactive/2020/11/03/us/elections/results-montana-house-district-at-large.html,https://www.nytimes.com/interactive/2020/11/03/us/elections/results-montana.html,https://www.nytimes.com/interactive/2020/11/03/us/elections/ap-polls-montana.html,https://www.nytimes.com/interactive/2020/11/03/us/elections/exit-polls-montana.html,house,general,2020-11-03,FALSE,U.S. House At-Large,U.S. House,H,lean-rep,1,At-Large,MT,montana,Montana,Mont.,horizontal,"",FALSE,TRUE,winner,AP,FALSE,"",601509,0,unknown,Polls close at 10 p.m. Eastern time.,Polls close in,Polls have closed.,2020-11-04T03:00:00.000Z,10 p.m.,663,663,100% reporting,100%,100,601509,edison,>98%,>98% reported,edison,republican,FALSE,2020-11-24T13:26:09Z,FALSE,12.77271,76829,R+13,Rosendale +13,republican,FALSE,"","",0,0,1604473773708
30003,Big Horn,4784,0,19,19,Released as a separate subtotal as first report of the night,100,4784,>98%,>98% reported,edison,8,some,2040,2103,2681,0,0,2020-11-24T13:24:30Z,12.08194,D+12,Williams +12,democrat,MT-G-H-1-2020-11-03,mt-house-general-district-001-2020-11-03,https://www.nytimes.com/interactive/2020/11/03/us/elections/results-montana-house-district-at-large.html,https://www.nytimes.com/interactive/2020/11/03/us/elections/results-montana.html,https://www.nytimes.com/interactive/2020/11/03/us/elections/ap-polls-montana.html,https://www.nytimes.com/interactive/2020/11/03/us/elections/exit-polls-montana.html,house,general,2020-11-03,FALSE,U.S. House At-Large,U.S. House,H,lean-rep,1,At-Large,MT,montana,Montana,Mont.,horizontal,"",FALSE,TRUE,winner,AP,FALSE,"",601509,0,unknown,Polls close at 10 p.m. Eastern time.,Polls close in,Polls have closed.,2020-11-04T03:00:00.000Z,10 p.m.,663,663,100% reporting,100%,100,601509,edison,>98%,>98% reported,edison,republican,FALSE,2020-11-24T13:26:09Z,FALSE,12.77271,76829,R+13,Rosendale +13,republican,FALSE,"","",0,0,1604473773708
30005,Blaine,3098,0,8,8,Merged into voters' home precincts AFTER election night,100,3098,>98%,>98% reported,edison,8,all,1576,1391,1707,0,0,2020-11-24T13:24:30Z,10.20013,D+10,Williams +10,democrat,MT-G-H-1-2020-11-03,mt-house-general-district-001-2020-11-03,https://www.nytimes.com/interactive/2020/11/03/us/elections/results-montana-house-district-at-large.html,https://www.nytimes.com/interactive/2020/11/03/us/elections/results-montana.html,https://www.nytimes.com/interactive/2020/11/03/us/elections/ap-polls-montana.html,https://www.nytimes.com/interactive/2020/11/03/us/elections/exit-polls-montana.html,house,general,2020-11-03,FALSE,U.S. House At-Large,U.S. House,H,lean-rep,1,At-Large,MT,montana,Montana,Mont.,horizontal,"",FALSE,TRUE,winner,AP,FALSE,"",601509,0,unknown,Polls close at 10 p.m. Eastern time.,Polls close in,Polls have closed.,2020-11-04T03:00:00.000Z,10 p.m.,663,663,100% reporting,100%,100,601509,edison,>98%,>98% reported,edison,republican,FALSE,2020-11-24T13:26:09Z,FALSE,12.77271,76829,R+13,Rosendale +13,republican,FALSE,"","",0,0,1604473773708
30007,Broadwater,4085,0,5,5,Merged into voters' home precincts and released with cumulative results,100,4085,>98%,>98% reported,edison,8,all,2206,3150,935,0,0,2020-11-24T13:24:30Z,54.22277,R+54,Rosendale +54,republican,MT-G-H-1-2020-11-03,mt-house-general-district-001-2020-11-03,https://www.nytimes.com/interactive/2020/11/03/us/elections/results-montana-house-district-at-large.html,https://www.nytimes.com/interactive/2020/11/03/us/elections/results-montana.html,https://www.nytimes.com/interactive/2020/11/03/us/elections/ap-polls-montana.html,https://www.nytimes.com/interactive/2020/11/03/us/elections/exit-polls-montana.html,house,general,2020-11-03,FALSE,U.S. House At-Large,U.S. House,H,lean-rep,1,At-Large,MT,montana,Montana,Mont.,horizontal,"",FALSE,TRUE,winner,AP,FALSE,"",601509,0,unknown,Polls close at 10 p.m. Eastern time.,Polls close in,Polls have closed.,2020-11-04T03:00:00.000Z,10 p.m.,663,663,100% reporting,100%,100,601509,edison,>98%,>98% reported,edison,republican,FALSE,2020-11-24T13:26:09Z,FALSE,12.77271,76829,R+13,Rosendale +13,republican,FALSE,"","",0,0,1604473773708
30009,Carbon,7055,0,13,13,Merged into voters' home precincts and released with cumulative results,100,7055,>98%,>98% reported,edison,8,all,4579,4465,2590,0,0,2020-11-24T13:24:30Z,26.5769,R+27,Rosendale +27,republican,MT-G-H-1-2020-11-03,mt-house-general-district-001-2020-11-03,https://www.nytimes.com/interactive/2020/11/03/us/elections/results-montana-house-district-at-large.html,https://www.nytimes.com/interactive/2020/11/03/us/elections/results-montana.html,https://www.nytimes.com/interactive/2020/11/03/us/elections/ap-polls-montana.html,https://www.nytimes.com/interactive/2020/11/03/us/elections/exit-polls-montana.html,house,general,2020-11-03,FALSE,U.S. House At-Large,U.S. House,H,lean-rep,1,At-Large,MT,montana,Montana,Mont.,horizontal,"",FALSE,TRUE,winner,AP,FALSE,"",601509,0,unknown,Polls close at 10 p.m. Eastern time.,Polls close in,Polls have closed.,2020-11-04T03:00:00.000Z,10 p.m.,663,663,100% reporting,100%,100,601509,edison,>98%,>98% reported,edison,republican,FALSE,2020-11-24T13:26:09Z,FALSE,12.77271,76829,R+13,Rosendale +13,republican,FALSE,"","",0,0,1604473773708
30011,Carter,854,0,4,4,Merged into voters' home precincts and released with cumulative results,100,854,>98%,>98% reported,edison,8,unknown,414,758,96,0,0,2020-11-24T13:24:30Z,77.51756,R+78,Rosendale +78,republican,MT-G-H-1-2020-11-03,mt-house-general-district-001-2020-11-03,https://www.nytimes.com/interactive/2020/11/03/us/elections/results-montana-house-district-at-large.html,https://www.nytimes.com/interactive/2020/11/03/us/elections/results-montana.html,https://www.nytimes.com/interactive/2020/11/03/us/elections/ap-polls-montana.html,https://www.nytimes.com/interactive/2020/11/03/us/elections/exit-polls-montana.html,house,general,2020-11-03,FALSE,U.S. House At-Large,U.S. House,H,lean-rep,1,At-Large,MT,montana,Montana,Mont.,horizontal,"",FALSE,TRUE,winner,AP,FALSE,"",601509,0,unknown,Polls close at 10 p.m. Eastern time.,Polls close in,Polls have closed.,2020-11-04T03:00:00.000Z,10 p.m.,663,663,100% reporting,100%,100,601509,edison,>98%,>98% reported,edison,republican,FALSE,2020-11-24T13:26:09Z,FALSE,12.77271,76829,R+13,Rosendale +13,republican,FALSE,"","",0,0,1604473773708
30013,Cascade,39767,0,23,23,Merged into voters' home precincts and released with cumulative results,100,39767,>98%,>98% reported,edison,8,all,42859,22724,17043,0,0,2020-11-24T13:24:30Z,14.28571,R+14,Rosendale +14,republican,MT-G-H-1-2020-11-03,mt-house-general-district-001-2020-11-03,https://www.nytimes.com/interactive/2020/11/03/us/elections/results-montana-house-district-at-large.html,https://www.nytimes.com/interactive/2020/11/03/us/elections/results-montana.html,https://www.nytimes.com/interactive/2020/11/03/us/elections/ap-polls-montana.html,https://www.nytimes.com/interactive/2020/11/03/us/elections/exit-polls-montana.html,house,general,2020-11-03,FALSE,U.S. House At-Large,U.S. House,H,lean-rep,1,At-Large,MT,montana,Montana,Mont.,horizontal,"",FALSE,TRUE,winner,AP,FALSE,"",601509,0,unknown,Polls close at 10 p.m. Eastern time.,Polls close in,Polls have closed.,2020-11-04T03:00:00.000Z,10 p.m.,663,663,100% reporting,100%,100,601509,edison,>98%,>98% reported,edison,republican,FALSE,2020-11-24T13:26:09Z,FALSE,12.77271,76829,R+13,Rosendale +13,republican,FALSE,"","",0,0,1604473773708
30015,Chouteau,2960,0,9,9,Merged into voters' home precincts and released with cumulative results,100,2960,>98%,>98% reported,edison,8,all,2205,1820,1140,0,0,2020-11-24T13:24:31Z,22.97297,R+23,Rosendale +23,republican,MT-G-H-1-2020-11-03,mt-house-general-district-001-2020-11-03,https://www.nytimes.com/interactive/2020/11/03/us/elections/results-montana-house-district-at-large.html,https://www.nytimes.com/interactive/2020/11/03/us/elections/results-montana.html,https://www.nytimes.com/interactive/2020/11/03/us/elections/ap-polls-montana.html,https://www.nytimes.com/interactive/2020/11/03/us/elections/exit-polls-montana.html,house,general,2020-11-03,FALSE,U.S. House At-Large,U.S. House,H,lean-rep,1,At-Large,MT,montana,Montana,Mont.,horizontal,"",FALSE,TRUE,winner,AP,FALSE,"",601509,0,unknown,Polls close at 10 p.m. Eastern time.,Polls close in,Polls have closed.,2020-11-04T03:00:00.000Z,10 p.m.,663,663,100% reporting,100%,100,601509,edison,>98%,>98% reported,edison,republican,FALSE,2020-11-24T13:26:09Z,FALSE,12.77271,76829,R+13,Rosendale +13,republican,FALSE,"","",0,0,1604473773708
30017,Custer,5845,0,14,14,Merged into voters' home precincts AFTER election night,100,5845,>98%,>98% reported,edison,8,unknown,3874,4072,1773,0,0,2020-11-24T13:24:31Z,39.33276,R+39,Rosendale +39,republican,MT-G-H-1-2020-11-03,mt-house-general-district-001-2020-11-03,https://www.nytimes.com/interactive/2020/11/03/us/elections/results-montana-house-district-at-large.html,https://www.nytimes.com/interactive/2020/11/03/us/elections/results-montana.html,https://www.nytimes.com/interactive/2020/11/03/us/elections/ap-polls-montana.html,https://www.nytimes.com/interactive/2020/11/03/us/elections/exit-polls-montana.html,house,general,2020-11-03,FALSE,U.S. House At-Large,U.S. House,H,lean-rep,1,At-Large,MT,montana,Montana,Mont.,horizontal,"",FALSE,TRUE,winner,AP,FALSE,"",601509,0,unknown,Polls close at 10 p.m. Eastern time.,Polls close in,Polls have closed.,2020-11-04T03:00:00.000Z,10 p.m.,663,663,100% reporting,100%,100,601509,edison,>98%,>98% reported,edison,republican,FALSE,2020-11-24T13:26:09Z,FALSE,12.77271,76829,R+13,Rosendale +13,republican,FALSE,"","",0,0,1604473773708
30019,Daniels,1015,0,4,4,Merged into voters' home precincts and released with cumulative results,100,1015,>98%,>98% reported,edison,8,unknown,595,786,229,0,0,2020-11-24T13:24:31Z,54.87685,R+55,Rosendale +55,republican,MT-G-H-1-2020-11-03,mt-house-general-district-001-2020-11-03,https://www.nytimes.com/interactive/2020/11/03/us/elections/results-montana-house-district-at-large.html,https://www.nytimes.com/interactive/2020/11/03/us/elections/results-montana.html,https://www.nytimes.com/interactive/2020/11/03/us/elections/ap-polls-montana.html,https://www.nytimes.com/interactive/2020/11/03/us/elections/exit-polls-montana.html,house,general,2020-11-03,FALSE,U.S. House At-Large,U.S. House,H,lean-rep,1,At-Large,MT,montana,Montana,Mont.,horizontal,"",FALSE,TRUE,winner,AP,FALSE,"",601509,0,unknown,Polls close at 10 p.m. Eastern time.,Polls close in,Polls have closed.,2020-11-04T03:00:00.000Z,10 p.m.,663,663,100% reporting,100%,100,601509,edison,>98%,>98% reported,edison,republican,FALSE,2020-11-24T13:26:09Z,FALSE,12.77271,76829,R+13,Rosendale +13,republican,FALSE,"","",0,0,1604473773708
30021,Dawson,4800,0,7,7,Merged into voters' home precincts and released with cumulative results,100,4800,>98%,>98% reported,edison,8,unknown,4322,3639,1161,0,0,2020-11-24T13:24:31Z,51.625,R+52,Rosendale +52,republican,MT-G-H-1-2020-11-03,mt-house-general-district-001-2020-11-03,https://www.nytimes.com/interactive/2020/11/03/us/elections/results-montana-house-district-at-large.html,https://www.nytimes.com/interactive/2020/11/03/us/elections/results-montana.html,https://www.nytimes.com/interactive/2020/11/03/us/elections/ap-polls-montana.html,https://www.nytimes.com/interactive/2020/11/03/us/elections/exit-polls-montana.html,house,general,2020-11-03,FALSE,U.S. House At-Large,U.S. House,H,lean-rep,1,At-Large,MT,montana,Montana,Mont.,horizontal,"",FALSE,TRUE,winner,AP,FALSE,"",601509,0,unknown,Polls close at 10 p.m. Eastern time.,Polls close in,Polls have closed.,2020-11-04T03:00:00.000Z,10 p.m.,663,663,100% reporting,100%,100,601509,edison,>98%,>98% reported,edison,republican,FALSE,2020-11-24T13:26:09Z,FALSE,12.77271,76829,R+13,Rosendale +13,republican,FALSE,"","",0,0,1604473773708
30023,Deer Lodge,4867,0,14,14,Merged into voters' home precincts and released with cumulative results,100,4867,>98%,>98% reported,edison,8,some,3414,2036,2831,0,0,2020-11-24T13:24:31Z,16.3345,D+16,Williams +16,democrat,MT-G-H-1-2020-11-03,mt-house-general-district-001-2020-11-03,https://www.nytimes.com/interactive/2020/11/03/us/elections/results-montana-house-district-at-large.html,https://www.nytimes.com/interactive/2020/11/03/us/elections/results-montana.html,https://www.nytimes.com/interactive/2020/11/03/us/elections/ap-polls-montana.html,https://www.nytimes.com/interactive/2020/11/03/us/elections/exit-polls-montana.html,house,general,2020-11-03,FALSE,U.S. House At-Large,U.S. House,H,lean-rep,1,At-Large,MT,montana,Montana,Mont.,horizontal,"",FALSE,TRUE,winner,AP,FALSE,"",601509,0,unknown,Polls close at 10 p.m. Eastern time.,Polls close in,Polls have closed.,2020-11-04T03:00:00.000Z,10 p.m.,663,663,100% reporting,100%,100,601509,edison,>98%,>98% reported,edison,republican,FALSE,2020-11-24T13:26:09Z,FALSE,12.77271,76829,R+13,Rosendale +13,republican,FALSE,"","",0,0,1604473773708
30025,Fallon,1563,0,1,1,Merged into voters' home precincts and released with cumulative results,100,1563,>98%,>98% reported,edison,8,unknown,899,1312,251,0,0,2020-11-24T13:24:32Z,67.88228,R+68,Rosendale +68,republican,MT-G-H-1-2020-11-03,mt-house-general-district-001-2020-11-03,https://www.nytimes.com/interactive/2020/11/03/us/elections/results-montana-house-district-at-large.html,https://www.nytimes.com/interactive/2020/11/03/us/elections/results-montana.html,https://www.nytimes.com/interactive/2020/11/03/us/elections/ap-polls-montana.html,https://www.nytimes.com/interactive/2020/11/03/us/elections/exit-polls-montana.html,house,general,2020-11-03,FALSE,U.S. House At-Large,U.S. House,H,lean-rep,1,At-Large,MT,montana,Montana,Mont.,horizontal,"",FALSE,TRUE,winner,AP,FALSE,"",601509,0,unknown,Polls close at 10 p.m. Eastern time.,Polls close in,Polls have closed.,2020-11-04T03:00:00.000Z,10 p.m.,663,663,100% reporting,100%,100,601509,edison,>98%,>98% reported,edison,republican,FALSE,2020-11-24T13:26:09Z,FALSE,12.77271,76829,R+13,Rosendale +13,republican,FALSE,"","",0,0,1604473773708
30027,Fergus,6468,0,16,16,None,100,6468,>98%,>98% reported,edison,8,unknown,5078,4715,1753,0,0,2020-11-24T13:24:32Z,45.79468,R+46,Rosendale +46,republican,MT-G-H-1-2020-11-03,mt-house-general-district-001-2020-11-03,https://www.nytimes.com/interactive/2020/11/03/us/elections/results-montana-house-district-at-large.html,https://www.nytimes.com/interactive/2020/11/03/us/elections/results-montana.html,https://www.nytimes.com/interactive/2020/11/03/us/elections/ap-polls-montana.html,https://www.nytimes.com/interactive/2020/11/03/us/elections/exit-polls-montana.html,house,general,2020-11-03,FALSE,U.S. House At-Large,U.S. House,H,lean-rep,1,At-Large,MT,montana,Montana,Mont.,horizontal,"",FALSE,TRUE,winner,AP,FALSE,"",601509,0,unknown,Polls close at 10 p.m. Eastern time.,Polls close in,Polls have closed.,2020-11-04T03:00:00.000Z,10 p.m.,663,663,100% reporting,100%,100,601509,edison,>98%,>98% reported,edison,republican,FALSE,2020-11-24T13:26:09Z,FALSE,12.77271,76829,R+13,Rosendale +13,republican,FALSE,"","",0,0,1604473773708
30029,Flathead,59697,0,42,42,Merged into voters' home precincts and released with cumulative results,100,59697,>98%,>98% reported,edison,8,some,38453,38426,21271,0,0,2020-11-24T13:24:32Z,28.73679,R+29,Rosendale +29,republican,MT-G-H-1-2020-11-03,mt-house-general-district-001-2020-11-03,https://www.nytimes.com/interactive/2020/11/03/us/elections/results-montana-house-district-at-large.html,https://www.nytimes.com/interactive/2020/11/03/us/elections/results-montana.html,https://www.nytimes.com/interactive/2020/11/03/us/elections/ap-polls-montana.html,https://www.nytimes.com/interactive/2020/11/03/us/elections/exit-polls-montana.html,house,general,2020-11-03,FALSE,U.S. House At-Large,U.S. House,H,lean-rep,1,At-Large,MT,montana,Montana,Mont.,horizontal,"",FALSE,TRUE,winner,AP,FALSE,"",601509,0,unknown,Polls close at 10 p.m. Eastern time.,Polls close in,Polls have closed.,2020-11-04T03:00:00.000Z,10 p.m.,663,663,100% reporting,100%,100,601509,edison,>98%,>98% reported,edison,republican,FALSE,2020-11-24T13:26:09Z,FALSE,12.77271,76829,R+13,Rosendale +13,republican,FALSE,"","",0,0,1604473773708
30031,Gallatin,70718,0,32,32,Merged into voters' home precincts and released with cumulative results,100,70718,>98%,>98% reported,edison,8,unknown,51851,32217,38501,0,0,2020-11-24T13:24:33Z,8.886,D+9,Williams +9,democrat,MT-G-H-1-2020-11-03,mt-house-general-district-001-2020-11-03,https://www.nytimes.com/interactive/2020/11/03/us/elections/results-montana-house-district-at-large.html,https://www.nytimes.com/interactive/2020/11/03/us/elections/results-montana.html,https://www.nytimes.com/interactive/2020/11/03/us/elections/ap-polls-montana.html,https://www.nytimes.com/interactive/2020/11/03/us/elections/exit-polls-montana.html,house,general,2020-11-03,FALSE,U.S. House At-Large,U.S. House,H,lean-rep,1,At-Large,MT,montana,Montana,Mont.,horizontal,"",FALSE,TRUE,winner,AP,FALSE,"",601509,0,unknown,Polls close at 10 p.m. Eastern time.,Polls close in,Polls have closed.,2020-11-04T03:00:00.000Z,10 p.m.,663,663,100% reporting,100%,100,601509,edison,>98%,>98% reported,edison,republican,FALSE,2020-11-24T13:26:09Z,FALSE,12.77271,76829,R+13,Rosendale +13,republican,FALSE,"","",0,0,1604473773708
30033,Garfield,801,0,4,4,Merged into voters' home precincts and released with cumulative results,100,801,>98%,>98% reported,edison,8,unknown,432,738,63,0,0,2020-11-24T13:24:33Z,84.26966,R+84,Rosendale +84,republican,MT-G-H-1-2020-11-03,mt-house-general-district-001-2020-11-03,https://www.nytimes.com/interactive/2020/11/03/us/elections/results-montana-house-district-at-large.html,https://www.nytimes.com/interactive/2020/11/03/us/elections/results-montana.html,https://www.nytimes.com/interactive/2020/11/03/us/elections/ap-polls-montana.html,https://www.nytimes.com/interactive/2020/11/03/us/elections/exit-polls-montana.html,house,general,2020-11-03,FALSE,U.S. House At-Large,U.S. House,H,lean-rep,1,At-Large,MT,montana,Montana,Mont.,horizontal,"",FALSE,TRUE,winner,AP,FALSE,"",601509,0,unknown,Polls close at 10 p.m. Eastern time.,Polls close in,Polls have closed.,2020-11-04T03:00:00.000Z,10 p.m.,663,663,100% reporting,100%,100,601509,edison,>98%,>98% reported,edison,republican,FALSE,2020-11-24T13:26:09Z,FALSE,12.77271,76829,R+13,Rosendale +13,republican,FALSE,"","",0,0,1604473773708
30035,Glacier,5668,0,16,16,Merged into voters' home precincts and released with cumulative results,100,5668,>98%,>98% reported,edison,8,unknown,3322,1783,3885,0,0,2020-11-24T13:24:33Z,37.08539,D+37,Williams +37,democrat,MT-G-H-1-2020-11-03,mt-house-general-district-001-2020-11-03,https://www.nytimes.com/interactive/2020/11/03/us/elections/results-montana-house-district-at-large.html,https://www.nytimes.com/interactive/2020/11/03/us/elections/results-montana.html,https://www.nytimes.com/interactive/2020/11/03/us/elections/ap-polls-montana.html,https://www.nytimes.com/interactive/2020/11/03/us/elections/exit-polls-montana.html,house,general,2020-11-03,FALSE,U.S. House At-Large,U.S. House,H,lean-rep,1,At-Large,MT,montana,Montana,Mont.,horizontal,"",FALSE,TRUE,winner,AP,FALSE,"",601509,0,unknown,Polls close at 10 p.m. Eastern time.,Polls close in,Polls have closed.,2020-11-04T03:00:00.000Z,10 p.m.,663,663,100% reporting,100%,100,601509,edison,>98%,>98% reported,edison,republican,FALSE,2020-11-24T13:26:09Z,FALSE,12.77271,76829,R+13,Rosendale +13,republican,FALSE,"","",0,0,1604473773708
30037,Golden Valley,459,0,2,2,Merged into voters' home precincts and released with cumulative results,100,459,>98%,>98% reported,edison,8,unknown,422,412,47,0,0,2020-11-24T13:24:33Z,79.5207,R+80,Rosendale +80,republican,MT-G-H-1-2020-11-03,mt-house-general-district-001-2020-11-03,https://www.nytimes.com/interactive/2020/11/03/us/elections/results-montana-house-district-at-large.html,https://www.nytimes.com/interactive/2020/11/03/us/elections/results-montana.html,https://www.nytimes.com/interactive/2020/11/03/us/elections/ap-polls-montana.html,https://www.nytimes.com/interactive/2020/11/03/us/elections/exit-polls-montana.html,house,general,2020-11-03,FALSE,U.S. House At-Large,U.S. House,H,lean-rep,1,At-Large,MT,montana,Montana,Mont.,horizontal,"",FALSE,TRUE,winner,AP,FALSE,"",601509,0,unknown,Polls close at 10 p.m. Eastern time.,Polls close in,Polls have closed.,2020-11-04T03:00:00.000Z,10 p.m.,663,663,100% reporting,100%,100,601509,edison,>98%,>98% reported,edison,republican,FALSE,2020-11-24T13:26:09Z,FALSE,12.77271,76829,R+13,Rosendale +13,republican,FALSE,"","",0,0,1604473773708
30039,Granite,2088,0,4,4,Merged into voters' home precincts and released with cumulative results,100,2088,>98%,>98% reported,edison,8,unknown,1243,1388,700,0,0,2020-11-24T13:24:33Z,32.95019,R+33,Rosendale +33,republican,MT-G-H-1-2020-11-03,mt-house-general-district-001-2020-11-03,https://www.nytimes.com/interactive/2020/11/03/us/elections/results-montana-house-district-at-large.html,https://www.nytimes.com/interactive/2020/11/03/us/elections/results-montana.html,https://www.nytimes.com/interactive/2020/11/03/us/elections/ap-polls-montana.html,https://www.nytimes.com/interactive/2020/11/03/us/elections/exit-polls-montana.html,house,general,2020-11-03,FALSE,U.S. House At-Large,U.S. House,H,lean-rep,1,At-Large,MT,montana,Montana,Mont.,horizontal,"",FALSE,TRUE,winner,AP,FALSE,"",601509,0,unknown,Polls close at 10 p.m. Eastern time.,Polls close in,Polls have closed.,2020-11-04T03:00:00.000Z,10 p.m.,663,663,100% reporting,100%,100,601509,edison,>98%,>98% reported,edison,republican,FALSE,2020-11-24T13:26:09Z,FALSE,12.77271,76829,R+13,Rosendale +13,republican,FALSE,"","",0,0,1604473773708
30041,Hill,7168,0,17,17,Other,100,7168,>98%,>98% reported,edison,8,unknown,5547,3807,3361,0,0,2020-11-24T13:24:33Z,6.2221,R+6,Rosendale +6,republican,MT-G-H-1-2020-11-03,mt-house-general-district-001-2020-11-03,https://www.nytimes.com/interactive/2020/11/03/us/elections/results-montana-house-district-at-large.html,https://www.nytimes.com/interactive/2020/11/03/us/elections/results-montana.html,https://www.nytimes.com/interactive/2020/11/03/us/elections/ap-polls-montana.html,https://www.nytimes.com/interactive/2020/11/03/us/elections/exit-polls-montana.html,house,general,2020-11-03,FALSE,U.S. House At-Large,U.S. House,H,lean-rep,1,At-Large,MT,montana,Montana,Mont.,horizontal,"",FALSE,TRUE,winner,AP,FALSE,"",601509,0,unknown,Polls close at 10 p.m. Eastern time.,Polls close in,Polls have closed.,2020-11-04T03:00:00.000Z,10 p.m.,663,663,100% reporting,100%,100,601509,edison,>98%,>98% reported,edison,republican,FALSE,2020-11-24T13:26:09Z,FALSE,12.77271,76829,R+13,Rosendale +13,republican,FALSE,"","",0,0,1604473773708
30043,Jefferson,8123,0,10,10,Released as a separate subtotal as first report of the night,100,8123,>98%,>98% reported,edison,8,all,4742,5288,2835,0,0,2020-11-24T13:24:34Z,30.1982,R+30,Rosendale +30,republican,MT-G-H-1-2020-11-03,mt-house-general-district-001-2020-11-03,https://www.nytimes.com/interactive/2020/11/03/us/elections/results-montana-house-district-at-large.html,https://www.nytimes.com/interactive/2020/11/03/us/elections/results-montana.html,https://www.nytimes.com/interactive/2020/11/03/us/elections/ap-polls-montana.html,https://www.nytimes.com/interactive/2020/11/03/us/elections/exit-polls-montana.html,house,general,2020-11-03,FALSE,U.S. House At-Large,U.S. House,H,lean-rep,1,At-Large,MT,montana,Montana,Mont.,horizontal,"",FALSE,TRUE,winner,AP,FALSE,"",601509,0,unknown,Polls close at 10 p.m. Eastern time.,Polls close in,Polls have closed.,2020-11-04T03:00:00.000Z,10 p.m.,663,663,100% reporting,100%,100,601509,edison,>98%,>98% reported,edison,republican,FALSE,2020-11-24T13:26:09Z,FALSE,12.77271,76829,R+13,Rosendale +13,republican,FALSE,"","",0,0,1604473773708
30045,Judith Basin,1344,0,4,4,Merged into voters' home precincts and released with cumulative results,100,1344,>98%,>98% reported,edison,8,unknown,837,998,346,0,0,2020-11-24T13:24:34Z,48.5119,R+49,Rosendale +49,republican,MT-G-H-1-2020-11-03,mt-house-general-district-001-2020-11-03,https://www.nytimes.com/interactive/2020/11/03/us/elections/results-montana-house-district-at-large.html,https://www.nytimes.com/interactive/2020/11/03/us/elections/results-montana.html,https://www.nytimes.com/interactive/2020/11/03/us/elections/ap-polls-montana.html,https://www.nytimes.com/interactive/2020/11/03/us/elections/exit-polls-montana.html,house,general,2020-11-03,FALSE,U.S. House At-Large,U.S. House,H,lean-rep,1,At-Large,MT,montana,Montana,Mont.,horizontal,"",FALSE,TRUE,winner,AP,FALSE,"",601509,0,unknown,Polls close at 10 p.m. Eastern time.,Polls close in,Polls have closed.,2020-11-04T03:00:00.000Z,10 p.m.,663,663,100% reporting,100%,100,601509,edison,>98%,>98% reported,edison,republican,FALSE,2020-11-24T13:26:09Z,FALSE,12.77271,76829,R+13,Rosendale +13,republican,FALSE,"","",0,0,1604473773708
30047,Lake,16489,0,22,22,Merged into voters' home precincts and released with cumulative results,100,16489,>98%,>98% reported,edison,8,unknown,10643,9239,7250,0,0,2020-11-24T13:24:34Z,12.06259,R+12,Rosendale +12,republican,MT-G-H-1-2020-11-03,mt-house-general-district-001-2020-11-03,https://www.nytimes.com/interactive/2020/11/03/us/elections/results-montana-house-district-at-large.html,https://www.nytimes.com/interactive/2020/11/03/us/elections/results-montana.html,https://www.nytimes.com/interactive/2020/11/03/us/elections/ap-polls-montana.html,https://www.nytimes.com/interactive/2020/11/03/us/elections/exit-polls-montana.html,house,general,2020-11-03,FALSE,U.S. House At-Large,U.S. House,H,lean-rep,1,At-Large,MT,montana,Montana,Mont.,horizontal,"",FALSE,TRUE,winner,AP,FALSE,"",601509,0,unknown,Polls close at 10 p.m. Eastern time.,Polls close in,Polls have closed.,2020-11-04T03:00:00.000Z,10 p.m.,663,663,100% reporting,100%,100,601509,edison,>98%,>98% reported,edison,republican,FALSE,2020-11-24T13:26:09Z,FALSE,12.77271,76829,R+13,Rosendale +13,republican,FALSE,"","",0,0,1604473773708
30049,Lewis and Clark,42095,0,33,33,Released as a separate subtotal as first report of the night,100,42095,>98%,>98% reported,edison,8,unknown,29778,21045,21050,0,0,2020-11-24T13:24:34Z,0.01188,D+0.01,Williams +0.01,democrat,MT-G-H-1-2020-11-03,mt-house-general-district-001-2020-11-03,https://www.nytimes.com/interactive/2020/11/03/us/elections/results-montana-house-district-at-large.html,https://www.nytimes.com/interactive/2020/11/03/us/elections/results-montana.html,https://www.nytimes.com/interactive/2020/11/03/us/elections/ap-polls-montana.html,https://www.nytimes.com/interactive/2020/11/03/us/elections/exit-polls-montana.html,house,general,2020-11-03,FALSE,U.S. House At-Large,U.S. House,H,lean-rep,1,At-Large,MT,montana,Montana,Mont.,horizontal,"",FALSE,TRUE,winner,AP,FALSE,"",601509,0,unknown,Polls close at 10 p.m. Eastern time.,Polls close in,Polls have closed.,2020-11-04T03:00:00.000Z,10 p.m.,663,663,100% reporting,100%,100,601509,edison,>98%,>98% reported,edison,republican,FALSE,2020-11-24T13:26:09Z,FALSE,12.77271,76829,R+13,Rosendale +13,republican,FALSE,"","",0,0,1604473773708
30051,Liberty,1080,0,4,4,Merged into voters' home precincts and released with cumulative results,100,1080,>98%,>98% reported,edison,8,unknown,763,776,304,0,0,2020-11-24T13:24:34Z,43.7037,R+44,Rosendale +44,republican,MT-G-H-1-2020-11-03,mt-house-general-district-001-2020-11-03,https://www.nytimes.com/interactive/2020/11/03/us/elections/results-montana-house-district-at-large.html,https://www.nytimes.com/interactive/2020/11/03/us/elections/results-montana.html,https://www.nytimes.com/interactive/2020/11/03/us/elections/ap-polls-montana.html,https://www.nytimes.com/interactive/2020/11/03/us/elections/exit-polls-montana.html,house,general,2020-11-03,FALSE,U.S. House At-Large,U.S. House,H,lean-rep,1,At-Large,MT,montana,Montana,Mont.,horizontal,"",FALSE,TRUE,winner,AP,FALSE,"",601509,0,unknown,Polls close at 10 p.m. Eastern time.,Polls close in,Polls have closed.,2020-11-04T03:00:00.000Z,10 p.m.,663,663,100% reporting,100%,100,601509,edison,>98%,>98% reported,edison,republican,FALSE,2020-11-24T13:26:09Z,FALSE,12.77271,76829,R+13,Rosendale +13,republican,FALSE,"","",0,0,1604473773708
30053,Lincoln,11699,0,14,14,Merged into voters' home precincts and released with cumulative results,100,11699,>98%,>98% reported,edison,8,unknown,6806,8587,3112,0,0,2020-11-24T13:24:35Z,46.79887,R+47,Rosendale +47,republican,MT-G-H-1-2020-11-03,mt-house-general-district-001-2020-11-03,https://www.nytimes.com/interactive/2020/11/03/us/elections/results-montana-house-district-at-large.html,https://www.nytimes.com/interactive/2020/11/03/us/elections/results-montana.html,https://www.nytimes.com/interactive/2020/11/03/us/elections/ap-polls-montana.html,https://www.nytimes.com/interactive/2020/11/03/us/elections/exit-polls-montana.html,house,general,2020-11-03,FALSE,U.S. House At-Large,U.S. House,H,lean-rep,1,At-Large,MT,montana,Montana,Mont.,horizontal,"",FALSE,TRUE,winner,AP,FALSE,"",601509,0,unknown,Polls close at 10 p.m. Eastern time.,Polls close in,Polls have closed.,2020-11-04T03:00:00.000Z,10 p.m.,663,663,100% reporting,100%,100,601509,edison,>98%,>98% reported,edison,republican,FALSE,2020-11-24T13:26:09Z,FALSE,12.77271,76829,R+13,Rosendale +13,republican,FALSE,"","",0,0,1604473773708
30057,Madison,6056,0,8,8,Merged into voters' home precincts and released with cumulative results,100,6056,>98%,>98% reported,edison,8,unknown,2922,4113,1943,0,0,2020-11-24T13:21:49Z,35.83223,R+36,Rosendale +36,republican,MT-G-H-1-2020-11-03,mt-house-general-district-001-2020-11-03,https://www.nytimes.com/interactive/2020/11/03/us/elections/results-montana-house-district-at-large.html,https://www.nytimes.com/interactive/2020/11/03/us/elections/results-montana.html,https://www.nytimes.com/interactive/2020/11/03/us/elections/ap-polls-montana.html,https://www.nytimes.com/interactive/2020/11/03/us/elections/exit-polls-montana.html,house,general,2020-11-03,FALSE,U.S. House At-Large,U.S. House,H,lean-rep,1,At-Large,MT,montana,Montana,Mont.,horizontal,"",FALSE,TRUE,winner,AP,FALSE,"",601509,0,unknown,Polls close at 10 p.m. Eastern time.,Polls close in,Polls have closed.,2020-11-04T03:00:00.000Z,10 p.m.,663,663,100% reporting,100%,100,601509,edison,>98%,>98% reported,edison,republican,FALSE,2020-11-24T13:26:09Z,FALSE,12.77271,76829,R+13,Rosendale +13,republican,FALSE,"","",0,0,1604473773708
30055,McCone,1119,0,3,3,Merged into voters' home precincts and released with cumulative results,100,1119,>98%,>98% reported,edison,8,some,688,932,187,0,0,2020-11-24T13:24:35Z,66.5773,R+67,Rosendale +67,republican,MT-G-H-1-2020-11-03,mt-house-general-district-001-2020-11-03,https://www.nytimes.com/interactive/2020/11/03/us/elections/results-montana-house-district-at-large.html,https://www.nytimes.com/interactive/2020/11/03/us/elections/results-montana.html,https://www.nytimes.com/interactive/2020/11/03/us/elections/ap-polls-montana.html,https://www.nytimes.com/interactive/2020/11/03/us/elections/exit-polls-montana.html,house,general,2020-11-03,FALSE,U.S. House At-Large,U.S. House,H,lean-rep,1,At-Large,MT,montana,Montana,Mont.,horizontal,"",FALSE,TRUE,winner,AP,FALSE,"",601509,0,unknown,Polls close at 10 p.m. Eastern time.,Polls close in,Polls have closed.,2020-11-04T03:00:00.000Z,10 p.m.,663,663,100% reporting,100%,100,601509,edison,>98%,>98% reported,edison,republican,FALSE,2020-11-24T13:26:09Z,FALSE,12.77271,76829,R+13,Rosendale +13,republican,FALSE,"","",0,0,1604473773708
30059,Meagher,1107,0,1,1,Other,100,1107,>98%,>98% reported,edison,8,unknown,978,834,273,0,0,2020-11-24T13:21:55Z,50.67751,R+51,Rosendale +51,republican,MT-G-H-1-2020-11-03,mt-house-general-district-001-2020-11-03,https://www.nytimes.com/interactive/2020/11/03/us/elections/results-montana-house-district-at-large.html,https://www.nytimes.com/interactive/2020/11/03/us/elections/results-montana.html,https://www.nytimes.com/interactive/2020/11/03/us/elections/ap-polls-montana.html,https://www.nytimes.com/interactive/2020/11/03/us/elections/exit-polls-montana.html,house,general,2020-11-03,FALSE,U.S. House At-Large,U.S. House,H,lean-rep,1,At-Large,MT,montana,Montana,Mont.,horizontal,"",FALSE,TRUE,winner,AP,FALSE,"",601509,0,unknown,Polls close at 10 p.m. Eastern time.,Polls close in,Polls have closed.,2020-11-04T03:00:00.000Z,10 p.m.,663,663,100% reporting,100%,100,601509,edison,>98%,>98% reported,edison,republican,FALSE,2020-11-24T13:26:09Z,FALSE,12.77271,76829,R+13,Rosendale +13,republican,FALSE,"","",0,0,1604473773708
30061,Mineral,2326,0,6,6,Released as a separate subtotal as first report of the night,100,2326,>98%,>98% reported,edison,8,unknown,1507,1647,679,0,0,2020-11-24T13:22:01Z,41.61651,R+42,Rosendale +42,republican,MT-G-H-1-2020-11-03,mt-house-general-district-001-2020-11-03,https://www.nytimes.com/interactive/2020/11/03/us/elections/results-montana-house-district-at-large.html,https://www.nytimes.com/interactive/2020/11/03/us/elections/results-montana.html,https://www.nytimes.com/interactive/2020/11/03/us/elections/ap-polls-montana.html,https://www.nytimes.com/interactive/2020/11/03/us/elections/exit-polls-montana.html,house,general,2020-11-03,FALSE,U.S. House At-Large,U.S. House,H,lean-rep,1,At-Large,MT,montana,Montana,Mont.,horizontal,"",FALSE,TRUE,winner,AP,FALSE,"",601509,0,unknown,Polls close at 10 p.m. Eastern time.,Polls close in,Polls have closed.,2020-11-04T03:00:00.000Z,10 p.m.,663,663,100% reporting,100%,100,601509,edison,>98%,>98% reported,edison,republican,FALSE,2020-11-24T13:26:09Z,FALSE,12.77271,76829,R+13,Rosendale +13,republican,FALSE,"","",0,0,1604473773708
30063,Missoula,71411,0,52,52,Merged into voters' home precincts and released with cumulative results,100,71411,>98%,>98% reported,edison,8,unknown,59576,26662,44749,0,0,2020-11-24T13:22:01Z,25.32803,D+25,Williams +25,democrat,MT-G-H-1-2020-11-03,mt-house-general-district-001-2020-11-03,https://www.nytimes.com/interactive/2020/11/03/us/elections/results-montana-house-district-at-large.html,https://www.nytimes.com/interactive/2020/11/03/us/elections/results-montana.html,https://www.nytimes.com/interactive/2020/11/03/us/elections/ap-polls-montana.html,https://www.nytimes.com/interactive/2020/11/03/us/elections/exit-polls-montana.html,house,general,2020-11-03,FALSE,U.S. House At-Large,U.S. House,H,lean-rep,1,At-Large,MT,montana,Montana,Mont.,horizontal,"",FALSE,TRUE,winner,AP,FALSE,"",601509,0,unknown,Polls close at 10 p.m. Eastern time.,Polls close in,Polls have closed.,2020-11-04T03:00:00.000Z,10 p.m.,663,663,100% reporting,100%,100,601509,edison,>98%,>98% reported,edison,republican,FALSE,2020-11-24T13:26:09Z,FALSE,12.77271,76829,R+13,Rosendale +13,republican,FALSE,"","",0,0,1604473773708
30065,Musselshell,2860,0,6,6,Merged into voters' home precincts and released with cumulative results,100,2860,>98%,>98% reported,edison,8,some,1734,2341,519,0,0,2020-11-24T13:22:02Z,63.70629,R+64,Rosendale +64,republican,MT-G-H-1-2020-11-03,mt-house-general-district-001-2020-11-03,https://www.nytimes.com/interactive/2020/11/03/us/elections/results-montana-house-district-at-large.html,https://www.nytimes.com/interactive/2020/11/03/us/elections/results-montana.html,https://www.nytimes.com/interactive/2020/11/03/us/elections/ap-polls-montana.html,https://www.nytimes.com/interactive/2020/11/03/us/elections/exit-polls-montana.html,house,general,2020-11-03,FALSE,U.S. House At-Large,U.S. House,H,lean-rep,1,At-Large,MT,montana,Montana,Mont.,horizontal,"",FALSE,TRUE,winner,AP,FALSE,"",601509,0,unknown,Polls close at 10 p.m. Eastern time.,Polls close in,Polls have closed.,2020-11-04T03:00:00.000Z,10 p.m.,663,663,100% reporting,100%,100,601509,edison,>98%,>98% reported,edison,republican,FALSE,2020-11-24T13:26:09Z,FALSE,12.77271,76829,R+13,Rosendale +13,republican,FALSE,"","",0,0,1604473773708
30067,Park,11515,0,11,11,None,100,11515,>98%,>98% reported,edison,8,unknown,6699,5933,5582,0,0,2020-11-24T13:22:03Z,3.0482,R+3,Rosendale +3,republican,MT-G-H-1-2020-11-03,mt-house-general-district-001-2020-11-03,https://www.nytimes.com/interactive/2020/11/03/us/elections/results-montana-house-district-at-large.html,https://www.nytimes.com/interactive/2020/11/03/us/elections/results-montana.html,https://www.nytimes.com/interactive/2020/11/03/us/elections/ap-polls-montana.html,https://www.nytimes.com/interactive/2020/11/03/us/elections/exit-polls-montana.html,house,general,2020-11-03,FALSE,U.S. House At-Large,U.S. House,H,lean-rep,1,At-Large,MT,montana,Montana,Mont.,horizontal,"",FALSE,TRUE,winner,AP,FALSE,"",601509,0,unknown,Polls close at 10 p.m. Eastern time.,Polls close in,Polls have closed.,2020-11-04T03:00:00.000Z,10 p.m.,663,663,100% reporting,100%,100,601509,edison,>98%,>98% reported,edison,republican,FALSE,2020-11-24T13:26:09Z,FALSE,12.77271,76829,R+13,Rosendale +13,republican,FALSE,"","",0,0,1604473773708
30069,Petroleum,349,0,1,1,None,100,349,>98%,>98% reported,edison,8,all,189,298,51,0,0,2020-11-24T13:22:04Z,70.77364,R+71,Rosendale +71,republican,MT-G-H-1-2020-11-03,mt-house-general-district-001-2020-11-03,https://www.nytimes.com/interactive/2020/11/03/us/elections/results-montana-house-district-at-large.html,https://www.nytimes.com/interactive/2020/11/03/us/elections/results-montana.html,https://www.nytimes.com/interactive/2020/11/03/us/elections/ap-polls-montana.html,https://www.nytimes.com/interactive/2020/11/03/us/elections/exit-polls-montana.html,house,general,2020-11-03,FALSE,U.S. House At-Large,U.S. House,H,lean-rep,1,At-Large,MT,montana,Montana,Mont.,horizontal,"",FALSE,TRUE,winner,AP,FALSE,"",601509,0,unknown,Polls close at 10 p.m. Eastern time.,Polls close in,Polls have closed.,2020-11-04T03:00:00.000Z,10 p.m.,663,663,100% reporting,100%,100,601509,edison,>98%,>98% reported,edison,republican,FALSE,2020-11-24T13:26:09Z,FALSE,12.77271,76829,R+13,Rosendale +13,republican,FALSE,"","",0,0,1604473773708
30071,Phillips,2349,0,2,2,Merged into voters' home precincts and released with cumulative results,100,2349,>98%,>98% reported,edison,8,unknown,2000,1860,489,0,0,2020-11-24T13:22:05Z,58.36526,R+58,Rosendale +58,republican,MT-G-H-1-2020-11-03,mt-house-general-district-001-2020-11-03,https://www.nytimes.com/interactive/2020/11/03/us/elections/results-montana-house-district-at-large.html,https://www.nytimes.com/interactive/2020/11/03/us/elections/results-montana.html,https://www.nytimes.com/interactive/2020/11/03/us/elections/ap-polls-montana.html,https://www.nytimes.com/interactive/2020/11/03/us/elections/exit-polls-montana.html,house,general,2020-11-03,FALSE,U.S. House At-Large,U.S. House,H,lean-rep,1,At-Large,MT,montana,Montana,Mont.,horizontal,"",FALSE,TRUE,winner,AP,FALSE,"",601509,0,unknown,Polls close at 10 p.m. Eastern time.,Polls close in,Polls have closed.,2020-11-04T03:00:00.000Z,10 p.m.,663,663,100% reporting,100%,100,601509,edison,>98%,>98% reported,edison,republican,FALSE,2020-11-24T13:26:09Z,FALSE,12.77271,76829,R+13,Rosendale +13,republican,FALSE,"","",0,0,1604473773708
30073,Pondera,2982,0,8,8,Released as a separate subtotal at the end of tabulation,100,2982,>98%,>98% reported,edison,8,unknown,2141,1963,1019,0,0,2020-11-24T13:22:06Z,31.65661,R+32,Rosendale +32,republican,MT-G-H-1-2020-11-03,mt-house-general-district-001-2020-11-03,https://www.nytimes.com/interactive/2020/11/03/us/elections/results-montana-house-district-at-large.html,https://www.nytimes.com/interactive/2020/11/03/us/elections/results-montana.html,https://www.nytimes.com/interactive/2020/11/03/us/elections/ap-polls-montana.html,https://www.nytimes.com/interactive/2020/11/03/us/elections/exit-polls-montana.html,house,general,2020-11-03,FALSE,U.S. House At-Large,U.S. House,H,lean-rep,1,At-Large,MT,montana,Montana,Mont.,horizontal,"",FALSE,TRUE,winner,AP,FALSE,"",601509,0,unknown,Polls close at 10 p.m. Eastern time.,Polls close in,Polls have closed.,2020-11-04T03:00:00.000Z,10 p.m.,663,663,100% reporting,100%,100,601509,edison,>98%,>98% reported,edison,republican,FALSE,2020-11-24T13:26:09Z,FALSE,12.77271,76829,R+13,Rosendale +13,republican,FALSE,"","",0,0,1604473773708
30075,Powder River,1138,0,7,7,Merged into voters' home precincts and released with cumulative results,100,1138,>98%,>98% reported,edison,8,unknown,638,953,185,0,0,2020-11-24T13:22:08Z,67.48682,R+67,Rosendale +67,republican,MT-G-H-1-2020-11-03,mt-house-general-district-001-2020-11-03,https://www.nytimes.com/interactive/2020/11/03/us/elections/results-montana-house-district-at-large.html,https://www.nytimes.com/interactive/2020/11/03/us/elections/results-montana.html,https://www.nytimes.com/interactive/2020/11/03/us/elections/ap-polls-montana.html,https://www.nytimes.com/interactive/2020/11/03/us/elections/exit-polls-montana.html,house,general,2020-11-03,FALSE,U.S. House At-Large,U.S. House,H,lean-rep,1,At-Large,MT,montana,Montana,Mont.,horizontal,"",FALSE,TRUE,winner,AP,FALSE,"",601509,0,unknown,Polls close at 10 p.m. Eastern time.,Polls close in,Polls have closed.,2020-11-04T03:00:00.000Z,10 p.m.,663,663,100% reporting,100%,100,601509,edison,>98%,>98% reported,edison,republican,FALSE,2020-11-24T13:26:09Z,FALSE,12.77271,76829,R+13,Rosendale +13,republican,FALSE,"","",0,0,1604473773708
30077,Powell,3177,0,13,13,Merged into voters' home precincts and released with cumulative results,100,3177,>98%,>98% reported,edison,8,unknown,1578,2278,899,0,0,2020-11-24T13:22:09Z,43.40573,R+43,Rosendale +43,republican,MT-G-H-1-2020-11-03,mt-house-general-district-001-2020-11-03,https://www.nytimes.com/interactive/2020/11/03/us/elections/results-montana-house-district-at-large.html,https://www.nytimes.com/interactive/2020/11/03/us/elections/results-montana.html,https://www.nytimes.com/interactive/2020/11/03/us/elections/ap-polls-montana.html,https://www.nytimes.com/interactive/2020/11/03/us/elections/exit-polls-montana.html,house,general,2020-11-03,FALSE,U.S. House At-Large,U.S. House,H,lean-rep,1,At-Large,MT,montana,Montana,Mont.,horizontal,"",FALSE,TRUE,winner,AP,FALSE,"",601509,0,unknown,Polls close at 10 p.m. Eastern time.,Polls close in,Polls have closed.,2020-11-04T03:00:00.000Z,10 p.m.,663,663,100% reporting,100%,100,601509,edison,>98%,>98% reported,edison,republican,FALSE,2020-11-24T13:26:09Z,FALSE,12.77271,76829,R+13,Rosendale +13,republican,FALSE,"","",0,0,1604473773708
30079,Prairie,716,0,4,4,Merged into voters' home precincts and released with cumulative results,100,716,>98%,>98% reported,edison,8,unknown,480,568,148,0,0,2020-11-24T13:22:10Z,58.65922,R+59,Rosendale +59,republican,MT-G-H-1-2020-11-03,mt-house-general-district-001-2020-11-03,https://www.nytimes.com/interactive/2020/11/03/us/elections/results-montana-house-district-at-large.html,https://www.nytimes.com/interactive/2020/11/03/us/elections/results-montana.html,https://www.nytimes.com/interactive/2020/11/03/us/elections/ap-polls-montana.html,https://www.nytimes.com/interactive/2020/11/03/us/elections/exit-polls-montana.html,house,general,2020-11-03,FALSE,U.S. House At-Large,U.S. House,H,lean-rep,1,At-Large,MT,montana,Montana,Mont.,horizontal,"",FALSE,TRUE,winner,AP,FALSE,"",601509,0,unknown,Polls close at 10 p.m. Eastern time.,Polls close in,Polls have closed.,2020-11-04T03:00:00.000Z,10 p.m.,663,663,100% reporting,100%,100,601509,edison,>98%,>98% reported,edison,republican,FALSE,2020-11-24T13:26:09Z,FALSE,12.77271,76829,R+13,Rosendale +13,republican,FALSE,"","",0,0,1604473773708
30081,Ravalli,28464,0,24,24,Released as a separate subtotal as first report of the night,100,28464,>98%,>98% reported,edison,8,unknown,16965,19114,9350,0,0,2020-11-24T13:22:11Z,34.30298,R+34,Rosendale +34,republican,MT-G-H-1-2020-11-03,mt-house-general-district-001-2020-11-03,https://www.nytimes.com/interactive/2020/11/03/us/elections/results-montana-house-district-at-large.html,https://www.nytimes.com/interactive/2020/11/03/us/elections/results-montana.html,https://www.nytimes.com/interactive/2020/11/03/us/elections/ap-polls-montana.html,https://www.nytimes.com/interactive/2020/11/03/us/elections/exit-polls-montana.html,house,general,2020-11-03,FALSE,U.S. House At-Large,U.S. House,H,lean-rep,1,At-Large,MT,montana,Montana,Mont.,horizontal,"",FALSE,TRUE,winner,AP,FALSE,"",601509,0,unknown,Polls close at 10 p.m. Eastern time.,Polls close in,Polls have closed.,2020-11-04T03:00:00.000Z,10 p.m.,663,663,100% reporting,100%,100,601509,edison,>98%,>98% reported,edison,republican,FALSE,2020-11-24T13:26:09Z,FALSE,12.77271,76829,R+13,Rosendale +13,republican,FALSE,"","",0,0,1604473773708
30083,Richland,5748,0,13,13,Other,100,5748,>98%,>98% reported,edison,8,all,2582,4694,1054,0,0,2020-11-24T13:22:12Z,63.32637,R+63,Rosendale +63,republican,MT-G-H-1-2020-11-03,mt-house-general-district-001-2020-11-03,https://www.nytimes.com/interactive/2020/11/03/us/elections/results-montana-house-district-at-large.html,https://www.nytimes.com/interactive/2020/11/03/us/elections/results-montana.html,https://www.nytimes.com/interactive/2020/11/03/us/elections/ap-polls-montana.html,https://www.nytimes.com/interactive/2020/11/03/us/elections/exit-polls-montana.html,house,general,2020-11-03,FALSE,U.S. House At-Large,U.S. House,H,lean-rep,1,At-Large,MT,montana,Montana,Mont.,horizontal,"",FALSE,TRUE,winner,AP,FALSE,"",601509,0,unknown,Polls close at 10 p.m. Eastern time.,Polls close in,Polls have closed.,2020-11-04T03:00:00.000Z,10 p.m.,663,663,100% reporting,100%,100,601509,edison,>98%,>98% reported,edison,republican,FALSE,2020-11-24T13:26:09Z,FALSE,12.77271,76829,R+13,Rosendale +13,republican,FALSE,"","",0,0,1604473773708
30085,Roosevelt,3987,0,12,12,Merged into voters' home precincts and released with cumulative results,100,3987,>98%,>98% reported,edison,8,unknown,2086,1927,2060,0,0,2020-11-24T13:22:13Z,3.33584,D+3,Williams +3,democrat,MT-G-H-1-2020-11-03,mt-house-general-district-001-2020-11-03,https://www.nytimes.com/interactive/2020/11/03/us/elections/results-montana-house-district-at-large.html,https://www.nytimes.com/interactive/2020/11/03/us/elections/results-montana.html,https://www.nytimes.com/interactive/2020/11/03/us/elections/ap-polls-montana.html,https://www.nytimes.com/interactive/2020/11/03/us/elections/exit-polls-montana.html,house,general,2020-11-03,FALSE,U.S. House At-Large,U.S. House,H,lean-rep,1,At-Large,MT,montana,Montana,Mont.,horizontal,"",FALSE,TRUE,winner,AP,FALSE,"",601509,0,unknown,Polls close at 10 p.m. Eastern time.,Polls close in,Polls have closed.,2020-11-04T03:00:00.000Z,10 p.m.,663,663,100% reporting,100%,100,601509,edison,>98%,>98% reported,edison,republican,FALSE,2020-11-24T13:26:09Z,FALSE,12.77271,76829,R+13,Rosendale +13,republican,FALSE,"","",0,0,1604473773708
30087,Rosebud,3751,0,12,12,Merged into voters' home precincts AFTER election night,100,3751,>98%,>98% reported,edison,8,unknown,2216,2426,1325,0,0,2020-11-24T13:22:14Z,29.35217,R+29,Rosendale +29,republican,MT-G-H-1-2020-11-03,mt-house-general-district-001-2020-11-03,https://www.nytimes.com/interactive/2020/11/03/us/elections/results-montana-house-district-at-large.html,https://www.nytimes.com/interactive/2020/11/03/us/elections/results-montana.html,https://www.nytimes.com/interactive/2020/11/03/us/elections/ap-polls-montana.html,https://www.nytimes.com/interactive/2020/11/03/us/elections/exit-polls-montana.html,house,general,2020-11-03,FALSE,U.S. House At-Large,U.S. House,H,lean-rep,1,At-Large,MT,montana,Montana,Mont.,horizontal,"",FALSE,TRUE,winner,AP,FALSE,"",601509,0,unknown,Polls close at 10 p.m. Eastern time.,Polls close in,Polls have closed.,2020-11-04T03:00:00.000Z,10 p.m.,663,663,100% reporting,100%,100,601509,edison,>98%,>98% reported,edison,republican,FALSE,2020-11-24T13:26:09Z,FALSE,12.77271,76829,R+13,Rosendale +13,republican,FALSE,"","",0,0,1604473773708
30089,Sanders,7583,0,9,9,Merged into voters' home precincts and released with cumulative results,100,7583,>98%,>98% reported,edison,8,all,5891,5574,2009,0,0,2020-11-24T13:22:14Z,47.01306,R+47,Rosendale +47,republican,MT-G-H-1-2020-11-03,mt-house-general-district-001-2020-11-03,https://www.nytimes.com/interactive/2020/11/03/us/elections/results-montana-house-district-at-large.html,https://www.nytimes.com/interactive/2020/11/03/us/elections/results-montana.html,https://www.nytimes.com/interactive/2020/11/03/us/elections/ap-polls-montana.html,https://www.nytimes.com/interactive/2020/11/03/us/elections/exit-polls-montana.html,house,general,2020-11-03,FALSE,U.S. House At-Large,U.S. House,H,lean-rep,1,At-Large,MT,montana,Montana,Mont.,horizontal,"",FALSE,TRUE,winner,AP,FALSE,"",601509,0,unknown,Polls close at 10 p.m. Eastern time.,Polls close in,Polls have closed.,2020-11-04T03:00:00.000Z,10 p.m.,663,663,100% reporting,100%,100,601509,edison,>98%,>98% reported,edison,republican,FALSE,2020-11-24T13:26:09Z,FALSE,12.77271,76829,R+13,Rosendale +13,republican,FALSE,"","",0,0,1604473773708
30091,Sheridan,2009,0,6,6,Merged into voters' home precincts and released with cumulative results,100,2009,>98%,>98% reported,edison,8,unknown,1792,1328,681,0,0,2020-11-24T13:22:15Z,32.20508,R+32,Rosendale +32,republican,MT-G-H-1-2020-11-03,mt-house-general-district-001-2020-11-03,https://www.nytimes.com/interactive/2020/11/03/us/elections/results-montana-house-district-at-large.html,https://www.nytimes.com/interactive/2020/11/03/us/elections/results-montana.html,https://www.nytimes.com/interactive/2020/11/03/us/elections/ap-polls-montana.html,https://www.nytimes.com/interactive/2020/11/03/us/elections/exit-polls-montana.html,house,general,2020-11-03,FALSE,U.S. House At-Large,U.S. House,H,lean-rep,1,At-Large,MT,montana,Montana,Mont.,horizontal,"",FALSE,TRUE,winner,AP,FALSE,"",601509,0,unknown,Polls close at 10 p.m. Eastern time.,Polls close in,Polls have closed.,2020-11-04T03:00:00.000Z,10 p.m.,663,663,100% reporting,100%,100,601509,edison,>98%,>98% reported,edison,republican,FALSE,2020-11-24T13:26:09Z,FALSE,12.77271,76829,R+13,Rosendale +13,republican,FALSE,"","",0,0,1604473773708
30093,Silver Bow,18686,0,31,31,Merged into voters' home precincts AFTER election night,100,18686,>98%,>98% reported,edison,8,unknown,14293,7175,11511,0,0,2020-11-24T13:22:16Z,23.20454,D+23,Williams +23,democrat,MT-G-H-1-2020-11-03,mt-house-general-district-001-2020-11-03,https://www.nytimes.com/interactive/2020/11/03/us/elections/results-montana-house-district-at-large.html,https://www.nytimes.com/interactive/2020/11/03/us/elections/results-montana.html,https://www.nytimes.com/interactive/2020/11/03/us/elections/ap-polls-montana.html,https://www.nytimes.com/interactive/2020/11/03/us/elections/exit-polls-montana.html,house,general,2020-11-03,FALSE,U.S. House At-Large,U.S. House,H,lean-rep,1,At-Large,MT,montana,Montana,Mont.,horizontal,"",FALSE,TRUE,winner,AP,FALSE,"",601509,0,unknown,Polls close at 10 p.m. Eastern time.,Polls close in,Polls have closed.,2020-11-04T03:00:00.000Z,10 p.m.,663,663,100% reporting,100%,100,601509,edison,>98%,>98% reported,edison,republican,FALSE,2020-11-24T13:26:09Z,FALSE,12.77271,76829,R+13,Rosendale +13,republican,FALSE,"","",0,0,1604473773708
30095,Stillwater,5709,0,8,8,Released as a separate subtotal at the end of tabulation,100,5709,>98%,>98% reported,edison,8,some,3435,4366,1343,0,0,2020-11-24T13:22:16Z,52.95148,R+53,Rosendale +53,republican,MT-G-H-1-2020-11-03,mt-house-general-district-001-2020-11-03,https://www.nytimes.com/interactive/2020/11/03/us/elections/results-montana-house-district-at-large.html,https://www.nytimes.com/interactive/2020/11/03/us/elections/results-montana.html,https://www.nytimes.com/interactive/2020/11/03/us/elections/ap-polls-montana.html,https://www.nytimes.com/interactive/2020/11/03/us/elections/exit-polls-montana.html,house,general,2020-11-03,FALSE,U.S. House At-Large,U.S. House,H,lean-rep,1,At-Large,MT,montana,Montana,Mont.,horizontal,"",FALSE,TRUE,winner,AP,FALSE,"",601509,0,unknown,Polls close at 10 p.m. Eastern time.,Polls close in,Polls have closed.,2020-11-04T03:00:00.000Z,10 p.m.,663,663,100% reporting,100%,100,601509,edison,>98%,>98% reported,edison,republican,FALSE,2020-11-24T13:26:09Z,FALSE,12.77271,76829,R+13,Rosendale +13,republican,FALSE,"","",0,0,1604473773708
30097,Sweet Grass,2449,0,5,5,Released as a separate subtotal as first report of the night,100,2449,>98%,>98% reported,edison,8,some,1573,1843,606,0,0,2020-11-24T13:22:18Z,50.51041,R+51,Rosendale +51,republican,MT-G-H-1-2020-11-03,mt-house-general-district-001-2020-11-03,https://www.nytimes.com/interactive/2020/11/03/us/elections/results-montana-house-district-at-large.html,https://www.nytimes.com/interactive/2020/11/03/us/elections/results-montana.html,https://www.nytimes.com/interactive/2020/11/03/us/elections/ap-polls-montana.html,https://www.nytimes.com/interactive/2020/11/03/us/elections/exit-polls-montana.html,house,general,2020-11-03,FALSE,U.S. House At-Large,U.S. House,H,lean-rep,1,At-Large,MT,montana,Montana,Mont.,horizontal,"",FALSE,TRUE,winner,AP,FALSE,"",601509,0,unknown,Polls close at 10 p.m. Eastern time.,Polls close in,Polls have closed.,2020-11-04T03:00:00.000Z,10 p.m.,663,663,100% reporting,100%,100,601509,edison,>98%,>98% reported,edison,republican,FALSE,2020-11-24T13:26:09Z,FALSE,12.77271,76829,R+13,Rosendale +13,republican,FALSE,"","",0,0,1604473773708
30099,Teton,3684,0,5,5,Merged into voters' home precincts and released with cumulative results,100,3684,>98%,>98% reported,edison,8,all,2734,2557,1127,0,0,2020-11-24T13:22:22Z,38.8165,R+39,Rosendale +39,republican,MT-G-H-1-2020-11-03,mt-house-general-district-001-2020-11-03,https://www.nytimes.com/interactive/2020/11/03/us/elections/results-montana-house-district-at-large.html,https://www.nytimes.com/interactive/2020/11/03/us/elections/results-montana.html,https://www.nytimes.com/interactive/2020/11/03/us/elections/ap-polls-montana.html,https://www.nytimes.com/interactive/2020/11/03/us/elections/exit-polls-montana.html,house,general,2020-11-03,FALSE,U.S. House At-Large,U.S. House,H,lean-rep,1,At-Large,MT,montana,Montana,Mont.,horizontal,"",FALSE,TRUE,winner,AP,FALSE,"",601509,0,unknown,Polls close at 10 p.m. Eastern time.,Polls close in,Polls have closed.,2020-11-04T03:00:00.000Z,10 p.m.,663,663,100% reporting,100%,100,601509,edison,>98%,>98% reported,edison,republican,FALSE,2020-11-24T13:26:09Z,FALSE,12.77271,76829,R+13,Rosendale +13,republican,FALSE,"","",0,0,1604473773708
30101,Toole,2097,0,5,5,Merged into voters' home precincts and released with cumulative results,100,2097,>98%,>98% reported,edison,8,none,1491,1546,551,0,0,2020-11-24T13:22:23Z,47.44874,R+47,Rosendale +47,republican,MT-G-H-1-2020-11-03,mt-house-general-district-001-2020-11-03,https://www.nytimes.com/interactive/2020/11/03/us/elections/results-montana-house-district-at-large.html,https://www.nytimes.com/interactive/2020/11/03/us/elections/results-montana.html,https://www.nytimes.com/interactive/2020/11/03/us/elections/ap-polls-montana.html,https://www.nytimes.com/interactive/2020/11/03/us/elections/exit-polls-montana.html,house,general,2020-11-03,FALSE,U.S. House At-Large,U.S. House,H,lean-rep,1,At-Large,MT,montana,Montana,Mont.,horizontal,"",FALSE,TRUE,winner,AP,FALSE,"",601509,0,unknown,Polls close at 10 p.m. Eastern time.,Polls close in,Polls have closed.,2020-11-04T03:00:00.000Z,10 p.m.,663,663,100% reporting,100%,100,601509,edison,>98%,>98% reported,edison,republican,FALSE,2020-11-24T13:26:09Z,FALSE,12.77271,76829,R+13,Rosendale +13,republican,FALSE,"","",0,0,1604473773708
30103,Treasure,460,0,1,1,Merged into voters' home precincts and released with cumulative results,100,460,>98%,>98% reported,edison,8,unknown,267,356,104,0,0,2020-11-24T13:22:23Z,54.78261,R+55,Rosendale +55,republican,MT-G-H-1-2020-11-03,mt-house-general-district-001-2020-11-03,https://www.nytimes.com/interactive/2020/11/03/us/elections/results-montana-house-district-at-large.html,https://www.nytimes.com/interactive/2020/11/03/us/elections/results-montana.html,https://www.nytimes.com/interactive/2020/11/03/us/elections/ap-polls-montana.html,https://www.nytimes.com/interactive/2020/11/03/us/elections/exit-polls-montana.html,house,general,2020-11-03,FALSE,U.S. House At-Large,U.S. House,H,lean-rep,1,At-Large,MT,montana,Montana,Mont.,horizontal,"",FALSE,TRUE,winner,AP,FALSE,"",601509,0,unknown,Polls close at 10 p.m. Eastern time.,Polls close in,Polls have closed.,2020-11-04T03:00:00.000Z,10 p.m.,663,663,100% reporting,100%,100,601509,edison,>98%,>98% reported,edison,republican,FALSE,2020-11-24T13:26:09Z,FALSE,12.77271,76829,R+13,Rosendale +13,republican,FALSE,"","",0,0,1604473773708
30105,Valley,4198,0,3,3,Released as a separate subtotal as first report of the night,100,4198,>98%,>98% reported,edison,8,all,3726,2966,1232,0,0,2020-11-24T13:22:24Z,41.30538,R+41,Rosendale +41,republican,MT-G-H-1-2020-11-03,mt-house-general-district-001-2020-11-03,https://www.nytimes.com/interactive/2020/11/03/us/elections/results-montana-house-district-at-large.html,https://www.nytimes.com/interactive/2020/11/03/us/elections/results-montana.html,https://www.nytimes.com/interactive/2020/11/03/us/elections/ap-polls-montana.html,https://www.nytimes.com/interactive/2020/11/03/us/elections/exit-polls-montana.html,house,general,2020-11-03,FALSE,U.S. House At-Large,U.S. House,H,lean-rep,1,At-Large,MT,montana,Montana,Mont.,horizontal,"",FALSE,TRUE,winner,AP,FALSE,"",601509,0,unknown,Polls close at 10 p.m. Eastern time.,Polls close in,Polls have closed.,2020-11-04T03:00:00.000Z,10 p.m.,663,663,100% reporting,100%,100,601509,edison,>98%,>98% reported,edison,republican,FALSE,2020-11-24T13:26:09Z,FALSE,12.77271,76829,R+13,Rosendale +13,republican,FALSE,"","",0,0,1604473773708
30107,Wheatland,1063,0,5,5,Merged into voters' home precincts and released with cumulative results,100,1063,>98%,>98% reported,edison,8,some,667,792,271,0,0,2020-11-24T13:22:24Z,49.01223,R+49,Rosendale +49,republican,MT-G-H-1-2020-11-03,mt-house-general-district-001-2020-11-03,https://www.nytimes.com/interactive/2020/11/03/us/elections/results-montana-house-district-at-large.html,https://www.nytimes.com/interactive/2020/11/03/us/elections/results-montana.html,https://www.nytimes.com/interactive/2020/11/03/us/elections/ap-polls-montana.html,https://www.nytimes.com/interactive/2020/11/03/us/elections/exit-polls-montana.html,house,general,2020-11-03,FALSE,U.S. House At-Large,U.S. House,H,lean-rep,1,At-Large,MT,montana,Montana,Mont.,horizontal,"",FALSE,TRUE,winner,AP,FALSE,"",601509,0,unknown,Polls close at 10 p.m. Eastern time.,Polls close in,Polls have closed.,2020-11-04T03:00:00.000Z,10 p.m.,663,663,100% reporting,100%,100,601509,edison,>98%,>98% reported,edison,republican,FALSE,2020-11-24T13:26:09Z,FALSE,12.77271,76829,R+13,Rosendale +13,republican,FALSE,"","",0,0,1604473773708
30109,Wibaux,590,0,1,1,Merged into voters' home precincts and released with cumulative results,100,590,>98%,>98% reported,edison,8,unknown,240,492,98,0,0,2020-11-24T13:22:25Z,66.77966,R+67,Rosendale +67,republican,MT-G-H-1-2020-11-03,mt-house-general-district-001-2020-11-03,https://www.nytimes.com/interactive/2020/11/03/us/elections/results-montana-house-district-at-large.html,https://www.nytimes.com/interactive/2020/11/03/us/elections/results-montana.html,https://www.nytimes.com/interactive/2020/11/03/us/elections/ap-polls-montana.html,https://www.nytimes.com/interactive/2020/11/03/us/elections/exit-polls-montana.html,house,general,2020-11-03,FALSE,U.S. House At-Large,U.S. House,H,lean-rep,1,At-Large,MT,montana,Montana,Mont.,horizontal,"",FALSE,TRUE,winner,AP,FALSE,"",601509,0,unknown,Polls close at 10 p.m. Eastern time.,Polls close in,Polls have closed.,2020-11-04T03:00:00.000Z,10 p.m.,663,663,100% reporting,100%,100,601509,edison,>98%,>98% reported,edison,republican,FALSE,2020-11-24T13:26:09Z,FALSE,12.77271,76829,R+13,Rosendale +13,republican,FALSE,"","",0,0,1604473773708
30111,Yellowstone,83708,0,44,44,Merged into voters' home precincts and released with cumulative results,100,83708,>98%,>98% reported,edison,8,unknown,89706,50145,33563,0,0,2020-11-24T13:22:26Z,19.80934,R+20,Rosendale +20,republican,MT-G-H-1-2020-11-03,mt-house-general-district-001-2020-11-03,https://www.nytimes.com/interactive/2020/11/03/us/elections/results-montana-house-district-at-large.html,https://www.nytimes.com/interactive/2020/11/03/us/elections/results-montana.html,https://www.nytimes.com/interactive/2020/11/03/us/elections/ap-polls-montana.html,https://www.nytimes.com/interactive/2020/11/03/us/elections/exit-polls-montana.html,house,general,2020-11-03,FALSE,U.S. House At-Large,U.S. House,H,lean-rep,1,At-Large,MT,montana,Montana,Mont.,horizontal,"",FALSE,TRUE,winner,AP,FALSE,"",601509,0,unknown,Polls close at 10 p.m. Eastern time.,Polls close in,Polls have closed.,2020-11-04T03:00:00.000Z,10 p.m.,663,663,100% reporting,100%,100,601509,edison,>98%,>98% reported,edison,republican,FALSE,2020-11-24T13:26:09Z,FALSE,12.77271,76829,R+13,Rosendale +13,republican,FALSE,"","",0,0,1604473773708
