fips,name,votes,absentee_votes,reporting,precincts,absentee_method,eevp,tot_exp_vote,eevp_value,eevp_display,eevp_source,turnout_stage,absentee_count_progress,absentee_max_ballots,results_herrelly,results_smallx,results_write_ins,results_absentee_herrelly,results_absentee_smallx,results_absentee_write_ins,last_updated,leader_margin_value,leader_margin_display,leader_margin_name_display,leader_party_id,race_id_race,race_slug_race,url_race,state_page_url_race,ap_polls_page_race,race_type_race,election_type_race,election_date_race,runoff_race,race_name_race,office_race,officeid_race,nyt_race_description_race,race_rating_race,nyt_key_race_race,seat_race,seat_name_race,state_id_race,state_slug_race,state_name_race,state_nyt_abbrev_race,state_shape_race,party_id_race,uncontested_race,report_race,result_race,result_source_race,gain_race,lost_seat_race,votes_race,absentee_votes_race,absentee_count_progress_race,poll_display_race,poll_countdown_display_race,poll_waiting_display_race,poll_time_race,poll_time_short_race,precincts_reporting_race,precincts_total_race,reporting_display_race,reporting_value_race,eevp_race,tot_exp_vote_race,eevp_source_race,eevp_value_race,eevp_display_race,county_data_source_race,incumbent_party_race,no_forecast_race,last_updated_race,has_incumbent_race,leader_margin_value_race,leader_margin_votes_race,leader_margin_display_race,leader_margin_name_display_race,leader_party_id_race,edison_certified_race,expectations_text_race,expectations_text_short_race,absentee_ballot_deadline_race,absentee_postmark_deadline_race,winner_called_timestamp_race
35001,Bernalillo,1010,0,2,2,Released as a separate subtotal as first report of the night,100,1010,>98%,>98% reported,edison,10,all,298190,273,736,1,0,0,0,2020-11-25T04:04:34Z,45.84158,D+46,Small +46,democrat,NM-G-H-2-2020-11-03,nm-house-general-district-002-2020-11-03,https://www.nytimes.com/interactive/2020/11/03/us/elections/results-new-mexico-house-district-2.html,https://www.nytimes.com/interactive/2020/11/03/us/elections/results-new-mexico.html,https://www.nytimes.com/interactive/2020/11/03/us/elections/ap-polls-new-mexico.html,house,general,2020-11-03,FALSE,U.S. House District 2,U.S. House,H,"Two years ago, Yvette Herrell, a Republican, declared victory on election night only to have Xochitl Torres Small, a Democrat, eventually be declared the victor by just over 3,700 votes. This year, Ms. Herrell is running again in the traditionally Republican district, implying in ads that the Democrats stole the seat with fraudulent ballots (election officials <a href=""https://www.lcsun-news.com/story/news/2020/02/14/yvette-herrell-ad-claims-democrats-took-election-her-2018/4739095002"">call those claims false</a>) and highlighting her allegiance to the president in a race that polling suggests is a tossup.",tossup,TRUE,2,District 2,NM,new-mexico,New Mexico,N.M.,horizontal,"",FALSE,TRUE,winner,AP,TRUE,democrat,264946,0,unknown,Polls close at 9 p.m. Eastern time.,Polls close in,Polls have closed.,2020-11-04T02:00:00.000Z,9 p.m.,578,578,100% reporting,100%,100,264946,edison,>98%,>98% reported,edison,democrat,FALSE,2020-11-25T04:10:37Z,TRUE,7.44944,19737,R+7,Herrell +7,republican,TRUE,"","",0,0,1604474057502
35003,Catron,2250,0,9,9,Released as a precinct as first report of the night,100,2250,>98%,>98% reported,edison,10,all,1475,1631,619,0,0,0,0,2020-11-25T04:01:21Z,44.97778,R+45,Herrell +45,republican,NM-G-H-2-2020-11-03,nm-house-general-district-002-2020-11-03,https://www.nytimes.com/interactive/2020/11/03/us/elections/results-new-mexico-house-district-2.html,https://www.nytimes.com/interactive/2020/11/03/us/elections/results-new-mexico.html,https://www.nytimes.com/interactive/2020/11/03/us/elections/ap-polls-new-mexico.html,house,general,2020-11-03,FALSE,U.S. House District 2,U.S. House,H,"Two years ago, Yvette Herrell, a Republican, declared victory on election night only to have Xochitl Torres Small, a Democrat, eventually be declared the victor by just over 3,700 votes. This year, Ms. Herrell is running again in the traditionally Republican district, implying in ads that the Democrats stole the seat with fraudulent ballots (election officials <a href=""https://www.lcsun-news.com/story/news/2020/02/14/yvette-herrell-ad-claims-democrats-took-election-her-2018/4739095002"">call those claims false</a>) and highlighting her allegiance to the president in a race that polling suggests is a tossup.",tossup,TRUE,2,District 2,NM,new-mexico,New Mexico,N.M.,horizontal,"",FALSE,TRUE,winner,AP,TRUE,democrat,264946,0,unknown,Polls close at 9 p.m. Eastern time.,Polls close in,Polls have closed.,2020-11-04T02:00:00.000Z,9 p.m.,578,578,100% reporting,100%,100,264946,edison,>98%,>98% reported,edison,democrat,FALSE,2020-11-25T04:10:37Z,TRUE,7.44944,19737,R+7,Herrell +7,republican,TRUE,"","",0,0,1604474057502
35005,Chaves,22044,0,63,63,Released as a separate subtotal as first report of the night,100,22044,>98%,>98% reported,edison,10,all,18822,14975,7066,3,0,0,0,2020-11-25T03:55:41Z,35.87824,R+36,Herrell +36,republican,NM-G-H-2-2020-11-03,nm-house-general-district-002-2020-11-03,https://www.nytimes.com/interactive/2020/11/03/us/elections/results-new-mexico-house-district-2.html,https://www.nytimes.com/interactive/2020/11/03/us/elections/results-new-mexico.html,https://www.nytimes.com/interactive/2020/11/03/us/elections/ap-polls-new-mexico.html,house,general,2020-11-03,FALSE,U.S. House District 2,U.S. House,H,"Two years ago, Yvette Herrell, a Republican, declared victory on election night only to have Xochitl Torres Small, a Democrat, eventually be declared the victor by just over 3,700 votes. This year, Ms. Herrell is running again in the traditionally Republican district, implying in ads that the Democrats stole the seat with fraudulent ballots (election officials <a href=""https://www.lcsun-news.com/story/news/2020/02/14/yvette-herrell-ad-claims-democrats-took-election-her-2018/4739095002"">call those claims false</a>) and highlighting her allegiance to the president in a race that polling suggests is a tossup.",tossup,TRUE,2,District 2,NM,new-mexico,New Mexico,N.M.,horizontal,"",FALSE,TRUE,winner,AP,TRUE,democrat,264946,0,unknown,Polls close at 9 p.m. Eastern time.,Polls close in,Polls have closed.,2020-11-04T02:00:00.000Z,9 p.m.,578,578,100% reporting,100%,100,264946,edison,>98%,>98% reported,edison,democrat,FALSE,2020-11-25T04:10:37Z,TRUE,7.44944,19737,R+7,Herrell +7,republican,TRUE,"","",0,0,1604474057502
35006,Cibola,8717,0,17,17,Released as a separate subtotal at the end of tabulation,100,8717,>98%,>98% reported,edison,10,all,5168,3822,4868,27,0,0,0,2020-11-25T04:01:47Z,11.99954,D+12,Small +12,democrat,NM-G-H-2-2020-11-03,nm-house-general-district-002-2020-11-03,https://www.nytimes.com/interactive/2020/11/03/us/elections/results-new-mexico-house-district-2.html,https://www.nytimes.com/interactive/2020/11/03/us/elections/results-new-mexico.html,https://www.nytimes.com/interactive/2020/11/03/us/elections/ap-polls-new-mexico.html,house,general,2020-11-03,FALSE,U.S. House District 2,U.S. House,H,"Two years ago, Yvette Herrell, a Republican, declared victory on election night only to have Xochitl Torres Small, a Democrat, eventually be declared the victor by just over 3,700 votes. This year, Ms. Herrell is running again in the traditionally Republican district, implying in ads that the Democrats stole the seat with fraudulent ballots (election officials <a href=""https://www.lcsun-news.com/story/news/2020/02/14/yvette-herrell-ad-claims-democrats-took-election-her-2018/4739095002"">call those claims false</a>) and highlighting her allegiance to the president in a race that polling suggests is a tossup.",tossup,TRUE,2,District 2,NM,new-mexico,New Mexico,N.M.,horizontal,"",FALSE,TRUE,winner,AP,TRUE,democrat,264946,0,unknown,Polls close at 9 p.m. Eastern time.,Polls close in,Polls have closed.,2020-11-04T02:00:00.000Z,9 p.m.,578,578,100% reporting,100%,100,264946,edison,>98%,>98% reported,edison,democrat,FALSE,2020-11-25T04:10:37Z,TRUE,7.44944,19737,R+7,Herrell +7,republican,TRUE,"","",0,0,1604474057502
35011,DeBaca,884,0,4,4,Other,100,884,>98%,>98% reported,edison,10,all,541,615,269,0,0,0,0,2020-11-25T04:00:58Z,39.14027,R+39,Herrell +39,republican,NM-G-H-2-2020-11-03,nm-house-general-district-002-2020-11-03,https://www.nytimes.com/interactive/2020/11/03/us/elections/results-new-mexico-house-district-2.html,https://www.nytimes.com/interactive/2020/11/03/us/elections/results-new-mexico.html,https://www.nytimes.com/interactive/2020/11/03/us/elections/ap-polls-new-mexico.html,house,general,2020-11-03,FALSE,U.S. House District 2,U.S. House,H,"Two years ago, Yvette Herrell, a Republican, declared victory on election night only to have Xochitl Torres Small, a Democrat, eventually be declared the victor by just over 3,700 votes. This year, Ms. Herrell is running again in the traditionally Republican district, implying in ads that the Democrats stole the seat with fraudulent ballots (election officials <a href=""https://www.lcsun-news.com/story/news/2020/02/14/yvette-herrell-ad-claims-democrats-took-election-her-2018/4739095002"">call those claims false</a>) and highlighting her allegiance to the president in a race that polling suggests is a tossup.",tossup,TRUE,2,District 2,NM,new-mexico,New Mexico,N.M.,horizontal,"",FALSE,TRUE,winner,AP,TRUE,democrat,264946,0,unknown,Polls close at 9 p.m. Eastern time.,Polls close in,Polls have closed.,2020-11-04T02:00:00.000Z,9 p.m.,578,578,100% reporting,100%,100,264946,edison,>98%,>98% reported,edison,democrat,FALSE,2020-11-25T04:10:37Z,TRUE,7.44944,19737,R+7,Herrell +7,republican,TRUE,"","",0,0,1604474057502
35013,Dona Ana,81160,0,170,170,Released as a separate subtotal as first report of the night,100,81160,>98%,>98% reported,edison,10,all,55667,31694,49417,49,0,0,0,2020-11-25T03:56:32Z,21.83711,D+22,Small +22,democrat,NM-G-H-2-2020-11-03,nm-house-general-district-002-2020-11-03,https://www.nytimes.com/interactive/2020/11/03/us/elections/results-new-mexico-house-district-2.html,https://www.nytimes.com/interactive/2020/11/03/us/elections/results-new-mexico.html,https://www.nytimes.com/interactive/2020/11/03/us/elections/ap-polls-new-mexico.html,house,general,2020-11-03,FALSE,U.S. House District 2,U.S. House,H,"Two years ago, Yvette Herrell, a Republican, declared victory on election night only to have Xochitl Torres Small, a Democrat, eventually be declared the victor by just over 3,700 votes. This year, Ms. Herrell is running again in the traditionally Republican district, implying in ads that the Democrats stole the seat with fraudulent ballots (election officials <a href=""https://www.lcsun-news.com/story/news/2020/02/14/yvette-herrell-ad-claims-democrats-took-election-her-2018/4739095002"">call those claims false</a>) and highlighting her allegiance to the president in a race that polling suggests is a tossup.",tossup,TRUE,2,District 2,NM,new-mexico,New Mexico,N.M.,horizontal,"",FALSE,TRUE,winner,AP,TRUE,democrat,264946,0,unknown,Polls close at 9 p.m. Eastern time.,Polls close in,Polls have closed.,2020-11-04T02:00:00.000Z,9 p.m.,578,578,100% reporting,100%,100,264946,edison,>98%,>98% reported,edison,democrat,FALSE,2020-11-25T04:10:37Z,TRUE,7.44944,19737,R+7,Herrell +7,republican,TRUE,"","",0,0,1604474057502
35015,Eddy,22666,0,55,55,Merged into voters' home precincts and released with cumulative results,100,22666,>98%,>98% reported,edison,10,all,14448,16645,6011,10,0,0,0,2020-11-25T03:55:17Z,46.91609,R+47,Herrell +47,republican,NM-G-H-2-2020-11-03,nm-house-general-district-002-2020-11-03,https://www.nytimes.com/interactive/2020/11/03/us/elections/results-new-mexico-house-district-2.html,https://www.nytimes.com/interactive/2020/11/03/us/elections/results-new-mexico.html,https://www.nytimes.com/interactive/2020/11/03/us/elections/ap-polls-new-mexico.html,house,general,2020-11-03,FALSE,U.S. House District 2,U.S. House,H,"Two years ago, Yvette Herrell, a Republican, declared victory on election night only to have Xochitl Torres Small, a Democrat, eventually be declared the victor by just over 3,700 votes. This year, Ms. Herrell is running again in the traditionally Republican district, implying in ads that the Democrats stole the seat with fraudulent ballots (election officials <a href=""https://www.lcsun-news.com/story/news/2020/02/14/yvette-herrell-ad-claims-democrats-took-election-her-2018/4739095002"">call those claims false</a>) and highlighting her allegiance to the president in a race that polling suggests is a tossup.",tossup,TRUE,2,District 2,NM,new-mexico,New Mexico,N.M.,horizontal,"",FALSE,TRUE,winner,AP,TRUE,democrat,264946,0,unknown,Polls close at 9 p.m. Eastern time.,Polls close in,Polls have closed.,2020-11-04T02:00:00.000Z,9 p.m.,578,578,100% reporting,100%,100,264946,edison,>98%,>98% reported,edison,democrat,FALSE,2020-11-25T04:10:37Z,TRUE,7.44944,19737,R+7,Herrell +7,republican,TRUE,"","",0,0,1604474057502
35017,Grant,14187,0,39,39,Released as a separate subtotal as first report of the night,100,14187,>98%,>98% reported,edison,10,unknown,12286,6282,7897,8,0,0,0,2020-11-25T03:56:50Z,11.38366,D+11,Small +11,democrat,NM-G-H-2-2020-11-03,nm-house-general-district-002-2020-11-03,https://www.nytimes.com/interactive/2020/11/03/us/elections/results-new-mexico-house-district-2.html,https://www.nytimes.com/interactive/2020/11/03/us/elections/results-new-mexico.html,https://www.nytimes.com/interactive/2020/11/03/us/elections/ap-polls-new-mexico.html,house,general,2020-11-03,FALSE,U.S. House District 2,U.S. House,H,"Two years ago, Yvette Herrell, a Republican, declared victory on election night only to have Xochitl Torres Small, a Democrat, eventually be declared the victor by just over 3,700 votes. This year, Ms. Herrell is running again in the traditionally Republican district, implying in ads that the Democrats stole the seat with fraudulent ballots (election officials <a href=""https://www.lcsun-news.com/story/news/2020/02/14/yvette-herrell-ad-claims-democrats-took-election-her-2018/4739095002"">call those claims false</a>) and highlighting her allegiance to the president in a race that polling suggests is a tossup.",tossup,TRUE,2,District 2,NM,new-mexico,New Mexico,N.M.,horizontal,"",FALSE,TRUE,winner,AP,TRUE,democrat,264946,0,unknown,Polls close at 9 p.m. Eastern time.,Polls close in,Polls have closed.,2020-11-04T02:00:00.000Z,9 p.m.,578,578,100% reporting,100%,100,264946,edison,>98%,>98% reported,edison,democrat,FALSE,2020-11-25T04:10:37Z,TRUE,7.44944,19737,R+7,Herrell +7,republican,TRUE,"","",0,0,1604474057502
35019,Guadalupe,2124,0,7,7,Released as a separate subtotal at the end of tabulation,100,2124,>98%,>98% reported,edison,10,all,1781,772,1352,0,0,0,0,2020-11-25T03:59:43Z,27.30697,D+27,Small +27,democrat,NM-G-H-2-2020-11-03,nm-house-general-district-002-2020-11-03,https://www.nytimes.com/interactive/2020/11/03/us/elections/results-new-mexico-house-district-2.html,https://www.nytimes.com/interactive/2020/11/03/us/elections/results-new-mexico.html,https://www.nytimes.com/interactive/2020/11/03/us/elections/ap-polls-new-mexico.html,house,general,2020-11-03,FALSE,U.S. House District 2,U.S. House,H,"Two years ago, Yvette Herrell, a Republican, declared victory on election night only to have Xochitl Torres Small, a Democrat, eventually be declared the victor by just over 3,700 votes. This year, Ms. Herrell is running again in the traditionally Republican district, implying in ads that the Democrats stole the seat with fraudulent ballots (election officials <a href=""https://www.lcsun-news.com/story/news/2020/02/14/yvette-herrell-ad-claims-democrats-took-election-her-2018/4739095002"">call those claims false</a>) and highlighting her allegiance to the president in a race that polling suggests is a tossup.",tossup,TRUE,2,District 2,NM,new-mexico,New Mexico,N.M.,horizontal,"",FALSE,TRUE,winner,AP,TRUE,democrat,264946,0,unknown,Polls close at 9 p.m. Eastern time.,Polls close in,Polls have closed.,2020-11-04T02:00:00.000Z,9 p.m.,578,578,100% reporting,100%,100,264946,edison,>98%,>98% reported,edison,democrat,FALSE,2020-11-25T04:10:37Z,TRUE,7.44944,19737,R+7,Herrell +7,republican,TRUE,"","",0,0,1604474057502
35023,Hidalgo,1899,0,7,7,Released as a precinct at the end of tabulation,100,1899,>98%,>98% reported,edison,10,all,1219,1018,881,0,0,0,0,2020-11-25T03:59:25Z,7.21432,R+7,Herrell +7,republican,NM-G-H-2-2020-11-03,nm-house-general-district-002-2020-11-03,https://www.nytimes.com/interactive/2020/11/03/us/elections/results-new-mexico-house-district-2.html,https://www.nytimes.com/interactive/2020/11/03/us/elections/results-new-mexico.html,https://www.nytimes.com/interactive/2020/11/03/us/elections/ap-polls-new-mexico.html,house,general,2020-11-03,FALSE,U.S. House District 2,U.S. House,H,"Two years ago, Yvette Herrell, a Republican, declared victory on election night only to have Xochitl Torres Small, a Democrat, eventually be declared the victor by just over 3,700 votes. This year, Ms. Herrell is running again in the traditionally Republican district, implying in ads that the Democrats stole the seat with fraudulent ballots (election officials <a href=""https://www.lcsun-news.com/story/news/2020/02/14/yvette-herrell-ad-claims-democrats-took-election-her-2018/4739095002"">call those claims false</a>) and highlighting her allegiance to the president in a race that polling suggests is a tossup.",tossup,TRUE,2,District 2,NM,new-mexico,New Mexico,N.M.,horizontal,"",FALSE,TRUE,winner,AP,TRUE,democrat,264946,0,unknown,Polls close at 9 p.m. Eastern time.,Polls close in,Polls have closed.,2020-11-04T02:00:00.000Z,9 p.m.,578,578,100% reporting,100%,100,264946,edison,>98%,>98% reported,edison,democrat,FALSE,2020-11-25T04:10:37Z,TRUE,7.44944,19737,R+7,Herrell +7,republican,TRUE,"","",0,0,1604474057502
35025,Lea,20337,0,49,49,Other,100,20337,>98%,>98% reported,edison,10,all,13517,15772,4560,5,0,0,0,2020-11-25T03:56:04Z,55.13104,R+55,Herrell +55,republican,NM-G-H-2-2020-11-03,nm-house-general-district-002-2020-11-03,https://www.nytimes.com/interactive/2020/11/03/us/elections/results-new-mexico-house-district-2.html,https://www.nytimes.com/interactive/2020/11/03/us/elections/results-new-mexico.html,https://www.nytimes.com/interactive/2020/11/03/us/elections/ap-polls-new-mexico.html,house,general,2020-11-03,FALSE,U.S. House District 2,U.S. House,H,"Two years ago, Yvette Herrell, a Republican, declared victory on election night only to have Xochitl Torres Small, a Democrat, eventually be declared the victor by just over 3,700 votes. This year, Ms. Herrell is running again in the traditionally Republican district, implying in ads that the Democrats stole the seat with fraudulent ballots (election officials <a href=""https://www.lcsun-news.com/story/news/2020/02/14/yvette-herrell-ad-claims-democrats-took-election-her-2018/4739095002"">call those claims false</a>) and highlighting her allegiance to the president in a race that polling suggests is a tossup.",tossup,TRUE,2,District 2,NM,new-mexico,New Mexico,N.M.,horizontal,"",FALSE,TRUE,winner,AP,TRUE,democrat,264946,0,unknown,Polls close at 9 p.m. Eastern time.,Polls close in,Polls have closed.,2020-11-04T02:00:00.000Z,9 p.m.,578,578,100% reporting,100%,100,264946,edison,>98%,>98% reported,edison,democrat,FALSE,2020-11-25T04:10:37Z,TRUE,7.44944,19737,R+7,Herrell +7,republican,TRUE,"","",0,0,1604474057502
35027,Lincoln,10135,0,22,22,Released as a separate subtotal in the middle of the tabulation,100,10135,>98%,>98% reported,edison,10,all,9222,6808,3323,4,0,0,0,2020-11-25T04:00:38Z,34.38579,R+34,Herrell +34,republican,NM-G-H-2-2020-11-03,nm-house-general-district-002-2020-11-03,https://www.nytimes.com/interactive/2020/11/03/us/elections/results-new-mexico-house-district-2.html,https://www.nytimes.com/interactive/2020/11/03/us/elections/results-new-mexico.html,https://www.nytimes.com/interactive/2020/11/03/us/elections/ap-polls-new-mexico.html,house,general,2020-11-03,FALSE,U.S. House District 2,U.S. House,H,"Two years ago, Yvette Herrell, a Republican, declared victory on election night only to have Xochitl Torres Small, a Democrat, eventually be declared the victor by just over 3,700 votes. This year, Ms. Herrell is running again in the traditionally Republican district, implying in ads that the Democrats stole the seat with fraudulent ballots (election officials <a href=""https://www.lcsun-news.com/story/news/2020/02/14/yvette-herrell-ad-claims-democrats-took-election-her-2018/4739095002"">call those claims false</a>) and highlighting her allegiance to the president in a race that polling suggests is a tossup.",tossup,TRUE,2,District 2,NM,new-mexico,New Mexico,N.M.,horizontal,"",FALSE,TRUE,winner,AP,TRUE,democrat,264946,0,unknown,Polls close at 9 p.m. Eastern time.,Polls close in,Polls have closed.,2020-11-04T02:00:00.000Z,9 p.m.,578,578,100% reporting,100%,100,264946,edison,>98%,>98% reported,edison,democrat,FALSE,2020-11-25T04:10:37Z,TRUE,7.44944,19737,R+7,Herrell +7,republican,TRUE,"","",0,0,1604474057502
35029,Luna,7901,0,17,17,Released separately at end; NOT included in cumulative results,100,7901,>98%,>98% reported,edison,10,all,6902,4045,3854,2,0,0,0,2020-11-25T03:58:47Z,2.41742,R+2,Herrell +2,republican,NM-G-H-2-2020-11-03,nm-house-general-district-002-2020-11-03,https://www.nytimes.com/interactive/2020/11/03/us/elections/results-new-mexico-house-district-2.html,https://www.nytimes.com/interactive/2020/11/03/us/elections/results-new-mexico.html,https://www.nytimes.com/interactive/2020/11/03/us/elections/ap-polls-new-mexico.html,house,general,2020-11-03,FALSE,U.S. House District 2,U.S. House,H,"Two years ago, Yvette Herrell, a Republican, declared victory on election night only to have Xochitl Torres Small, a Democrat, eventually be declared the victor by just over 3,700 votes. This year, Ms. Herrell is running again in the traditionally Republican district, implying in ads that the Democrats stole the seat with fraudulent ballots (election officials <a href=""https://www.lcsun-news.com/story/news/2020/02/14/yvette-herrell-ad-claims-democrats-took-election-her-2018/4739095002"">call those claims false</a>) and highlighting her allegiance to the president in a race that polling suggests is a tossup.",tossup,TRUE,2,District 2,NM,new-mexico,New Mexico,N.M.,horizontal,"",FALSE,TRUE,winner,AP,TRUE,democrat,264946,0,unknown,Polls close at 9 p.m. Eastern time.,Polls close in,Polls have closed.,2020-11-04T02:00:00.000Z,9 p.m.,578,578,100% reporting,100%,100,264946,edison,>98%,>98% reported,edison,democrat,FALSE,2020-11-25T04:10:37Z,TRUE,7.44944,19737,R+7,Herrell +7,republican,TRUE,"","",0,0,1604474057502
35031,McKinley,2500,0,5,5,Released as a separate subtotal as first report of the night,100,2500,>98%,>98% reported,edison,10,all,10742,473,2027,0,0,0,0,2020-11-25T04:06:11Z,62.16,D+62,Small +62,democrat,NM-G-H-2-2020-11-03,nm-house-general-district-002-2020-11-03,https://www.nytimes.com/interactive/2020/11/03/us/elections/results-new-mexico-house-district-2.html,https://www.nytimes.com/interactive/2020/11/03/us/elections/results-new-mexico.html,https://www.nytimes.com/interactive/2020/11/03/us/elections/ap-polls-new-mexico.html,house,general,2020-11-03,FALSE,U.S. House District 2,U.S. House,H,"Two years ago, Yvette Herrell, a Republican, declared victory on election night only to have Xochitl Torres Small, a Democrat, eventually be declared the victor by just over 3,700 votes. This year, Ms. Herrell is running again in the traditionally Republican district, implying in ads that the Democrats stole the seat with fraudulent ballots (election officials <a href=""https://www.lcsun-news.com/story/news/2020/02/14/yvette-herrell-ad-claims-democrats-took-election-her-2018/4739095002"">call those claims false</a>) and highlighting her allegiance to the president in a race that polling suggests is a tossup.",tossup,TRUE,2,District 2,NM,new-mexico,New Mexico,N.M.,horizontal,"",FALSE,TRUE,winner,AP,TRUE,democrat,264946,0,unknown,Polls close at 9 p.m. Eastern time.,Polls close in,Polls have closed.,2020-11-04T02:00:00.000Z,9 p.m.,578,578,100% reporting,100%,100,264946,edison,>98%,>98% reported,edison,democrat,FALSE,2020-11-25T04:10:37Z,TRUE,7.44944,19737,R+7,Herrell +7,republican,TRUE,"","",0,0,1604474057502
35035,Otero,22984,0,10,10,Released as a separate subtotal as first report of the night,100,22984,>98%,>98% reported,edison,10,all,19006,13970,9014,0,0,0,0,2020-11-25T03:58:27Z,21.56283,R+22,Herrell +22,republican,NM-G-H-2-2020-11-03,nm-house-general-district-002-2020-11-03,https://www.nytimes.com/interactive/2020/11/03/us/elections/results-new-mexico-house-district-2.html,https://www.nytimes.com/interactive/2020/11/03/us/elections/results-new-mexico.html,https://www.nytimes.com/interactive/2020/11/03/us/elections/ap-polls-new-mexico.html,house,general,2020-11-03,FALSE,U.S. House District 2,U.S. House,H,"Two years ago, Yvette Herrell, a Republican, declared victory on election night only to have Xochitl Torres Small, a Democrat, eventually be declared the victor by just over 3,700 votes. This year, Ms. Herrell is running again in the traditionally Republican district, implying in ads that the Democrats stole the seat with fraudulent ballots (election officials <a href=""https://www.lcsun-news.com/story/news/2020/02/14/yvette-herrell-ad-claims-democrats-took-election-her-2018/4739095002"">call those claims false</a>) and highlighting her allegiance to the president in a race that polling suggests is a tossup.",tossup,TRUE,2,District 2,NM,new-mexico,New Mexico,N.M.,horizontal,"",FALSE,TRUE,winner,AP,TRUE,democrat,264946,0,unknown,Polls close at 9 p.m. Eastern time.,Polls close in,Polls have closed.,2020-11-04T02:00:00.000Z,9 p.m.,578,578,100% reporting,100%,100,264946,edison,>98%,>98% reported,edison,democrat,FALSE,2020-11-25T04:10:37Z,TRUE,7.44944,19737,R+7,Herrell +7,republican,TRUE,"","",0,0,1604474057502
35041,Roosevelt,2918,0,9,9,Released as a separate subtotal as first report of the night,100,2918,>98%,>98% reported,edison,10,all,4750,2234,683,1,0,0,0,2020-11-25T04:05:31Z,53.15284,R+53,Herrell +53,republican,NM-G-H-2-2020-11-03,nm-house-general-district-002-2020-11-03,https://www.nytimes.com/interactive/2020/11/03/us/elections/results-new-mexico-house-district-2.html,https://www.nytimes.com/interactive/2020/11/03/us/elections/results-new-mexico.html,https://www.nytimes.com/interactive/2020/11/03/us/elections/ap-polls-new-mexico.html,house,general,2020-11-03,FALSE,U.S. House District 2,U.S. House,H,"Two years ago, Yvette Herrell, a Republican, declared victory on election night only to have Xochitl Torres Small, a Democrat, eventually be declared the victor by just over 3,700 votes. This year, Ms. Herrell is running again in the traditionally Republican district, implying in ads that the Democrats stole the seat with fraudulent ballots (election officials <a href=""https://www.lcsun-news.com/story/news/2020/02/14/yvette-herrell-ad-claims-democrats-took-election-her-2018/4739095002"">call those claims false</a>) and highlighting her allegiance to the president in a race that polling suggests is a tossup.",tossup,TRUE,2,District 2,NM,new-mexico,New Mexico,N.M.,horizontal,"",FALSE,TRUE,winner,AP,TRUE,democrat,264946,0,unknown,Polls close at 9 p.m. Eastern time.,Polls close in,Polls have closed.,2020-11-04T02:00:00.000Z,9 p.m.,578,578,100% reporting,100%,100,264946,edison,>98%,>98% reported,edison,democrat,FALSE,2020-11-25T04:10:37Z,TRUE,7.44944,19737,R+7,Herrell +7,republican,TRUE,"","",0,0,1604474057502
35051,Sierra,5809,0,10,10,Released as a separate subtotal in the middle of the tabulation,100,5809,>98%,>98% reported,edison,10,all,4688,3425,2381,3,0,0,0,2020-11-25T03:59:08Z,17.97211,R+18,Herrell +18,republican,NM-G-H-2-2020-11-03,nm-house-general-district-002-2020-11-03,https://www.nytimes.com/interactive/2020/11/03/us/elections/results-new-mexico-house-district-2.html,https://www.nytimes.com/interactive/2020/11/03/us/elections/results-new-mexico.html,https://www.nytimes.com/interactive/2020/11/03/us/elections/ap-polls-new-mexico.html,house,general,2020-11-03,FALSE,U.S. House District 2,U.S. House,H,"Two years ago, Yvette Herrell, a Republican, declared victory on election night only to have Xochitl Torres Small, a Democrat, eventually be declared the victor by just over 3,700 votes. This year, Ms. Herrell is running again in the traditionally Republican district, implying in ads that the Democrats stole the seat with fraudulent ballots (election officials <a href=""https://www.lcsun-news.com/story/news/2020/02/14/yvette-herrell-ad-claims-democrats-took-election-her-2018/4739095002"">call those claims false</a>) and highlighting her allegiance to the president in a race that polling suggests is a tossup.",tossup,TRUE,2,District 2,NM,new-mexico,New Mexico,N.M.,horizontal,"",FALSE,TRUE,winner,AP,TRUE,democrat,264946,0,unknown,Polls close at 9 p.m. Eastern time.,Polls close in,Polls have closed.,2020-11-04T02:00:00.000Z,9 p.m.,578,578,100% reporting,100%,100,264946,edison,>98%,>98% reported,edison,democrat,FALSE,2020-11-25T04:10:37Z,TRUE,7.44944,19737,R+7,Herrell +7,republican,TRUE,"","",0,0,1604474057502
35053,Socorro,7036,0,27,27,Released as a separate subtotal as first report of the night,100,7036,>98%,>98% reported,edison,10,all,5411,3051,3983,2,0,0,0,2020-11-25T04:00:15Z,13.24616,D+13,Small +13,democrat,NM-G-H-2-2020-11-03,nm-house-general-district-002-2020-11-03,https://www.nytimes.com/interactive/2020/11/03/us/elections/results-new-mexico-house-district-2.html,https://www.nytimes.com/interactive/2020/11/03/us/elections/results-new-mexico.html,https://www.nytimes.com/interactive/2020/11/03/us/elections/ap-polls-new-mexico.html,house,general,2020-11-03,FALSE,U.S. House District 2,U.S. House,H,"Two years ago, Yvette Herrell, a Republican, declared victory on election night only to have Xochitl Torres Small, a Democrat, eventually be declared the victor by just over 3,700 votes. This year, Ms. Herrell is running again in the traditionally Republican district, implying in ads that the Democrats stole the seat with fraudulent ballots (election officials <a href=""https://www.lcsun-news.com/story/news/2020/02/14/yvette-herrell-ad-claims-democrats-took-election-her-2018/4739095002"">call those claims false</a>) and highlighting her allegiance to the president in a race that polling suggests is a tossup.",tossup,TRUE,2,District 2,NM,new-mexico,New Mexico,N.M.,horizontal,"",FALSE,TRUE,winner,AP,TRUE,democrat,264946,0,unknown,Polls close at 9 p.m. Eastern time.,Polls close in,Polls have closed.,2020-11-04T02:00:00.000Z,9 p.m.,578,578,100% reporting,100%,100,264946,edison,>98%,>98% reported,edison,democrat,FALSE,2020-11-25T04:10:37Z,TRUE,7.44944,19737,R+7,Herrell +7,republican,TRUE,"","",0,0,1604474057502
35061,Valencia,28385,0,56,56,None,100,28385,>98%,>98% reported,edison,10,all,23248,14778,13605,2,0,0,0,2020-11-25T03:58:07Z,4.13246,R+4,Herrell +4,republican,NM-G-H-2-2020-11-03,nm-house-general-district-002-2020-11-03,https://www.nytimes.com/interactive/2020/11/03/us/elections/results-new-mexico-house-district-2.html,https://www.nytimes.com/interactive/2020/11/03/us/elections/results-new-mexico.html,https://www.nytimes.com/interactive/2020/11/03/us/elections/ap-polls-new-mexico.html,house,general,2020-11-03,FALSE,U.S. House District 2,U.S. House,H,"Two years ago, Yvette Herrell, a Republican, declared victory on election night only to have Xochitl Torres Small, a Democrat, eventually be declared the victor by just over 3,700 votes. This year, Ms. Herrell is running again in the traditionally Republican district, implying in ads that the Democrats stole the seat with fraudulent ballots (election officials <a href=""https://www.lcsun-news.com/story/news/2020/02/14/yvette-herrell-ad-claims-democrats-took-election-her-2018/4739095002"">call those claims false</a>) and highlighting her allegiance to the president in a race that polling suggests is a tossup.",tossup,TRUE,2,District 2,NM,new-mexico,New Mexico,N.M.,horizontal,"",FALSE,TRUE,winner,AP,TRUE,democrat,264946,0,unknown,Polls close at 9 p.m. Eastern time.,Polls close in,Polls have closed.,2020-11-04T02:00:00.000Z,9 p.m.,578,578,100% reporting,100%,100,264946,edison,>98%,>98% reported,edison,democrat,FALSE,2020-11-25T04:10:37Z,TRUE,7.44944,19737,R+7,Herrell +7,republican,TRUE,"","",0,0,1604474057502
