fips,name,votes,absentee_votes,reporting,precincts,absentee_method,eevp,tot_exp_vote,eevp_value,eevp_display,eevp_source,turnout_stage,absentee_count_progress,absentee_max_ballots,results_owensb,results_mcadamsb,results_molnarj,results_broderickj,results_write_ins,results_absentee_owensb,results_absentee_mcadamsb,results_absentee_molnarj,results_absentee_broderickj,results_absentee_write_ins,last_updated,leader_margin_value,leader_margin_display,leader_margin_name_display,leader_party_id,race_id_race,race_slug_race,url_race,state_page_url_race,ap_polls_page_race,race_type_race,election_type_race,election_date_race,runoff_race,race_name_race,office_race,officeid_race,nyt_race_description_race,race_rating_race,nyt_key_race_race,seat_race,seat_name_race,state_id_race,state_slug_race,state_name_race,state_nyt_abbrev_race,state_shape_race,party_id_race,uncontested_race,report_race,result_race,result_source_race,gain_race,lost_seat_race,votes_race,absentee_votes_race,absentee_counties_race,absentee_count_progress_race,poll_display_race,poll_countdown_display_race,poll_waiting_display_race,poll_time_race,poll_time_short_race,precincts_reporting_race,precincts_total_race,reporting_display_race,reporting_value_race,eevp_race,tot_exp_vote_race,eevp_source_race,eevp_value_race,eevp_display_race,county_data_source_race,incumbent_party_race,no_forecast_race,last_updated_race,has_incumbent_race,leader_margin_value_race,leader_margin_votes_race,leader_margin_display_race,leader_margin_name_display_race,leader_party_id_race,edison_certified_race,expectations_text_race,expectations_text_short_race,absentee_ballot_deadline_race,absentee_postmark_deadline_race,winner_called_timestamp_race
49023,Juab,5223,0,9,9,Released as a separate subtotal as first report of the night,100,5239,>98%,>98% reported,edison,10,all,3157,4206,759,166,91,1,0,0,0,0,0,2020-11-24T21:42:55Z,65.99655,R+66,Owens +66,republican,UT-G-H-4-2020-11-03,ut-house-general-district-004-2020-11-03,https://www.nytimes.com/interactive/2020/11/03/us/elections/results-utah-house-district-4.html,https://www.nytimes.com/interactive/2020/11/03/us/elections/results-utah.html,https://www.nytimes.com/interactive/2020/11/03/us/elections/ap-polls-utah.html,house,general,2020-11-03,FALSE,U.S. House District 4,U.S. House,H,"Representative Ben McAdams, a Democrat, won the seat from Mia Love, a Republican and rising star, in 2018 by about 700 votes. Republicans have pinned their hopes of flipping the district back on Burgess Owens, a former professional football player who is running as a political outsider and has aligned himself with President Trump. National groups have invested heavily in the race — which is expected to be too close to call on election night — and attack ads have flooded the airwaves in the lead up to the election.",tossup,TRUE,4,District 4,UT,utah,Utah,Utah,horizontal,"",FALSE,TRUE,winner,AP,TRUE,democrat,376730,286374,1,unknown,Polls close at 10 p.m. Eastern time.,Polls close in,Polls have closed.,2020-11-04T03:00:00.000Z,10 p.m.,512,512,100% reporting,100%,100,377351,edison,>98%,>98% reported,edison,democrat,FALSE,2020-11-24T21:31:07Z,TRUE,0.99939,3765,R+1.00,Owens +1.00,republican,TRUE,"Ballots postmarked by the day before the election must arrive by Nov. 10 to Nov. 17, depending on the county.","Ballots postmarked by the day before the election must arrive by Nov. 10 to Nov. 17, depending on the county.",7,-1,1605567889625
49035,Salt Lake,305289,286374,438,438,Released as a separate subtotal as first report of the night,100,305881,>98%,>98% reported,edison,10,all,375002,130519,158035,10259,6453,23,119579,151660,9189,5946,0,2020-11-24T21:59:24Z,9.0131,D+9,McAdams +9,democrat,UT-G-H-4-2020-11-03,ut-house-general-district-004-2020-11-03,https://www.nytimes.com/interactive/2020/11/03/us/elections/results-utah-house-district-4.html,https://www.nytimes.com/interactive/2020/11/03/us/elections/results-utah.html,https://www.nytimes.com/interactive/2020/11/03/us/elections/ap-polls-utah.html,house,general,2020-11-03,FALSE,U.S. House District 4,U.S. House,H,"Representative Ben McAdams, a Democrat, won the seat from Mia Love, a Republican and rising star, in 2018 by about 700 votes. Republicans have pinned their hopes of flipping the district back on Burgess Owens, a former professional football player who is running as a political outsider and has aligned himself with President Trump. National groups have invested heavily in the race — which is expected to be too close to call on election night — and attack ads have flooded the airwaves in the lead up to the election.",tossup,TRUE,4,District 4,UT,utah,Utah,Utah,horizontal,"",FALSE,TRUE,winner,AP,TRUE,democrat,376730,286374,1,unknown,Polls close at 10 p.m. Eastern time.,Polls close in,Polls have closed.,2020-11-04T03:00:00.000Z,10 p.m.,512,512,100% reporting,100%,100,377351,edison,>98%,>98% reported,edison,democrat,FALSE,2020-11-24T21:31:07Z,TRUE,0.99939,3765,R+1.00,Owens +1.00,republican,TRUE,"Ballots postmarked by the day before the election must arrive by Nov. 10 to Nov. 17, depending on the county.","Ballots postmarked by the day before the election must arrive by Nov. 10 to Nov. 17, depending on the county.",7,-1,1605567889625
49039,Sanpete,5859,0,13,13,Released as a separate subtotal as first report of the night,100,5874,>98%,>98% reported,edison,10,all,4390,4368,1126,212,150,3,0,0,0,0,0,2020-11-24T21:44:52Z,55.33367,R+55,Owens +55,republican,UT-G-H-4-2020-11-03,ut-house-general-district-004-2020-11-03,https://www.nytimes.com/interactive/2020/11/03/us/elections/results-utah-house-district-4.html,https://www.nytimes.com/interactive/2020/11/03/us/elections/results-utah.html,https://www.nytimes.com/interactive/2020/11/03/us/elections/ap-polls-utah.html,house,general,2020-11-03,FALSE,U.S. House District 4,U.S. House,H,"Representative Ben McAdams, a Democrat, won the seat from Mia Love, a Republican and rising star, in 2018 by about 700 votes. Republicans have pinned their hopes of flipping the district back on Burgess Owens, a former professional football player who is running as a political outsider and has aligned himself with President Trump. National groups have invested heavily in the race — which is expected to be too close to call on election night — and attack ads have flooded the airwaves in the lead up to the election.",tossup,TRUE,4,District 4,UT,utah,Utah,Utah,horizontal,"",FALSE,TRUE,winner,AP,TRUE,democrat,376730,286374,1,unknown,Polls close at 10 p.m. Eastern time.,Polls close in,Polls have closed.,2020-11-04T03:00:00.000Z,10 p.m.,512,512,100% reporting,100%,100,377351,edison,>98%,>98% reported,edison,democrat,FALSE,2020-11-24T21:31:07Z,TRUE,0.99939,3765,R+1.00,Owens +1.00,republican,TRUE,"Ballots postmarked by the day before the election must arrive by Nov. 10 to Nov. 17, depending on the county.","Ballots postmarked by the day before the election must arrive by Nov. 10 to Nov. 17, depending on the county.",7,-1,1605567889625
49049,Utah,60359,0,52,52,Released as a separate subtotal as first report of the night,100,60357,>98%,>98% reported,edison,10,all,95185,40595,16003,2416,1343,2,0,0,0,0,0,2020-11-24T21:46:53Z,40.74289,R+41,Owens +41,republican,UT-G-H-4-2020-11-03,ut-house-general-district-004-2020-11-03,https://www.nytimes.com/interactive/2020/11/03/us/elections/results-utah-house-district-4.html,https://www.nytimes.com/interactive/2020/11/03/us/elections/results-utah.html,https://www.nytimes.com/interactive/2020/11/03/us/elections/ap-polls-utah.html,house,general,2020-11-03,FALSE,U.S. House District 4,U.S. House,H,"Representative Ben McAdams, a Democrat, won the seat from Mia Love, a Republican and rising star, in 2018 by about 700 votes. Republicans have pinned their hopes of flipping the district back on Burgess Owens, a former professional football player who is running as a political outsider and has aligned himself with President Trump. National groups have invested heavily in the race — which is expected to be too close to call on election night — and attack ads have flooded the airwaves in the lead up to the election.",tossup,TRUE,4,District 4,UT,utah,Utah,Utah,horizontal,"",FALSE,TRUE,winner,AP,TRUE,democrat,376730,286374,1,unknown,Polls close at 10 p.m. Eastern time.,Polls close in,Polls have closed.,2020-11-04T03:00:00.000Z,10 p.m.,512,512,100% reporting,100%,100,377351,edison,>98%,>98% reported,edison,democrat,FALSE,2020-11-24T21:31:07Z,TRUE,0.99939,3765,R+1.00,Owens +1.00,republican,TRUE,"Ballots postmarked by the day before the election must arrive by Nov. 10 to Nov. 17, depending on the county.","Ballots postmarked by the day before the election must arrive by Nov. 10 to Nov. 17, depending on the county.",7,-1,1605567889625
