fips,name,votes,absentee_votes,reporting,precincts,absentee_method,eevp,tot_exp_vote,eevp_value,eevp_display,eevp_source,turnout_stage,absentee_count_progress,absentee_max_ballots,results_curtisj,results_thorped,results_cummingsd,results_mcneillt,results_absentee_curtisj,results_absentee_thorped,results_absentee_cummingsd,results_absentee_mcneillt,last_updated,leader_margin_value,leader_margin_display,leader_margin_name_display,leader_party_id,results_write_ins,results_absentee_write_ins,race_id_race,race_slug_race,url_race,state_page_url_race,ap_polls_page_race,race_type_race,election_type_race,election_date_race,runoff_race,race_name_race,office_race,officeid_race,race_rating_race,seat_race,seat_name_race,state_id_race,state_slug_race,state_name_race,state_nyt_abbrev_race,state_shape_race,party_id_race,uncontested_race,report_race,result_race,result_source_race,gain_race,lost_seat_race,votes_race,absentee_votes_race,absentee_counties_race,absentee_count_progress_race,poll_display_race,poll_countdown_display_race,poll_waiting_display_race,poll_time_race,poll_time_short_race,precincts_reporting_race,precincts_total_race,reporting_display_race,reporting_value_race,eevp_race,tot_exp_vote_race,eevp_source_race,eevp_value_race,eevp_display_race,county_data_source_race,incumbent_party_race,no_forecast_race,last_updated_race,has_incumbent_race,leader_margin_value_race,leader_margin_votes_race,leader_margin_display_race,leader_margin_name_display_race,leader_party_id_race,edison_certified_race,expectations_text_race,expectations_text_short_race,absentee_ballot_deadline_race,absentee_postmark_deadline_race,winner_called_timestamp_race
49007,Carbon,8940,0,20,20,Released as a separate subtotal as first report of the night,100,8940,>98%,>98% reported,edison,10,unknown,7692,6595,2065,176,104,0,0,0,0,2020-11-24T13:25:42Z,50.67114,R+51,Curtis +51,republican,,,UT-G-H-3-2020-11-03,ut-house-general-district-003-2020-11-03,https://www.nytimes.com/interactive/2020/11/03/us/elections/results-utah-house-district-3.html,https://www.nytimes.com/interactive/2020/11/03/us/elections/results-utah.html,https://www.nytimes.com/interactive/2020/11/03/us/elections/ap-polls-utah.html,house,general,2020-11-03,FALSE,U.S. House District 3,U.S. House,H,solid-rep,3,District 3,UT,utah,Utah,Utah,horizontal,"",FALSE,TRUE,winner,AP,FALSE,"",358927,99683,1,unknown,Polls close at 10 p.m. Eastern time.,Polls close in,Polls have closed.,2020-11-04T03:00:00.000Z,10 p.m.,523,523,100% reporting,100%,100,358670,edison,>98%,>98% reported,edison,republican,FALSE,2020-11-24T21:29:42Z,TRUE,41.96034,150607,R+42,Curtis +42,republican,TRUE,"Ballots postmarked by the day before the election must arrive by Nov. 10 to Nov. 17, depending on the county.","Ballots postmarked by the day before the election must arrive by Nov. 10 to Nov. 17, depending on the county.",7,-1,1604475668148
49015,Emery,4680,0,12,12,Merged into voters' home precincts and released with cumulative results,100,4680,>98%,>98% reported,edison,10,unknown,2072,4075,478,90,37,0,0,0,0,2020-11-24T21:41:57Z,76.85897,R+77,Curtis +77,republican,,,UT-G-H-3-2020-11-03,ut-house-general-district-003-2020-11-03,https://www.nytimes.com/interactive/2020/11/03/us/elections/results-utah-house-district-3.html,https://www.nytimes.com/interactive/2020/11/03/us/elections/results-utah.html,https://www.nytimes.com/interactive/2020/11/03/us/elections/ap-polls-utah.html,house,general,2020-11-03,FALSE,U.S. House District 3,U.S. House,H,solid-rep,3,District 3,UT,utah,Utah,Utah,horizontal,"",FALSE,TRUE,winner,AP,FALSE,"",358927,99683,1,unknown,Polls close at 10 p.m. Eastern time.,Polls close in,Polls have closed.,2020-11-04T03:00:00.000Z,10 p.m.,523,523,100% reporting,100%,100,358670,edison,>98%,>98% reported,edison,republican,FALSE,2020-11-24T21:29:42Z,TRUE,41.96034,150607,R+42,Curtis +42,republican,TRUE,"Ballots postmarked by the day before the election must arrive by Nov. 10 to Nov. 17, depending on the county.","Ballots postmarked by the day before the election must arrive by Nov. 10 to Nov. 17, depending on the county.",7,-1,1604475668148
49019,Grand,4928,0,18,18,Merged into voters' home precincts and released with cumulative results,100,4928,>98%,>98% reported,edison,10,unknown,3890,2339,2460,65,64,0,0,0,0,2020-11-24T21:42:09Z,2.45536,D+2,Thorpe +2,democrat,,,UT-G-H-3-2020-11-03,ut-house-general-district-003-2020-11-03,https://www.nytimes.com/interactive/2020/11/03/us/elections/results-utah-house-district-3.html,https://www.nytimes.com/interactive/2020/11/03/us/elections/results-utah.html,https://www.nytimes.com/interactive/2020/11/03/us/elections/ap-polls-utah.html,house,general,2020-11-03,FALSE,U.S. House District 3,U.S. House,H,solid-rep,3,District 3,UT,utah,Utah,Utah,horizontal,"",FALSE,TRUE,winner,AP,FALSE,"",358927,99683,1,unknown,Polls close at 10 p.m. Eastern time.,Polls close in,Polls have closed.,2020-11-04T03:00:00.000Z,10 p.m.,523,523,100% reporting,100%,100,358670,edison,>98%,>98% reported,edison,republican,FALSE,2020-11-24T21:29:42Z,TRUE,41.96034,150607,R+42,Curtis +42,republican,TRUE,"Ballots postmarked by the day before the election must arrive by Nov. 10 to Nov. 17, depending on the county.","Ballots postmarked by the day before the election must arrive by Nov. 10 to Nov. 17, depending on the county.",7,-1,1604475668148
49035,Salt Lake,104745,99683,170,170,Released as a separate subtotal as first report of the night,100,104687,>98%,>98% reported,edison,10,all,375002,57520,44360,1487,1320,53934,43188,1327,1234,2020-11-24T21:59:24Z,12.56385,R+13,Curtis +13,republican,58,0,UT-G-H-3-2020-11-03,ut-house-general-district-003-2020-11-03,https://www.nytimes.com/interactive/2020/11/03/us/elections/results-utah-house-district-3.html,https://www.nytimes.com/interactive/2020/11/03/us/elections/results-utah.html,https://www.nytimes.com/interactive/2020/11/03/us/elections/ap-polls-utah.html,house,general,2020-11-03,FALSE,U.S. House District 3,U.S. House,H,solid-rep,3,District 3,UT,utah,Utah,Utah,horizontal,"",FALSE,TRUE,winner,AP,FALSE,"",358927,99683,1,unknown,Polls close at 10 p.m. Eastern time.,Polls close in,Polls have closed.,2020-11-04T03:00:00.000Z,10 p.m.,523,523,100% reporting,100%,100,358670,edison,>98%,>98% reported,edison,republican,FALSE,2020-11-24T21:29:42Z,TRUE,41.96034,150607,R+42,Curtis +42,republican,TRUE,"Ballots postmarked by the day before the election must arrive by Nov. 10 to Nov. 17, depending on the county.","Ballots postmarked by the day before the election must arrive by Nov. 10 to Nov. 17, depending on the county.",7,-1,1604475668148
49037,San Juan,6390,0,23,23,Merged into voters' home precincts and released with cumulative results,100,6387,>98%,>98% reported,edison,10,unknown,3260,3536,2498,208,145,0,0,0,0,2020-11-24T21:44:30Z,16.24413,R+16,Curtis +16,republican,3,0,UT-G-H-3-2020-11-03,ut-house-general-district-003-2020-11-03,https://www.nytimes.com/interactive/2020/11/03/us/elections/results-utah-house-district-3.html,https://www.nytimes.com/interactive/2020/11/03/us/elections/results-utah.html,https://www.nytimes.com/interactive/2020/11/03/us/elections/ap-polls-utah.html,house,general,2020-11-03,FALSE,U.S. House District 3,U.S. House,H,solid-rep,3,District 3,UT,utah,Utah,Utah,horizontal,"",FALSE,TRUE,winner,AP,FALSE,"",358927,99683,1,unknown,Polls close at 10 p.m. Eastern time.,Polls close in,Polls have closed.,2020-11-04T03:00:00.000Z,10 p.m.,523,523,100% reporting,100%,100,358670,edison,>98%,>98% reported,edison,republican,FALSE,2020-11-24T21:29:42Z,TRUE,41.96034,150607,R+42,Curtis +42,republican,TRUE,"Ballots postmarked by the day before the election must arrive by Nov. 10 to Nov. 17, depending on the county.","Ballots postmarked by the day before the election must arrive by Nov. 10 to Nov. 17, depending on the county.",7,-1,1604475668148
49049,Utah,212498,0,242,242,Released as a separate subtotal as first report of the night,100,212302,>98%,>98% reported,edison,10,all,95185,161248,39394,6474,5186,0,0,0,0,2020-11-24T21:46:53Z,57.3436,R+57,Curtis +57,republican,196,0,UT-G-H-3-2020-11-03,ut-house-general-district-003-2020-11-03,https://www.nytimes.com/interactive/2020/11/03/us/elections/results-utah-house-district-3.html,https://www.nytimes.com/interactive/2020/11/03/us/elections/results-utah.html,https://www.nytimes.com/interactive/2020/11/03/us/elections/ap-polls-utah.html,house,general,2020-11-03,FALSE,U.S. House District 3,U.S. House,H,solid-rep,3,District 3,UT,utah,Utah,Utah,horizontal,"",FALSE,TRUE,winner,AP,FALSE,"",358927,99683,1,unknown,Polls close at 10 p.m. Eastern time.,Polls close in,Polls have closed.,2020-11-04T03:00:00.000Z,10 p.m.,523,523,100% reporting,100%,100,358670,edison,>98%,>98% reported,edison,republican,FALSE,2020-11-24T21:29:42Z,TRUE,41.96034,150607,R+42,Curtis +42,republican,TRUE,"Ballots postmarked by the day before the election must arrive by Nov. 10 to Nov. 17, depending on the county.","Ballots postmarked by the day before the election must arrive by Nov. 10 to Nov. 17, depending on the county.",7,-1,1604475668148
49051,Wasatch,16746,0,38,38,None,100,16746,>98%,>98% reported,edison,10,unknown,8962,11361,4812,389,184,0,0,0,0,2020-11-24T21:47:38Z,39.10785,R+39,Curtis +39,republican,,,UT-G-H-3-2020-11-03,ut-house-general-district-003-2020-11-03,https://www.nytimes.com/interactive/2020/11/03/us/elections/results-utah-house-district-3.html,https://www.nytimes.com/interactive/2020/11/03/us/elections/results-utah.html,https://www.nytimes.com/interactive/2020/11/03/us/elections/ap-polls-utah.html,house,general,2020-11-03,FALSE,U.S. House District 3,U.S. House,H,solid-rep,3,District 3,UT,utah,Utah,Utah,horizontal,"",FALSE,TRUE,winner,AP,FALSE,"",358927,99683,1,unknown,Polls close at 10 p.m. Eastern time.,Polls close in,Polls have closed.,2020-11-04T03:00:00.000Z,10 p.m.,523,523,100% reporting,100%,100,358670,edison,>98%,>98% reported,edison,republican,FALSE,2020-11-24T21:29:42Z,TRUE,41.96034,150607,R+42,Curtis +42,republican,TRUE,"Ballots postmarked by the day before the election must arrive by Nov. 10 to Nov. 17, depending on the county.","Ballots postmarked by the day before the election must arrive by Nov. 10 to Nov. 17, depending on the county.",7,-1,1604475668148
