fips,name,votes,absentee_votes,reporting,precincts,absentee_method,eevp,tot_exp_vote,eevp_value,eevp_display,eevp_source,turnout_stage,absentee_count_progress,absentee_max_ballots,results_fitzgeralds,results_palzewiczt,results_absentee_fitzgeralds,results_absentee_palzewiczt,last_updated,leader_margin_value,leader_margin_display,leader_margin_name_display,leader_party_id,race_id_race,race_slug_race,url_race,state_page_url_race,ap_polls_page_race,edison_exit_polls_page_race,race_type_race,election_type_race,election_date_race,runoff_race,race_name_race,office_race,officeid_race,race_rating_race,seat_race,seat_name_race,state_id_race,state_slug_race,state_name_race,state_nyt_abbrev_race,state_shape_race,party_id_race,uncontested_race,report_race,result_race,result_source_race,gain_race,lost_seat_race,votes_race,absentee_votes_race,absentee_count_progress_race,poll_display_race,poll_countdown_display_race,poll_waiting_display_race,poll_time_race,poll_time_short_race,precincts_reporting_race,precincts_total_race,reporting_display_race,reporting_value_race,eevp_race,tot_exp_vote_race,eevp_source_race,eevp_value_race,eevp_display_race,county_data_source_race,incumbent_party_race,no_forecast_race,last_updated_race,has_incumbent_race,leader_margin_value_race,leader_margin_votes_race,leader_margin_display_race,leader_margin_name_display_race,leader_party_id_race,edison_certified_race,expectations_text_race,expectations_text_short_race,absentee_ballot_deadline_race,absentee_postmark_deadline_race,winner_called_timestamp_race
55027,Dodge,21603,0,28,28,Merged into voters' home precincts and released with cumulative results,100,21603,>98%,>98% reported,edison,10,unknown,10082,15293,6310,0,0,2020-11-24T13:22:16Z,41.58219,R+42,Fitzgerald +42,republican,WI-G-H-5-2020-11-03,wi-house-general-district-005-2020-11-03,https://www.nytimes.com/interactive/2020/11/03/us/elections/results-wisconsin-house-district-5.html,https://www.nytimes.com/interactive/2020/11/03/us/elections/results-wisconsin.html,https://www.nytimes.com/interactive/2020/11/03/us/elections/ap-polls-wisconsin.html,https://www.nytimes.com/interactive/2020/11/03/us/elections/exit-polls-wisconsin.html,house,general,2020-11-03,FALSE,U.S. House District 5,U.S. House,H,solid-rep,5,District 5,WI,wisconsin,Wisconsin,Wis.,horizontal,"",FALSE,TRUE,winner,AP,FALSE,"",441336,0,unknown,Polls close at 9 p.m. Eastern time.,Polls close in,Polls have closed.,2020-11-04T02:00:00.000Z,9 p.m.,361,361,100% reporting,100%,100,441336,edison,>98%,>98% reported,edison,republican,FALSE,2020-11-24T13:24:02Z,FALSE,20.28658,89532,R+20,Fitzgerald +20,republican,TRUE,"","",0,0,1604459715660
55055,Jefferson,46887,0,35,35,Merged into voters' home precincts and released with cumulative results,100,46887,>98%,>98% reported,edison,10,unknown,12689,27605,19282,0,0,2020-11-24T13:22:13Z,17.75119,R+18,Fitzgerald +18,republican,WI-G-H-5-2020-11-03,wi-house-general-district-005-2020-11-03,https://www.nytimes.com/interactive/2020/11/03/us/elections/results-wisconsin-house-district-5.html,https://www.nytimes.com/interactive/2020/11/03/us/elections/results-wisconsin.html,https://www.nytimes.com/interactive/2020/11/03/us/elections/ap-polls-wisconsin.html,https://www.nytimes.com/interactive/2020/11/03/us/elections/exit-polls-wisconsin.html,house,general,2020-11-03,FALSE,U.S. House District 5,U.S. House,H,solid-rep,5,District 5,WI,wisconsin,Wisconsin,Wis.,horizontal,"",FALSE,TRUE,winner,AP,FALSE,"",441336,0,unknown,Polls close at 9 p.m. Eastern time.,Polls close in,Polls have closed.,2020-11-04T02:00:00.000Z,9 p.m.,361,361,100% reporting,100%,100,441336,edison,>98%,>98% reported,edison,republican,FALSE,2020-11-24T13:24:02Z,FALSE,20.28658,89532,R+20,Fitzgerald +20,republican,TRUE,"","",0,0,1604459715660
55079,Milwaukee,79647,0,83,83,Merged into voters' home precincts and released with cumulative results,100,79647,>98%,>98% reported,edison,10,unknown,182432,34243,45404,0,0,2020-11-24T13:22:14Z,14.01308,D+14,Palzewicz +14,democrat,WI-G-H-5-2020-11-03,wi-house-general-district-005-2020-11-03,https://www.nytimes.com/interactive/2020/11/03/us/elections/results-wisconsin-house-district-5.html,https://www.nytimes.com/interactive/2020/11/03/us/elections/results-wisconsin.html,https://www.nytimes.com/interactive/2020/11/03/us/elections/ap-polls-wisconsin.html,https://www.nytimes.com/interactive/2020/11/03/us/elections/exit-polls-wisconsin.html,house,general,2020-11-03,FALSE,U.S. House District 5,U.S. House,H,solid-rep,5,District 5,WI,wisconsin,Wisconsin,Wis.,horizontal,"",FALSE,TRUE,winner,AP,FALSE,"",441336,0,unknown,Polls close at 9 p.m. Eastern time.,Polls close in,Polls have closed.,2020-11-04T02:00:00.000Z,9 p.m.,361,361,100% reporting,100%,100,441336,edison,>98%,>98% reported,edison,republican,FALSE,2020-11-24T13:24:02Z,FALSE,20.28658,89532,R+20,Fitzgerald +20,republican,TRUE,"","",0,0,1604459715660
55127,Walworth,4188,0,5,5,Merged into voters' home precincts and released with cumulative results,100,4188,>98%,>98% reported,edison,10,some,15985,1750,2438,0,0,2020-11-24T13:22:17Z,16.42789,D+16,Palzewicz +16,democrat,WI-G-H-5-2020-11-03,wi-house-general-district-005-2020-11-03,https://www.nytimes.com/interactive/2020/11/03/us/elections/results-wisconsin-house-district-5.html,https://www.nytimes.com/interactive/2020/11/03/us/elections/results-wisconsin.html,https://www.nytimes.com/interactive/2020/11/03/us/elections/ap-polls-wisconsin.html,https://www.nytimes.com/interactive/2020/11/03/us/elections/exit-polls-wisconsin.html,house,general,2020-11-03,FALSE,U.S. House District 5,U.S. House,H,solid-rep,5,District 5,WI,wisconsin,Wisconsin,Wis.,horizontal,"",FALSE,TRUE,winner,AP,FALSE,"",441336,0,unknown,Polls close at 9 p.m. Eastern time.,Polls close in,Polls have closed.,2020-11-04T02:00:00.000Z,9 p.m.,361,361,100% reporting,100%,100,441336,edison,>98%,>98% reported,edison,republican,FALSE,2020-11-24T13:24:02Z,FALSE,20.28658,89532,R+20,Fitzgerald +20,republican,TRUE,"","",0,0,1604459715660
55131,Washington,86880,0,45,45,Merged into voters' home precincts and released with cumulative results,100,86880,>98%,>98% reported,edison,10,unknown,37698,62039,24841,0,0,2020-11-24T13:22:15Z,42.81538,R+43,Fitzgerald +43,republican,WI-G-H-5-2020-11-03,wi-house-general-district-005-2020-11-03,https://www.nytimes.com/interactive/2020/11/03/us/elections/results-wisconsin-house-district-5.html,https://www.nytimes.com/interactive/2020/11/03/us/elections/results-wisconsin.html,https://www.nytimes.com/interactive/2020/11/03/us/elections/ap-polls-wisconsin.html,https://www.nytimes.com/interactive/2020/11/03/us/elections/exit-polls-wisconsin.html,house,general,2020-11-03,FALSE,U.S. House District 5,U.S. House,H,solid-rep,5,District 5,WI,wisconsin,Wisconsin,Wis.,horizontal,"",FALSE,TRUE,winner,AP,FALSE,"",441336,0,unknown,Polls close at 9 p.m. Eastern time.,Polls close in,Polls have closed.,2020-11-04T02:00:00.000Z,9 p.m.,361,361,100% reporting,100%,100,441336,edison,>98%,>98% reported,edison,republican,FALSE,2020-11-24T13:24:02Z,FALSE,20.28658,89532,R+20,Fitzgerald +20,republican,TRUE,"","",0,0,1604459715660
55133,Waukesha,202131,0,165,165,Merged into voters' home precincts and released with cumulative results,100,202131,>98%,>98% reported,edison,10,unknown,137354,124504,77627,0,0,2020-11-24T13:22:15Z,23.1914,R+23,Fitzgerald +23,republican,WI-G-H-5-2020-11-03,wi-house-general-district-005-2020-11-03,https://www.nytimes.com/interactive/2020/11/03/us/elections/results-wisconsin-house-district-5.html,https://www.nytimes.com/interactive/2020/11/03/us/elections/results-wisconsin.html,https://www.nytimes.com/interactive/2020/11/03/us/elections/ap-polls-wisconsin.html,https://www.nytimes.com/interactive/2020/11/03/us/elections/exit-polls-wisconsin.html,house,general,2020-11-03,FALSE,U.S. House District 5,U.S. House,H,solid-rep,5,District 5,WI,wisconsin,Wisconsin,Wis.,horizontal,"",FALSE,TRUE,winner,AP,FALSE,"",441336,0,unknown,Polls close at 9 p.m. Eastern time.,Polls close in,Polls have closed.,2020-11-04T02:00:00.000Z,9 p.m.,361,361,100% reporting,100%,100,441336,edison,>98%,>98% reported,edison,republican,FALSE,2020-11-24T13:24:02Z,FALSE,20.28658,89532,R+20,Fitzgerald +20,republican,TRUE,"","",0,0,1604459715660
