fips,name,votes,absentee_votes,reporting,precincts,absentee_method,eevp,tot_exp_vote,eevp_value,eevp_display,eevp_source,turnout_stage,absentee_count_progress,absentee_outstanding,absentee_max_ballots,provisional_outstanding,provisional_count_progress,results_bidenj,results_trumpd,results_jorgensenj,results_write_ins,results_hawkinsh,results_hunterd,results_absentee_bidenj,results_absentee_trumpd,results_absentee_jorgensenj,results_absentee_write_ins,results_absentee_hawkinsh,results_absentee_hunterd,last_updated,leader_margin_value,leader_margin_display,leader_margin_name_display,leader_party_id,margin2020,votes2016,margin2016,votes2012,margin2012,state,retrieved_time
41001,Baker,9932,0,17,17,Other,100,9932,>98%,>98% reported,edison,8,unknown,,,,,2346,7352,144,41,33,16,0,0,0,0,0,0,2020-11-19T02:01:02Z,50.40274,R+50,Trump +50,republican,50.40274,8779,50.4,8448,39.45,oregon,2020-11-23T00:45:36.601570Z
41003,Benton,52799,0,23,24,Other,100,52719,>98%,>98% reported,edison,8,some,,,,,35827,14878,1142,474,335,143,0,0,0,0,0,0,2020-11-20T02:00:49Z,39.67689,D+40,Biden +40,democrat,-39.67689,48753,-32.3,44802,-28.54,oregon,2020-11-23T00:45:36.601570Z
41005,Clackamas,255664,0,120,120,Other,100,255664,>98%,>98% reported,edison,8,some,,,,,139015,110476,4733,,1011,429,0,0,0,,0,0,2020-11-16T15:48:28Z,11.1627,D+11,Biden +11,democrat,-11.1627,214039,-6.4,189332,-3.64,oregon,2020-11-23T00:45:36.601570Z
41007,Clatsop,23764,0,33,33,Other,100,23764,>98%,>98% reported,edison,8,some,,,,,12916,10218,437,,130,63,0,0,0,,0,0,2020-11-19T02:01:04Z,11.35331,D+11,Biden +11,democrat,-11.35331,19664,-5.7,17818,-14.66,oregon,2020-11-23T00:45:36.601570Z
41009,Columbia,32221,0,33,33,Other,100,31518,>98%,>98% reported,edison,8,unknown,,,,,13835,17150,787,204,158,87,0,0,0,0,0,0,2020-11-21T02:00:59Z,10.28832,R+10,Trump +10,republican,10.28832,26618,11.5,23875,-5.16,oregon,2020-11-23T00:45:36.601570Z
41011,Coos,37075,0,18,18,Other,100,36484,>98%,>98% reported,edison,8,some,,,,,14243,21829,572,179,171,81,0,0,0,0,0,0,2020-11-20T20:00:50Z,20.46123,R+20,Trump +20,republican,20.46123,31313,23.7,28686,6.37,oregon,2020-11-23T00:45:36.601570Z
41013,Crook,15448,0,17,17,Other,100,15165,>98%,>98% reported,edison,8,unknown,,,,,3801,11287,231,71,42,16,0,0,0,0,0,0,2020-11-21T02:00:58Z,48.45935,R+48,Trump +48,republican,48.45935,12172,48.3,10230,36.03,oregon,2020-11-23T00:45:36.601570Z
41015,Curry,29851,0,27,27,Other,100,14925,>98%,>98% reported,edison,8,unknown,,,,,12116,16969,456,142,126,42,0,0,0,0,0,0,2020-11-20T15:05:06Z,16.25741,R+16,Trump +16,republican,16.25741,12611,23.1,11678,16.9,oregon,2020-11-23T00:45:36.601570Z
41017,Deschutes,125234,0,50,50,Other,100,121732,>98%,>98% reported,edison,8,unknown,,,,,65962,55646,2097,950,422,157,0,0,0,0,0,0,2020-11-21T02:00:58Z,8.23738,D+8,Biden +8,democrat,-8.23738,98557,3.3,81900,6.72,oregon,2020-11-23T00:45:36.601570Z
41019,Douglas,64349,0,28,28,Other,100,63107,>98%,>98% reported,edison,8,some,,,,,19160,43298,1182,306,258,145,0,0,0,0,0,0,2020-11-20T20:00:50Z,37.51107,R+38,Trump +38,republican,37.51107,53521,38.3,49803,27.37,oregon,2020-11-23T00:45:36.601570Z
41021,Gilliam,1178,0,3,3,Other,100,1178,>98%,>98% reported,edison,8,unknown,,,,,324,834,17,2,1,0,0,0,0,0,0,0,2020-11-16T15:48:30Z,43.29372,R+43,Trump +43,republican,43.29372,1019,42.4,1061,25.26,oregon,2020-11-23T00:45:36.601570Z
41023,Grant,4596,0,5,5,Other,100,4596,>98%,>98% reported,edison,8,unknown,,,,,929,3545,77,22,12,11,0,0,0,0,0,0,2020-11-19T02:01:02Z,56.91906,R+57,Trump +57,republican,56.91906,4340,56.9,3911,53,oregon,2020-11-23T00:45:36.601570Z
41025,Harney,4481,0,3,3,Other,100,4481,>98%,>98% reported,edison,8,unknown,,,,,894,3475,63,31,9,9,0,0,0,0,0,0,2020-11-16T15:48:31Z,57.59875,R+58,Trump +58,republican,57.59875,3974,56.1,3583,49.54,oregon,2020-11-23T00:45:36.601570Z
41027,Hood River,13090,0,13,13,Other,100,13090,>98%,>98% reported,edison,8,unknown,,,,,8764,3955,199,92,55,25,0,0,0,0,0,0,2020-11-18T20:00:58Z,36.73797,D+37,Biden +37,democrat,-36.73797,10910,-29.7,9838,-26.72,oregon,2020-11-23T00:45:36.601570Z
41029,Jackson,126325,0,45,45,Other,100,126325,>98%,>98% reported,edison,8,all,,,,,59442,63814,2165,,636,268,0,0,0,,0,0,2020-11-16T15:48:31Z,3.46091,R+3,Trump +3,republican,3.46091,109327,8.6,97127,4.69,oregon,2020-11-23T00:45:36.601570Z
41031,Jefferson,11913,0,15,15,Other,100,11666,>98%,>98% reported,edison,8,some,,,,,4393,7189,210,40,57,24,0,0,0,0,0,0,2020-11-19T20:00:55Z,23.47016,R+23,Trump +23,republican,23.47016,9459,26.5,8175,16.4,oregon,2020-11-23T00:45:36.601570Z
41033,Josephine,51641,0,47,47,Other,100,51592,>98%,>98% reported,edison,8,some,,,,,18451,31751,795,301,223,120,0,0,0,0,0,0,2020-11-20T02:00:49Z,25.75473,R+26,Trump +26,republican,25.75473,44560,30.2,40238,21.67,oregon,2020-11-23T00:45:36.601570Z
41035,Klamath,36556,0,43,43,Other,100,36331,>98%,>98% reported,edison,8,unknown,,,,,10388,25308,637,,146,77,0,0,0,,0,0,2020-11-20T02:00:56Z,40.81409,R+41,Trump +41,republican,40.81409,30507,43.4,28152,37.64,oregon,2020-11-23T00:45:36.601570Z
41037,Lake,4363,0,18,19,Other,100,4363,>98%,>98% reported,edison,8,all,,,,,792,3470,63,20,10,8,0,0,0,0,0,0,2020-11-18T20:00:58Z,61.37978,R+61,Trump +61,republican,61.37978,3930,60.6,3710,54.93,oregon,2020-11-23T00:45:36.601570Z
41039,Lane,222253,0,80,80,Other,100,221585,>98%,>98% reported,edison,8,some,,,,,134366,80336,3906,1727,1349,569,0,0,0,0,0,0,2020-11-21T02:00:58Z,24.31013,D+24,Biden +24,democrat,-24.31013,191950,-18.6,171850,-23.36,oregon,2020-11-23T00:45:36.601570Z
41041,Lincoln,30726,0,32,32,Other,100,30726,>98%,>98% reported,edison,8,unknown,,,,,17385,12460,462,140,214,65,0,0,0,0,0,0,2020-11-19T02:01:02Z,16.02877,D+16,Biden +16,democrat,-16.02877,25256,-9.7,22984,-20.51,oregon,2020-11-23T00:45:36.601570Z
41043,Linn,72640,0,90,90,Other,100,72640,>98%,>98% reported,edison,8,some,,,,,26512,43486,1594,496,403,149,0,0,0,0,0,0,2020-11-18T02:00:58Z,23.36729,R+23,Trump +23,republican,23.36729,58719,26.4,51426,16.66,oregon,2020-11-23T00:45:36.601570Z
41045,Malheur,11804,0,24,24,Other,100,11804,>98%,>98% reported,edison,8,unknown,,,,,3260,8187,221,51,56,29,0,0,0,0,0,0,2020-11-19T02:01:01Z,41.74009,R+42,Trump +42,republican,41.74009,10435,47.4,9956,41.1,oregon,2020-11-23T00:45:36.601570Z
41047,Marion,165530,0,122,122,Other,100,165530,>98%,>98% reported,edison,8,unknown,,,,,80870,79000,3272,1226,844,318,0,0,0,0,0,0,2020-11-19T02:01:01Z,1.1297,D+1.1,Biden +1.1,democrat,-1.1297,136840,4.1,120376,3.17,oregon,2020-11-23T00:45:36.601570Z
41049,Morrow,5118,0,5,5,Other,100,5118,>98%,>98% reported,edison,8,unknown,,,,,1371,3586,126,17,13,5,0,0,0,0,0,0,2020-11-18T02:00:58Z,43.27862,R+43,Trump +43,republican,43.27862,4167,40.9,3882,34.26,oregon,2020-11-23T00:45:36.601570Z
41051,Multnomah,463659,0,113,113,Other,100,463659,>98%,>98% reported,edison,8,some,,,,,367249,82995,5726,3571,2974,1144,0,0,0,0,0,0,2020-11-19T16:52:19Z,61.30669,D+61,Biden +61,democrat,-61.30669,399103,-56.3,364722,-54.72,oregon,2020-11-23T00:45:36.601570Z
41053,Polk,48291,0,16,16,Other,100,48291,>98%,>98% reported,edison,8,all,,,,,22917,23732,981,359,212,90,0,0,0,0,0,0,2020-11-18T20:00:58Z,1.68769,R+1.7,Trump +1.7,republican,1.68769,40295,6.3,35257,4.33,oregon,2020-11-23T00:45:36.601570Z
41055,Sherman,1208,0,5,5,Other,100,1208,>98%,>98% reported,edison,8,unknown,,,,,260,921,24,1,1,1,0,0,0,0,0,0,2020-11-18T20:00:58Z,54.71854,R+55,Trump +55,republican,54.71854,1017,52.1,1026,34.99,oregon,2020-11-23T00:45:36.601570Z
41057,Tillamook,16888,0,29,29,Other,100,16888,>98%,>98% reported,edison,8,all,,,,,8066,8354,261,86,89,32,0,0,0,0,0,0,2020-11-19T02:01:01Z,1.70535,R+1.7,Trump +1.7,republican,1.70535,13803,5.6,12519,-4.86,oregon,2020-11-23T00:45:36.601570Z
41059,Umatilla,32539,0,45,45,Other,100,32539,>98%,>98% reported,edison,8,unknown,,,,,10499,21002,723,172,89,54,0,0,0,0,0,0,2020-11-16T15:47:46Z,32.27819,R+32,Trump +32,republican,32.27819,27597,34,24969,27.69,oregon,2020-11-23T00:45:36.601570Z
41061,Union,14944,0,19,19,Other,100,14944,>98%,>98% reported,edison,8,unknown,,,,,4254,10298,241,74,46,31,0,0,0,0,0,0,2020-11-18T20:00:57Z,40.44433,R+40,Trump +40,republican,40.44433,12968,40,12070,30.35,oregon,2020-11-23T00:45:36.601570Z
41063,Wallowa,5149,0,12,12,Other,100,5149,>98%,>98% reported,edison,8,unknown,,,,,1625,3404,76,18,11,15,0,0,0,0,0,0,2020-11-17T02:01:48Z,34.5504,R+35,Trump +35,republican,34.5504,4366,39.7,4205,36.88,oregon,2020-11-23T00:45:36.601570Z
41065,Wasco,14130,0,14,14,Other,100,14130,>98%,>98% reported,edison,8,unknown,,,,,6604,7035,296,93,75,27,0,0,0,0,0,0,2020-11-19T02:01:01Z,3.05025,R+3,Trump +3,republican,3.05025,11964,8.8,10873,0.17,oregon,2020-11-23T00:45:36.601570Z
41067,Washington,320194,0,143,143,Other,100,320194,>98%,>98% reported,edison,8,all,,,,,209848,99035,6397,2856,1426,632,0,0,0,0,0,0,2020-11-19T16:53:45Z,34.60808,D+35,Biden +35,democrat,-34.60808,269232,-26,237023,-17.43,oregon,2020-11-23T00:45:36.601570Z
41069,Wheeler,965,0,3,3,Other,100,965,>98%,>98% reported,edison,8,unknown,,,,,217,711,25,5,2,5,0,0,0,0,0,0,2020-11-18T20:00:57Z,51.19171,R+51,Trump +51,republican,51.19171,818,53.3,858,32.52,oregon,2020-11-23T00:45:36.601570Z
41071,Yamhill,58923,0,22,22,Other,100,58923,>98%,>98% reported,edison,8,unknown,,,,,27174,29551,1448,377,254,119,0,0,0,0,0,0,2020-11-19T02:01:01Z,4.03408,R+4,Trump +4,republican,4.03408,48753,8.1,42907,6.49,oregon,2020-11-23T00:45:36.601570Z
