fips,name,votes,absentee_votes,reporting,precincts,absentee_method,eevp,tot_exp_vote,eevp_value,eevp_display,eevp_source,turnout_stage,absentee_count_progress,absentee_max_ballots,results_shermanb,results_reedm,results_absentee_shermanb,results_absentee_reedm,last_updated,leader_margin_value,leader_margin_display,leader_margin_name_display,leader_party_id,race_id_race,race_slug_race,url_race,state_page_url_race,ap_polls_page_race,edison_exit_polls_page_race,race_type_race,election_type_race,election_date_race,runoff_race,race_name_race,office_race,officeid_race,race_rating_race,seat_race,seat_name_race,state_id_race,state_slug_race,state_name_race,state_nyt_abbrev_race,state_shape_race,state_aspect_ratio_race,party_id_race,uncontested_race,report_race,result_race,result_source_race,gain_race,lost_seat_race,votes_race,absentee_votes_race,absentee_counties_race,absentee_count_progress_race,poll_display_race,poll_countdown_display_race,poll_waiting_display_race,poll_time_race,poll_time_short_race,precincts_reporting_race,precincts_total_race,reporting_display_race,reporting_value_race,eevp_race,tot_exp_vote_race,eevp_source_race,eevp_value_race,eevp_display_race,county_data_source_race,incumbent_party_race,no_forecast_race,last_updated_race,has_incumbent_race,leader_margin_value_race,leader_margin_votes_race,leader_margin_display_race,leader_margin_name_display_race,leader_party_id_race,expectations_text_race,expectations_text_short_race,absentee_ballot_deadline_race,absentee_postmark_deadline_race,winner_called_timestamp_race
06037,Los Angeles,341732,252107,296,298,Released as a separate subtotal as first report of the night,99,343899,>98%,>98% reported,edison,4,all,1561325,237834,103898,182011,70096,2020-11-17T22:30:55Z,39.19329,D+39,Sherman +39,democrat,CA-G-H-30-2020-11-03,ca-house-general-district-030-2020-11-03,https://www.nytimes.com/interactive/2020/11/03/us/elections/results-california-house-district-30.html,https://www.nytimes.com/interactive/2020/11/03/us/elections/results-california.html,https://www.nytimes.com/interactive/2020/11/03/us/elections/ap-polls-california.html,https://www.nytimes.com/interactive/2020/11/03/us/elections/exit-polls-california.html,house,general,2020-11-03,FALSE,U.S. House District 30,U.S. House,H,solid-dem,30,District 30,CA,california,California,Calif.,vertical,0.5,"",FALSE,TRUE,winner,AP,FALSE,"",343001,252107,1,unknown,Polls close at 11 p.m. Eastern time.,Polls close in,Polls have closed.,2020-11-04T04:00:00.000Z,11 p.m.,298,300,99% reporting,99%,99,346000,edison,>98%,>98% reported,edison,democrat,FALSE,2020-11-18T17:18:50Z,TRUE,39.09406,134093,D+39,Sherman +39,democrat,"All active registered voters were sent mail ballots, and late-arriving mail ballots and provisional ballots will be counted in the days and weeks after the election.","All active registered voters were sent mail ballots, and late-arriving mail ballots and provisional ballots will be counted in the days and weeks after the election.",17,0,1604471466517
06111,Ventura,1269,0,2,2,Released as a separate subtotal as first report of the night,98,1298,98%,98% reported,edison,2,some,263890,713,556,0,0,2020-11-17T23:41:09Z,12.37195,D+12,Sherman +12,democrat,CA-G-H-30-2020-11-03,ca-house-general-district-030-2020-11-03,https://www.nytimes.com/interactive/2020/11/03/us/elections/results-california-house-district-30.html,https://www.nytimes.com/interactive/2020/11/03/us/elections/results-california.html,https://www.nytimes.com/interactive/2020/11/03/us/elections/ap-polls-california.html,https://www.nytimes.com/interactive/2020/11/03/us/elections/exit-polls-california.html,house,general,2020-11-03,FALSE,U.S. House District 30,U.S. House,H,solid-dem,30,District 30,CA,california,California,Calif.,vertical,0.5,"",FALSE,TRUE,winner,AP,FALSE,"",343001,252107,1,unknown,Polls close at 11 p.m. Eastern time.,Polls close in,Polls have closed.,2020-11-04T04:00:00.000Z,11 p.m.,298,300,99% reporting,99%,99,346000,edison,>98%,>98% reported,edison,democrat,FALSE,2020-11-18T17:18:50Z,TRUE,39.09406,134093,D+39,Sherman +39,democrat,"All active registered voters were sent mail ballots, and late-arriving mail ballots and provisional ballots will be counted in the days and weeks after the election.","All active registered voters were sent mail ballots, and late-arriving mail ballots and provisional ballots will be counted in the days and weeks after the election.",17,0,1604471466517
