fips,name,votes,absentee_votes,reporting,precincts,absentee_method,eevp,tot_exp_vote,eevp_value,eevp_display,eevp_source,turnout_stage,absentee_count_progress,absentee_max_ballots,results_deutcht,results_prudenj,results_absentee_deutcht,results_absentee_prudenj,last_updated,leader_margin_value,leader_margin_display,leader_margin_name_display,leader_party_id,race_id_race,race_slug_race,url_race,state_page_url_race,ap_polls_page_race,edison_exit_polls_page_race,race_type_race,election_type_race,election_date_race,runoff_race,race_name_race,office_race,officeid_race,race_rating_race,seat_race,seat_name_race,state_id_race,state_slug_race,state_name_race,state_nyt_abbrev_race,state_shape_race,state_aspect_ratio_race,party_id_race,uncontested_race,report_race,result_race,result_source_race,gain_race,lost_seat_race,votes_race,absentee_votes_race,absentee_counties_race,absentee_count_progress_race,poll_display_race,poll_countdown_display_race,poll_waiting_display_race,poll_time_race,poll_time_short_race,precincts_reporting_race,precincts_total_race,reporting_display_race,reporting_value_race,eevp_race,tot_exp_vote_race,eevp_source_race,eevp_value_race,eevp_display_race,county_data_source_race,incumbent_party_race,no_forecast_race,last_updated_race,has_incumbent_race,leader_margin_value_race,leader_margin_votes_race,leader_margin_display_race,leader_margin_name_display_race,leader_party_id_race,expectations_text_race,expectations_text_short_race,absentee_ballot_deadline_race,absentee_postmark_deadline_race,winner_called_timestamp_race
12011,Broward,321774,0,198,198,Released as a separate subtotal as first report of the night,100,321774,>98%,>98% reported,edison,10,some,668379,192923,128851,0,0,2020-11-16T17:29:11Z,19.91211,D+20,Deutch +20,democrat,FL-G-H-22-2020-11-03,fl-house-general-district-022-2020-11-03,https://www.nytimes.com/interactive/2020/11/03/us/elections/results-florida-house-district-22.html,https://www.nytimes.com/interactive/2020/11/03/us/elections/results-florida.html,https://www.nytimes.com/interactive/2020/11/03/us/elections/ap-polls-florida.html,https://www.nytimes.com/interactive/2020/11/03/us/elections/exit-polls-florida.html,house,general,2020-11-03,FALSE,U.S. House District 22,U.S. House,H,solid-dem,22,District 22,FL,florida,Florida,Fla.,vertical,1,"",FALSE,TRUE,winner,AP,FALSE,"",402317,68359,1,unknown,First polls close at 7 p.m. Eastern time.,First polls close in,Most polls have closed.,2020-11-04T00:00:00.000Z,7 p.m.,277,284,98% reporting,98%,99,402317,edison,>98%,>98% reported,edison,democrat,FALSE,2020-11-18T17:18:40Z,TRUE,17.2031,69211,D+17,Deutch +17,democrat,"","",0,0,1604449952507
12099,Palm Beach,80543,68359,79,86,Released as a precinct as first report of the night,100,80543,>98%,>98% reported,edison,10,some,408584,42841,37702,38571,29788,2020-11-17T17:03:43Z,6.38044,D+6,Deutch +6,democrat,FL-G-H-22-2020-11-03,fl-house-general-district-022-2020-11-03,https://www.nytimes.com/interactive/2020/11/03/us/elections/results-florida-house-district-22.html,https://www.nytimes.com/interactive/2020/11/03/us/elections/results-florida.html,https://www.nytimes.com/interactive/2020/11/03/us/elections/ap-polls-florida.html,https://www.nytimes.com/interactive/2020/11/03/us/elections/exit-polls-florida.html,house,general,2020-11-03,FALSE,U.S. House District 22,U.S. House,H,solid-dem,22,District 22,FL,florida,Florida,Fla.,vertical,1,"",FALSE,TRUE,winner,AP,FALSE,"",402317,68359,1,unknown,First polls close at 7 p.m. Eastern time.,First polls close in,Most polls have closed.,2020-11-04T00:00:00.000Z,7 p.m.,277,284,98% reporting,98%,99,402317,edison,>98%,>98% reported,edison,democrat,FALSE,2020-11-18T17:18:40Z,TRUE,17.2031,69211,D+17,Deutch +17,democrat,"","",0,0,1604449952507
