fips,name,votes,absentee_votes,reporting,precincts,absentee_method,eevp,tot_exp_vote,eevp_value,eevp_display,eevp_source,turnout_stage,absentee_count_progress,absentee_max_ballots,results_levina,results_langworthyc,results_kirbya,results_salibam,results_absentee_levina,results_absentee_langworthyc,results_absentee_kirbya,results_absentee_salibam,last_updated,leader_margin_value,leader_margin_display,leader_margin_name_display,leader_party_id,race_id_race,race_slug_race,url_race,state_page_url_race,ap_polls_page_race,edison_exit_polls_page_race,race_type_race,election_type_race,election_date_race,runoff_race,race_name_race,office_race,officeid_race,race_rating_race,seat_race,seat_name_race,state_id_race,state_slug_race,state_name_race,state_nyt_abbrev_race,state_shape_race,party_id_race,uncontested_race,report_race,result_race,result_source_race,gain_race,lost_seat_race,votes_race,absentee_votes_race,absentee_counties_race,absentee_count_progress_race,poll_display_race,poll_countdown_display_race,poll_waiting_display_race,poll_time_race,poll_time_short_race,precincts_reporting_race,precincts_total_race,reporting_display_race,reporting_value_race,eevp_race,tot_exp_vote_race,eevp_source_race,eevp_value_race,eevp_display_race,county_data_source_race,incumbent_party_race,no_forecast_race,last_updated_race,has_incumbent_race,leader_margin_value_race,leader_margin_votes_race,leader_margin_display_race,leader_margin_name_display_race,leader_party_id_race,expectations_text_race,expectations_text_short_race,absentee_ballot_deadline_race,absentee_postmark_deadline_race,winner_called_timestamp_race
26099,Macomb,267116,0,186,194,Released with cumulative results periodically election night,96,279053,96%,96% reported,edison,4,some,126608,146498,109101,7107,4410,0,0,0,0,2020-11-16T15:47:59Z,14.00028,D+14,Levin +14,democrat,MI-G-H-9-2020-11-03,mi-house-general-district-009-2020-11-03,https://www.nytimes.com/interactive/2020/11/03/us/elections/results-michigan-house-district-9.html,https://www.nytimes.com/interactive/2020/11/03/us/elections/results-michigan.html,https://www.nytimes.com/interactive/2020/11/03/us/elections/ap-polls-michigan.html,https://www.nytimes.com/interactive/2020/11/03/us/elections/exit-polls-michigan.html,house,general,2020-11-03,FALSE,U.S. House District 9,U.S. House,H,solid-dem,9,District 9,MI,michigan,Michigan,Mich.,horizontal,"",FALSE,TRUE,winner,AP,FALSE,"",401085,89676,1,unknown,First polls close at 8 p.m. Eastern time.,First polls close in,Most polls have closed.,2020-11-04T01:00:00.000Z,8 p.m.,275,287,96% reporting,96%,95,420000,edison,95%,95% reported,edison,democrat,FALSE,2020-11-18T17:18:17Z,TRUE,19.48515,78152,D+19,Levin +19,democrat,"","",0,-1,1604483814278
26125,Oakland,133969,89676,89,93,Merged into voters' home precincts and released with cumulative results,95,140733,95%,95% reported,edison,4,some,185030,85331,44576,1923,2139,65208,22570,974,924,2020-11-16T15:47:59Z,30.42122,D+30,Levin +30,democrat,MI-G-H-9-2020-11-03,mi-house-general-district-009-2020-11-03,https://www.nytimes.com/interactive/2020/11/03/us/elections/results-michigan-house-district-9.html,https://www.nytimes.com/interactive/2020/11/03/us/elections/results-michigan.html,https://www.nytimes.com/interactive/2020/11/03/us/elections/ap-polls-michigan.html,https://www.nytimes.com/interactive/2020/11/03/us/elections/exit-polls-michigan.html,house,general,2020-11-03,FALSE,U.S. House District 9,U.S. House,H,solid-dem,9,District 9,MI,michigan,Michigan,Mich.,horizontal,"",FALSE,TRUE,winner,AP,FALSE,"",401085,89676,1,unknown,First polls close at 8 p.m. Eastern time.,First polls close in,Most polls have closed.,2020-11-04T01:00:00.000Z,8 p.m.,275,287,96% reporting,96%,95,420000,edison,95%,95% reported,edison,democrat,FALSE,2020-11-18T17:18:17Z,TRUE,19.48515,78152,D+19,Levin +19,democrat,"","",0,-1,1604483814278
