fips,name,votes,absentee_votes,reporting,precincts,absentee_method,eevp,tot_exp_vote,eevp_value,eevp_display,eevp_source,turnout_stage,absentee_count_progress,absentee_max_ballots,results_thompsonb,results_flowersb,results_write_ins,results_absentee_thompsonb,results_absentee_flowersb,results_absentee_write_ins,last_updated,leader_margin_value,leader_margin_display,leader_margin_name_display,leader_party_id,race_id_race,race_slug_race,url_race,state_page_url_race,ap_polls_page_race,race_type_race,election_type_race,election_date_race,runoff_race,race_name_race,office_race,officeid_race,race_rating_race,seat_race,seat_name_race,state_id_race,state_slug_race,state_name_race,state_nyt_abbrev_race,state_shape_race,state_aspect_ratio_race,party_id_race,uncontested_race,report_race,result_race,result_source_race,gain_race,lost_seat_race,votes_race,absentee_votes_race,absentee_count_progress_race,poll_display_race,poll_countdown_display_race,poll_waiting_display_race,poll_time_race,poll_time_short_race,precincts_reporting_race,precincts_total_race,reporting_display_race,reporting_value_race,eevp_race,tot_exp_vote_race,eevp_source_race,eevp_value_race,eevp_display_race,county_data_source_race,incumbent_party_race,no_forecast_race,last_updated_race,has_incumbent_race,leader_margin_value_race,leader_margin_votes_race,leader_margin_display_race,leader_margin_name_display_race,leader_party_id_race,expectations_text_race,expectations_text_short_race,absentee_ballot_deadline_race,absentee_postmark_deadline_race,winner_called_timestamp_race
28007,Attala,8703,0,20,20,Merged into voters' home precincts and released with cumulative results,100,8703,>98%,>98% reported,edison,10,unknown,476,3764,4931,8,0,0,0,2020-11-16T15:47:47Z,13.40917,R+13,Flowers +13,republican,MS-G-H-2-2020-11-03,ms-house-general-district-002-2020-11-03,https://www.nytimes.com/interactive/2020/11/03/us/elections/results-mississippi-house-district-2.html,https://www.nytimes.com/interactive/2020/11/03/us/elections/results-mississippi.html,https://www.nytimes.com/interactive/2020/11/03/us/elections/ap-polls-mississippi.html,house,general,2020-11-03,FALSE,U.S. House District 2,U.S. House,H,solid-dem,2,District 2,MS,mississippi,Mississippi,Miss.,vertical,0.9,"",FALSE,TRUE,winner,AP,FALSE,"",290140,0,unknown,Polls close at 8 p.m. Eastern time.,Polls close in,Polls have closed.,2020-11-04T01:00:00.000Z,8 p.m.,491,491,100% reporting,100%,90,321000,edison,90%,90% reported,edison,democrat,FALSE,2020-11-18T23:44:19Z,TRUE,31.48928,91363,D+31,Thompson +31,democrat,"","",7,0,1604459127305
28011,Bolivar,13501,0,28,28,None,100,13501,>98%,>98% reported,edison,10,unknown,410,9132,4367,2,0,0,0,2020-11-16T19:25:10Z,35.29368,D+35,Thompson +35,democrat,MS-G-H-2-2020-11-03,ms-house-general-district-002-2020-11-03,https://www.nytimes.com/interactive/2020/11/03/us/elections/results-mississippi-house-district-2.html,https://www.nytimes.com/interactive/2020/11/03/us/elections/results-mississippi.html,https://www.nytimes.com/interactive/2020/11/03/us/elections/ap-polls-mississippi.html,house,general,2020-11-03,FALSE,U.S. House District 2,U.S. House,H,solid-dem,2,District 2,MS,mississippi,Mississippi,Miss.,vertical,0.9,"",FALSE,TRUE,winner,AP,FALSE,"",290140,0,unknown,Polls close at 8 p.m. Eastern time.,Polls close in,Polls have closed.,2020-11-04T01:00:00.000Z,8 p.m.,491,491,100% reporting,100%,90,321000,edison,90%,90% reported,edison,democrat,FALSE,2020-11-18T23:44:19Z,TRUE,31.48928,91363,D+31,Thompson +31,democrat,"","",7,0,1604459127305
28015,Carroll,5613,0,14,14,None,97,5772,97%,97% reported,edison,4,unknown,342,1923,3681,9,0,0,0,2020-11-18T19:22:36Z,31.32015,R+31,Flowers +31,republican,MS-G-H-2-2020-11-03,ms-house-general-district-002-2020-11-03,https://www.nytimes.com/interactive/2020/11/03/us/elections/results-mississippi-house-district-2.html,https://www.nytimes.com/interactive/2020/11/03/us/elections/results-mississippi.html,https://www.nytimes.com/interactive/2020/11/03/us/elections/ap-polls-mississippi.html,house,general,2020-11-03,FALSE,U.S. House District 2,U.S. House,H,solid-dem,2,District 2,MS,mississippi,Mississippi,Miss.,vertical,0.9,"",FALSE,TRUE,winner,AP,FALSE,"",290140,0,unknown,Polls close at 8 p.m. Eastern time.,Polls close in,Polls have closed.,2020-11-04T01:00:00.000Z,8 p.m.,491,491,100% reporting,100%,90,321000,edison,90%,90% reported,edison,democrat,FALSE,2020-11-18T23:44:19Z,TRUE,31.48928,91363,D+31,Thompson +31,democrat,"","",7,0,1604459127305
28021,Claiborne,4430,0,11,11,Released as a separate subtotal at the end of tabulation,100,4430,>98%,>98% reported,edison,10,unknown,776,3854,572,4,0,0,0,2020-11-16T15:47:48Z,74.08578,D+74,Thompson +74,democrat,MS-G-H-2-2020-11-03,ms-house-general-district-002-2020-11-03,https://www.nytimes.com/interactive/2020/11/03/us/elections/results-mississippi-house-district-2.html,https://www.nytimes.com/interactive/2020/11/03/us/elections/results-mississippi.html,https://www.nytimes.com/interactive/2020/11/03/us/elections/ap-polls-mississippi.html,house,general,2020-11-03,FALSE,U.S. House District 2,U.S. House,H,solid-dem,2,District 2,MS,mississippi,Mississippi,Miss.,vertical,0.9,"",FALSE,TRUE,winner,AP,FALSE,"",290140,0,unknown,Polls close at 8 p.m. Eastern time.,Polls close in,Polls have closed.,2020-11-04T01:00:00.000Z,8 p.m.,491,491,100% reporting,100%,90,321000,edison,90%,90% reported,edison,democrat,FALSE,2020-11-18T23:44:19Z,TRUE,31.48928,91363,D+31,Thompson +31,democrat,"","",7,0,1604459127305
28027,Coahoma,8432,0,18,18,Merged into voters' home precincts and released with cumulative results,100,8432,>98%,>98% reported,edison,10,unknown,,6234,2194,4,0,0,0,2020-11-16T15:47:49Z,47.91271,D+48,Thompson +48,democrat,MS-G-H-2-2020-11-03,ms-house-general-district-002-2020-11-03,https://www.nytimes.com/interactive/2020/11/03/us/elections/results-mississippi-house-district-2.html,https://www.nytimes.com/interactive/2020/11/03/us/elections/results-mississippi.html,https://www.nytimes.com/interactive/2020/11/03/us/elections/ap-polls-mississippi.html,house,general,2020-11-03,FALSE,U.S. House District 2,U.S. House,H,solid-dem,2,District 2,MS,mississippi,Mississippi,Miss.,vertical,0.9,"",FALSE,TRUE,winner,AP,FALSE,"",290140,0,unknown,Polls close at 8 p.m. Eastern time.,Polls close in,Polls have closed.,2020-11-04T01:00:00.000Z,8 p.m.,491,491,100% reporting,100%,90,321000,edison,90%,90% reported,edison,democrat,FALSE,2020-11-18T23:44:19Z,TRUE,31.48928,91363,D+31,Thompson +31,democrat,"","",7,0,1604459127305
28029,Copiah,12665,0,19,19,None,100,12665,>98%,>98% reported,edison,10,unknown,542,6710,5947,8,0,0,0,2020-11-16T15:47:49Z,6.02448,D+6,Thompson +6,democrat,MS-G-H-2-2020-11-03,ms-house-general-district-002-2020-11-03,https://www.nytimes.com/interactive/2020/11/03/us/elections/results-mississippi-house-district-2.html,https://www.nytimes.com/interactive/2020/11/03/us/elections/results-mississippi.html,https://www.nytimes.com/interactive/2020/11/03/us/elections/ap-polls-mississippi.html,house,general,2020-11-03,FALSE,U.S. House District 2,U.S. House,H,solid-dem,2,District 2,MS,mississippi,Mississippi,Miss.,vertical,0.9,"",FALSE,TRUE,winner,AP,FALSE,"",290140,0,unknown,Polls close at 8 p.m. Eastern time.,Polls close in,Polls have closed.,2020-11-04T01:00:00.000Z,8 p.m.,491,491,100% reporting,100%,90,321000,edison,90%,90% reported,edison,democrat,FALSE,2020-11-18T23:44:19Z,TRUE,31.48928,91363,D+31,Thompson +31,democrat,"","",7,0,1604459127305
28043,Grenada,7602,0,13,13,None,69,10976,69%,69% reported,edison,2,none,1570,3098,4499,5,0,0,0,2020-11-16T15:47:58Z,18.42936,R+18,Flowers +18,republican,MS-G-H-2-2020-11-03,ms-house-general-district-002-2020-11-03,https://www.nytimes.com/interactive/2020/11/03/us/elections/results-mississippi-house-district-2.html,https://www.nytimes.com/interactive/2020/11/03/us/elections/results-mississippi.html,https://www.nytimes.com/interactive/2020/11/03/us/elections/ap-polls-mississippi.html,house,general,2020-11-03,FALSE,U.S. House District 2,U.S. House,H,solid-dem,2,District 2,MS,mississippi,Mississippi,Miss.,vertical,0.9,"",FALSE,TRUE,winner,AP,FALSE,"",290140,0,unknown,Polls close at 8 p.m. Eastern time.,Polls close in,Polls have closed.,2020-11-04T01:00:00.000Z,8 p.m.,491,491,100% reporting,100%,90,321000,edison,90%,90% reported,edison,democrat,FALSE,2020-11-18T23:44:19Z,TRUE,31.48928,91363,D+31,Thompson +31,democrat,"","",7,0,1604459127305
28049,Hinds,85669,0,93,93,Merged into voters' home precincts and released with cumulative results,95,89948,95%,95% reported,edison,2,none,2988,66151,19418,100,0,0,0,2020-11-18T23:45:37Z,54.55065,D+55,Thompson +55,democrat,MS-G-H-2-2020-11-03,ms-house-general-district-002-2020-11-03,https://www.nytimes.com/interactive/2020/11/03/us/elections/results-mississippi-house-district-2.html,https://www.nytimes.com/interactive/2020/11/03/us/elections/results-mississippi.html,https://www.nytimes.com/interactive/2020/11/03/us/elections/ap-polls-mississippi.html,house,general,2020-11-03,FALSE,U.S. House District 2,U.S. House,H,solid-dem,2,District 2,MS,mississippi,Mississippi,Miss.,vertical,0.9,"",FALSE,TRUE,winner,AP,FALSE,"",290140,0,unknown,Polls close at 8 p.m. Eastern time.,Polls close in,Polls have closed.,2020-11-04T01:00:00.000Z,8 p.m.,491,491,100% reporting,100%,90,321000,edison,90%,90% reported,edison,democrat,FALSE,2020-11-18T23:44:19Z,TRUE,31.48928,91363,D+31,Thompson +31,democrat,"","",7,0,1604459127305
28051,Holmes,6332,0,15,15,None,100,6332,>98%,>98% reported,edison,6,none,726,5241,1087,4,0,0,0,2020-11-16T15:47:50Z,65.60328,D+66,Thompson +66,democrat,MS-G-H-2-2020-11-03,ms-house-general-district-002-2020-11-03,https://www.nytimes.com/interactive/2020/11/03/us/elections/results-mississippi-house-district-2.html,https://www.nytimes.com/interactive/2020/11/03/us/elections/results-mississippi.html,https://www.nytimes.com/interactive/2020/11/03/us/elections/ap-polls-mississippi.html,house,general,2020-11-03,FALSE,U.S. House District 2,U.S. House,H,solid-dem,2,District 2,MS,mississippi,Mississippi,Miss.,vertical,0.9,"",FALSE,TRUE,winner,AP,FALSE,"",290140,0,unknown,Polls close at 8 p.m. Eastern time.,Polls close in,Polls have closed.,2020-11-04T01:00:00.000Z,8 p.m.,491,491,100% reporting,100%,90,321000,edison,90%,90% reported,edison,democrat,FALSE,2020-11-18T23:44:19Z,TRUE,31.48928,91363,D+31,Thompson +31,democrat,"","",7,0,1604459127305
28053,Humphreys,4089,0,13,13,Merged into voters' home precincts and released with cumulative results,100,4089,>98%,>98% reported,edison,10,unknown,214,3095,990,4,0,0,0,2020-11-17T02:11:33Z,51.47958,D+51,Thompson +51,democrat,MS-G-H-2-2020-11-03,ms-house-general-district-002-2020-11-03,https://www.nytimes.com/interactive/2020/11/03/us/elections/results-mississippi-house-district-2.html,https://www.nytimes.com/interactive/2020/11/03/us/elections/results-mississippi.html,https://www.nytimes.com/interactive/2020/11/03/us/elections/ap-polls-mississippi.html,house,general,2020-11-03,FALSE,U.S. House District 2,U.S. House,H,solid-dem,2,District 2,MS,mississippi,Mississippi,Miss.,vertical,0.9,"",FALSE,TRUE,winner,AP,FALSE,"",290140,0,unknown,Polls close at 8 p.m. Eastern time.,Polls close in,Polls have closed.,2020-11-04T01:00:00.000Z,8 p.m.,491,491,100% reporting,100%,90,321000,edison,90%,90% reported,edison,democrat,FALSE,2020-11-18T23:44:19Z,TRUE,31.48928,91363,D+31,Thompson +31,democrat,"","",7,0,1604459127305
28055,Issaquena,663,0,5,5,None,100,663,>98%,>98% reported,edison,10,all,64,368,295,0,0,0,0,2020-11-16T15:47:50Z,11.01056,D+11,Thompson +11,democrat,MS-G-H-2-2020-11-03,ms-house-general-district-002-2020-11-03,https://www.nytimes.com/interactive/2020/11/03/us/elections/results-mississippi-house-district-2.html,https://www.nytimes.com/interactive/2020/11/03/us/elections/results-mississippi.html,https://www.nytimes.com/interactive/2020/11/03/us/elections/ap-polls-mississippi.html,house,general,2020-11-03,FALSE,U.S. House District 2,U.S. House,H,solid-dem,2,District 2,MS,mississippi,Mississippi,Miss.,vertical,0.9,"",FALSE,TRUE,winner,AP,FALSE,"",290140,0,unknown,Polls close at 8 p.m. Eastern time.,Polls close in,Polls have closed.,2020-11-04T01:00:00.000Z,8 p.m.,491,491,100% reporting,100%,90,321000,edison,90%,90% reported,edison,democrat,FALSE,2020-11-18T23:44:19Z,TRUE,31.48928,91363,D+31,Thompson +31,democrat,"","",7,0,1604459127305
28063,Jefferson,3863,0,12,12,None,100,3863,>98%,>98% reported,edison,10,unknown,600,3368,494,1,0,0,0,2020-11-17T02:13:23Z,74.39814,D+74,Thompson +74,democrat,MS-G-H-2-2020-11-03,ms-house-general-district-002-2020-11-03,https://www.nytimes.com/interactive/2020/11/03/us/elections/results-mississippi-house-district-2.html,https://www.nytimes.com/interactive/2020/11/03/us/elections/results-mississippi.html,https://www.nytimes.com/interactive/2020/11/03/us/elections/ap-polls-mississippi.html,house,general,2020-11-03,FALSE,U.S. House District 2,U.S. House,H,solid-dem,2,District 2,MS,mississippi,Mississippi,Miss.,vertical,0.9,"",FALSE,TRUE,winner,AP,FALSE,"",290140,0,unknown,Polls close at 8 p.m. Eastern time.,Polls close in,Polls have closed.,2020-11-04T01:00:00.000Z,8 p.m.,491,491,100% reporting,100%,90,321000,edison,90%,90% reported,edison,democrat,FALSE,2020-11-18T23:44:19Z,TRUE,31.48928,91363,D+31,Thompson +31,democrat,"","",7,0,1604459127305
28079,Leake,9008,0,19,19,None,100,9008,>98%,>98% reported,edison,10,unknown,646,4031,4973,4,0,0,0,2020-11-16T15:47:51Z,10.45737,R+10,Flowers +10,republican,MS-G-H-2-2020-11-03,ms-house-general-district-002-2020-11-03,https://www.nytimes.com/interactive/2020/11/03/us/elections/results-mississippi-house-district-2.html,https://www.nytimes.com/interactive/2020/11/03/us/elections/results-mississippi.html,https://www.nytimes.com/interactive/2020/11/03/us/elections/ap-polls-mississippi.html,house,general,2020-11-03,FALSE,U.S. House District 2,U.S. House,H,solid-dem,2,District 2,MS,mississippi,Mississippi,Miss.,vertical,0.9,"",FALSE,TRUE,winner,AP,FALSE,"",290140,0,unknown,Polls close at 8 p.m. Eastern time.,Polls close in,Polls have closed.,2020-11-04T01:00:00.000Z,8 p.m.,491,491,100% reporting,100%,90,321000,edison,90%,90% reported,edison,democrat,FALSE,2020-11-18T23:44:19Z,TRUE,31.48928,91363,D+31,Thompson +31,democrat,"","",7,0,1604459127305
28083,Leflore,7961,0,18,18,None,100,7961,>98%,>98% reported,edison,6,none,646,5493,2465,3,0,0,0,2020-11-16T15:47:51Z,38.03542,D+38,Thompson +38,democrat,MS-G-H-2-2020-11-03,ms-house-general-district-002-2020-11-03,https://www.nytimes.com/interactive/2020/11/03/us/elections/results-mississippi-house-district-2.html,https://www.nytimes.com/interactive/2020/11/03/us/elections/results-mississippi.html,https://www.nytimes.com/interactive/2020/11/03/us/elections/ap-polls-mississippi.html,house,general,2020-11-03,FALSE,U.S. House District 2,U.S. House,H,solid-dem,2,District 2,MS,mississippi,Mississippi,Miss.,vertical,0.9,"",FALSE,TRUE,winner,AP,FALSE,"",290140,0,unknown,Polls close at 8 p.m. Eastern time.,Polls close in,Polls have closed.,2020-11-04T01:00:00.000Z,8 p.m.,491,491,100% reporting,100%,90,321000,edison,90%,90% reported,edison,democrat,FALSE,2020-11-18T23:44:19Z,TRUE,31.48928,91363,D+31,Thompson +31,democrat,"","",7,0,1604459127305
28089,Madison,12070,0,10,10,None,100,12070,>98%,>98% reported,edison,10,unknown,2144,9477,2583,10,0,0,0,2020-11-17T19:12:49Z,57.11682,D+57,Thompson +57,democrat,MS-G-H-2-2020-11-03,ms-house-general-district-002-2020-11-03,https://www.nytimes.com/interactive/2020/11/03/us/elections/results-mississippi-house-district-2.html,https://www.nytimes.com/interactive/2020/11/03/us/elections/results-mississippi.html,https://www.nytimes.com/interactive/2020/11/03/us/elections/ap-polls-mississippi.html,house,general,2020-11-03,FALSE,U.S. House District 2,U.S. House,H,solid-dem,2,District 2,MS,mississippi,Mississippi,Miss.,vertical,0.9,"",FALSE,TRUE,winner,AP,FALSE,"",290140,0,unknown,Polls close at 8 p.m. Eastern time.,Polls close in,Polls have closed.,2020-11-04T01:00:00.000Z,8 p.m.,491,491,100% reporting,100%,90,321000,edison,90%,90% reported,edison,democrat,FALSE,2020-11-18T23:44:19Z,TRUE,31.48928,91363,D+31,Thompson +31,democrat,"","",7,0,1604459127305
28097,Montgomery,5008,0,15,15,None,100,5008,>98%,>98% reported,edison,10,unknown,726,2283,2724,1,0,0,0,2020-11-16T15:47:52Z,8.80591,R+9,Flowers +9,republican,MS-G-H-2-2020-11-03,ms-house-general-district-002-2020-11-03,https://www.nytimes.com/interactive/2020/11/03/us/elections/results-mississippi-house-district-2.html,https://www.nytimes.com/interactive/2020/11/03/us/elections/results-mississippi.html,https://www.nytimes.com/interactive/2020/11/03/us/elections/ap-polls-mississippi.html,house,general,2020-11-03,FALSE,U.S. House District 2,U.S. House,H,solid-dem,2,District 2,MS,mississippi,Mississippi,Miss.,vertical,0.9,"",FALSE,TRUE,winner,AP,FALSE,"",290140,0,unknown,Polls close at 8 p.m. Eastern time.,Polls close in,Polls have closed.,2020-11-04T01:00:00.000Z,8 p.m.,491,491,100% reporting,100%,90,321000,edison,90%,90% reported,edison,democrat,FALSE,2020-11-18T23:44:19Z,TRUE,31.48928,91363,D+31,Thompson +31,democrat,"","",7,0,1604459127305
28107,Panola,15543,0,21,21,Merged into voters' home precincts AFTER election night,100,15543,>98%,>98% reported,edison,10,unknown,1296,7800,7727,16,0,0,0,2020-11-16T15:47:57Z,0.46966,D+0.47,Thompson +0.47,democrat,MS-G-H-2-2020-11-03,ms-house-general-district-002-2020-11-03,https://www.nytimes.com/interactive/2020/11/03/us/elections/results-mississippi-house-district-2.html,https://www.nytimes.com/interactive/2020/11/03/us/elections/results-mississippi.html,https://www.nytimes.com/interactive/2020/11/03/us/elections/ap-polls-mississippi.html,house,general,2020-11-03,FALSE,U.S. House District 2,U.S. House,H,solid-dem,2,District 2,MS,mississippi,Mississippi,Miss.,vertical,0.9,"",FALSE,TRUE,winner,AP,FALSE,"",290140,0,unknown,Polls close at 8 p.m. Eastern time.,Polls close in,Polls have closed.,2020-11-04T01:00:00.000Z,8 p.m.,491,491,100% reporting,100%,90,321000,edison,90%,90% reported,edison,democrat,FALSE,2020-11-18T23:44:19Z,TRUE,31.48928,91363,D+31,Thompson +31,democrat,"","",7,0,1604459127305
28119,Quitman,3139,0,10,10,Merged into voters' home precincts and released with cumulative results,100,3139,>98%,>98% reported,edison,10,unknown,1586,2215,921,3,0,0,0,2020-11-16T17:52:13Z,41.22332,D+41,Thompson +41,democrat,MS-G-H-2-2020-11-03,ms-house-general-district-002-2020-11-03,https://www.nytimes.com/interactive/2020/11/03/us/elections/results-mississippi-house-district-2.html,https://www.nytimes.com/interactive/2020/11/03/us/elections/results-mississippi.html,https://www.nytimes.com/interactive/2020/11/03/us/elections/ap-polls-mississippi.html,house,general,2020-11-03,FALSE,U.S. House District 2,U.S. House,H,solid-dem,2,District 2,MS,mississippi,Mississippi,Miss.,vertical,0.9,"",FALSE,TRUE,winner,AP,FALSE,"",290140,0,unknown,Polls close at 8 p.m. Eastern time.,Polls close in,Polls have closed.,2020-11-04T01:00:00.000Z,8 p.m.,491,491,100% reporting,100%,90,321000,edison,90%,90% reported,edison,democrat,FALSE,2020-11-18T23:44:19Z,TRUE,31.48928,91363,D+31,Thompson +31,democrat,"","",7,0,1604459127305
28125,Sharkey,2119,0,10,10,Released with cumulative results periodically election night,100,2119,>98%,>98% reported,edison,10,unknown,144,1513,606,0,0,0,0,2020-11-16T15:47:53Z,42.80321,D+43,Thompson +43,democrat,MS-G-H-2-2020-11-03,ms-house-general-district-002-2020-11-03,https://www.nytimes.com/interactive/2020/11/03/us/elections/results-mississippi-house-district-2.html,https://www.nytimes.com/interactive/2020/11/03/us/elections/results-mississippi.html,https://www.nytimes.com/interactive/2020/11/03/us/elections/ap-polls-mississippi.html,house,general,2020-11-03,FALSE,U.S. House District 2,U.S. House,H,solid-dem,2,District 2,MS,mississippi,Mississippi,Miss.,vertical,0.9,"",FALSE,TRUE,winner,AP,FALSE,"",290140,0,unknown,Polls close at 8 p.m. Eastern time.,Polls close in,Polls have closed.,2020-11-04T01:00:00.000Z,8 p.m.,491,491,100% reporting,100%,90,321000,edison,90%,90% reported,edison,democrat,FALSE,2020-11-18T23:44:19Z,TRUE,31.48928,91363,D+31,Thompson +31,democrat,"","",7,0,1604459127305
28133,Sunflower,9511,0,17,17,None,100,9511,>98%,>98% reported,edison,10,unknown,234,6961,2550,0,0,0,0,2020-11-16T22:58:00Z,46.37788,D+46,Thompson +46,democrat,MS-G-H-2-2020-11-03,ms-house-general-district-002-2020-11-03,https://www.nytimes.com/interactive/2020/11/03/us/elections/results-mississippi-house-district-2.html,https://www.nytimes.com/interactive/2020/11/03/us/elections/results-mississippi.html,https://www.nytimes.com/interactive/2020/11/03/us/elections/ap-polls-mississippi.html,house,general,2020-11-03,FALSE,U.S. House District 2,U.S. House,H,solid-dem,2,District 2,MS,mississippi,Mississippi,Miss.,vertical,0.9,"",FALSE,TRUE,winner,AP,FALSE,"",290140,0,unknown,Polls close at 8 p.m. Eastern time.,Polls close in,Polls have closed.,2020-11-04T01:00:00.000Z,8 p.m.,491,491,100% reporting,100%,90,321000,edison,90%,90% reported,edison,democrat,FALSE,2020-11-18T23:44:19Z,TRUE,31.48928,91363,D+31,Thompson +31,democrat,"","",7,0,1604459127305
28135,Tallahatchie,5559,0,21,21,Merged into voters' home precincts and released with cumulative results,100,5559,>98%,>98% reported,edison,10,unknown,916,3378,2179,2,0,0,0,2020-11-16T15:47:54Z,21.56863,D+22,Thompson +22,democrat,MS-G-H-2-2020-11-03,ms-house-general-district-002-2020-11-03,https://www.nytimes.com/interactive/2020/11/03/us/elections/results-mississippi-house-district-2.html,https://www.nytimes.com/interactive/2020/11/03/us/elections/results-mississippi.html,https://www.nytimes.com/interactive/2020/11/03/us/elections/ap-polls-mississippi.html,house,general,2020-11-03,FALSE,U.S. House District 2,U.S. House,H,solid-dem,2,District 2,MS,mississippi,Mississippi,Miss.,vertical,0.9,"",FALSE,TRUE,winner,AP,FALSE,"",290140,0,unknown,Polls close at 8 p.m. Eastern time.,Polls close in,Polls have closed.,2020-11-04T01:00:00.000Z,8 p.m.,491,491,100% reporting,100%,90,321000,edison,90%,90% reported,edison,democrat,FALSE,2020-11-18T23:44:19Z,TRUE,31.48928,91363,D+31,Thompson +31,democrat,"","",7,0,1604459127305
28143,Tunica,3453,0,12,12,Merged into voters' home precincts and released with cumulative results,100,3453,>98%,>98% reported,edison,10,unknown,230,2615,834,4,0,0,0,2020-11-16T15:47:55Z,51.57834,D+52,Thompson +52,democrat,MS-G-H-2-2020-11-03,ms-house-general-district-002-2020-11-03,https://www.nytimes.com/interactive/2020/11/03/us/elections/results-mississippi-house-district-2.html,https://www.nytimes.com/interactive/2020/11/03/us/elections/results-mississippi.html,https://www.nytimes.com/interactive/2020/11/03/us/elections/ap-polls-mississippi.html,house,general,2020-11-03,FALSE,U.S. House District 2,U.S. House,H,solid-dem,2,District 2,MS,mississippi,Mississippi,Miss.,vertical,0.9,"",FALSE,TRUE,winner,AP,FALSE,"",290140,0,unknown,Polls close at 8 p.m. Eastern time.,Polls close in,Polls have closed.,2020-11-04T01:00:00.000Z,8 p.m.,491,491,100% reporting,100%,90,321000,edison,90%,90% reported,edison,democrat,FALSE,2020-11-18T23:44:19Z,TRUE,31.48928,91363,D+31,Thompson +31,democrat,"","",7,0,1604459127305
28149,Warren,20676,0,23,23,None,100,20676,>98%,>98% reported,edison,10,unknown,1150,10396,10280,0,0,0,0,2020-11-17T02:19:33Z,0.56104,D+0.56,Thompson +0.56,democrat,MS-G-H-2-2020-11-03,ms-house-general-district-002-2020-11-03,https://www.nytimes.com/interactive/2020/11/03/us/elections/results-mississippi-house-district-2.html,https://www.nytimes.com/interactive/2020/11/03/us/elections/results-mississippi.html,https://www.nytimes.com/interactive/2020/11/03/us/elections/ap-polls-mississippi.html,house,general,2020-11-03,FALSE,U.S. House District 2,U.S. House,H,solid-dem,2,District 2,MS,mississippi,Mississippi,Miss.,vertical,0.9,"",FALSE,TRUE,winner,AP,FALSE,"",290140,0,unknown,Polls close at 8 p.m. Eastern time.,Polls close in,Polls have closed.,2020-11-04T01:00:00.000Z,8 p.m.,491,491,100% reporting,100%,90,321000,edison,90%,90% reported,edison,democrat,FALSE,2020-11-18T23:44:19Z,TRUE,31.48928,91363,D+31,Thompson +31,democrat,"","",7,0,1604459127305
28151,Washington,17892,0,19,19,None,100,15738,>98%,>98% reported,edison,4,unknown,914,12965,4919,8,0,0,0,2020-11-18T19:24:41Z,44.96982,D+45,Thompson +45,democrat,MS-G-H-2-2020-11-03,ms-house-general-district-002-2020-11-03,https://www.nytimes.com/interactive/2020/11/03/us/elections/results-mississippi-house-district-2.html,https://www.nytimes.com/interactive/2020/11/03/us/elections/results-mississippi.html,https://www.nytimes.com/interactive/2020/11/03/us/elections/ap-polls-mississippi.html,house,general,2020-11-03,FALSE,U.S. House District 2,U.S. House,H,solid-dem,2,District 2,MS,mississippi,Mississippi,Miss.,vertical,0.9,"",FALSE,TRUE,winner,AP,FALSE,"",290140,0,unknown,Polls close at 8 p.m. Eastern time.,Polls close in,Polls have closed.,2020-11-04T01:00:00.000Z,8 p.m.,491,491,100% reporting,100%,90,321000,edison,90%,90% reported,edison,democrat,FALSE,2020-11-18T23:44:19Z,TRUE,31.48928,91363,D+31,Thompson +31,democrat,"","",7,0,1604459127305
28161,Yalobusha,6479,0,12,12,None,100,6479,>98%,>98% reported,edison,10,unknown,552,2975,3496,8,0,0,0,2020-11-16T15:47:58Z,8.04136,R+8,Flowers +8,republican,MS-G-H-2-2020-11-03,ms-house-general-district-002-2020-11-03,https://www.nytimes.com/interactive/2020/11/03/us/elections/results-mississippi-house-district-2.html,https://www.nytimes.com/interactive/2020/11/03/us/elections/results-mississippi.html,https://www.nytimes.com/interactive/2020/11/03/us/elections/ap-polls-mississippi.html,house,general,2020-11-03,FALSE,U.S. House District 2,U.S. House,H,solid-dem,2,District 2,MS,mississippi,Mississippi,Miss.,vertical,0.9,"",FALSE,TRUE,winner,AP,FALSE,"",290140,0,unknown,Polls close at 8 p.m. Eastern time.,Polls close in,Polls have closed.,2020-11-04T01:00:00.000Z,8 p.m.,491,491,100% reporting,100%,90,321000,edison,90%,90% reported,edison,democrat,FALSE,2020-11-18T23:44:19Z,TRUE,31.48928,91363,D+31,Thompson +31,democrat,"","",7,0,1604459127305
28163,Yazoo,10160,0,23,23,Merged into voters' home precincts and released with cumulative results,100,10160,>98%,>98% reported,edison,10,unknown,470,5604,4549,7,0,0,0,2020-11-16T19:33:39Z,10.38386,D+10,Thompson +10,democrat,MS-G-H-2-2020-11-03,ms-house-general-district-002-2020-11-03,https://www.nytimes.com/interactive/2020/11/03/us/elections/results-mississippi-house-district-2.html,https://www.nytimes.com/interactive/2020/11/03/us/elections/results-mississippi.html,https://www.nytimes.com/interactive/2020/11/03/us/elections/ap-polls-mississippi.html,house,general,2020-11-03,FALSE,U.S. House District 2,U.S. House,H,solid-dem,2,District 2,MS,mississippi,Mississippi,Miss.,vertical,0.9,"",FALSE,TRUE,winner,AP,FALSE,"",290140,0,unknown,Polls close at 8 p.m. Eastern time.,Polls close in,Polls have closed.,2020-11-04T01:00:00.000Z,8 p.m.,491,491,100% reporting,100%,90,321000,edison,90%,90% reported,edison,democrat,FALSE,2020-11-18T23:44:19Z,TRUE,31.48928,91363,D+31,Thompson +31,democrat,"","",7,0,1604459127305
