fips,name,votes,absentee_votes,reporting,precincts,absentee_method,eevp,tot_exp_vote,eevp_value,eevp_display,eevp_source,turnout_stage,absentee_count_progress,absentee_max_ballots,results_armstrongk,results_raknerudz,results_petersons,results_absentee_armstrongk,results_absentee_raknerudz,results_absentee_petersons,last_updated,leader_margin_value,leader_margin_display,leader_margin_name_display,leader_party_id,race_id_race,race_slug_race,url_race,state_page_url_race,ap_polls_page_race,race_type_race,election_type_race,election_date_race,runoff_race,race_name_race,office_race,officeid_race,race_rating_race,seat_race,seat_name_race,state_id_race,state_slug_race,state_name_race,state_nyt_abbrev_race,state_shape_race,party_id_race,uncontested_race,report_race,result_race,result_source_race,gain_race,lost_seat_race,votes_race,absentee_votes_race,absentee_counties_race,absentee_count_progress_race,poll_display_race,poll_countdown_display_race,poll_waiting_display_race,poll_time_race,poll_time_short_race,precincts_reporting_race,precincts_total_race,reporting_display_race,reporting_value_race,eevp_race,tot_exp_vote_race,eevp_source_race,eevp_value_race,eevp_display_race,county_data_source_race,incumbent_party_race,no_forecast_race,last_updated_race,has_incumbent_race,leader_margin_value_race,leader_margin_votes_race,leader_margin_display_race,leader_margin_name_display_race,leader_party_id_race,expectations_text_race,expectations_text_short_race,absentee_ballot_deadline_race,absentee_postmark_deadline_race,winner_called_timestamp_race
38001,Adams,1255,0,1,1,Released as a separate subtotal as first report of the night,100,1255,>98%,>98% reported,edison,10,some,1677,1010,213,32,0,0,0,2020-11-16T15:47:49Z,63.50598,R+64,Armstrong +64,republican,ND-G-H-1-2020-11-03,nd-house-general-district-001-2020-11-03,https://www.nytimes.com/interactive/2020/11/03/us/elections/results-north-dakota-house-district-at-large.html,https://www.nytimes.com/interactive/2020/11/03/us/elections/results-north-dakota.html,https://www.nytimes.com/interactive/2020/11/03/us/elections/ap-polls-north-dakota.html,house,general,2020-11-03,FALSE,U.S. House At-Large,U.S. House,H,solid-rep,1,At-Large,ND,north-dakota,North Dakota,N.D.,horizontal,"",FALSE,TRUE,winner,AP,FALSE,"",355223,128116,4,unknown,First polls close at 8 p.m. Eastern time.,First polls close in,Most polls have closed.,2020-11-04T01:00:00.000Z,8 p.m.,416,416,100% reporting,100%,99,355223,edison,>98%,>98% reported,edison,republican,FALSE,2020-11-18T17:18:13Z,TRUE,41.45537,147259,R+41,Armstrong +41,republican,"","",6,-1,1604455500497
38003,Barnes,5468,0,15,15,Merged into voters' home precincts and released with cumulative results,100,5468,>98%,>98% reported,edison,10,unknown,3917,3737,1562,169,0,0,0,2020-11-17T03:04:44Z,39.77688,R+40,Armstrong +40,republican,ND-G-H-1-2020-11-03,nd-house-general-district-001-2020-11-03,https://www.nytimes.com/interactive/2020/11/03/us/elections/results-north-dakota-house-district-at-large.html,https://www.nytimes.com/interactive/2020/11/03/us/elections/results-north-dakota.html,https://www.nytimes.com/interactive/2020/11/03/us/elections/ap-polls-north-dakota.html,house,general,2020-11-03,FALSE,U.S. House At-Large,U.S. House,H,solid-rep,1,At-Large,ND,north-dakota,North Dakota,N.D.,horizontal,"",FALSE,TRUE,winner,AP,FALSE,"",355223,128116,4,unknown,First polls close at 8 p.m. Eastern time.,First polls close in,Most polls have closed.,2020-11-04T01:00:00.000Z,8 p.m.,416,416,100% reporting,100%,99,355223,edison,>98%,>98% reported,edison,republican,FALSE,2020-11-18T17:18:13Z,TRUE,41.45537,147259,R+41,Armstrong +41,republican,"","",6,-1,1604455500497
38005,Benson,1931,0,4,4,"As a subtotal in the FIRST cumulative report, along with regular precincts",100,1931,>98%,>98% reported,edison,10,some,3273,1138,738,55,0,0,0,2020-11-17T03:04:49Z,20.71466,R+21,Armstrong +21,republican,ND-G-H-1-2020-11-03,nd-house-general-district-001-2020-11-03,https://www.nytimes.com/interactive/2020/11/03/us/elections/results-north-dakota-house-district-at-large.html,https://www.nytimes.com/interactive/2020/11/03/us/elections/results-north-dakota.html,https://www.nytimes.com/interactive/2020/11/03/us/elections/ap-polls-north-dakota.html,house,general,2020-11-03,FALSE,U.S. House At-Large,U.S. House,H,solid-rep,1,At-Large,ND,north-dakota,North Dakota,N.D.,horizontal,"",FALSE,TRUE,winner,AP,FALSE,"",355223,128116,4,unknown,First polls close at 8 p.m. Eastern time.,First polls close in,Most polls have closed.,2020-11-04T01:00:00.000Z,8 p.m.,416,416,100% reporting,100%,99,355223,edison,>98%,>98% reported,edison,republican,FALSE,2020-11-18T17:18:13Z,TRUE,41.45537,147259,R+41,Armstrong +41,republican,"","",6,-1,1604455500497
38007,Billings,632,0,3,3,Merged into voters' home precincts and released with cumulative results,100,632,>98%,>98% reported,edison,10,some,341,554,64,14,0,0,0,2020-11-17T03:07:36Z,77.53165,R+78,Armstrong +78,republican,ND-G-H-1-2020-11-03,nd-house-general-district-001-2020-11-03,https://www.nytimes.com/interactive/2020/11/03/us/elections/results-north-dakota-house-district-at-large.html,https://www.nytimes.com/interactive/2020/11/03/us/elections/results-north-dakota.html,https://www.nytimes.com/interactive/2020/11/03/us/elections/ap-polls-north-dakota.html,house,general,2020-11-03,FALSE,U.S. House At-Large,U.S. House,H,solid-rep,1,At-Large,ND,north-dakota,North Dakota,N.D.,horizontal,"",FALSE,TRUE,winner,AP,FALSE,"",355223,128116,4,unknown,First polls close at 8 p.m. Eastern time.,First polls close in,Most polls have closed.,2020-11-04T01:00:00.000Z,8 p.m.,416,416,100% reporting,100%,99,355223,edison,>98%,>98% reported,edison,republican,FALSE,2020-11-18T17:18:13Z,TRUE,41.45537,147259,R+41,Armstrong +41,republican,"","",6,-1,1604455500497
38009,Bottineau,3419,0,5,5,Merged into voters' home precincts and released with cumulative results,100,3419,>98%,>98% reported,edison,10,some,4617,2646,692,81,0,0,0,2020-11-17T03:04:57Z,57.15121,R+57,Armstrong +57,republican,ND-G-H-1-2020-11-03,nd-house-general-district-001-2020-11-03,https://www.nytimes.com/interactive/2020/11/03/us/elections/results-north-dakota-house-district-at-large.html,https://www.nytimes.com/interactive/2020/11/03/us/elections/results-north-dakota.html,https://www.nytimes.com/interactive/2020/11/03/us/elections/ap-polls-north-dakota.html,house,general,2020-11-03,FALSE,U.S. House At-Large,U.S. House,H,solid-rep,1,At-Large,ND,north-dakota,North Dakota,N.D.,horizontal,"",FALSE,TRUE,winner,AP,FALSE,"",355223,128116,4,unknown,First polls close at 8 p.m. Eastern time.,First polls close in,Most polls have closed.,2020-11-04T01:00:00.000Z,8 p.m.,416,416,100% reporting,100%,99,355223,edison,>98%,>98% reported,edison,republican,FALSE,2020-11-18T17:18:13Z,TRUE,41.45537,147259,R+41,Armstrong +41,republican,"","",6,-1,1604455500497
38011,Bowman,1644,0,4,4,Merged into voters' home precincts and released with cumulative results,100,1644,>98%,>98% reported,edison,10,some,764,1413,195,36,0,0,0,2020-11-17T03:05:05Z,74.08759,R+74,Armstrong +74,republican,ND-G-H-1-2020-11-03,nd-house-general-district-001-2020-11-03,https://www.nytimes.com/interactive/2020/11/03/us/elections/results-north-dakota-house-district-at-large.html,https://www.nytimes.com/interactive/2020/11/03/us/elections/results-north-dakota.html,https://www.nytimes.com/interactive/2020/11/03/us/elections/ap-polls-north-dakota.html,house,general,2020-11-03,FALSE,U.S. House At-Large,U.S. House,H,solid-rep,1,At-Large,ND,north-dakota,North Dakota,N.D.,horizontal,"",FALSE,TRUE,winner,AP,FALSE,"",355223,128116,4,unknown,First polls close at 8 p.m. Eastern time.,First polls close in,Most polls have closed.,2020-11-04T01:00:00.000Z,8 p.m.,416,416,100% reporting,100%,99,355223,edison,>98%,>98% reported,edison,republican,FALSE,2020-11-18T17:18:13Z,TRUE,41.45537,147259,R+41,Armstrong +41,republican,"","",6,-1,1604455500497
38013,Burke,1134,0,6,6,Merged into voters' home precincts and released with cumulative results,100,1134,>98%,>98% reported,edison,10,some,1757,977,140,17,0,0,0,2020-11-17T02:55:48Z,73.80952,R+74,Armstrong +74,republican,ND-G-H-1-2020-11-03,nd-house-general-district-001-2020-11-03,https://www.nytimes.com/interactive/2020/11/03/us/elections/results-north-dakota-house-district-at-large.html,https://www.nytimes.com/interactive/2020/11/03/us/elections/results-north-dakota.html,https://www.nytimes.com/interactive/2020/11/03/us/elections/ap-polls-north-dakota.html,house,general,2020-11-03,FALSE,U.S. House At-Large,U.S. House,H,solid-rep,1,At-Large,ND,north-dakota,North Dakota,N.D.,horizontal,"",FALSE,TRUE,winner,AP,FALSE,"",355223,128116,4,unknown,First polls close at 8 p.m. Eastern time.,First polls close in,Most polls have closed.,2020-11-04T01:00:00.000Z,8 p.m.,416,416,100% reporting,100%,99,355223,edison,>98%,>98% reported,edison,republican,FALSE,2020-11-18T17:18:13Z,TRUE,41.45537,147259,R+41,Armstrong +41,republican,"","",6,-1,1604455500497
38015,Burleigh,49826,13656,36,36,Merged into voters' home precincts and released with cumulative results,100,49826,>98%,>98% reported,edison,10,some,26229,36122,12111,1593,10708,2507,441,2020-11-17T03:05:13Z,48.1897,R+48,Armstrong +48,republican,ND-G-H-1-2020-11-03,nd-house-general-district-001-2020-11-03,https://www.nytimes.com/interactive/2020/11/03/us/elections/results-north-dakota-house-district-at-large.html,https://www.nytimes.com/interactive/2020/11/03/us/elections/results-north-dakota.html,https://www.nytimes.com/interactive/2020/11/03/us/elections/ap-polls-north-dakota.html,house,general,2020-11-03,FALSE,U.S. House At-Large,U.S. House,H,solid-rep,1,At-Large,ND,north-dakota,North Dakota,N.D.,horizontal,"",FALSE,TRUE,winner,AP,FALSE,"",355223,128116,4,unknown,First polls close at 8 p.m. Eastern time.,First polls close in,Most polls have closed.,2020-11-04T01:00:00.000Z,8 p.m.,416,416,100% reporting,100%,99,355223,edison,>98%,>98% reported,edison,republican,FALSE,2020-11-18T17:18:13Z,TRUE,41.45537,147259,R+41,Armstrong +41,republican,"","",6,-1,1604455500497
38017,Cass,84458,81490,38,38,Merged into voters' home precincts and released with cumulative results,100,84458,>98%,>98% reported,edison,10,all,26127,46877,34055,3526,46738,32404,2348,2020-11-17T03:05:18Z,15.18151,R+15,Armstrong +15,republican,ND-G-H-1-2020-11-03,nd-house-general-district-001-2020-11-03,https://www.nytimes.com/interactive/2020/11/03/us/elections/results-north-dakota-house-district-at-large.html,https://www.nytimes.com/interactive/2020/11/03/us/elections/results-north-dakota.html,https://www.nytimes.com/interactive/2020/11/03/us/elections/ap-polls-north-dakota.html,house,general,2020-11-03,FALSE,U.S. House At-Large,U.S. House,H,solid-rep,1,At-Large,ND,north-dakota,North Dakota,N.D.,horizontal,"",FALSE,TRUE,winner,AP,FALSE,"",355223,128116,4,unknown,First polls close at 8 p.m. Eastern time.,First polls close in,Most polls have closed.,2020-11-04T01:00:00.000Z,8 p.m.,416,416,100% reporting,100%,99,355223,edison,>98%,>98% reported,edison,republican,FALSE,2020-11-18T17:18:13Z,TRUE,41.45537,147259,R+41,Armstrong +41,republican,"","",6,-1,1604455500497
38019,Cavalier,1991,0,1,1,Merged into voters' home precincts and released with cumulative results,100,1991,>98%,>98% reported,edison,10,unknown,3069,1548,400,43,0,0,0,2020-11-16T15:47:56Z,57.65947,R+58,Armstrong +58,republican,ND-G-H-1-2020-11-03,nd-house-general-district-001-2020-11-03,https://www.nytimes.com/interactive/2020/11/03/us/elections/results-north-dakota-house-district-at-large.html,https://www.nytimes.com/interactive/2020/11/03/us/elections/results-north-dakota.html,https://www.nytimes.com/interactive/2020/11/03/us/elections/ap-polls-north-dakota.html,house,general,2020-11-03,FALSE,U.S. House At-Large,U.S. House,H,solid-rep,1,At-Large,ND,north-dakota,North Dakota,N.D.,horizontal,"",FALSE,TRUE,winner,AP,FALSE,"",355223,128116,4,unknown,First polls close at 8 p.m. Eastern time.,First polls close in,Most polls have closed.,2020-11-04T01:00:00.000Z,8 p.m.,416,416,100% reporting,100%,99,355223,edison,>98%,>98% reported,edison,republican,FALSE,2020-11-18T17:18:13Z,TRUE,41.45537,147259,R+41,Armstrong +41,republican,"","",6,-1,1604455500497
38021,Dickey,2404,0,3,3,Merged into voters' home precincts and released with cumulative results,100,2404,>98%,>98% reported,edison,10,some,1263,1796,532,76,0,0,0,2020-11-16T15:47:57Z,52.57903,R+53,Armstrong +53,republican,ND-G-H-1-2020-11-03,nd-house-general-district-001-2020-11-03,https://www.nytimes.com/interactive/2020/11/03/us/elections/results-north-dakota-house-district-at-large.html,https://www.nytimes.com/interactive/2020/11/03/us/elections/results-north-dakota.html,https://www.nytimes.com/interactive/2020/11/03/us/elections/ap-polls-north-dakota.html,house,general,2020-11-03,FALSE,U.S. House At-Large,U.S. House,H,solid-rep,1,At-Large,ND,north-dakota,North Dakota,N.D.,horizontal,"",FALSE,TRUE,winner,AP,FALSE,"",355223,128116,4,unknown,First polls close at 8 p.m. Eastern time.,First polls close in,Most polls have closed.,2020-11-04T01:00:00.000Z,8 p.m.,416,416,100% reporting,100%,99,355223,edison,>98%,>98% reported,edison,republican,FALSE,2020-11-18T17:18:13Z,TRUE,41.45537,147259,R+41,Armstrong +41,republican,"","",6,-1,1604455500497
38023,Divide,1191,0,4,4,Merged into voters' home precincts and released with cumulative results,100,1191,>98%,>98% reported,edison,10,some,852,913,242,36,0,0,0,2020-11-17T03:05:23Z,56.33921,R+56,Armstrong +56,republican,ND-G-H-1-2020-11-03,nd-house-general-district-001-2020-11-03,https://www.nytimes.com/interactive/2020/11/03/us/elections/results-north-dakota-house-district-at-large.html,https://www.nytimes.com/interactive/2020/11/03/us/elections/results-north-dakota.html,https://www.nytimes.com/interactive/2020/11/03/us/elections/ap-polls-north-dakota.html,house,general,2020-11-03,FALSE,U.S. House At-Large,U.S. House,H,solid-rep,1,At-Large,ND,north-dakota,North Dakota,N.D.,horizontal,"",FALSE,TRUE,winner,AP,FALSE,"",355223,128116,4,unknown,First polls close at 8 p.m. Eastern time.,First polls close in,Most polls have closed.,2020-11-04T01:00:00.000Z,8 p.m.,416,416,100% reporting,100%,99,355223,edison,>98%,>98% reported,edison,republican,FALSE,2020-11-18T17:18:13Z,TRUE,41.45537,147259,R+41,Armstrong +41,republican,"","",6,-1,1604455500497
38025,Dunn,2327,0,12,12,Merged into voters' home precincts and released with cumulative results,100,2327,>98%,>98% reported,edison,10,some,1484,1948,319,60,0,0,0,2020-11-17T03:05:30Z,70.0043,R+70,Armstrong +70,republican,ND-G-H-1-2020-11-03,nd-house-general-district-001-2020-11-03,https://www.nytimes.com/interactive/2020/11/03/us/elections/results-north-dakota-house-district-at-large.html,https://www.nytimes.com/interactive/2020/11/03/us/elections/results-north-dakota.html,https://www.nytimes.com/interactive/2020/11/03/us/elections/ap-polls-north-dakota.html,house,general,2020-11-03,FALSE,U.S. House At-Large,U.S. House,H,solid-rep,1,At-Large,ND,north-dakota,North Dakota,N.D.,horizontal,"",FALSE,TRUE,winner,AP,FALSE,"",355223,128116,4,unknown,First polls close at 8 p.m. Eastern time.,First polls close in,Most polls have closed.,2020-11-04T01:00:00.000Z,8 p.m.,416,416,100% reporting,100%,99,355223,edison,>98%,>98% reported,edison,republican,FALSE,2020-11-18T17:18:13Z,TRUE,41.45537,147259,R+41,Armstrong +41,republican,"","",6,-1,1604455500497
38027,Eddy,1245,0,2,2,None,100,1245,>98%,>98% reported,edison,10,some,776,874,336,35,0,0,0,2020-11-16T15:47:58Z,43.21285,R+43,Armstrong +43,republican,ND-G-H-1-2020-11-03,nd-house-general-district-001-2020-11-03,https://www.nytimes.com/interactive/2020/11/03/us/elections/results-north-dakota-house-district-at-large.html,https://www.nytimes.com/interactive/2020/11/03/us/elections/results-north-dakota.html,https://www.nytimes.com/interactive/2020/11/03/us/elections/ap-polls-north-dakota.html,house,general,2020-11-03,FALSE,U.S. House At-Large,U.S. House,H,solid-rep,1,At-Large,ND,north-dakota,North Dakota,N.D.,horizontal,"",FALSE,TRUE,winner,AP,FALSE,"",355223,128116,4,unknown,First polls close at 8 p.m. Eastern time.,First polls close in,Most polls have closed.,2020-11-04T01:00:00.000Z,8 p.m.,416,416,100% reporting,100%,99,355223,edison,>98%,>98% reported,edison,republican,FALSE,2020-11-18T17:18:13Z,TRUE,41.45537,147259,R+41,Armstrong +41,republican,"","",6,-1,1604455500497
38029,Emmons,1977,0,5,5,Merged into voters' home precincts and released with cumulative results,100,1977,>98%,>98% reported,edison,10,unknown,1980,1736,207,34,0,0,0,2020-11-17T03:05:36Z,77.3394,R+77,Armstrong +77,republican,ND-G-H-1-2020-11-03,nd-house-general-district-001-2020-11-03,https://www.nytimes.com/interactive/2020/11/03/us/elections/results-north-dakota-house-district-at-large.html,https://www.nytimes.com/interactive/2020/11/03/us/elections/results-north-dakota.html,https://www.nytimes.com/interactive/2020/11/03/us/elections/ap-polls-north-dakota.html,house,general,2020-11-03,FALSE,U.S. House At-Large,U.S. House,H,solid-rep,1,At-Large,ND,north-dakota,North Dakota,N.D.,horizontal,"",FALSE,TRUE,winner,AP,FALSE,"",355223,128116,4,unknown,First polls close at 8 p.m. Eastern time.,First polls close in,Most polls have closed.,2020-11-04T01:00:00.000Z,8 p.m.,416,416,100% reporting,100%,99,355223,edison,>98%,>98% reported,edison,republican,FALSE,2020-11-18T17:18:13Z,TRUE,41.45537,147259,R+41,Armstrong +41,republican,"","",6,-1,1604455500497
38031,Foster,1746,0,6,6,None,100,1746,>98%,>98% reported,edison,10,unknown,1491,1391,318,37,0,0,0,2020-11-17T03:05:42Z,61.45475,R+61,Armstrong +61,republican,ND-G-H-1-2020-11-03,nd-house-general-district-001-2020-11-03,https://www.nytimes.com/interactive/2020/11/03/us/elections/results-north-dakota-house-district-at-large.html,https://www.nytimes.com/interactive/2020/11/03/us/elections/results-north-dakota.html,https://www.nytimes.com/interactive/2020/11/03/us/elections/ap-polls-north-dakota.html,house,general,2020-11-03,FALSE,U.S. House At-Large,U.S. House,H,solid-rep,1,At-Large,ND,north-dakota,North Dakota,N.D.,horizontal,"",FALSE,TRUE,winner,AP,FALSE,"",355223,128116,4,unknown,First polls close at 8 p.m. Eastern time.,First polls close in,Most polls have closed.,2020-11-04T01:00:00.000Z,8 p.m.,416,416,100% reporting,100%,99,355223,edison,>98%,>98% reported,edison,republican,FALSE,2020-11-18T17:18:13Z,TRUE,41.45537,147259,R+41,Armstrong +41,republican,"","",6,-1,1604455500497
38033,Golden Valley,1006,0,1,1,Other,100,1006,>98%,>98% reported,edison,10,unknown,737,871,114,21,0,0,0,2020-11-16T15:48:00Z,75.24851,R+75,Armstrong +75,republican,ND-G-H-1-2020-11-03,nd-house-general-district-001-2020-11-03,https://www.nytimes.com/interactive/2020/11/03/us/elections/results-north-dakota-house-district-at-large.html,https://www.nytimes.com/interactive/2020/11/03/us/elections/results-north-dakota.html,https://www.nytimes.com/interactive/2020/11/03/us/elections/ap-polls-north-dakota.html,house,general,2020-11-03,FALSE,U.S. House At-Large,U.S. House,H,solid-rep,1,At-Large,ND,north-dakota,North Dakota,N.D.,horizontal,"",FALSE,TRUE,winner,AP,FALSE,"",355223,128116,4,unknown,First polls close at 8 p.m. Eastern time.,First polls close in,Most polls have closed.,2020-11-04T01:00:00.000Z,8 p.m.,416,416,100% reporting,100%,99,355223,edison,>98%,>98% reported,edison,republican,FALSE,2020-11-18T17:18:13Z,TRUE,41.45537,147259,R+41,Armstrong +41,republican,"","",6,-1,1604455500497
38035,Grand Forks,30188,26149,27,27,Released as a precinct at the end of tabulation,100,30188,>98%,>98% reported,edison,10,all,12348,18427,10746,1015,15712,9738,699,2020-11-17T03:05:48Z,25.44388,R+25,Armstrong +25,republican,ND-G-H-1-2020-11-03,nd-house-general-district-001-2020-11-03,https://www.nytimes.com/interactive/2020/11/03/us/elections/results-north-dakota-house-district-at-large.html,https://www.nytimes.com/interactive/2020/11/03/us/elections/results-north-dakota.html,https://www.nytimes.com/interactive/2020/11/03/us/elections/ap-polls-north-dakota.html,house,general,2020-11-03,FALSE,U.S. House At-Large,U.S. House,H,solid-rep,1,At-Large,ND,north-dakota,North Dakota,N.D.,horizontal,"",FALSE,TRUE,winner,AP,FALSE,"",355223,128116,4,unknown,First polls close at 8 p.m. Eastern time.,First polls close in,Most polls have closed.,2020-11-04T01:00:00.000Z,8 p.m.,416,416,100% reporting,100%,99,355223,edison,>98%,>98% reported,edison,republican,FALSE,2020-11-18T17:18:13Z,TRUE,41.45537,147259,R+41,Armstrong +41,republican,"","",6,-1,1604455500497
38037,Grant,1378,0,4,4,Merged into voters' home precincts and released with cumulative results,100,1378,>98%,>98% reported,edison,10,unknown,2609,1163,189,26,0,0,0,2020-11-17T03:07:50Z,70.68215,R+71,Armstrong +71,republican,ND-G-H-1-2020-11-03,nd-house-general-district-001-2020-11-03,https://www.nytimes.com/interactive/2020/11/03/us/elections/results-north-dakota-house-district-at-large.html,https://www.nytimes.com/interactive/2020/11/03/us/elections/results-north-dakota.html,https://www.nytimes.com/interactive/2020/11/03/us/elections/ap-polls-north-dakota.html,house,general,2020-11-03,FALSE,U.S. House At-Large,U.S. House,H,solid-rep,1,At-Large,ND,north-dakota,North Dakota,N.D.,horizontal,"",FALSE,TRUE,winner,AP,FALSE,"",355223,128116,4,unknown,First polls close at 8 p.m. Eastern time.,First polls close in,Most polls have closed.,2020-11-04T01:00:00.000Z,8 p.m.,416,416,100% reporting,100%,99,355223,edison,>98%,>98% reported,edison,republican,FALSE,2020-11-18T17:18:13Z,TRUE,41.45537,147259,R+41,Armstrong +41,republican,"","",6,-1,1604455500497
38039,Griggs,1227,0,5,5,Merged into voters' home precincts AFTER election night,100,1227,>98%,>98% reported,edison,10,unknown,2127,941,260,26,0,0,0,2020-11-17T03:05:53Z,55.50122,R+56,Armstrong +56,republican,ND-G-H-1-2020-11-03,nd-house-general-district-001-2020-11-03,https://www.nytimes.com/interactive/2020/11/03/us/elections/results-north-dakota-house-district-at-large.html,https://www.nytimes.com/interactive/2020/11/03/us/elections/results-north-dakota.html,https://www.nytimes.com/interactive/2020/11/03/us/elections/ap-polls-north-dakota.html,house,general,2020-11-03,FALSE,U.S. House At-Large,U.S. House,H,solid-rep,1,At-Large,ND,north-dakota,North Dakota,N.D.,horizontal,"",FALSE,TRUE,winner,AP,FALSE,"",355223,128116,4,unknown,First polls close at 8 p.m. Eastern time.,First polls close in,Most polls have closed.,2020-11-04T01:00:00.000Z,8 p.m.,416,416,100% reporting,100%,99,355223,edison,>98%,>98% reported,edison,republican,FALSE,2020-11-18T17:18:13Z,TRUE,41.45537,147259,R+41,Armstrong +41,republican,"","",6,-1,1604455500497
38041,Hettinger,1301,0,4,4,Merged into voters' home precincts AFTER election night,100,1301,>98%,>98% reported,edison,10,some,588,1126,149,26,0,0,0,2020-11-17T03:07:56Z,75.09608,R+75,Armstrong +75,republican,ND-G-H-1-2020-11-03,nd-house-general-district-001-2020-11-03,https://www.nytimes.com/interactive/2020/11/03/us/elections/results-north-dakota-house-district-at-large.html,https://www.nytimes.com/interactive/2020/11/03/us/elections/results-north-dakota.html,https://www.nytimes.com/interactive/2020/11/03/us/elections/ap-polls-north-dakota.html,house,general,2020-11-03,FALSE,U.S. House At-Large,U.S. House,H,solid-rep,1,At-Large,ND,north-dakota,North Dakota,N.D.,horizontal,"",FALSE,TRUE,winner,AP,FALSE,"",355223,128116,4,unknown,First polls close at 8 p.m. Eastern time.,First polls close in,Most polls have closed.,2020-11-04T01:00:00.000Z,8 p.m.,416,416,100% reporting,100%,99,355223,edison,>98%,>98% reported,edison,republican,FALSE,2020-11-18T17:18:13Z,TRUE,41.45537,147259,R+41,Armstrong +41,republican,"","",6,-1,1604455500497
38043,Kidder,1456,0,6,6,Merged into voters' home precincts and released with cumulative results,100,1456,>98%,>98% reported,edison,10,unknown,1937,1217,212,27,0,0,0,2020-11-17T03:08:01Z,69.02473,R+69,Armstrong +69,republican,ND-G-H-1-2020-11-03,nd-house-general-district-001-2020-11-03,https://www.nytimes.com/interactive/2020/11/03/us/elections/results-north-dakota-house-district-at-large.html,https://www.nytimes.com/interactive/2020/11/03/us/elections/results-north-dakota.html,https://www.nytimes.com/interactive/2020/11/03/us/elections/ap-polls-north-dakota.html,house,general,2020-11-03,FALSE,U.S. House At-Large,U.S. House,H,solid-rep,1,At-Large,ND,north-dakota,North Dakota,N.D.,horizontal,"",FALSE,TRUE,winner,AP,FALSE,"",355223,128116,4,unknown,First polls close at 8 p.m. Eastern time.,First polls close in,Most polls have closed.,2020-11-04T01:00:00.000Z,8 p.m.,416,416,100% reporting,100%,99,355223,edison,>98%,>98% reported,edison,republican,FALSE,2020-11-18T17:18:13Z,TRUE,41.45537,147259,R+41,Armstrong +41,republican,"","",6,-1,1604455500497
38045,LaMoure,2192,0,4,4,None,100,2192,>98%,>98% reported,edison,10,unknown,3164,1695,437,60,0,0,0,2020-11-17T03:08:05Z,57.39051,R+57,Armstrong +57,republican,ND-G-H-1-2020-11-03,nd-house-general-district-001-2020-11-03,https://www.nytimes.com/interactive/2020/11/03/us/elections/results-north-dakota-house-district-at-large.html,https://www.nytimes.com/interactive/2020/11/03/us/elections/results-north-dakota.html,https://www.nytimes.com/interactive/2020/11/03/us/elections/ap-polls-north-dakota.html,house,general,2020-11-03,FALSE,U.S. House At-Large,U.S. House,H,solid-rep,1,At-Large,ND,north-dakota,North Dakota,N.D.,horizontal,"",FALSE,TRUE,winner,AP,FALSE,"",355223,128116,4,unknown,First polls close at 8 p.m. Eastern time.,First polls close in,Most polls have closed.,2020-11-04T01:00:00.000Z,8 p.m.,416,416,100% reporting,100%,99,355223,edison,>98%,>98% reported,edison,republican,FALSE,2020-11-18T17:18:13Z,TRUE,41.45537,147259,R+41,Armstrong +41,republican,"","",6,-1,1604455500497
38047,Logan,1055,0,5,5,Merged into voters' home precincts and released with cumulative results,100,1055,>98%,>98% reported,edison,10,some,1856,914,113,28,0,0,0,2020-11-17T03:06:06Z,75.92417,R+76,Armstrong +76,republican,ND-G-H-1-2020-11-03,nd-house-general-district-001-2020-11-03,https://www.nytimes.com/interactive/2020/11/03/us/elections/results-north-dakota-house-district-at-large.html,https://www.nytimes.com/interactive/2020/11/03/us/elections/results-north-dakota.html,https://www.nytimes.com/interactive/2020/11/03/us/elections/ap-polls-north-dakota.html,house,general,2020-11-03,FALSE,U.S. House At-Large,U.S. House,H,solid-rep,1,At-Large,ND,north-dakota,North Dakota,N.D.,horizontal,"",FALSE,TRUE,winner,AP,FALSE,"",355223,128116,4,unknown,First polls close at 8 p.m. Eastern time.,First polls close in,Most polls have closed.,2020-11-04T01:00:00.000Z,8 p.m.,416,416,100% reporting,100%,99,355223,edison,>98%,>98% reported,edison,republican,FALSE,2020-11-18T17:18:13Z,TRUE,41.45537,147259,R+41,Armstrong +41,republican,"","",6,-1,1604455500497
38049,McHenry,2980,0,5,5,Merged into voters' home precincts and released with cumulative results,100,2980,>98%,>98% reported,edison,10,unknown,5709,2358,554,68,0,0,0,2020-11-17T03:08:14Z,60.53691,R+61,Armstrong +61,republican,ND-G-H-1-2020-11-03,nd-house-general-district-001-2020-11-03,https://www.nytimes.com/interactive/2020/11/03/us/elections/results-north-dakota-house-district-at-large.html,https://www.nytimes.com/interactive/2020/11/03/us/elections/results-north-dakota.html,https://www.nytimes.com/interactive/2020/11/03/us/elections/ap-polls-north-dakota.html,house,general,2020-11-03,FALSE,U.S. House At-Large,U.S. House,H,solid-rep,1,At-Large,ND,north-dakota,North Dakota,N.D.,horizontal,"",FALSE,TRUE,winner,AP,FALSE,"",355223,128116,4,unknown,First polls close at 8 p.m. Eastern time.,First polls close in,Most polls have closed.,2020-11-04T01:00:00.000Z,8 p.m.,416,416,100% reporting,100%,99,355223,edison,>98%,>98% reported,edison,republican,FALSE,2020-11-18T17:18:13Z,TRUE,41.45537,147259,R+41,Armstrong +41,republican,"","",6,-1,1604455500497
38051,McIntosh,1444,0,6,6,Merged into voters' home precincts and released with cumulative results,100,1444,>98%,>98% reported,edison,10,unknown,2307,1191,220,33,0,0,0,2020-11-17T03:06:13Z,67.24377,R+67,Armstrong +67,republican,ND-G-H-1-2020-11-03,nd-house-general-district-001-2020-11-03,https://www.nytimes.com/interactive/2020/11/03/us/elections/results-north-dakota-house-district-at-large.html,https://www.nytimes.com/interactive/2020/11/03/us/elections/results-north-dakota.html,https://www.nytimes.com/interactive/2020/11/03/us/elections/ap-polls-north-dakota.html,house,general,2020-11-03,FALSE,U.S. House At-Large,U.S. House,H,solid-rep,1,At-Large,ND,north-dakota,North Dakota,N.D.,horizontal,"",FALSE,TRUE,winner,AP,FALSE,"",355223,128116,4,unknown,First polls close at 8 p.m. Eastern time.,First polls close in,Most polls have closed.,2020-11-04T01:00:00.000Z,8 p.m.,416,416,100% reporting,100%,99,355223,edison,>98%,>98% reported,edison,republican,FALSE,2020-11-18T17:18:13Z,TRUE,41.45537,147259,R+41,Armstrong +41,republican,"","",6,-1,1604455500497
38053,McKenzie,5312,0,11,11,Merged into voters' home precincts and released with cumulative results,100,5312,>98%,>98% reported,edison,10,unknown,1593,4395,719,198,0,0,0,2020-11-16T15:48:07Z,69.20181,R+69,Armstrong +69,republican,ND-G-H-1-2020-11-03,nd-house-general-district-001-2020-11-03,https://www.nytimes.com/interactive/2020/11/03/us/elections/results-north-dakota-house-district-at-large.html,https://www.nytimes.com/interactive/2020/11/03/us/elections/results-north-dakota.html,https://www.nytimes.com/interactive/2020/11/03/us/elections/ap-polls-north-dakota.html,house,general,2020-11-03,FALSE,U.S. House At-Large,U.S. House,H,solid-rep,1,At-Large,ND,north-dakota,North Dakota,N.D.,horizontal,"",FALSE,TRUE,winner,AP,FALSE,"",355223,128116,4,unknown,First polls close at 8 p.m. Eastern time.,First polls close in,Most polls have closed.,2020-11-04T01:00:00.000Z,8 p.m.,416,416,100% reporting,100%,99,355223,edison,>98%,>98% reported,edison,republican,FALSE,2020-11-18T17:18:13Z,TRUE,41.45537,147259,R+41,Armstrong +41,republican,"","",6,-1,1604455500497
38055,McLean,5473,0,3,3,Merged into voters' home precincts and released with cumulative results,100,5473,>98%,>98% reported,edison,10,some,7064,4220,1119,134,0,0,0,2020-11-17T03:08:19Z,56.65997,R+57,Armstrong +57,republican,ND-G-H-1-2020-11-03,nd-house-general-district-001-2020-11-03,https://www.nytimes.com/interactive/2020/11/03/us/elections/results-north-dakota-house-district-at-large.html,https://www.nytimes.com/interactive/2020/11/03/us/elections/results-north-dakota.html,https://www.nytimes.com/interactive/2020/11/03/us/elections/ap-polls-north-dakota.html,house,general,2020-11-03,FALSE,U.S. House At-Large,U.S. House,H,solid-rep,1,At-Large,ND,north-dakota,North Dakota,N.D.,horizontal,"",FALSE,TRUE,winner,AP,FALSE,"",355223,128116,4,unknown,First polls close at 8 p.m. Eastern time.,First polls close in,Most polls have closed.,2020-11-04T01:00:00.000Z,8 p.m.,416,416,100% reporting,100%,99,355223,edison,>98%,>98% reported,edison,republican,FALSE,2020-11-18T17:18:13Z,TRUE,41.45537,147259,R+41,Armstrong +41,republican,"","",6,-1,1604455500497
38057,Mercer,4634,0,14,14,None,100,4634,>98%,>98% reported,edison,10,unknown,8208,3871,668,95,0,0,0,2020-11-17T03:06:20Z,69.11955,R+69,Armstrong +69,republican,ND-G-H-1-2020-11-03,nd-house-general-district-001-2020-11-03,https://www.nytimes.com/interactive/2020/11/03/us/elections/results-north-dakota-house-district-at-large.html,https://www.nytimes.com/interactive/2020/11/03/us/elections/results-north-dakota.html,https://www.nytimes.com/interactive/2020/11/03/us/elections/ap-polls-north-dakota.html,house,general,2020-11-03,FALSE,U.S. House At-Large,U.S. House,H,solid-rep,1,At-Large,ND,north-dakota,North Dakota,N.D.,horizontal,"",FALSE,TRUE,winner,AP,FALSE,"",355223,128116,4,unknown,First polls close at 8 p.m. Eastern time.,First polls close in,Most polls have closed.,2020-11-04T01:00:00.000Z,8 p.m.,416,416,100% reporting,100%,99,355223,edison,>98%,>98% reported,edison,republican,FALSE,2020-11-18T17:18:13Z,TRUE,41.45537,147259,R+41,Armstrong +41,republican,"","",6,-1,1604455500497
38059,Morton,16329,0,18,18,Other,100,16329,>98%,>98% reported,edison,10,unknown,7220,12382,3375,572,0,0,0,2020-11-17T03:06:25Z,55.15953,R+55,Armstrong +55,republican,ND-G-H-1-2020-11-03,nd-house-general-district-001-2020-11-03,https://www.nytimes.com/interactive/2020/11/03/us/elections/results-north-dakota-house-district-at-large.html,https://www.nytimes.com/interactive/2020/11/03/us/elections/results-north-dakota.html,https://www.nytimes.com/interactive/2020/11/03/us/elections/ap-polls-north-dakota.html,house,general,2020-11-03,FALSE,U.S. House At-Large,U.S. House,H,solid-rep,1,At-Large,ND,north-dakota,North Dakota,N.D.,horizontal,"",FALSE,TRUE,winner,AP,FALSE,"",355223,128116,4,unknown,First polls close at 8 p.m. Eastern time.,First polls close in,Most polls have closed.,2020-11-04T01:00:00.000Z,8 p.m.,416,416,100% reporting,100%,99,355223,edison,>98%,>98% reported,edison,republican,FALSE,2020-11-18T17:18:13Z,TRUE,41.45537,147259,R+41,Armstrong +41,republican,"","",6,-1,1604455500497
38061,Mountrail,4095,0,9,9,Merged into voters' home precincts and released with cumulative results,100,4095,>98%,>98% reported,edison,10,unknown,1784,2819,1154,122,0,0,0,2020-11-17T03:06:31Z,40.65934,R+41,Armstrong +41,republican,ND-G-H-1-2020-11-03,nd-house-general-district-001-2020-11-03,https://www.nytimes.com/interactive/2020/11/03/us/elections/results-north-dakota-house-district-at-large.html,https://www.nytimes.com/interactive/2020/11/03/us/elections/results-north-dakota.html,https://www.nytimes.com/interactive/2020/11/03/us/elections/ap-polls-north-dakota.html,house,general,2020-11-03,FALSE,U.S. House At-Large,U.S. House,H,solid-rep,1,At-Large,ND,north-dakota,North Dakota,N.D.,horizontal,"",FALSE,TRUE,winner,AP,FALSE,"",355223,128116,4,unknown,First polls close at 8 p.m. Eastern time.,First polls close in,Most polls have closed.,2020-11-04T01:00:00.000Z,8 p.m.,416,416,100% reporting,100%,99,355223,edison,>98%,>98% reported,edison,republican,FALSE,2020-11-18T17:18:13Z,TRUE,41.45537,147259,R+41,Armstrong +41,republican,"","",6,-1,1604455500497
38063,Nelson,1742,0,1,1,Merged into voters' home precincts and released with cumulative results,100,1742,>98%,>98% reported,edison,10,some,3279,1195,495,52,0,0,0,2020-11-16T15:48:10Z,40.1837,R+40,Armstrong +40,republican,ND-G-H-1-2020-11-03,nd-house-general-district-001-2020-11-03,https://www.nytimes.com/interactive/2020/11/03/us/elections/results-north-dakota-house-district-at-large.html,https://www.nytimes.com/interactive/2020/11/03/us/elections/results-north-dakota.html,https://www.nytimes.com/interactive/2020/11/03/us/elections/ap-polls-north-dakota.html,house,general,2020-11-03,FALSE,U.S. House At-Large,U.S. House,H,solid-rep,1,At-Large,ND,north-dakota,North Dakota,N.D.,horizontal,"",FALSE,TRUE,winner,AP,FALSE,"",355223,128116,4,unknown,First polls close at 8 p.m. Eastern time.,First polls close in,Most polls have closed.,2020-11-04T01:00:00.000Z,8 p.m.,416,416,100% reporting,100%,99,355223,edison,>98%,>98% reported,edison,republican,FALSE,2020-11-18T17:18:13Z,TRUE,41.45537,147259,R+41,Armstrong +41,republican,"","",6,-1,1604455500497
38065,Oliver,1055,0,7,7,Merged into voters' home precincts and released with cumulative results,100,1055,>98%,>98% reported,edison,10,unknown,795,906,121,28,0,0,0,2020-11-17T03:06:37Z,74.40758,R+74,Armstrong +74,republican,ND-G-H-1-2020-11-03,nd-house-general-district-001-2020-11-03,https://www.nytimes.com/interactive/2020/11/03/us/elections/results-north-dakota-house-district-at-large.html,https://www.nytimes.com/interactive/2020/11/03/us/elections/results-north-dakota.html,https://www.nytimes.com/interactive/2020/11/03/us/elections/ap-polls-north-dakota.html,house,general,2020-11-03,FALSE,U.S. House At-Large,U.S. House,H,solid-rep,1,At-Large,ND,north-dakota,North Dakota,N.D.,horizontal,"",FALSE,TRUE,winner,AP,FALSE,"",355223,128116,4,unknown,First polls close at 8 p.m. Eastern time.,First polls close in,Most polls have closed.,2020-11-04T01:00:00.000Z,8 p.m.,416,416,100% reporting,100%,99,355223,edison,>98%,>98% reported,edison,republican,FALSE,2020-11-18T17:18:13Z,TRUE,41.45537,147259,R+41,Armstrong +41,republican,"","",6,-1,1604455500497
38067,Pembina,3283,0,6,6,None,100,3283,>98%,>98% reported,edison,10,some,6545,2518,685,80,0,0,0,2020-11-17T03:08:27Z,55.83308,R+56,Armstrong +56,republican,ND-G-H-1-2020-11-03,nd-house-general-district-001-2020-11-03,https://www.nytimes.com/interactive/2020/11/03/us/elections/results-north-dakota-house-district-at-large.html,https://www.nytimes.com/interactive/2020/11/03/us/elections/results-north-dakota.html,https://www.nytimes.com/interactive/2020/11/03/us/elections/ap-polls-north-dakota.html,house,general,2020-11-03,FALSE,U.S. House At-Large,U.S. House,H,solid-rep,1,At-Large,ND,north-dakota,North Dakota,N.D.,horizontal,"",FALSE,TRUE,winner,AP,FALSE,"",355223,128116,4,unknown,First polls close at 8 p.m. Eastern time.,First polls close in,Most polls have closed.,2020-11-04T01:00:00.000Z,8 p.m.,416,416,100% reporting,100%,99,355223,edison,>98%,>98% reported,edison,republican,FALSE,2020-11-18T17:18:13Z,TRUE,41.45537,147259,R+41,Armstrong +41,republican,"","",6,-1,1604455500497
38069,Pierce,2090,0,8,8,Merged into voters' home precincts and released with cumulative results,100,2090,>98%,>98% reported,edison,10,some,1553,1633,411,46,0,0,0,2020-11-17T02:58:38Z,58.4689,R+58,Armstrong +58,republican,ND-G-H-1-2020-11-03,nd-house-general-district-001-2020-11-03,https://www.nytimes.com/interactive/2020/11/03/us/elections/results-north-dakota-house-district-at-large.html,https://www.nytimes.com/interactive/2020/11/03/us/elections/results-north-dakota.html,https://www.nytimes.com/interactive/2020/11/03/us/elections/ap-polls-north-dakota.html,house,general,2020-11-03,FALSE,U.S. House At-Large,U.S. House,H,solid-rep,1,At-Large,ND,north-dakota,North Dakota,N.D.,horizontal,"",FALSE,TRUE,winner,AP,FALSE,"",355223,128116,4,unknown,First polls close at 8 p.m. Eastern time.,First polls close in,Most polls have closed.,2020-11-04T01:00:00.000Z,8 p.m.,416,416,100% reporting,100%,99,355223,edison,>98%,>98% reported,edison,republican,FALSE,2020-11-18T17:18:13Z,TRUE,41.45537,147259,R+41,Armstrong +41,republican,"","",6,-1,1604455500497
38071,Ramsey,5319,0,4,4,Merged into voters' home precincts and released with cumulative results,100,5319,>98%,>98% reported,edison,10,some,7131,3786,1362,171,0,0,0,2020-11-17T03:08:41Z,45.57248,R+46,Armstrong +46,republican,ND-G-H-1-2020-11-03,nd-house-general-district-001-2020-11-03,https://www.nytimes.com/interactive/2020/11/03/us/elections/results-north-dakota-house-district-at-large.html,https://www.nytimes.com/interactive/2020/11/03/us/elections/results-north-dakota.html,https://www.nytimes.com/interactive/2020/11/03/us/elections/ap-polls-north-dakota.html,house,general,2020-11-03,FALSE,U.S. House At-Large,U.S. House,H,solid-rep,1,At-Large,ND,north-dakota,North Dakota,N.D.,horizontal,"",FALSE,TRUE,winner,AP,FALSE,"",355223,128116,4,unknown,First polls close at 8 p.m. Eastern time.,First polls close in,Most polls have closed.,2020-11-04T01:00:00.000Z,8 p.m.,416,416,100% reporting,100%,99,355223,edison,>98%,>98% reported,edison,republican,FALSE,2020-11-18T17:18:13Z,TRUE,41.45537,147259,R+41,Armstrong +41,republican,"","",6,-1,1604455500497
38073,Ransom,2412,0,4,4,Released as a separate subtotal at the end of tabulation,100,2412,>98%,>98% reported,edison,10,some,3752,1492,818,102,0,0,0,2020-11-16T15:48:13Z,27.94362,R+28,Armstrong +28,republican,ND-G-H-1-2020-11-03,nd-house-general-district-001-2020-11-03,https://www.nytimes.com/interactive/2020/11/03/us/elections/results-north-dakota-house-district-at-large.html,https://www.nytimes.com/interactive/2020/11/03/us/elections/results-north-dakota.html,https://www.nytimes.com/interactive/2020/11/03/us/elections/ap-polls-north-dakota.html,house,general,2020-11-03,FALSE,U.S. House At-Large,U.S. House,H,solid-rep,1,At-Large,ND,north-dakota,North Dakota,N.D.,horizontal,"",FALSE,TRUE,winner,AP,FALSE,"",355223,128116,4,unknown,First polls close at 8 p.m. Eastern time.,First polls close in,Most polls have closed.,2020-11-04T01:00:00.000Z,8 p.m.,416,416,100% reporting,100%,99,355223,edison,>98%,>98% reported,edison,republican,FALSE,2020-11-18T17:18:13Z,TRUE,41.45537,147259,R+41,Armstrong +41,republican,"","",6,-1,1604455500497
38075,Renville,1310,0,5,5,Merged into voters' home precincts and released with cumulative results,100,1310,>98%,>98% reported,edison,10,unknown,1788,1073,194,43,0,0,0,2020-11-17T03:06:45Z,67.09924,R+67,Armstrong +67,republican,ND-G-H-1-2020-11-03,nd-house-general-district-001-2020-11-03,https://www.nytimes.com/interactive/2020/11/03/us/elections/results-north-dakota-house-district-at-large.html,https://www.nytimes.com/interactive/2020/11/03/us/elections/results-north-dakota.html,https://www.nytimes.com/interactive/2020/11/03/us/elections/ap-polls-north-dakota.html,house,general,2020-11-03,FALSE,U.S. House At-Large,U.S. House,H,solid-rep,1,At-Large,ND,north-dakota,North Dakota,N.D.,horizontal,"",FALSE,TRUE,winner,AP,FALSE,"",355223,128116,4,unknown,First polls close at 8 p.m. Eastern time.,First polls close in,Most polls have closed.,2020-11-04T01:00:00.000Z,8 p.m.,416,416,100% reporting,100%,99,355223,edison,>98%,>98% reported,edison,republican,FALSE,2020-11-18T17:18:13Z,TRUE,41.45537,147259,R+41,Armstrong +41,republican,"","",6,-1,1604455500497
38077,Richland,7672,0,15,15,Merged into voters' home precincts and released with cumulative results,100,7672,>98%,>98% reported,edison,10,unknown,4052,5276,2124,272,0,0,0,2020-11-17T03:06:53Z,41.08446,R+41,Armstrong +41,republican,ND-G-H-1-2020-11-03,nd-house-general-district-001-2020-11-03,https://www.nytimes.com/interactive/2020/11/03/us/elections/results-north-dakota-house-district-at-large.html,https://www.nytimes.com/interactive/2020/11/03/us/elections/results-north-dakota.html,https://www.nytimes.com/interactive/2020/11/03/us/elections/ap-polls-north-dakota.html,house,general,2020-11-03,FALSE,U.S. House At-Large,U.S. House,H,solid-rep,1,At-Large,ND,north-dakota,North Dakota,N.D.,horizontal,"",FALSE,TRUE,winner,AP,FALSE,"",355223,128116,4,unknown,First polls close at 8 p.m. Eastern time.,First polls close in,Most polls have closed.,2020-11-04T01:00:00.000Z,8 p.m.,416,416,100% reporting,100%,99,355223,edison,>98%,>98% reported,edison,republican,FALSE,2020-11-18T17:18:13Z,TRUE,41.45537,147259,R+41,Armstrong +41,republican,"","",6,-1,1604455500497
38079,Rolette,3736,0,5,5,"As a precinct in the FIRST cumulative report, along with regular precincts",100,3736,>98%,>98% reported,edison,10,unknown,1383,1344,2292,100,0,0,0,2020-11-17T03:08:48Z,25.37473,D+25,Raknerud +25,democrat,ND-G-H-1-2020-11-03,nd-house-general-district-001-2020-11-03,https://www.nytimes.com/interactive/2020/11/03/us/elections/results-north-dakota-house-district-at-large.html,https://www.nytimes.com/interactive/2020/11/03/us/elections/results-north-dakota.html,https://www.nytimes.com/interactive/2020/11/03/us/elections/ap-polls-north-dakota.html,house,general,2020-11-03,FALSE,U.S. House At-Large,U.S. House,H,solid-rep,1,At-Large,ND,north-dakota,North Dakota,N.D.,horizontal,"",FALSE,TRUE,winner,AP,FALSE,"",355223,128116,4,unknown,First polls close at 8 p.m. Eastern time.,First polls close in,Most polls have closed.,2020-11-04T01:00:00.000Z,8 p.m.,416,416,100% reporting,100%,99,355223,edison,>98%,>98% reported,edison,republican,FALSE,2020-11-18T17:18:13Z,TRUE,41.45537,147259,R+41,Armstrong +41,republican,"","",6,-1,1604455500497
38081,Sargent,2027,0,5,5,Released separately AFTER election night,100,2027,>98%,>98% reported,edison,10,unknown,3540,1295,674,58,0,0,0,2020-11-17T02:59:29Z,30.63641,R+31,Armstrong +31,republican,ND-G-H-1-2020-11-03,nd-house-general-district-001-2020-11-03,https://www.nytimes.com/interactive/2020/11/03/us/elections/results-north-dakota-house-district-at-large.html,https://www.nytimes.com/interactive/2020/11/03/us/elections/results-north-dakota.html,https://www.nytimes.com/interactive/2020/11/03/us/elections/ap-polls-north-dakota.html,house,general,2020-11-03,FALSE,U.S. House At-Large,U.S. House,H,solid-rep,1,At-Large,ND,north-dakota,North Dakota,N.D.,horizontal,"",FALSE,TRUE,winner,AP,FALSE,"",355223,128116,4,unknown,First polls close at 8 p.m. Eastern time.,First polls close in,Most polls have closed.,2020-11-04T01:00:00.000Z,8 p.m.,416,416,100% reporting,100%,99,355223,edison,>98%,>98% reported,edison,republican,FALSE,2020-11-18T17:18:13Z,TRUE,41.45537,147259,R+41,Armstrong +41,republican,"","",6,-1,1604455500497
38083,Sheridan,804,0,1,1,Merged into voters' home precincts and released with cumulative results,100,804,>98%,>98% reported,edison,10,unknown,1353,684,103,17,0,0,0,2020-11-16T15:48:15Z,72.26368,R+72,Armstrong +72,republican,ND-G-H-1-2020-11-03,nd-house-general-district-001-2020-11-03,https://www.nytimes.com/interactive/2020/11/03/us/elections/results-north-dakota-house-district-at-large.html,https://www.nytimes.com/interactive/2020/11/03/us/elections/results-north-dakota.html,https://www.nytimes.com/interactive/2020/11/03/us/elections/ap-polls-north-dakota.html,house,general,2020-11-03,FALSE,U.S. House At-Large,U.S. House,H,solid-rep,1,At-Large,ND,north-dakota,North Dakota,N.D.,horizontal,"",FALSE,TRUE,winner,AP,FALSE,"",355223,128116,4,unknown,First polls close at 8 p.m. Eastern time.,First polls close in,Most polls have closed.,2020-11-04T01:00:00.000Z,8 p.m.,416,416,100% reporting,100%,99,355223,edison,>98%,>98% reported,edison,republican,FALSE,2020-11-18T17:18:13Z,TRUE,41.45537,147259,R+41,Armstrong +41,republican,"","",6,-1,1604455500497
38085,Sioux,1100,0,6,6,Merged into voters' home precincts and released with cumulative results,100,1100,>98%,>98% reported,edison,10,unknown,519,294,728,78,0,0,0,2020-11-17T03:07:00Z,39.45455,D+39,Raknerud +39,democrat,ND-G-H-1-2020-11-03,nd-house-general-district-001-2020-11-03,https://www.nytimes.com/interactive/2020/11/03/us/elections/results-north-dakota-house-district-at-large.html,https://www.nytimes.com/interactive/2020/11/03/us/elections/results-north-dakota.html,https://www.nytimes.com/interactive/2020/11/03/us/elections/ap-polls-north-dakota.html,house,general,2020-11-03,FALSE,U.S. House At-Large,U.S. House,H,solid-rep,1,At-Large,ND,north-dakota,North Dakota,N.D.,horizontal,"",FALSE,TRUE,winner,AP,FALSE,"",355223,128116,4,unknown,First polls close at 8 p.m. Eastern time.,First polls close in,Most polls have closed.,2020-11-04T01:00:00.000Z,8 p.m.,416,416,100% reporting,100%,99,355223,edison,>98%,>98% reported,edison,republican,FALSE,2020-11-18T17:18:13Z,TRUE,41.45537,147259,R+41,Armstrong +41,republican,"","",6,-1,1604455500497
38087,Slope,421,0,3,3,Merged into voters' home precincts and released with cumulative results,100,421,>98%,>98% reported,edison,10,unknown,336,377,37,7,0,0,0,2020-11-17T03:08:56Z,80.7601,R+81,Armstrong +81,republican,ND-G-H-1-2020-11-03,nd-house-general-district-001-2020-11-03,https://www.nytimes.com/interactive/2020/11/03/us/elections/results-north-dakota-house-district-at-large.html,https://www.nytimes.com/interactive/2020/11/03/us/elections/results-north-dakota.html,https://www.nytimes.com/interactive/2020/11/03/us/elections/ap-polls-north-dakota.html,house,general,2020-11-03,FALSE,U.S. House At-Large,U.S. House,H,solid-rep,1,At-Large,ND,north-dakota,North Dakota,N.D.,horizontal,"",FALSE,TRUE,winner,AP,FALSE,"",355223,128116,4,unknown,First polls close at 8 p.m. Eastern time.,First polls close in,Most polls have closed.,2020-11-04T01:00:00.000Z,8 p.m.,416,416,100% reporting,100%,99,355223,edison,>98%,>98% reported,edison,republican,FALSE,2020-11-18T17:18:13Z,TRUE,41.45537,147259,R+41,Armstrong +41,republican,"","",6,-1,1604455500497
38089,Stark,14839,6821,6,6,Merged into voters' home precincts and released with cumulative results,100,14839,>98%,>98% reported,edison,10,all,6735,12408,1981,450,5282,1366,173,2020-11-16T15:48:17Z,70.26754,R+70,Armstrong +70,republican,ND-G-H-1-2020-11-03,nd-house-general-district-001-2020-11-03,https://www.nytimes.com/interactive/2020/11/03/us/elections/results-north-dakota-house-district-at-large.html,https://www.nytimes.com/interactive/2020/11/03/us/elections/results-north-dakota.html,https://www.nytimes.com/interactive/2020/11/03/us/elections/ap-polls-north-dakota.html,house,general,2020-11-03,FALSE,U.S. House At-Large,U.S. House,H,solid-rep,1,At-Large,ND,north-dakota,North Dakota,N.D.,horizontal,"",FALSE,TRUE,winner,AP,FALSE,"",355223,128116,4,unknown,First polls close at 8 p.m. Eastern time.,First polls close in,Most polls have closed.,2020-11-04T01:00:00.000Z,8 p.m.,416,416,100% reporting,100%,99,355223,edison,>98%,>98% reported,edison,republican,FALSE,2020-11-18T17:18:13Z,TRUE,41.45537,147259,R+41,Armstrong +41,republican,"","",6,-1,1604455500497
38091,Steele,1073,0,5,5,None,100,1073,>98%,>98% reported,edison,10,unknown,1853,704,344,25,0,0,0,2020-11-16T15:48:17Z,33.55079,R+34,Armstrong +34,republican,ND-G-H-1-2020-11-03,nd-house-general-district-001-2020-11-03,https://www.nytimes.com/interactive/2020/11/03/us/elections/results-north-dakota-house-district-at-large.html,https://www.nytimes.com/interactive/2020/11/03/us/elections/results-north-dakota.html,https://www.nytimes.com/interactive/2020/11/03/us/elections/ap-polls-north-dakota.html,house,general,2020-11-03,FALSE,U.S. House At-Large,U.S. House,H,solid-rep,1,At-Large,ND,north-dakota,North Dakota,N.D.,horizontal,"",FALSE,TRUE,winner,AP,FALSE,"",355223,128116,4,unknown,First polls close at 8 p.m. Eastern time.,First polls close in,Most polls have closed.,2020-11-04T01:00:00.000Z,8 p.m.,416,416,100% reporting,100%,99,355223,edison,>98%,>98% reported,edison,republican,FALSE,2020-11-18T17:18:13Z,TRUE,41.45537,147259,R+41,Armstrong +41,republican,"","",6,-1,1604455500497
38093,Stutsman,9593,0,12,12,Merged into voters' home precincts and released with cumulative results,100,9593,>98%,>98% reported,edison,10,all,4200,7005,2252,336,0,0,0,2020-11-17T03:07:06Z,49.54654,R+50,Armstrong +50,republican,ND-G-H-1-2020-11-03,nd-house-general-district-001-2020-11-03,https://www.nytimes.com/interactive/2020/11/03/us/elections/results-north-dakota-house-district-at-large.html,https://www.nytimes.com/interactive/2020/11/03/us/elections/results-north-dakota.html,https://www.nytimes.com/interactive/2020/11/03/us/elections/ap-polls-north-dakota.html,house,general,2020-11-03,FALSE,U.S. House At-Large,U.S. House,H,solid-rep,1,At-Large,ND,north-dakota,North Dakota,N.D.,horizontal,"",FALSE,TRUE,winner,AP,FALSE,"",355223,128116,4,unknown,First polls close at 8 p.m. Eastern time.,First polls close in,Most polls have closed.,2020-11-04T01:00:00.000Z,8 p.m.,416,416,100% reporting,100%,99,355223,edison,>98%,>98% reported,edison,republican,FALSE,2020-11-18T17:18:13Z,TRUE,41.45537,147259,R+41,Armstrong +41,republican,"","",6,-1,1604455500497
38095,Towner,1155,0,3,3,Merged into voters' home precincts and released with cumulative results,100,1155,>98%,>98% reported,edison,10,unknown,1520,866,271,18,0,0,0,2020-11-16T15:48:18Z,51.51515,R+52,Armstrong +52,republican,ND-G-H-1-2020-11-03,nd-house-general-district-001-2020-11-03,https://www.nytimes.com/interactive/2020/11/03/us/elections/results-north-dakota-house-district-at-large.html,https://www.nytimes.com/interactive/2020/11/03/us/elections/results-north-dakota.html,https://www.nytimes.com/interactive/2020/11/03/us/elections/ap-polls-north-dakota.html,house,general,2020-11-03,FALSE,U.S. House At-Large,U.S. House,H,solid-rep,1,At-Large,ND,north-dakota,North Dakota,N.D.,horizontal,"",FALSE,TRUE,winner,AP,FALSE,"",355223,128116,4,unknown,First polls close at 8 p.m. Eastern time.,First polls close in,Most polls have closed.,2020-11-04T01:00:00.000Z,8 p.m.,416,416,100% reporting,100%,99,355223,edison,>98%,>98% reported,edison,republican,FALSE,2020-11-18T17:18:13Z,TRUE,41.45537,147259,R+41,Armstrong +41,republican,"","",6,-1,1604455500497
38097,Traill,4095,0,12,12,Merged into voters' home precincts and released with cumulative results,100,4095,>98%,>98% reported,edison,10,some,4857,2709,1275,111,0,0,0,2020-11-17T03:07:12Z,35.01832,R+35,Armstrong +35,republican,ND-G-H-1-2020-11-03,nd-house-general-district-001-2020-11-03,https://www.nytimes.com/interactive/2020/11/03/us/elections/results-north-dakota-house-district-at-large.html,https://www.nytimes.com/interactive/2020/11/03/us/elections/results-north-dakota.html,https://www.nytimes.com/interactive/2020/11/03/us/elections/ap-polls-north-dakota.html,house,general,2020-11-03,FALSE,U.S. House At-Large,U.S. House,H,solid-rep,1,At-Large,ND,north-dakota,North Dakota,N.D.,horizontal,"",FALSE,TRUE,winner,AP,FALSE,"",355223,128116,4,unknown,First polls close at 8 p.m. Eastern time.,First polls close in,Most polls have closed.,2020-11-04T01:00:00.000Z,8 p.m.,416,416,100% reporting,100%,99,355223,edison,>98%,>98% reported,edison,republican,FALSE,2020-11-18T17:18:13Z,TRUE,41.45537,147259,R+41,Armstrong +41,republican,"","",6,-1,1604455500497
38099,Walsh,4683,0,2,2,Merged into voters' home precincts and released with cumulative results,100,4683,>98%,>98% reported,edison,10,some,8924,3485,1082,116,0,0,0,2020-11-16T15:48:19Z,51.31326,R+51,Armstrong +51,republican,ND-G-H-1-2020-11-03,nd-house-general-district-001-2020-11-03,https://www.nytimes.com/interactive/2020/11/03/us/elections/results-north-dakota-house-district-at-large.html,https://www.nytimes.com/interactive/2020/11/03/us/elections/results-north-dakota.html,https://www.nytimes.com/interactive/2020/11/03/us/elections/ap-polls-north-dakota.html,house,general,2020-11-03,FALSE,U.S. House At-Large,U.S. House,H,solid-rep,1,At-Large,ND,north-dakota,North Dakota,N.D.,horizontal,"",FALSE,TRUE,winner,AP,FALSE,"",355223,128116,4,unknown,First polls close at 8 p.m. Eastern time.,First polls close in,Most polls have closed.,2020-11-04T01:00:00.000Z,8 p.m.,416,416,100% reporting,100%,99,355223,edison,>98%,>98% reported,edison,republican,FALSE,2020-11-18T17:18:13Z,TRUE,41.45537,147259,R+41,Armstrong +41,republican,"","",6,-1,1604455500497
38101,Ward,27857,0,18,18,Merged into voters' home precincts and released with cumulative results,100,27857,>98%,>98% reported,edison,10,some,15399,20465,6320,1072,0,0,0,2020-11-17T03:07:18Z,50.77718,R+51,Armstrong +51,republican,ND-G-H-1-2020-11-03,nd-house-general-district-001-2020-11-03,https://www.nytimes.com/interactive/2020/11/03/us/elections/results-north-dakota-house-district-at-large.html,https://www.nytimes.com/interactive/2020/11/03/us/elections/results-north-dakota.html,https://www.nytimes.com/interactive/2020/11/03/us/elections/ap-polls-north-dakota.html,house,general,2020-11-03,FALSE,U.S. House At-Large,U.S. House,H,solid-rep,1,At-Large,ND,north-dakota,North Dakota,N.D.,horizontal,"",FALSE,TRUE,winner,AP,FALSE,"",355223,128116,4,unknown,First polls close at 8 p.m. Eastern time.,First polls close in,Most polls have closed.,2020-11-04T01:00:00.000Z,8 p.m.,416,416,100% reporting,100%,99,355223,edison,>98%,>98% reported,edison,republican,FALSE,2020-11-18T17:18:13Z,TRUE,41.45537,147259,R+41,Armstrong +41,republican,"","",6,-1,1604455500497
38103,Wells,2351,0,6,6,Merged into voters' home precincts and released with cumulative results,100,2351,>98%,>98% reported,edison,10,some,1575,1910,386,55,0,0,0,2020-11-17T03:07:23Z,64.82348,R+65,Armstrong +65,republican,ND-G-H-1-2020-11-03,nd-house-general-district-001-2020-11-03,https://www.nytimes.com/interactive/2020/11/03/us/elections/results-north-dakota-house-district-at-large.html,https://www.nytimes.com/interactive/2020/11/03/us/elections/results-north-dakota.html,https://www.nytimes.com/interactive/2020/11/03/us/elections/ap-polls-north-dakota.html,house,general,2020-11-03,FALSE,U.S. House At-Large,U.S. House,H,solid-rep,1,At-Large,ND,north-dakota,North Dakota,N.D.,horizontal,"",FALSE,TRUE,winner,AP,FALSE,"",355223,128116,4,unknown,First polls close at 8 p.m. Eastern time.,First polls close in,Most polls have closed.,2020-11-04T01:00:00.000Z,8 p.m.,416,416,100% reporting,100%,99,355223,edison,>98%,>98% reported,edison,republican,FALSE,2020-11-18T17:18:13Z,TRUE,41.45537,147259,R+41,Armstrong +41,republican,"","",6,-1,1604455500497
38105,Williams,13888,0,15,15,Merged into voters' home precincts and released with cumulative results,100,13888,>98%,>98% reported,edison,10,some,8895,11534,1862,492,0,0,0,2020-11-17T03:09:04Z,69.64286,R+70,Armstrong +70,republican,ND-G-H-1-2020-11-03,nd-house-general-district-001-2020-11-03,https://www.nytimes.com/interactive/2020/11/03/us/elections/results-north-dakota-house-district-at-large.html,https://www.nytimes.com/interactive/2020/11/03/us/elections/results-north-dakota.html,https://www.nytimes.com/interactive/2020/11/03/us/elections/ap-polls-north-dakota.html,house,general,2020-11-03,FALSE,U.S. House At-Large,U.S. House,H,solid-rep,1,At-Large,ND,north-dakota,North Dakota,N.D.,horizontal,"",FALSE,TRUE,winner,AP,FALSE,"",355223,128116,4,unknown,First polls close at 8 p.m. Eastern time.,First polls close in,Most polls have closed.,2020-11-04T01:00:00.000Z,8 p.m.,416,416,100% reporting,100%,99,355223,edison,>98%,>98% reported,edison,republican,FALSE,2020-11-18T17:18:13Z,TRUE,41.45537,147259,R+41,Armstrong +41,republican,"","",6,-1,1604455500497
