fips,name,votes,absentee_votes,reporting,precincts,absentee_method,eevp,tot_exp_vote,eevp_value,eevp_display,eevp_source,turnout_stage,absentee_count_progress,absentee_max_ballots,results_fortenberryj,results_bolzk,results_graced,results_absentee_fortenberryj,results_absentee_bolzk,results_absentee_graced,last_updated,leader_margin_value,leader_margin_display,leader_margin_name_display,leader_party_id,race_id_race,race_slug_race,url_race,state_page_url_race,ap_polls_page_race,race_type_race,election_type_race,election_date_race,runoff_race,race_name_race,office_race,officeid_race,race_rating_race,seat_race,seat_name_race,state_id_race,state_slug_race,state_name_race,state_nyt_abbrev_race,state_shape_race,party_id_race,uncontested_race,report_race,result_race,result_source_race,gain_race,lost_seat_race,votes_race,absentee_votes_race,absentee_counties_race,absentee_count_progress_race,poll_display_race,poll_countdown_display_race,poll_waiting_display_race,poll_time_race,poll_time_short_race,precincts_reporting_race,precincts_total_race,reporting_display_race,reporting_value_race,eevp_race,tot_exp_vote_race,eevp_source_race,eevp_value_race,eevp_display_race,county_data_source_race,incumbent_party_race,no_forecast_race,last_updated_race,has_incumbent_race,leader_margin_value_race,leader_margin_votes_race,leader_margin_display_race,leader_margin_name_display_race,leader_party_id_race,expectations_text_race,expectations_text_short_race,absentee_ballot_deadline_race,absentee_postmark_deadline_race,winner_called_timestamp_race
31021,Burt,3655,0,3,3,Released as a precinct as first report of the night,92,3957,92%,92% reported,edison,2,unknown,925,2657,893,105,0,0,0,2020-11-16T15:47:57Z,48.26265,R+48,Fortenberry +48,republican,NE-G-H-1-2020-11-03,ne-house-general-district-001-2020-11-03,https://www.nytimes.com/interactive/2020/11/03/us/elections/results-nebraska-house-district-1.html,https://www.nytimes.com/interactive/2020/11/03/us/elections/results-nebraska.html,https://www.nytimes.com/interactive/2020/11/03/us/elections/ap-polls-nebraska.html,house,general,2020-11-03,FALSE,U.S. House District 1,U.S. House,H,solid-rep,1,District 1,NE,nebraska,Nebraska,Neb.,horizontal,"",FALSE,TRUE,winner,AP,FALSE,"",316208,95263,4,unknown,Polls close at 9 p.m. Eastern time.,Polls close in,Polls have closed.,2020-11-04T02:00:00.000Z,9 p.m.,459,463,99% reporting,99%,99,310000,edison,>98%,>98% reported,edison,republican,FALSE,2020-11-18T17:18:11Z,TRUE,21.76289,68816,R+22,Fortenberry +22,republican,"","",0,0,1604468265239
31023,Butler,4436,0,12,12,Released as a precinct as first report of the night,100,4397,>98%,>98% reported,edison,2,unknown,1013,3568,780,88,0,0,0,2020-11-16T15:47:58Z,62.84941,R+63,Fortenberry +63,republican,NE-G-H-1-2020-11-03,ne-house-general-district-001-2020-11-03,https://www.nytimes.com/interactive/2020/11/03/us/elections/results-nebraska-house-district-1.html,https://www.nytimes.com/interactive/2020/11/03/us/elections/results-nebraska.html,https://www.nytimes.com/interactive/2020/11/03/us/elections/ap-polls-nebraska.html,house,general,2020-11-03,FALSE,U.S. House District 1,U.S. House,H,solid-rep,1,District 1,NE,nebraska,Nebraska,Neb.,horizontal,"",FALSE,TRUE,winner,AP,FALSE,"",316208,95263,4,unknown,Polls close at 9 p.m. Eastern time.,Polls close in,Polls have closed.,2020-11-04T02:00:00.000Z,9 p.m.,459,463,99% reporting,99%,99,310000,edison,>98%,>98% reported,edison,republican,FALSE,2020-11-18T17:18:11Z,TRUE,21.76289,68816,R+22,Fortenberry +22,republican,"","",0,0,1604468265239
31025,Cass,14968,5781,30,30,Released as a separate subtotal as first report of the night,100,13787,>98%,>98% reported,edison,6,some,4685,10350,4145,473,3270,2355,156,2020-11-16T15:47:59Z,41.4551,R+41,Fortenberry +41,republican,NE-G-H-1-2020-11-03,ne-house-general-district-001-2020-11-03,https://www.nytimes.com/interactive/2020/11/03/us/elections/results-nebraska-house-district-1.html,https://www.nytimes.com/interactive/2020/11/03/us/elections/results-nebraska.html,https://www.nytimes.com/interactive/2020/11/03/us/elections/ap-polls-nebraska.html,house,general,2020-11-03,FALSE,U.S. House District 1,U.S. House,H,solid-rep,1,District 1,NE,nebraska,Nebraska,Neb.,horizontal,"",FALSE,TRUE,winner,AP,FALSE,"",316208,95263,4,unknown,Polls close at 9 p.m. Eastern time.,Polls close in,Polls have closed.,2020-11-04T02:00:00.000Z,9 p.m.,459,463,99% reporting,99%,99,310000,edison,>98%,>98% reported,edison,republican,FALSE,2020-11-18T17:18:11Z,TRUE,21.76289,68816,R+22,Fortenberry +22,republican,"","",0,0,1604468265239
31037,Colfax,3656,1487,6,6,"Released as first report, then NOT included in cumulative results",100,3555,>98%,>98% reported,edison,2,some,1195,2720,856,80,968,483,36,2020-11-16T15:47:59Z,50.98468,R+51,Fortenberry +51,republican,NE-G-H-1-2020-11-03,ne-house-general-district-001-2020-11-03,https://www.nytimes.com/interactive/2020/11/03/us/elections/results-nebraska-house-district-1.html,https://www.nytimes.com/interactive/2020/11/03/us/elections/results-nebraska.html,https://www.nytimes.com/interactive/2020/11/03/us/elections/ap-polls-nebraska.html,house,general,2020-11-03,FALSE,U.S. House District 1,U.S. House,H,solid-rep,1,District 1,NE,nebraska,Nebraska,Neb.,horizontal,"",FALSE,TRUE,winner,AP,FALSE,"",316208,95263,4,unknown,Polls close at 9 p.m. Eastern time.,Polls close in,Polls have closed.,2020-11-04T02:00:00.000Z,9 p.m.,459,463,99% reporting,99%,99,310000,edison,>98%,>98% reported,edison,republican,FALSE,2020-11-18T17:18:11Z,TRUE,21.76289,68816,R+22,Fortenberry +22,republican,"","",0,0,1604468265239
31039,Cuming,4400,0,8,8,None,98,4507,98%,98% reported,edison,2,unknown,1174,3606,706,88,0,0,0,2020-11-16T15:48:00Z,65.90909,R+66,Fortenberry +66,republican,NE-G-H-1-2020-11-03,ne-house-general-district-001-2020-11-03,https://www.nytimes.com/interactive/2020/11/03/us/elections/results-nebraska-house-district-1.html,https://www.nytimes.com/interactive/2020/11/03/us/elections/results-nebraska.html,https://www.nytimes.com/interactive/2020/11/03/us/elections/ap-polls-nebraska.html,house,general,2020-11-03,FALSE,U.S. House District 1,U.S. House,H,solid-rep,1,District 1,NE,nebraska,Nebraska,Neb.,horizontal,"",FALSE,TRUE,winner,AP,FALSE,"",316208,95263,4,unknown,Polls close at 9 p.m. Eastern time.,Polls close in,Polls have closed.,2020-11-04T02:00:00.000Z,9 p.m.,459,463,99% reporting,99%,99,310000,edison,>98%,>98% reported,edison,republican,FALSE,2020-11-18T17:18:11Z,TRUE,21.76289,68816,R+22,Fortenberry +22,republican,"","",0,0,1604468265239
31051,Dixon,118,0,1,1,Other,100,101,>98%,>98% reported,edison,2,unknown,3510,83,31,4,0,0,0,2020-11-16T15:48:01Z,44.0678,R+44,Fortenberry +44,republican,NE-G-H-1-2020-11-03,ne-house-general-district-001-2020-11-03,https://www.nytimes.com/interactive/2020/11/03/us/elections/results-nebraska-house-district-1.html,https://www.nytimes.com/interactive/2020/11/03/us/elections/results-nebraska.html,https://www.nytimes.com/interactive/2020/11/03/us/elections/ap-polls-nebraska.html,house,general,2020-11-03,FALSE,U.S. House District 1,U.S. House,H,solid-rep,1,District 1,NE,nebraska,Nebraska,Neb.,horizontal,"",FALSE,TRUE,winner,AP,FALSE,"",316208,95263,4,unknown,Polls close at 9 p.m. Eastern time.,Polls close in,Polls have closed.,2020-11-04T02:00:00.000Z,9 p.m.,459,463,99% reporting,99%,99,310000,edison,>98%,>98% reported,edison,republican,FALSE,2020-11-18T17:18:11Z,TRUE,21.76289,68816,R+22,Fortenberry +22,republican,"","",0,0,1604468265239
31053,Dodge,16599,0,33,34,"As a precinct in the FIRST cumulative report, along with regular precincts",97,17095,97%,97% reported,edison,4,unknown,4152,11530,4565,504,0,0,0,2020-11-16T15:48:01Z,41.96036,R+42,Fortenberry +42,republican,NE-G-H-1-2020-11-03,ne-house-general-district-001-2020-11-03,https://www.nytimes.com/interactive/2020/11/03/us/elections/results-nebraska-house-district-1.html,https://www.nytimes.com/interactive/2020/11/03/us/elections/results-nebraska.html,https://www.nytimes.com/interactive/2020/11/03/us/elections/ap-polls-nebraska.html,house,general,2020-11-03,FALSE,U.S. House District 1,U.S. House,H,solid-rep,1,District 1,NE,nebraska,Nebraska,Neb.,horizontal,"",FALSE,TRUE,winner,AP,FALSE,"",316208,95263,4,unknown,Polls close at 9 p.m. Eastern time.,Polls close in,Polls have closed.,2020-11-04T02:00:00.000Z,9 p.m.,459,463,99% reporting,99%,99,310000,edison,>98%,>98% reported,edison,republican,FALSE,2020-11-18T17:18:11Z,TRUE,21.76289,68816,R+22,Fortenberry +22,republican,"","",0,0,1604468265239
31109,Lancaster,155889,84188,199,199,Released as a precinct at the end of tabulation,100,148477,>98%,>98% reported,edison,2,some,53608,75474,76220,4195,31390,50984,1814,2020-11-16T15:48:02Z,0.47855,D+0.48,Bolz +0.48,democrat,NE-G-H-1-2020-11-03,ne-house-general-district-001-2020-11-03,https://www.nytimes.com/interactive/2020/11/03/us/elections/results-nebraska-house-district-1.html,https://www.nytimes.com/interactive/2020/11/03/us/elections/results-nebraska.html,https://www.nytimes.com/interactive/2020/11/03/us/elections/ap-polls-nebraska.html,house,general,2020-11-03,FALSE,U.S. House District 1,U.S. House,H,solid-rep,1,District 1,NE,nebraska,Nebraska,Neb.,horizontal,"",FALSE,TRUE,winner,AP,FALSE,"",316208,95263,4,unknown,Polls close at 9 p.m. Eastern time.,Polls close in,Polls have closed.,2020-11-04T02:00:00.000Z,9 p.m.,459,463,99% reporting,99%,99,310000,edison,>98%,>98% reported,edison,republican,FALSE,2020-11-18T17:18:11Z,TRUE,21.76289,68816,R+22,Fortenberry +22,republican,"","",0,0,1604468265239
31119,Madison,15251,0,22,23,Released as a precinct as first report of the night,96,15830,96%,96% reported,edison,2,unknown,4174,11842,3005,404,0,0,0,2020-11-16T15:48:03Z,57.94374,R+58,Fortenberry +58,republican,NE-G-H-1-2020-11-03,ne-house-general-district-001-2020-11-03,https://www.nytimes.com/interactive/2020/11/03/us/elections/results-nebraska-house-district-1.html,https://www.nytimes.com/interactive/2020/11/03/us/elections/results-nebraska.html,https://www.nytimes.com/interactive/2020/11/03/us/elections/ap-polls-nebraska.html,house,general,2020-11-03,FALSE,U.S. House District 1,U.S. House,H,solid-rep,1,District 1,NE,nebraska,Nebraska,Neb.,horizontal,"",FALSE,TRUE,winner,AP,FALSE,"",316208,95263,4,unknown,Polls close at 9 p.m. Eastern time.,Polls close in,Polls have closed.,2020-11-04T02:00:00.000Z,9 p.m.,459,463,99% reporting,99%,99,310000,edison,>98%,>98% reported,edison,republican,FALSE,2020-11-18T17:18:11Z,TRUE,21.76289,68816,R+22,Fortenberry +22,republican,"","",0,0,1604468265239
31131,Otoe,8226,3807,14,14,Released as a precinct as first report of the night,100,8181,>98%,>98% reported,edison,6,all,2920,5744,2287,195,2258,1474,75,2020-11-16T15:48:03Z,42.02529,R+42,Fortenberry +42,republican,NE-G-H-1-2020-11-03,ne-house-general-district-001-2020-11-03,https://www.nytimes.com/interactive/2020/11/03/us/elections/results-nebraska-house-district-1.html,https://www.nytimes.com/interactive/2020/11/03/us/elections/results-nebraska.html,https://www.nytimes.com/interactive/2020/11/03/us/elections/ap-polls-nebraska.html,house,general,2020-11-03,FALSE,U.S. House District 1,U.S. House,H,solid-rep,1,District 1,NE,nebraska,Nebraska,Neb.,horizontal,"",FALSE,TRUE,winner,AP,FALSE,"",316208,95263,4,unknown,Polls close at 9 p.m. Eastern time.,Polls close in,Polls have closed.,2020-11-04T02:00:00.000Z,9 p.m.,459,463,99% reporting,99%,99,310000,edison,>98%,>98% reported,edison,republican,FALSE,2020-11-18T17:18:11Z,TRUE,21.76289,68816,R+22,Fortenberry +22,republican,"","",0,0,1604468265239
31141,Platte,15027,0,30,32,Released as a precinct as first report of the night,95,15895,95%,95% reported,edison,2,unknown,5291,11934,2760,333,0,0,0,2020-11-17T14:08:42Z,61.05011,R+61,Fortenberry +61,republican,NE-G-H-1-2020-11-03,ne-house-general-district-001-2020-11-03,https://www.nytimes.com/interactive/2020/11/03/us/elections/results-nebraska-house-district-1.html,https://www.nytimes.com/interactive/2020/11/03/us/elections/results-nebraska.html,https://www.nytimes.com/interactive/2020/11/03/us/elections/ap-polls-nebraska.html,house,general,2020-11-03,FALSE,U.S. House District 1,U.S. House,H,solid-rep,1,District 1,NE,nebraska,Nebraska,Neb.,horizontal,"",FALSE,TRUE,winner,AP,FALSE,"",316208,95263,4,unknown,Polls close at 9 p.m. Eastern time.,Polls close in,Polls have closed.,2020-11-04T02:00:00.000Z,9 p.m.,459,463,99% reporting,99%,99,310000,edison,>98%,>98% reported,edison,republican,FALSE,2020-11-18T17:18:11Z,TRUE,21.76289,68816,R+22,Fortenberry +22,republican,"","",0,0,1604468265239
31143,Polk,2844,0,6,6,Merged into voters' home precincts and released with cumulative results,100,2855,>98%,>98% reported,edison,2,unknown,954,2292,490,62,0,0,0,2020-11-16T15:48:09Z,63.36146,R+63,Fortenberry +63,republican,NE-G-H-1-2020-11-03,ne-house-general-district-001-2020-11-03,https://www.nytimes.com/interactive/2020/11/03/us/elections/results-nebraska-house-district-1.html,https://www.nytimes.com/interactive/2020/11/03/us/elections/results-nebraska.html,https://www.nytimes.com/interactive/2020/11/03/us/elections/ap-polls-nebraska.html,house,general,2020-11-03,FALSE,U.S. House District 1,U.S. House,H,solid-rep,1,District 1,NE,nebraska,Nebraska,Neb.,horizontal,"",FALSE,TRUE,winner,AP,FALSE,"",316208,95263,4,unknown,Polls close at 9 p.m. Eastern time.,Polls close in,Polls have closed.,2020-11-04T02:00:00.000Z,9 p.m.,459,463,99% reporting,99%,99,310000,edison,>98%,>98% reported,edison,republican,FALSE,2020-11-18T17:18:11Z,TRUE,21.76289,68816,R+22,Fortenberry +22,republican,"","",0,0,1604468265239
31153,Sarpy,31866,0,19,19,Merged into voters' home precincts and released with cumulative results,99,32079,>98%,>98% reported,edison,2,unknown,41779,17742,12885,1239,0,0,0,2020-11-16T15:48:04Z,15.24195,R+15,Fortenberry +15,republican,NE-G-H-1-2020-11-03,ne-house-general-district-001-2020-11-03,https://www.nytimes.com/interactive/2020/11/03/us/elections/results-nebraska-house-district-1.html,https://www.nytimes.com/interactive/2020/11/03/us/elections/results-nebraska.html,https://www.nytimes.com/interactive/2020/11/03/us/elections/ap-polls-nebraska.html,house,general,2020-11-03,FALSE,U.S. House District 1,U.S. House,H,solid-rep,1,District 1,NE,nebraska,Nebraska,Neb.,horizontal,"",FALSE,TRUE,winner,AP,FALSE,"",316208,95263,4,unknown,Polls close at 9 p.m. Eastern time.,Polls close in,Polls have closed.,2020-11-04T02:00:00.000Z,9 p.m.,459,463,99% reporting,99%,99,310000,edison,>98%,>98% reported,edison,republican,FALSE,2020-11-18T17:18:11Z,TRUE,21.76289,68816,R+22,Fortenberry +22,republican,"","",0,0,1604468265239
31155,Saunders,12584,0,19,19,"As a precinct in the FIRST cumulative report, along with regular precincts",100,11973,>98%,>98% reported,edison,2,unknown,3181,9262,2950,372,0,0,0,2020-11-16T15:48:04Z,50.15893,R+50,Fortenberry +50,republican,NE-G-H-1-2020-11-03,ne-house-general-district-001-2020-11-03,https://www.nytimes.com/interactive/2020/11/03/us/elections/results-nebraska-house-district-1.html,https://www.nytimes.com/interactive/2020/11/03/us/elections/results-nebraska.html,https://www.nytimes.com/interactive/2020/11/03/us/elections/ap-polls-nebraska.html,house,general,2020-11-03,FALSE,U.S. House District 1,U.S. House,H,solid-rep,1,District 1,NE,nebraska,Nebraska,Neb.,horizontal,"",FALSE,TRUE,winner,AP,FALSE,"",316208,95263,4,unknown,Polls close at 9 p.m. Eastern time.,Polls close in,Polls have closed.,2020-11-04T02:00:00.000Z,9 p.m.,459,463,99% reporting,99%,99,310000,edison,>98%,>98% reported,edison,republican,FALSE,2020-11-18T17:18:11Z,TRUE,21.76289,68816,R+22,Fortenberry +22,republican,"","",0,0,1604468265239
31159,Seward,9094,0,16,16,Released as a precinct as first report of the night,100,8680,>98%,>98% reported,edison,2,unknown,2013,6627,2218,249,0,0,0,2020-11-16T15:48:05Z,48.48252,R+48,Fortenberry +48,republican,NE-G-H-1-2020-11-03,ne-house-general-district-001-2020-11-03,https://www.nytimes.com/interactive/2020/11/03/us/elections/results-nebraska-house-district-1.html,https://www.nytimes.com/interactive/2020/11/03/us/elections/results-nebraska.html,https://www.nytimes.com/interactive/2020/11/03/us/elections/ap-polls-nebraska.html,house,general,2020-11-03,FALSE,U.S. House District 1,U.S. House,H,solid-rep,1,District 1,NE,nebraska,Nebraska,Neb.,horizontal,"",FALSE,TRUE,winner,AP,FALSE,"",316208,95263,4,unknown,Polls close at 9 p.m. Eastern time.,Polls close in,Polls have closed.,2020-11-04T02:00:00.000Z,9 p.m.,459,463,99% reporting,99%,99,310000,edison,>98%,>98% reported,edison,republican,FALSE,2020-11-18T17:18:11Z,TRUE,21.76289,68816,R+22,Fortenberry +22,republican,"","",0,0,1604468265239
31167,Stanton,3098,0,16,16,Released as a precinct as first report of the night,100,3093,>98%,>98% reported,edison,2,unknown,1576,2525,490,83,0,0,0,2020-11-16T15:48:06Z,65.68754,R+66,Fortenberry +66,republican,NE-G-H-1-2020-11-03,ne-house-general-district-001-2020-11-03,https://www.nytimes.com/interactive/2020/11/03/us/elections/results-nebraska-house-district-1.html,https://www.nytimes.com/interactive/2020/11/03/us/elections/results-nebraska.html,https://www.nytimes.com/interactive/2020/11/03/us/elections/ap-polls-nebraska.html,house,general,2020-11-03,FALSE,U.S. House District 1,U.S. House,H,solid-rep,1,District 1,NE,nebraska,Nebraska,Neb.,horizontal,"",FALSE,TRUE,winner,AP,FALSE,"",316208,95263,4,unknown,Polls close at 9 p.m. Eastern time.,Polls close in,Polls have closed.,2020-11-04T02:00:00.000Z,9 p.m.,459,463,99% reporting,99%,99,310000,edison,>98%,>98% reported,edison,republican,FALSE,2020-11-18T17:18:11Z,TRUE,21.76289,68816,R+22,Fortenberry +22,republican,"","",0,0,1604468265239
31173,Thurston,2252,0,9,9,"As a precinct in the FIRST cumulative report, along with regular precincts",97,2315,97%,97% reported,edison,2,unknown,363,1254,953,45,0,0,0,2020-11-16T15:48:07Z,13.3659,R+13,Fortenberry +13,republican,NE-G-H-1-2020-11-03,ne-house-general-district-001-2020-11-03,https://www.nytimes.com/interactive/2020/11/03/us/elections/results-nebraska-house-district-1.html,https://www.nytimes.com/interactive/2020/11/03/us/elections/results-nebraska.html,https://www.nytimes.com/interactive/2020/11/03/us/elections/ap-polls-nebraska.html,house,general,2020-11-03,FALSE,U.S. House District 1,U.S. House,H,solid-rep,1,District 1,NE,nebraska,Nebraska,Neb.,horizontal,"",FALSE,TRUE,winner,AP,FALSE,"",316208,95263,4,unknown,Polls close at 9 p.m. Eastern time.,Polls close in,Polls have closed.,2020-11-04T02:00:00.000Z,9 p.m.,459,463,99% reporting,99%,99,310000,edison,>98%,>98% reported,edison,republican,FALSE,2020-11-18T17:18:11Z,TRUE,21.76289,68816,R+22,Fortenberry +22,republican,"","",0,0,1604468265239
31177,Washington,12245,0,16,16,Released as a precinct as first report of the night,100,11936,>98%,>98% reported,edison,2,unknown,4096,8869,3029,347,0,0,0,2020-11-16T15:48:07Z,47.69294,R+48,Fortenberry +48,republican,NE-G-H-1-2020-11-03,ne-house-general-district-001-2020-11-03,https://www.nytimes.com/interactive/2020/11/03/us/elections/results-nebraska-house-district-1.html,https://www.nytimes.com/interactive/2020/11/03/us/elections/results-nebraska.html,https://www.nytimes.com/interactive/2020/11/03/us/elections/ap-polls-nebraska.html,house,general,2020-11-03,FALSE,U.S. House District 1,U.S. House,H,solid-rep,1,District 1,NE,nebraska,Nebraska,Neb.,horizontal,"",FALSE,TRUE,winner,AP,FALSE,"",316208,95263,4,unknown,Polls close at 9 p.m. Eastern time.,Polls close in,Polls have closed.,2020-11-04T02:00:00.000Z,9 p.m.,459,463,99% reporting,99%,99,310000,edison,>98%,>98% reported,edison,republican,FALSE,2020-11-18T17:18:11Z,TRUE,21.76289,68816,R+22,Fortenberry +22,republican,"","",0,0,1604468265239
