fips,name,votes,absentee_votes,reporting,precincts,absentee_method,eevp,tot_exp_vote,eevp_value,eevp_display,eevp_source,turnout_stage,absentee_count_progress,absentee_max_ballots,results_van_drewj,results_kennedya,results_harveyj,results_ehrnstromj,results_absentee_van_drewj,results_absentee_kennedya,results_absentee_harveyj,results_absentee_ehrnstromj,last_updated,leader_margin_value,leader_margin_display,leader_margin_name_display,leader_party_id,race_id_race,race_slug_race,url_race,state_page_url_race,ap_polls_page_race,race_type_race,election_type_race,election_date_race,runoff_race,race_name_race,office_race,officeid_race,nyt_race_description_race,race_rating_race,nyt_key_race_race,seat_race,seat_name_race,state_id_race,state_slug_race,state_name_race,state_nyt_abbrev_race,state_shape_race,state_aspect_ratio_race,party_id_race,uncontested_race,report_race,result_race,result_source_race,gain_race,lost_seat_race,votes_race,absentee_votes_race,absentee_counties_race,absentee_count_progress_race,poll_display_race,poll_countdown_display_race,poll_waiting_display_race,poll_time_race,poll_time_short_race,precincts_reporting_race,precincts_total_race,reporting_display_race,reporting_value_race,eevp_race,tot_exp_vote_race,eevp_source_race,eevp_value_race,eevp_display_race,county_data_source_race,incumbent_party_race,no_forecast_race,last_updated_race,has_incumbent_race,leader_margin_value_race,leader_margin_votes_race,leader_margin_display_race,leader_margin_name_display_race,leader_party_id_race,expectations_text_race,expectations_text_short_race,absentee_ballot_deadline_race,absentee_postmark_deadline_race,winner_called_timestamp_race
34001,Atlantic,136100,112158,151,151,Released separately AFTER election night,100,136058,>98%,>98% reported,edison,2,some,14118,64969,69106,1277,748,52943,57679,1001,535,2020-11-17T20:14:36Z,3.03968,D+3,Kennedy +3,democrat,NJ-G-H-2-2020-11-03,nj-house-general-district-002-2020-11-03,https://www.nytimes.com/interactive/2020/11/03/us/elections/results-new-jersey-house-district-2.html,https://www.nytimes.com/interactive/2020/11/03/us/elections/results-new-jersey.html,https://www.nytimes.com/interactive/2020/11/03/us/elections/ap-polls-new-jersey.html,house,general,2020-11-03,FALSE,U.S. House District 2,U.S. House,H,"Jeff Van Drew, a Republican, is fighting to hold on to a seat that he won as a Democrat in 2018. Mr. Van Drew switched parties in 2019, saying he could not support the impeachment of President Trump and now faces Amy Kennedy, a Democrat and former schoolteacher who is married to former Representative Patrick Kennedy of Rhode Island.",tossup,TRUE,2,District 2,NJ,new-jersey,New Jersey,N.J.,vertical,0.7,"",FALSE,TRUE,winner,AP,FALSE,"",347720,246675,6,unknown,Polls close at 8 p.m. Eastern time.,Polls close in,Polls have closed.,2020-11-04T01:00:00.000Z,8 p.m.,493,529,93% reporting,93%,93,373000,edison,93%,93% reported,edison,republican,FALSE,2020-11-18T17:17:52Z,TRUE,5.52542,19213,R+6,Van Drew +6,republican,"","",7,0,1604682704590
34005,Burlington,1196,800,2,2,Merged into voters' home precincts and released with cumulative results,94,1268,94%,94% reported,edison,2,some,31397,806,365,10,15,507,277,7,9,2020-11-16T15:47:52Z,36.87291,R+37,Van Drew +37,republican,NJ-G-H-2-2020-11-03,nj-house-general-district-002-2020-11-03,https://www.nytimes.com/interactive/2020/11/03/us/elections/results-new-jersey-house-district-2.html,https://www.nytimes.com/interactive/2020/11/03/us/elections/results-new-jersey.html,https://www.nytimes.com/interactive/2020/11/03/us/elections/ap-polls-new-jersey.html,house,general,2020-11-03,FALSE,U.S. House District 2,U.S. House,H,"Jeff Van Drew, a Republican, is fighting to hold on to a seat that he won as a Democrat in 2018. Mr. Van Drew switched parties in 2019, saying he could not support the impeachment of President Trump and now faces Amy Kennedy, a Democrat and former schoolteacher who is married to former Representative Patrick Kennedy of Rhode Island.",tossup,TRUE,2,District 2,NJ,new-jersey,New Jersey,N.J.,vertical,0.7,"",FALSE,TRUE,winner,AP,FALSE,"",347720,246675,6,unknown,Polls close at 8 p.m. Eastern time.,Polls close in,Polls have closed.,2020-11-04T01:00:00.000Z,8 p.m.,493,529,93% reporting,93%,93,373000,edison,93%,93% reported,edison,republican,FALSE,2020-11-18T17:17:52Z,TRUE,5.52542,19213,R+6,Van Drew +6,republican,"","",7,0,1604682704590
34007,Camden,5841,0,8,8,Released separately AFTER election night,97,5993,97%,97% reported,edison,2,unknown,59568,3301,2449,31,60,0,0,0,0,2020-11-16T15:47:53Z,14.58654,R+15,Van Drew +15,republican,NJ-G-H-2-2020-11-03,nj-house-general-district-002-2020-11-03,https://www.nytimes.com/interactive/2020/11/03/us/elections/results-new-jersey-house-district-2.html,https://www.nytimes.com/interactive/2020/11/03/us/elections/results-new-jersey.html,https://www.nytimes.com/interactive/2020/11/03/us/elections/ap-polls-new-jersey.html,house,general,2020-11-03,FALSE,U.S. House District 2,U.S. House,H,"Jeff Van Drew, a Republican, is fighting to hold on to a seat that he won as a Democrat in 2018. Mr. Van Drew switched parties in 2019, saying he could not support the impeachment of President Trump and now faces Amy Kennedy, a Democrat and former schoolteacher who is married to former Representative Patrick Kennedy of Rhode Island.",tossup,TRUE,2,District 2,NJ,new-jersey,New Jersey,N.J.,vertical,0.7,"",FALSE,TRUE,winner,AP,FALSE,"",347720,246675,6,unknown,Polls close at 8 p.m. Eastern time.,Polls close in,Polls have closed.,2020-11-04T01:00:00.000Z,8 p.m.,493,529,93% reporting,93%,93,373000,edison,93%,93% reported,edison,republican,FALSE,2020-11-18T17:17:52Z,TRUE,5.52542,19213,R+6,Van Drew +6,republican,"","",7,0,1604682704590
34009,Cape May,56291,48883,126,127,Merged into voters' home precincts and released with cumulative results,100,56518,>98%,>98% reported,edison,4,some,9231,34198,21547,213,333,29110,19369,165,239,2020-11-16T15:47:54Z,22.47429,R+22,Van Drew +22,republican,NJ-G-H-2-2020-11-03,nj-house-general-district-002-2020-11-03,https://www.nytimes.com/interactive/2020/11/03/us/elections/results-new-jersey-house-district-2.html,https://www.nytimes.com/interactive/2020/11/03/us/elections/results-new-jersey.html,https://www.nytimes.com/interactive/2020/11/03/us/elections/ap-polls-new-jersey.html,house,general,2020-11-03,FALSE,U.S. House District 2,U.S. House,H,"Jeff Van Drew, a Republican, is fighting to hold on to a seat that he won as a Democrat in 2018. Mr. Van Drew switched parties in 2019, saying he could not support the impeachment of President Trump and now faces Amy Kennedy, a Democrat and former schoolteacher who is married to former Representative Patrick Kennedy of Rhode Island.",tossup,TRUE,2,District 2,NJ,new-jersey,New Jersey,N.J.,vertical,0.7,"",FALSE,TRUE,winner,AP,FALSE,"",347720,246675,6,unknown,Polls close at 8 p.m. Eastern time.,Polls close in,Polls have closed.,2020-11-04T01:00:00.000Z,8 p.m.,493,529,93% reporting,93%,93,373000,edison,93%,93% reported,edison,republican,FALSE,2020-11-18T17:17:52Z,TRUE,5.52542,19213,R+6,Van Drew +6,republican,"","",7,0,1604682704590
34011,Cumberland,39556,17310,58,92,Released separately AFTER election night,63,62645,63%,63% reported,edison,4,some,5984,17384,21431,547,194,6280,10728,231,71,2020-11-16T15:47:56Z,10.23106,D+10,Kennedy +10,democrat,NJ-G-H-2-2020-11-03,nj-house-general-district-002-2020-11-03,https://www.nytimes.com/interactive/2020/11/03/us/elections/results-new-jersey-house-district-2.html,https://www.nytimes.com/interactive/2020/11/03/us/elections/results-new-jersey.html,https://www.nytimes.com/interactive/2020/11/03/us/elections/ap-polls-new-jersey.html,house,general,2020-11-03,FALSE,U.S. House District 2,U.S. House,H,"Jeff Van Drew, a Republican, is fighting to hold on to a seat that he won as a Democrat in 2018. Mr. Van Drew switched parties in 2019, saying he could not support the impeachment of President Trump and now faces Amy Kennedy, a Democrat and former schoolteacher who is married to former Representative Patrick Kennedy of Rhode Island.",tossup,TRUE,2,District 2,NJ,new-jersey,New Jersey,N.J.,vertical,0.7,"",FALSE,TRUE,winner,AP,FALSE,"",347720,246675,6,unknown,Polls close at 8 p.m. Eastern time.,Polls close in,Polls have closed.,2020-11-04T01:00:00.000Z,8 p.m.,493,529,93% reporting,93%,93,373000,edison,93%,93% reported,edison,republican,FALSE,2020-11-18T17:17:52Z,TRUE,5.52542,19213,R+6,Van Drew +6,republican,"","",7,0,1604682704590
34015,Gloucester,51986,46146,71,71,Merged into voters' home precincts and released with cumulative results,100,50078,>98%,>98% reported,edison,4,some,25391,27104,23678,623,581,23470,21738,463,475,2020-11-16T15:47:57Z,6.59024,R+7,Van Drew +7,republican,NJ-G-H-2-2020-11-03,nj-house-general-district-002-2020-11-03,https://www.nytimes.com/interactive/2020/11/03/us/elections/results-new-jersey-house-district-2.html,https://www.nytimes.com/interactive/2020/11/03/us/elections/results-new-jersey.html,https://www.nytimes.com/interactive/2020/11/03/us/elections/ap-polls-new-jersey.html,house,general,2020-11-03,FALSE,U.S. House District 2,U.S. House,H,"Jeff Van Drew, a Republican, is fighting to hold on to a seat that he won as a Democrat in 2018. Mr. Van Drew switched parties in 2019, saying he could not support the impeachment of President Trump and now faces Amy Kennedy, a Democrat and former schoolteacher who is married to former Representative Patrick Kennedy of Rhode Island.",tossup,TRUE,2,District 2,NJ,new-jersey,New Jersey,N.J.,vertical,0.7,"",FALSE,TRUE,winner,AP,FALSE,"",347720,246675,6,unknown,Polls close at 8 p.m. Eastern time.,Polls close in,Polls have closed.,2020-11-04T01:00:00.000Z,8 p.m.,493,529,93% reporting,93%,93,373000,edison,93%,93% reported,edison,republican,FALSE,2020-11-18T17:17:52Z,TRUE,5.52542,19213,R+6,Van Drew +6,republican,"","",7,0,1604682704590
34029,Ocean,24677,21378,32,33,Released as a separate subtotal as first report of the night,96,25593,96%,96% reported,edison,4,unknown,43803,15159,9119,180,219,12887,8198,128,165,2020-11-16T15:47:59Z,24.47623,R+24,Van Drew +24,republican,NJ-G-H-2-2020-11-03,nj-house-general-district-002-2020-11-03,https://www.nytimes.com/interactive/2020/11/03/us/elections/results-new-jersey-house-district-2.html,https://www.nytimes.com/interactive/2020/11/03/us/elections/results-new-jersey.html,https://www.nytimes.com/interactive/2020/11/03/us/elections/ap-polls-new-jersey.html,house,general,2020-11-03,FALSE,U.S. House District 2,U.S. House,H,"Jeff Van Drew, a Republican, is fighting to hold on to a seat that he won as a Democrat in 2018. Mr. Van Drew switched parties in 2019, saying he could not support the impeachment of President Trump and now faces Amy Kennedy, a Democrat and former schoolteacher who is married to former Representative Patrick Kennedy of Rhode Island.",tossup,TRUE,2,District 2,NJ,new-jersey,New Jersey,N.J.,vertical,0.7,"",FALSE,TRUE,winner,AP,FALSE,"",347720,246675,6,unknown,Polls close at 8 p.m. Eastern time.,Polls close in,Polls have closed.,2020-11-04T01:00:00.000Z,8 p.m.,493,529,93% reporting,93%,93,373000,edison,93%,93% reported,edison,republican,FALSE,2020-11-18T17:17:52Z,TRUE,5.52542,19213,R+6,Van Drew +6,republican,"","",7,0,1604682704590
34033,Salem,32073,0,45,45,None,94,34213,94%,94% reported,edison,4,some,3501,17512,13525,538,498,0,0,0,0,2020-11-16T15:47:58Z,12.43102,R+12,Van Drew +12,republican,NJ-G-H-2-2020-11-03,nj-house-general-district-002-2020-11-03,https://www.nytimes.com/interactive/2020/11/03/us/elections/results-new-jersey-house-district-2.html,https://www.nytimes.com/interactive/2020/11/03/us/elections/results-new-jersey.html,https://www.nytimes.com/interactive/2020/11/03/us/elections/ap-polls-new-jersey.html,house,general,2020-11-03,FALSE,U.S. House District 2,U.S. House,H,"Jeff Van Drew, a Republican, is fighting to hold on to a seat that he won as a Democrat in 2018. Mr. Van Drew switched parties in 2019, saying he could not support the impeachment of President Trump and now faces Amy Kennedy, a Democrat and former schoolteacher who is married to former Representative Patrick Kennedy of Rhode Island.",tossup,TRUE,2,District 2,NJ,new-jersey,New Jersey,N.J.,vertical,0.7,"",FALSE,TRUE,winner,AP,FALSE,"",347720,246675,6,unknown,Polls close at 8 p.m. Eastern time.,Polls close in,Polls have closed.,2020-11-04T01:00:00.000Z,8 p.m.,493,529,93% reporting,93%,93,373000,edison,93%,93% reported,edison,republican,FALSE,2020-11-18T17:17:52Z,TRUE,5.52542,19213,R+6,Van Drew +6,republican,"","",7,0,1604682704590
