fips,name,votes,absentee_votes,reporting,precincts,absentee_method,eevp,tot_exp_vote,eevp_value,eevp_display,eevp_source,turnout_stage,absentee_count_progress,absentee_max_ballots,results_horsfords,results_marchantj,results_estebanj,results_rubinsonb,results_absentee_horsfords,results_absentee_marchantj,results_absentee_estebanj,results_absentee_rubinsonb,last_updated,leader_margin_value,leader_margin_display,leader_margin_name_display,leader_party_id,race_id_race,race_slug_race,url_race,state_page_url_race,ap_polls_page_race,edison_exit_polls_page_race,race_type_race,election_type_race,election_date_race,runoff_race,race_name_race,office_race,officeid_race,race_rating_race,seat_race,seat_name_race,state_id_race,state_slug_race,state_name_race,state_nyt_abbrev_race,state_shape_race,state_aspect_ratio_race,party_id_race,uncontested_race,report_race,result_race,result_source_race,gain_race,lost_seat_race,votes_race,absentee_votes_race,absentee_count_progress_race,poll_display_race,poll_countdown_display_race,poll_waiting_display_race,poll_time_race,poll_time_short_race,precincts_reporting_race,precincts_total_race,reporting_display_race,reporting_value_race,eevp_race,tot_exp_vote_race,eevp_source_race,eevp_value_race,eevp_display_race,county_data_source_race,incumbent_party_race,no_forecast_race,last_updated_race,has_incumbent_race,leader_margin_value_race,leader_margin_votes_race,leader_margin_display_race,leader_margin_name_display_race,leader_party_id_race,expectations_text_race,expectations_text_short_race,absentee_ballot_deadline_race,absentee_postmark_deadline_race,winner_called_timestamp_race
32003,Clark,293164,0,355,367,Merged into voters' home precincts and released with cumulative results,97,303445,97%,97% reported,edison,2,some,781405,157946,124803,7294,3121,0,0,0,0,2020-11-16T15:48:22Z,11.30528,D+11,Horsford +11,democrat,NV-G-H-4-2020-11-03,nv-house-general-district-004-2020-11-03,https://www.nytimes.com/interactive/2020/11/03/us/elections/results-nevada-house-district-4.html,https://www.nytimes.com/interactive/2020/11/03/us/elections/results-nevada.html,https://www.nytimes.com/interactive/2020/11/03/us/elections/ap-polls-nevada.html,https://www.nytimes.com/interactive/2020/11/03/us/elections/exit-polls-nevada.html,house,general,2020-11-03,FALSE,U.S. House District 4,U.S. House,H,likely-dem,4,District 4,NV,nevada,Nevada,Nev.,vertical,1.1,"",FALSE,TRUE,winner,AP,FALSE,"",332469,0,unknown,Polls closed at 10 p.m. Eastern time.,Polls close in,Polls have closed.,2020-11-04T03:00:00.000Z,10 p.m.,424,440,96% reporting,96%,97,344000,edison,97%,97% reported,edison,democrat,FALSE,2020-11-18T17:19:03Z,TRUE,4.86451,16173,D+5,Horsford +5,democrat,"","",7,0,1604692222853
32009,Esmeralda,472,0,4,5,Merged into voters' home precincts and released with cumulative results,90,525,90%,90% reported,edison,4,some,206,70,389,6,7,0,0,0,0,2020-11-16T15:48:22Z,67.58475,R+68,Marchant +68,republican,NV-G-H-4-2020-11-03,nv-house-general-district-004-2020-11-03,https://www.nytimes.com/interactive/2020/11/03/us/elections/results-nevada-house-district-4.html,https://www.nytimes.com/interactive/2020/11/03/us/elections/results-nevada.html,https://www.nytimes.com/interactive/2020/11/03/us/elections/ap-polls-nevada.html,https://www.nytimes.com/interactive/2020/11/03/us/elections/exit-polls-nevada.html,house,general,2020-11-03,FALSE,U.S. House District 4,U.S. House,H,likely-dem,4,District 4,NV,nevada,Nevada,Nev.,vertical,1.1,"",FALSE,TRUE,winner,AP,FALSE,"",332469,0,unknown,Polls closed at 10 p.m. Eastern time.,Polls close in,Polls have closed.,2020-11-04T03:00:00.000Z,10 p.m.,424,440,96% reporting,96%,97,344000,edison,97%,97% reported,edison,democrat,FALSE,2020-11-18T17:19:03Z,TRUE,4.86451,16173,D+5,Horsford +5,democrat,"","",7,0,1604692222853
32017,Lincoln,2378,0,5,6,Merged into voters' home precincts and released with cumulative results,90,2644,90%,90% reported,edison,4,some,1603,359,1968,25,26,0,0,0,0,2020-11-16T15:48:23Z,67.6619,R+68,Marchant +68,republican,NV-G-H-4-2020-11-03,nv-house-general-district-004-2020-11-03,https://www.nytimes.com/interactive/2020/11/03/us/elections/results-nevada-house-district-4.html,https://www.nytimes.com/interactive/2020/11/03/us/elections/results-nevada.html,https://www.nytimes.com/interactive/2020/11/03/us/elections/ap-polls-nevada.html,https://www.nytimes.com/interactive/2020/11/03/us/elections/exit-polls-nevada.html,house,general,2020-11-03,FALSE,U.S. House District 4,U.S. House,H,likely-dem,4,District 4,NV,nevada,Nevada,Nev.,vertical,1.1,"",FALSE,TRUE,winner,AP,FALSE,"",332469,0,unknown,Polls closed at 10 p.m. Eastern time.,Polls close in,Polls have closed.,2020-11-04T03:00:00.000Z,10 p.m.,424,440,96% reporting,96%,97,344000,edison,97%,97% reported,edison,democrat,FALSE,2020-11-18T17:19:03Z,TRUE,4.86451,16173,D+5,Horsford +5,democrat,"","",7,0,1604692222853
32019,Lyon,5099,0,7,7,Merged into voters' home precincts and released with cumulative results,96,5330,96%,96% reported,edison,4,some,20256,1150,3801,92,56,0,0,0,0,2020-11-16T15:48:23Z,51.99059,R+52,Marchant +52,republican,NV-G-H-4-2020-11-03,nv-house-general-district-004-2020-11-03,https://www.nytimes.com/interactive/2020/11/03/us/elections/results-nevada-house-district-4.html,https://www.nytimes.com/interactive/2020/11/03/us/elections/results-nevada.html,https://www.nytimes.com/interactive/2020/11/03/us/elections/ap-polls-nevada.html,https://www.nytimes.com/interactive/2020/11/03/us/elections/exit-polls-nevada.html,house,general,2020-11-03,FALSE,U.S. House District 4,U.S. House,H,likely-dem,4,District 4,NV,nevada,Nevada,Nev.,vertical,1.1,"",FALSE,TRUE,winner,AP,FALSE,"",332469,0,unknown,Polls closed at 10 p.m. Eastern time.,Polls close in,Polls have closed.,2020-11-04T03:00:00.000Z,10 p.m.,424,440,96% reporting,96%,97,344000,edison,97%,97% reported,edison,democrat,FALSE,2020-11-18T17:19:03Z,TRUE,4.86451,16173,D+5,Horsford +5,democrat,"","",7,0,1604692222853
32021,Mineral,2255,0,11,12,Merged into voters' home precincts and released with cumulative results,91,2476,91%,91% reported,edison,4,none,2413,815,1346,49,45,0,0,0,0,2020-11-16T15:48:24Z,23.54767,R+24,Marchant +24,republican,NV-G-H-4-2020-11-03,nv-house-general-district-004-2020-11-03,https://www.nytimes.com/interactive/2020/11/03/us/elections/results-nevada-house-district-4.html,https://www.nytimes.com/interactive/2020/11/03/us/elections/results-nevada.html,https://www.nytimes.com/interactive/2020/11/03/us/elections/ap-polls-nevada.html,https://www.nytimes.com/interactive/2020/11/03/us/elections/exit-polls-nevada.html,house,general,2020-11-03,FALSE,U.S. House District 4,U.S. House,H,likely-dem,4,District 4,NV,nevada,Nevada,Nev.,vertical,1.1,"",FALSE,TRUE,winner,AP,FALSE,"",332469,0,unknown,Polls closed at 10 p.m. Eastern time.,Polls close in,Polls have closed.,2020-11-04T03:00:00.000Z,10 p.m.,424,440,96% reporting,96%,97,344000,edison,97%,97% reported,edison,democrat,FALSE,2020-11-18T17:19:03Z,TRUE,4.86451,16173,D+5,Horsford +5,democrat,"","",7,0,1604692222853
32023,Nye,24841,0,33,33,Merged into voters' home precincts and released with cumulative results,100,24298,>98%,>98% reported,edison,4,unknown,18099,7245,16715,453,428,0,0,0,0,2020-11-16T15:48:24Z,38.12246,R+38,Marchant +38,republican,NV-G-H-4-2020-11-03,nv-house-general-district-004-2020-11-03,https://www.nytimes.com/interactive/2020/11/03/us/elections/results-nevada-house-district-4.html,https://www.nytimes.com/interactive/2020/11/03/us/elections/results-nevada.html,https://www.nytimes.com/interactive/2020/11/03/us/elections/ap-polls-nevada.html,https://www.nytimes.com/interactive/2020/11/03/us/elections/exit-polls-nevada.html,house,general,2020-11-03,FALSE,U.S. House District 4,U.S. House,H,likely-dem,4,District 4,NV,nevada,Nevada,Nev.,vertical,1.1,"",FALSE,TRUE,winner,AP,FALSE,"",332469,0,unknown,Polls closed at 10 p.m. Eastern time.,Polls close in,Polls have closed.,2020-11-04T03:00:00.000Z,10 p.m.,424,440,96% reporting,96%,97,344000,edison,97%,97% reported,edison,democrat,FALSE,2020-11-18T17:19:03Z,TRUE,4.86451,16173,D+5,Horsford +5,democrat,"","",7,0,1604692222853
32033,White Pine,4260,0,9,10,Merged into voters' home precincts and released with cumulative results,91,4679,91%,91% reported,edison,4,some,3720,872,3262,59,67,0,0,0,0,2020-11-16T15:48:25Z,56.10329,R+56,Marchant +56,republican,NV-G-H-4-2020-11-03,nv-house-general-district-004-2020-11-03,https://www.nytimes.com/interactive/2020/11/03/us/elections/results-nevada-house-district-4.html,https://www.nytimes.com/interactive/2020/11/03/us/elections/results-nevada.html,https://www.nytimes.com/interactive/2020/11/03/us/elections/ap-polls-nevada.html,https://www.nytimes.com/interactive/2020/11/03/us/elections/exit-polls-nevada.html,house,general,2020-11-03,FALSE,U.S. House District 4,U.S. House,H,likely-dem,4,District 4,NV,nevada,Nevada,Nev.,vertical,1.1,"",FALSE,TRUE,winner,AP,FALSE,"",332469,0,unknown,Polls closed at 10 p.m. Eastern time.,Polls close in,Polls have closed.,2020-11-04T03:00:00.000Z,10 p.m.,424,440,96% reporting,96%,97,344000,edison,97%,97% reported,edison,democrat,FALSE,2020-11-18T17:19:03Z,TRUE,4.86451,16173,D+5,Horsford +5,democrat,"","",7,0,1604692222853
