fips,name,votes,absentee_votes,reporting,precincts,absentee_method,eevp,tot_exp_vote,eevp_value,eevp_display,eevp_source,turnout_stage,absentee_count_progress,results_ocasio_corteza,results_cummingsj,results_caruso_cabreram,results_absentee_ocasio_corteza,results_absentee_cummingsj,results_absentee_caruso_cabreram,last_updated,leader_margin_value,leader_margin_display,leader_margin_name_display,leader_party_id,race_id_race,race_slug_race,url_race,state_page_url_race,ap_polls_page_race,edison_exit_polls_page_race,race_type_race,election_type_race,election_date_race,runoff_race,race_name_race,office_race,officeid_race,nyt_race_description_race,race_rating_race,nyt_key_race_race,seat_race,seat_name_race,state_id_race,state_slug_race,state_name_race,state_nyt_abbrev_race,state_shape_race,party_id_race,uncontested_race,report_race,result_race,result_source_race,gain_race,lost_seat_race,votes_race,absentee_votes_race,absentee_count_progress_race,poll_display_race,poll_countdown_display_race,poll_waiting_display_race,poll_time_race,poll_time_short_race,precincts_reporting_race,precincts_total_race,reporting_display_race,reporting_value_race,eevp_race,tot_exp_vote_race,eevp_source_race,eevp_value_race,eevp_display_race,county_data_source_race,incumbent_party_race,no_forecast_race,last_updated_race,has_incumbent_race,leader_margin_value_race,leader_margin_votes_race,leader_margin_display_race,leader_margin_name_display_race,leader_party_id_race,expectations_text_race,expectations_text_short_race,absentee_ballot_deadline_race,absentee_postmark_deadline_race,winner_called_timestamp_race
36005,Bronx,50544,0,111,167,Merged into voters' home precincts AFTER election night,66,76336,66%,66% reported,edison,2,unknown,32322,17877,345,0,0,0,2020-11-16T15:48:13Z,28.57906,D+29,Ocasio-Cortez +29,democrat,NY-G-H-14-2020-11-03,ny-house-general-district-014-2020-11-03,https://www.nytimes.com/interactive/2020/11/03/us/elections/results-new-york-house-district-14.html,https://www.nytimes.com/interactive/2020/11/03/us/elections/results-new-york.html,https://www.nytimes.com/interactive/2020/11/03/us/elections/ap-polls-new-york.html,https://www.nytimes.com/interactive/2020/11/03/us/elections/exit-polls-new-york.html,house,general,2020-11-03,FALSE,U.S. House District 14,U.S. House,H,"In 2018, Alexandria Ocasio-Cortez won this seat with nearly 80 percent of the vote. She is expected to cruise to re-election against the Republican challenger and former police officer, John Cummings.",solid-dem,TRUE,14,District 14,NY,new-york,New York,N.Y.,horizontal,"",FALSE,TRUE,winner,AP,FALSE,"",153374,0,unknown,Polls close at 9 p.m. Eastern time.,Polls close in,Polls have closed.,2020-11-04T02:00:00.000Z,9 p.m.,288,405,71% reporting,71%,71,215000,edison,71%,71% reported,edison,democrat,FALSE,2020-11-18T17:17:48Z,TRUE,38.19291,58578,D+38,Ocasio-Cortez +38,democrat,"Only unofficial results from in-person early and Election Day voting were released on election night. Mail ballots, which had until Nov. 10 to arrive if postmarked by Election Day, are still being counted. It took weeks to finish counting ballots during the state's June primary.",Only unofficial results from in-person early and Election Day voting were released on election night. Mail ballots are still being counted.,7,0,1604459326719
36081,Queens,102830,0,177,238,Merged into voters' home precincts AFTER election night,74,138080,74%,74% reported,edison,2,unknown,73133,29000,697,0,0,0,2020-11-16T15:48:13Z,42.91841,D+43,Ocasio-Cortez +43,democrat,NY-G-H-14-2020-11-03,ny-house-general-district-014-2020-11-03,https://www.nytimes.com/interactive/2020/11/03/us/elections/results-new-york-house-district-14.html,https://www.nytimes.com/interactive/2020/11/03/us/elections/results-new-york.html,https://www.nytimes.com/interactive/2020/11/03/us/elections/ap-polls-new-york.html,https://www.nytimes.com/interactive/2020/11/03/us/elections/exit-polls-new-york.html,house,general,2020-11-03,FALSE,U.S. House District 14,U.S. House,H,"In 2018, Alexandria Ocasio-Cortez won this seat with nearly 80 percent of the vote. She is expected to cruise to re-election against the Republican challenger and former police officer, John Cummings.",solid-dem,TRUE,14,District 14,NY,new-york,New York,N.Y.,horizontal,"",FALSE,TRUE,winner,AP,FALSE,"",153374,0,unknown,Polls close at 9 p.m. Eastern time.,Polls close in,Polls have closed.,2020-11-04T02:00:00.000Z,9 p.m.,288,405,71% reporting,71%,71,215000,edison,71%,71% reported,edison,democrat,FALSE,2020-11-18T17:17:48Z,TRUE,38.19291,58578,D+38,Ocasio-Cortez +38,democrat,"Only unofficial results from in-person early and Election Day voting were released on election night. Mail ballots, which had until Nov. 10 to arrive if postmarked by Election Day, are still being counted. It took weeks to finish counting ballots during the state's June primary.",Only unofficial results from in-person early and Election Day voting were released on election night. Mail ballots are still being counted.,7,0,1604459326719
