fips,name,votes,absentee_votes,reporting,precincts,absentee_method,eevp,tot_exp_vote,eevp_value,eevp_display,eevp_source,turnout_stage,absentee_count_progress,absentee_max_ballots,results_stiverss,results_newbyj,results_write_ins,results_absentee_stiverss,results_absentee_newbyj,results_absentee_write_ins,last_updated,leader_margin_value,leader_margin_display,leader_margin_name_display,leader_party_id,race_id_race,race_slug_race,url_race,state_page_url_race,ap_polls_page_race,edison_exit_polls_page_race,race_type_race,election_type_race,election_date_race,runoff_race,race_name_race,office_race,officeid_race,race_rating_race,seat_race,seat_name_race,state_id_race,state_slug_race,state_name_race,state_nyt_abbrev_race,state_shape_race,party_id_race,uncontested_race,report_race,result_race,result_source_race,gain_race,lost_seat_race,votes_race,absentee_votes_race,absentee_counties_race,absentee_count_progress_race,poll_display_race,poll_countdown_display_race,poll_waiting_display_race,poll_time_race,poll_time_short_race,precincts_reporting_race,precincts_total_race,reporting_display_race,reporting_value_race,eevp_race,tot_exp_vote_race,eevp_source_race,eevp_value_race,eevp_display_race,county_data_source_race,incumbent_party_race,no_forecast_race,last_updated_race,has_incumbent_race,leader_margin_value_race,leader_margin_votes_race,leader_margin_display_race,leader_margin_name_display_race,leader_party_id_race,expectations_text_race,expectations_text_short_race,absentee_ballot_deadline_race,absentee_postmark_deadline_race,winner_called_timestamp_race
39009,Athens,23334,14501,53,53,Merged into voters' home precincts and released with cumulative results,100,22265,>98%,>98% reported,edison,6,unknown,15184,9809,13512,13,4199,10293,9,2020-11-18T19:10:14Z,15.86955,D+16,Newby +16,democrat,OH-G-H-15-2020-11-03,oh-house-general-district-015-2020-11-03,https://www.nytimes.com/interactive/2020/11/03/us/elections/results-ohio-house-district-15.html,https://www.nytimes.com/interactive/2020/11/03/us/elections/results-ohio.html,https://www.nytimes.com/interactive/2020/11/03/us/elections/ap-polls-ohio.html,https://www.nytimes.com/interactive/2020/11/03/us/elections/exit-polls-ohio.html,house,general,2020-11-03,FALSE,U.S. House District 15,U.S. House,H,solid-rep,15,District 15,OH,ohio,Ohio,Ohio,horizontal,"",FALSE,TRUE,winner,AP,FALSE,"",380587,87826,5,unknown,Polls close at 7:30 p.m. Eastern time.,Polls close in,Polls have closed.,2020-11-04T00:30:00.000Z,7:30 p.m.,578,596,97% reporting,97%,94,406000,edison,94%,94% reported,edison,republican,FALSE,2020-11-18T22:32:27Z,TRUE,26.65672,101452,R+27,Stivers +27,republican,"Postmarked ballots have until Nov. 13 to arrive, but no additional results will be reported reported for at least a week and a half after the election. Counties may report their full official count after their vote canvass, due by Nov. 18, but full statewide results will not be available until final certification, due by Nov. 28. ","Postmarked ballots have until Nov. 13 to arrive, but no additional results will be reported for at least a week and a half after the election.",10,-1,1604455129967
39027,Clinton,20038,0,34,36,"As a subtotal in the FIRST cumulative report, along with regular precincts",100,17530,>98%,>98% reported,edison,2,unknown,8917,15876,4153,9,0,0,0,2020-11-18T22:12:41Z,58.50384,R+59,Stivers +59,republican,OH-G-H-15-2020-11-03,oh-house-general-district-015-2020-11-03,https://www.nytimes.com/interactive/2020/11/03/us/elections/results-ohio-house-district-15.html,https://www.nytimes.com/interactive/2020/11/03/us/elections/results-ohio.html,https://www.nytimes.com/interactive/2020/11/03/us/elections/ap-polls-ohio.html,https://www.nytimes.com/interactive/2020/11/03/us/elections/exit-polls-ohio.html,house,general,2020-11-03,FALSE,U.S. House District 15,U.S. House,H,solid-rep,15,District 15,OH,ohio,Ohio,Ohio,horizontal,"",FALSE,TRUE,winner,AP,FALSE,"",380587,87826,5,unknown,Polls close at 7:30 p.m. Eastern time.,Polls close in,Polls have closed.,2020-11-04T00:30:00.000Z,7:30 p.m.,578,596,97% reporting,97%,94,406000,edison,94%,94% reported,edison,republican,FALSE,2020-11-18T22:32:27Z,TRUE,26.65672,101452,R+27,Stivers +27,republican,"Postmarked ballots have until Nov. 13 to arrive, but no additional results will be reported reported for at least a week and a half after the election. Counties may report their full official count after their vote canvass, due by Nov. 18, but full statewide results will not be available until final certification, due by Nov. 28. ","Postmarked ballots have until Nov. 13 to arrive, but no additional results will be reported for at least a week and a half after the election.",10,-1,1604455129967
39045,Fairfield,79256,53246,103,107,Merged into voters' home precincts and released with cumulative results,96,82724,96%,96% reported,edison,2,all,43430,53916,25340,,33375,19871,,2020-11-16T15:47:57Z,36.05531,R+36,Stivers +36,republican,OH-G-H-15-2020-11-03,oh-house-general-district-015-2020-11-03,https://www.nytimes.com/interactive/2020/11/03/us/elections/results-ohio-house-district-15.html,https://www.nytimes.com/interactive/2020/11/03/us/elections/results-ohio.html,https://www.nytimes.com/interactive/2020/11/03/us/elections/ap-polls-ohio.html,https://www.nytimes.com/interactive/2020/11/03/us/elections/exit-polls-ohio.html,house,general,2020-11-03,FALSE,U.S. House District 15,U.S. House,H,solid-rep,15,District 15,OH,ohio,Ohio,Ohio,horizontal,"",FALSE,TRUE,winner,AP,FALSE,"",380587,87826,5,unknown,Polls close at 7:30 p.m. Eastern time.,Polls close in,Polls have closed.,2020-11-04T00:30:00.000Z,7:30 p.m.,578,596,97% reporting,97%,94,406000,edison,94%,94% reported,edison,republican,FALSE,2020-11-18T22:32:27Z,TRUE,26.65672,101452,R+27,Stivers +27,republican,"Postmarked ballots have until Nov. 13 to arrive, but no additional results will be reported reported for at least a week and a half after the election. Counties may report their full official count after their vote canvass, due by Nov. 18, but full statewide results will not be available until final certification, due by Nov. 28. ","Postmarked ballots have until Nov. 13 to arrive, but no additional results will be reported for at least a week and a half after the election.",10,-1,1604455129967
39047,Fayette,2209,1210,5,5,Released as a separate subtotal as first report of the night,100,2209,>98%,>98% reported,edison,6,all,5552,1901,307,1,996,213,1,2020-11-16T15:47:58Z,72.15935,R+72,Stivers +72,republican,OH-G-H-15-2020-11-03,oh-house-general-district-015-2020-11-03,https://www.nytimes.com/interactive/2020/11/03/us/elections/results-ohio-house-district-15.html,https://www.nytimes.com/interactive/2020/11/03/us/elections/results-ohio.html,https://www.nytimes.com/interactive/2020/11/03/us/elections/ap-polls-ohio.html,https://www.nytimes.com/interactive/2020/11/03/us/elections/exit-polls-ohio.html,house,general,2020-11-03,FALSE,U.S. House District 15,U.S. House,H,solid-rep,15,District 15,OH,ohio,Ohio,Ohio,horizontal,"",FALSE,TRUE,winner,AP,FALSE,"",380587,87826,5,unknown,Polls close at 7:30 p.m. Eastern time.,Polls close in,Polls have closed.,2020-11-04T00:30:00.000Z,7:30 p.m.,578,596,97% reporting,97%,94,406000,edison,94%,94% reported,edison,republican,FALSE,2020-11-18T22:32:27Z,TRUE,26.65672,101452,R+27,Stivers +27,republican,"Postmarked ballots have until Nov. 13 to arrive, but no additional results will be reported reported for at least a week and a half after the election. Counties may report their full official count after their vote canvass, due by Nov. 18, but full statewide results will not be available until final certification, due by Nov. 28. ","Postmarked ballots have until Nov. 13 to arrive, but no additional results will be reported for at least a week and a half after the election.",10,-1,1604455129967
39049,Franklin,153206,0,206,213,Released as a separate subtotal as first report of the night,97,158712,97%,97% reported,edison,4,unknown,374078,80384,72694,128,0,0,0,2020-11-18T18:51:55Z,5.01939,R+5,Stivers +5,republican,OH-G-H-15-2020-11-03,oh-house-general-district-015-2020-11-03,https://www.nytimes.com/interactive/2020/11/03/us/elections/results-ohio-house-district-15.html,https://www.nytimes.com/interactive/2020/11/03/us/elections/results-ohio.html,https://www.nytimes.com/interactive/2020/11/03/us/elections/ap-polls-ohio.html,https://www.nytimes.com/interactive/2020/11/03/us/elections/exit-polls-ohio.html,house,general,2020-11-03,FALSE,U.S. House District 15,U.S. House,H,solid-rep,15,District 15,OH,ohio,Ohio,Ohio,horizontal,"",FALSE,TRUE,winner,AP,FALSE,"",380587,87826,5,unknown,Polls close at 7:30 p.m. Eastern time.,Polls close in,Polls have closed.,2020-11-04T00:30:00.000Z,7:30 p.m.,578,596,97% reporting,97%,94,406000,edison,94%,94% reported,edison,republican,FALSE,2020-11-18T22:32:27Z,TRUE,26.65672,101452,R+27,Stivers +27,republican,"Postmarked ballots have until Nov. 13 to arrive, but no additional results will be reported reported for at least a week and a half after the election. Counties may report their full official count after their vote canvass, due by Nov. 18, but full statewide results will not be available until final certification, due by Nov. 28. ","Postmarked ballots have until Nov. 13 to arrive, but no additional results will be reported for at least a week and a half after the election.",10,-1,1604455129967
39073,Hocking,13367,9689,21,21,Released as a separate subtotal as first report of the night,92,14605,92%,92% reported,edison,2,unknown,7512,9914,3442,11,6811,2870,8,2020-11-16T15:47:59Z,48.41775,R+48,Stivers +48,republican,OH-G-H-15-2020-11-03,oh-house-general-district-015-2020-11-03,https://www.nytimes.com/interactive/2020/11/03/us/elections/results-ohio-house-district-15.html,https://www.nytimes.com/interactive/2020/11/03/us/elections/results-ohio.html,https://www.nytimes.com/interactive/2020/11/03/us/elections/ap-polls-ohio.html,https://www.nytimes.com/interactive/2020/11/03/us/elections/exit-polls-ohio.html,house,general,2020-11-03,FALSE,U.S. House District 15,U.S. House,H,solid-rep,15,District 15,OH,ohio,Ohio,Ohio,horizontal,"",FALSE,TRUE,winner,AP,FALSE,"",380587,87826,5,unknown,Polls close at 7:30 p.m. Eastern time.,Polls close in,Polls have closed.,2020-11-04T00:30:00.000Z,7:30 p.m.,578,596,97% reporting,97%,94,406000,edison,94%,94% reported,edison,republican,FALSE,2020-11-18T22:32:27Z,TRUE,26.65672,101452,R+27,Stivers +27,republican,"Postmarked ballots have until Nov. 13 to arrive, but no additional results will be reported reported for at least a week and a half after the election. Counties may report their full official count after their vote canvass, due by Nov. 18, but full statewide results will not be available until final certification, due by Nov. 28. ","Postmarked ballots have until Nov. 13 to arrive, but no additional results will be reported for at least a week and a half after the election.",10,-1,1604455129967
39097,Madison,18843,0,23,24,Merged into voters' home precincts and released with cumulative results,96,19614,96%,96% reported,edison,2,unknown,9619,14409,4434,,0,0,,2020-11-16T15:47:53Z,52.93743,R+53,Stivers +53,republican,OH-G-H-15-2020-11-03,oh-house-general-district-015-2020-11-03,https://www.nytimes.com/interactive/2020/11/03/us/elections/results-ohio-house-district-15.html,https://www.nytimes.com/interactive/2020/11/03/us/elections/results-ohio.html,https://www.nytimes.com/interactive/2020/11/03/us/elections/ap-polls-ohio.html,https://www.nytimes.com/interactive/2020/11/03/us/elections/exit-polls-ohio.html,house,general,2020-11-03,FALSE,U.S. House District 15,U.S. House,H,solid-rep,15,District 15,OH,ohio,Ohio,Ohio,horizontal,"",FALSE,TRUE,winner,AP,FALSE,"",380587,87826,5,unknown,Polls close at 7:30 p.m. Eastern time.,Polls close in,Polls have closed.,2020-11-04T00:30:00.000Z,7:30 p.m.,578,596,97% reporting,97%,94,406000,edison,94%,94% reported,edison,republican,FALSE,2020-11-18T22:32:27Z,TRUE,26.65672,101452,R+27,Stivers +27,republican,"Postmarked ballots have until Nov. 13 to arrive, but no additional results will be reported reported for at least a week and a half after the election. Counties may report their full official count after their vote canvass, due by Nov. 18, but full statewide results will not be available until final certification, due by Nov. 28. ","Postmarked ballots have until Nov. 13 to arrive, but no additional results will be reported for at least a week and a half after the election.",10,-1,1604455129967
39115,Morgan,6537,0,11,13,Merged into voters' home precincts and released with cumulative results,100,6062,>98%,>98% reported,edison,2,unknown,3651,5146,1381,10,0,0,0,2020-11-18T19:41:34Z,57.59523,R+58,Stivers +58,republican,OH-G-H-15-2020-11-03,oh-house-general-district-015-2020-11-03,https://www.nytimes.com/interactive/2020/11/03/us/elections/results-ohio-house-district-15.html,https://www.nytimes.com/interactive/2020/11/03/us/elections/results-ohio.html,https://www.nytimes.com/interactive/2020/11/03/us/elections/ap-polls-ohio.html,https://www.nytimes.com/interactive/2020/11/03/us/elections/exit-polls-ohio.html,house,general,2020-11-03,FALSE,U.S. House District 15,U.S. House,H,solid-rep,15,District 15,OH,ohio,Ohio,Ohio,horizontal,"",FALSE,TRUE,winner,AP,FALSE,"",380587,87826,5,unknown,Polls close at 7:30 p.m. Eastern time.,Polls close in,Polls have closed.,2020-11-04T00:30:00.000Z,7:30 p.m.,578,596,97% reporting,97%,94,406000,edison,94%,94% reported,edison,republican,FALSE,2020-11-18T22:32:27Z,TRUE,26.65672,101452,R+27,Stivers +27,republican,"Postmarked ballots have until Nov. 13 to arrive, but no additional results will be reported reported for at least a week and a half after the election. Counties may report their full official count after their vote canvass, due by Nov. 18, but full statewide results will not be available until final certification, due by Nov. 28. ","Postmarked ballots have until Nov. 13 to arrive, but no additional results will be reported for at least a week and a half after the election.",10,-1,1604455129967
39127,Perry,15709,9174,33,33,Merged into voters' home precincts and released with cumulative results,92,17076,92%,92% reported,edison,4,some,7278,12296,3409,4,6639,2531,4,2020-11-16T15:48:00Z,56.57267,R+57,Stivers +57,republican,OH-G-H-15-2020-11-03,oh-house-general-district-015-2020-11-03,https://www.nytimes.com/interactive/2020/11/03/us/elections/results-ohio-house-district-15.html,https://www.nytimes.com/interactive/2020/11/03/us/elections/results-ohio.html,https://www.nytimes.com/interactive/2020/11/03/us/elections/ap-polls-ohio.html,https://www.nytimes.com/interactive/2020/11/03/us/elections/exit-polls-ohio.html,house,general,2020-11-03,FALSE,U.S. House District 15,U.S. House,H,solid-rep,15,District 15,OH,ohio,Ohio,Ohio,horizontal,"",FALSE,TRUE,winner,AP,FALSE,"",380587,87826,5,unknown,Polls close at 7:30 p.m. Eastern time.,Polls close in,Polls have closed.,2020-11-04T00:30:00.000Z,7:30 p.m.,578,596,97% reporting,97%,94,406000,edison,94%,94% reported,edison,republican,FALSE,2020-11-18T22:32:27Z,TRUE,26.65672,101452,R+27,Stivers +27,republican,"Postmarked ballots have until Nov. 13 to arrive, but no additional results will be reported reported for at least a week and a half after the election. Counties may report their full official count after their vote canvass, due by Nov. 18, but full statewide results will not be available until final certification, due by Nov. 28. ","Postmarked ballots have until Nov. 13 to arrive, but no additional results will be reported for at least a week and a half after the election.",10,-1,1604455129967
39129,Pickaway,27748,0,42,42,Other,99,28107,>98%,>98% reported,edison,4,some,12064,21701,6035,12,0,0,0,2020-11-18T19:18:46Z,56.45812,R+56,Stivers +56,republican,OH-G-H-15-2020-11-03,oh-house-general-district-015-2020-11-03,https://www.nytimes.com/interactive/2020/11/03/us/elections/results-ohio-house-district-15.html,https://www.nytimes.com/interactive/2020/11/03/us/elections/results-ohio.html,https://www.nytimes.com/interactive/2020/11/03/us/elections/ap-polls-ohio.html,https://www.nytimes.com/interactive/2020/11/03/us/elections/exit-polls-ohio.html,house,general,2020-11-03,FALSE,U.S. House District 15,U.S. House,H,solid-rep,15,District 15,OH,ohio,Ohio,Ohio,horizontal,"",FALSE,TRUE,winner,AP,FALSE,"",380587,87826,5,unknown,Polls close at 7:30 p.m. Eastern time.,Polls close in,Polls have closed.,2020-11-04T00:30:00.000Z,7:30 p.m.,578,596,97% reporting,97%,94,406000,edison,94%,94% reported,edison,republican,FALSE,2020-11-18T22:32:27Z,TRUE,26.65672,101452,R+27,Stivers +27,republican,"Postmarked ballots have until Nov. 13 to arrive, but no additional results will be reported reported for at least a week and a half after the election. Counties may report their full official count after their vote canvass, due by Nov. 18, but full statewide results will not be available until final certification, due by Nov. 28. ","Postmarked ballots have until Nov. 13 to arrive, but no additional results will be reported for at least a week and a half after the election.",10,-1,1604455129967
39141,Ross,14779,0,27,29,Merged into voters' home precincts and released with cumulative results,100,12792,>98%,>98% reported,edison,4,unknown,17573,11220,3551,8,0,0,0,2020-11-18T22:32:26Z,51.8912,R+52,Stivers +52,republican,OH-G-H-15-2020-11-03,oh-house-general-district-015-2020-11-03,https://www.nytimes.com/interactive/2020/11/03/us/elections/results-ohio-house-district-15.html,https://www.nytimes.com/interactive/2020/11/03/us/elections/results-ohio.html,https://www.nytimes.com/interactive/2020/11/03/us/elections/ap-polls-ohio.html,https://www.nytimes.com/interactive/2020/11/03/us/elections/exit-polls-ohio.html,house,general,2020-11-03,FALSE,U.S. House District 15,U.S. House,H,solid-rep,15,District 15,OH,ohio,Ohio,Ohio,horizontal,"",FALSE,TRUE,winner,AP,FALSE,"",380587,87826,5,unknown,Polls close at 7:30 p.m. Eastern time.,Polls close in,Polls have closed.,2020-11-04T00:30:00.000Z,7:30 p.m.,578,596,97% reporting,97%,94,406000,edison,94%,94% reported,edison,republican,FALSE,2020-11-18T22:32:27Z,TRUE,26.65672,101452,R+27,Stivers +27,republican,"Postmarked ballots have until Nov. 13 to arrive, but no additional results will be reported reported for at least a week and a half after the election. Counties may report their full official count after their vote canvass, due by Nov. 18, but full statewide results will not be available until final certification, due by Nov. 28. ","Postmarked ballots have until Nov. 13 to arrive, but no additional results will be reported for at least a week and a half after the election.",10,-1,1604455129967
39163,Vinton,5561,0,20,20,Merged into voters' home precincts and released with cumulative results,100,5561,>98%,>98% reported,edison,6,all,3106,4348,1210,3,0,0,0,2020-11-16T15:48:01Z,56.4287,R+56,Stivers +56,republican,OH-G-H-15-2020-11-03,oh-house-general-district-015-2020-11-03,https://www.nytimes.com/interactive/2020/11/03/us/elections/results-ohio-house-district-15.html,https://www.nytimes.com/interactive/2020/11/03/us/elections/results-ohio.html,https://www.nytimes.com/interactive/2020/11/03/us/elections/ap-polls-ohio.html,https://www.nytimes.com/interactive/2020/11/03/us/elections/exit-polls-ohio.html,house,general,2020-11-03,FALSE,U.S. House District 15,U.S. House,H,solid-rep,15,District 15,OH,ohio,Ohio,Ohio,horizontal,"",FALSE,TRUE,winner,AP,FALSE,"",380587,87826,5,unknown,Polls close at 7:30 p.m. Eastern time.,Polls close in,Polls have closed.,2020-11-04T00:30:00.000Z,7:30 p.m.,578,596,97% reporting,97%,94,406000,edison,94%,94% reported,edison,republican,FALSE,2020-11-18T22:32:27Z,TRUE,26.65672,101452,R+27,Stivers +27,republican,"Postmarked ballots have until Nov. 13 to arrive, but no additional results will be reported reported for at least a week and a half after the election. Counties may report their full official count after their vote canvass, due by Nov. 18, but full statewide results will not be available until final certification, due by Nov. 28. ","Postmarked ballots have until Nov. 13 to arrive, but no additional results will be reported for at least a week and a half after the election.",10,-1,1604455129967
