fips,name,votes,absentee_votes,reporting,precincts,absentee_method,eevp,tot_exp_vote,eevp_value,eevp_display,eevp_source,turnout_stage,absentee_count_progress,absentee_max_ballots,results_lambc,results_parnells,results_absentee_lambc,results_absentee_parnells,last_updated,leader_margin_value,leader_margin_display,leader_margin_name_display,leader_party_id,race_id_race,race_slug_race,url_race,state_page_url_race,ap_polls_page_race,edison_exit_polls_page_race,race_type_race,election_type_race,election_date_race,runoff_race,race_name_race,office_race,officeid_race,race_rating_race,seat_race,seat_name_race,state_id_race,state_slug_race,state_name_race,state_nyt_abbrev_race,state_shape_race,party_id_race,uncontested_race,report_race,result_race,result_source_race,gain_race,lost_seat_race,votes_race,absentee_votes_race,absentee_counties_race,absentee_count_progress_race,poll_display_race,poll_countdown_display_race,poll_waiting_display_race,poll_time_race,poll_time_short_race,precincts_reporting_race,precincts_total_race,reporting_display_race,reporting_value_race,eevp_race,tot_exp_vote_race,eevp_source_race,eevp_value_race,eevp_display_race,county_data_source_race,incumbent_party_race,no_forecast_race,last_updated_race,has_incumbent_race,leader_margin_value_race,leader_margin_votes_race,leader_margin_display_race,leader_margin_name_display_race,leader_party_id_race,expectations_text_race,expectations_text_short_race,absentee_ballot_deadline_race,absentee_postmark_deadline_race,winner_called_timestamp_race
42003,Allegheny,327177,149826,570,585,Merged into voters' home precincts and released with cumulative results,97,335901,97%,97% reported,edison,4,unknown,44826,176779,150398,113851,35975,2020-11-18T16:30:50Z,8.06322,D+8,Lamb +8,democrat,PA-G-H-17-2020-11-03,pa-house-general-district-017-2020-11-03,https://www.nytimes.com/interactive/2020/11/03/us/elections/results-pennsylvania-house-district-17.html,https://www.nytimes.com/interactive/2020/11/03/us/elections/results-pennsylvania.html,https://www.nytimes.com/interactive/2020/11/03/us/elections/ap-polls-pennsylvania.html,https://www.nytimes.com/interactive/2020/11/03/us/elections/exit-polls-pennsylvania.html,house,general,2020-11-03,FALSE,U.S. House District 17,U.S. House,H,likely-dem,17,District 17,PA,pennsylvania,Pennsylvania,Pa.,horizontal,"",FALSE,TRUE,winner,AP,FALSE,"",432462,149826,1,unknown,Polls close at 8 p.m. Eastern time.,Polls close in,Polls have closed.,2020-11-04T01:00:00.000Z,8 p.m.,702,723,97% reporting,97%,97,446000,edison,97%,97% reported,edison,democrat,FALSE,2020-11-18T17:17:46Z,TRUE,2.27766,9850,D+2,Lamb +2,democrat,"","",3,0,1604767346357
42007,Beaver,92948,0,123,129,Merged into voters' home precincts and released with cumulative results,95,97778,95%,95% reported,edison,2,unknown,6320,39107,53841,0,0,2020-11-16T15:47:50Z,15.85187,R+16,Parnell +16,republican,PA-G-H-17-2020-11-03,pa-house-general-district-017-2020-11-03,https://www.nytimes.com/interactive/2020/11/03/us/elections/results-pennsylvania-house-district-17.html,https://www.nytimes.com/interactive/2020/11/03/us/elections/results-pennsylvania.html,https://www.nytimes.com/interactive/2020/11/03/us/elections/ap-polls-pennsylvania.html,https://www.nytimes.com/interactive/2020/11/03/us/elections/exit-polls-pennsylvania.html,house,general,2020-11-03,FALSE,U.S. House District 17,U.S. House,H,likely-dem,17,District 17,PA,pennsylvania,Pennsylvania,Pa.,horizontal,"",FALSE,TRUE,winner,AP,FALSE,"",432462,149826,1,unknown,Polls close at 8 p.m. Eastern time.,Polls close in,Polls have closed.,2020-11-04T01:00:00.000Z,8 p.m.,702,723,97% reporting,97%,97,446000,edison,97%,97% reported,edison,democrat,FALSE,2020-11-18T17:17:46Z,TRUE,2.27766,9850,D+2,Lamb +2,democrat,"","",3,0,1604767346357
42019,Butler,12337,0,9,9,Released as a separate subtotal at the end of tabulation,100,11784,>98%,>98% reported,edison,4,none,7869,5270,7067,0,0,2020-11-16T15:47:50Z,14.56594,R+15,Parnell +15,republican,PA-G-H-17-2020-11-03,pa-house-general-district-017-2020-11-03,https://www.nytimes.com/interactive/2020/11/03/us/elections/results-pennsylvania-house-district-17.html,https://www.nytimes.com/interactive/2020/11/03/us/elections/results-pennsylvania.html,https://www.nytimes.com/interactive/2020/11/03/us/elections/ap-polls-pennsylvania.html,https://www.nytimes.com/interactive/2020/11/03/us/elections/exit-polls-pennsylvania.html,house,general,2020-11-03,FALSE,U.S. House District 17,U.S. House,H,likely-dem,17,District 17,PA,pennsylvania,Pennsylvania,Pa.,horizontal,"",FALSE,TRUE,winner,AP,FALSE,"",432462,149826,1,unknown,Polls close at 8 p.m. Eastern time.,Polls close in,Polls have closed.,2020-11-04T01:00:00.000Z,8 p.m.,702,723,97% reporting,97%,97,446000,edison,97%,97% reported,edison,democrat,FALSE,2020-11-18T17:17:46Z,TRUE,2.27766,9850,D+2,Lamb +2,democrat,"","",3,0,1604767346357
