fips,name,votes,absentee_votes,reporting,precincts,absentee_method,eevp,tot_exp_vote,eevp_value,eevp_display,eevp_source,turnout_stage,absentee_count_progress,absentee_max_ballots,results_cloudm,results_de_la_fuenter,results_grayp,results_absentee_cloudm,results_absentee_de_la_fuenter,results_absentee_grayp,last_updated,leader_margin_value,leader_margin_display,leader_margin_name_display,leader_party_id,race_id_race,race_slug_race,url_race,state_page_url_race,ap_polls_page_race,edison_exit_polls_page_race,race_type_race,election_type_race,election_date_race,runoff_race,race_name_race,office_race,officeid_race,race_rating_race,seat_race,seat_name_race,state_id_race,state_slug_race,state_name_race,state_nyt_abbrev_race,state_shape_race,party_id_race,uncontested_race,report_race,result_race,result_source_race,gain_race,lost_seat_race,votes_race,absentee_votes_race,absentee_counties_race,absentee_count_progress_race,poll_display_race,poll_countdown_display_race,poll_waiting_display_race,poll_time_race,poll_time_short_race,precincts_reporting_race,precincts_total_race,reporting_display_race,reporting_value_race,eevp_race,tot_exp_vote_race,eevp_source_race,eevp_value_race,eevp_display_race,county_data_source_race,incumbent_party_race,no_forecast_race,last_updated_race,has_incumbent_race,leader_margin_value_race,leader_margin_votes_race,leader_margin_display_race,leader_margin_name_display_race,leader_party_id_race,expectations_text_race,expectations_text_short_race,absentee_ballot_deadline_race,absentee_postmark_deadline_race,winner_called_timestamp_race
48007,Aransas,11995,10778,5,6,Released as a precinct as first report of the night,89,13524,89%,89% reported,edison,2,unknown,10783,9330,2446,219,8376,2226,176,2020-11-16T15:47:47Z,57.39058,R+57,Cloud +57,republican,TX-G-H-27-2020-11-03,tx-house-general-district-027-2020-11-03,https://www.nytimes.com/interactive/2020/11/03/us/elections/results-texas-house-district-27.html,https://www.nytimes.com/interactive/2020/11/03/us/elections/results-texas.html,https://www.nytimes.com/interactive/2020/11/03/us/elections/ap-polls-texas.html,https://www.nytimes.com/interactive/2020/11/03/us/elections/exit-polls-texas.html,house,general,2020-11-03,FALSE,U.S. House District 27,U.S. House,H,solid-rep,27,District 27,TX,texas,Texas,Texas,horizontal,"",FALSE,TRUE,winner,AP,FALSE,"",272411,231234,13,unknown,Most polls close at 8 p.m. Eastern time.,Polls close in,Polls have closed.,2020-11-04T01:00:00.000Z,8 p.m.,288,323,89% reporting,89%,90,303000,edison,90%,90% reported,edison,republican,FALSE,2020-11-18T17:17:34Z,TRUE,28.16223,76717,R+28,Cloud +28,republican,"","",1,0,1604455850962
48021,Bastrop,14805,12682,9,9,Released as a precinct as first report of the night,98,15035,98%,98% reported,edison,2,unknown,25791,8667,5741,397,7251,5115,316,2020-11-16T15:47:49Z,19.76359,R+20,Cloud +20,republican,TX-G-H-27-2020-11-03,tx-house-general-district-027-2020-11-03,https://www.nytimes.com/interactive/2020/11/03/us/elections/results-texas-house-district-27.html,https://www.nytimes.com/interactive/2020/11/03/us/elections/results-texas.html,https://www.nytimes.com/interactive/2020/11/03/us/elections/ap-polls-texas.html,https://www.nytimes.com/interactive/2020/11/03/us/elections/exit-polls-texas.html,house,general,2020-11-03,FALSE,U.S. House District 27,U.S. House,H,solid-rep,27,District 27,TX,texas,Texas,Texas,horizontal,"",FALSE,TRUE,winner,AP,FALSE,"",272411,231234,13,unknown,Most polls close at 8 p.m. Eastern time.,Polls close in,Polls have closed.,2020-11-04T01:00:00.000Z,8 p.m.,288,323,89% reporting,89%,90,303000,edison,90%,90% reported,edison,republican,FALSE,2020-11-18T17:17:34Z,TRUE,28.16223,76717,R+28,Cloud +28,republican,"","",1,0,1604455850962
48055,Caldwell,7924,6665,16,17,Released as a precinct as first report of the night,94,8407,94%,94% reported,edison,2,unknown,10580,4935,2804,185,4149,2379,137,2020-11-16T15:47:50Z,26.89298,R+27,Cloud +27,republican,TX-G-H-27-2020-11-03,tx-house-general-district-027-2020-11-03,https://www.nytimes.com/interactive/2020/11/03/us/elections/results-texas-house-district-27.html,https://www.nytimes.com/interactive/2020/11/03/us/elections/results-texas.html,https://www.nytimes.com/interactive/2020/11/03/us/elections/ap-polls-texas.html,https://www.nytimes.com/interactive/2020/11/03/us/elections/exit-polls-texas.html,house,general,2020-11-03,FALSE,U.S. House District 27,U.S. House,H,solid-rep,27,District 27,TX,texas,Texas,Texas,horizontal,"",FALSE,TRUE,winner,AP,FALSE,"",272411,231234,13,unknown,Most polls close at 8 p.m. Eastern time.,Polls close in,Polls have closed.,2020-11-04T01:00:00.000Z,8 p.m.,288,323,89% reporting,89%,90,303000,edison,90%,90% reported,edison,republican,FALSE,2020-11-18T17:17:34Z,TRUE,28.16223,76717,R+28,Cloud +28,republican,"","",1,0,1604455850962
48057,Calhoun,7690,5578,22,26,Released as a precinct as first report of the night,86,8975,86%,86% reported,edison,2,unknown,5674,5646,1952,92,3928,1591,59,2020-11-16T15:47:51Z,48.03641,R+48,Cloud +48,republican,TX-G-H-27-2020-11-03,tx-house-general-district-027-2020-11-03,https://www.nytimes.com/interactive/2020/11/03/us/elections/results-texas-house-district-27.html,https://www.nytimes.com/interactive/2020/11/03/us/elections/results-texas.html,https://www.nytimes.com/interactive/2020/11/03/us/elections/ap-polls-texas.html,https://www.nytimes.com/interactive/2020/11/03/us/elections/exit-polls-texas.html,house,general,2020-11-03,FALSE,U.S. House District 27,U.S. House,H,solid-rep,27,District 27,TX,texas,Texas,Texas,horizontal,"",FALSE,TRUE,winner,AP,FALSE,"",272411,231234,13,unknown,Most polls close at 8 p.m. Eastern time.,Polls close in,Polls have closed.,2020-11-04T01:00:00.000Z,8 p.m.,288,323,89% reporting,89%,90,303000,edison,90%,90% reported,edison,republican,FALSE,2020-11-18T17:17:34Z,TRUE,28.16223,76717,R+28,Cloud +28,republican,"","",1,0,1604455850962
48177,Gonzales,5212,4278,10,11,Released as a precinct as first report of the night,90,5800,90%,90% reported,edison,2,unknown,5788,3847,1297,68,3183,1050,45,2020-11-16T15:47:52Z,48.92556,R+49,Cloud +49,republican,TX-G-H-27-2020-11-03,tx-house-general-district-027-2020-11-03,https://www.nytimes.com/interactive/2020/11/03/us/elections/results-texas-house-district-27.html,https://www.nytimes.com/interactive/2020/11/03/us/elections/results-texas.html,https://www.nytimes.com/interactive/2020/11/03/us/elections/ap-polls-texas.html,https://www.nytimes.com/interactive/2020/11/03/us/elections/exit-polls-texas.html,house,general,2020-11-03,FALSE,U.S. House District 27,U.S. House,H,solid-rep,27,District 27,TX,texas,Texas,Texas,horizontal,"",FALSE,TRUE,winner,AP,FALSE,"",272411,231234,13,unknown,Most polls close at 8 p.m. Eastern time.,Polls close in,Polls have closed.,2020-11-04T01:00:00.000Z,8 p.m.,288,323,89% reporting,89%,90,303000,edison,90%,90% reported,edison,republican,FALSE,2020-11-18T17:17:34Z,TRUE,28.16223,76717,R+28,Cloud +28,republican,"","",1,0,1604455850962
48239,Jackson,6154,5054,9,10,Released as a precinct as first report of the night,90,6805,90%,90% reported,edison,2,unknown,4125,5163,907,84,4259,736,59,2020-11-16T15:47:53Z,69.15827,R+69,Cloud +69,republican,TX-G-H-27-2020-11-03,tx-house-general-district-027-2020-11-03,https://www.nytimes.com/interactive/2020/11/03/us/elections/results-texas-house-district-27.html,https://www.nytimes.com/interactive/2020/11/03/us/elections/results-texas.html,https://www.nytimes.com/interactive/2020/11/03/us/elections/ap-polls-texas.html,https://www.nytimes.com/interactive/2020/11/03/us/elections/exit-polls-texas.html,house,general,2020-11-03,FALSE,U.S. House District 27,U.S. House,H,solid-rep,27,District 27,TX,texas,Texas,Texas,horizontal,"",FALSE,TRUE,winner,AP,FALSE,"",272411,231234,13,unknown,Most polls close at 8 p.m. Eastern time.,Polls close in,Polls have closed.,2020-11-04T01:00:00.000Z,8 p.m.,288,323,89% reporting,89%,90,303000,edison,90%,90% reported,edison,republican,FALSE,2020-11-18T17:17:34Z,TRUE,28.16223,76717,R+28,Cloud +28,republican,"","",1,0,1604455850962
48285,La Vaca,9993,7210,18,20,Released as a precinct as first report of the night,90,11147,90%,90% reported,edison,2,unknown,5887,8781,1118,94,6297,848,65,2020-11-16T15:47:54Z,76.68368,R+77,Cloud +77,republican,TX-G-H-27-2020-11-03,tx-house-general-district-027-2020-11-03,https://www.nytimes.com/interactive/2020/11/03/us/elections/results-texas-house-district-27.html,https://www.nytimes.com/interactive/2020/11/03/us/elections/results-texas.html,https://www.nytimes.com/interactive/2020/11/03/us/elections/ap-polls-texas.html,https://www.nytimes.com/interactive/2020/11/03/us/elections/exit-polls-texas.html,house,general,2020-11-03,FALSE,U.S. House District 27,U.S. House,H,solid-rep,27,District 27,TX,texas,Texas,Texas,horizontal,"",FALSE,TRUE,winner,AP,FALSE,"",272411,231234,13,unknown,Most polls close at 8 p.m. Eastern time.,Polls close in,Polls have closed.,2020-11-04T01:00:00.000Z,8 p.m.,288,323,89% reporting,89%,90,303000,edison,90%,90% reported,edison,republican,FALSE,2020-11-18T17:17:34Z,TRUE,28.16223,76717,R+28,Cloud +28,republican,"","",1,0,1604455850962
48321,Matagorda,13364,10719,16,19,Released as a precinct as first report of the night,85,15684,85%,85% reported,edison,2,unknown,12052,9669,3434,261,7714,2815,190,2020-11-16T15:47:55Z,46.65519,R+47,Cloud +47,republican,TX-G-H-27-2020-11-03,tx-house-general-district-027-2020-11-03,https://www.nytimes.com/interactive/2020/11/03/us/elections/results-texas-house-district-27.html,https://www.nytimes.com/interactive/2020/11/03/us/elections/results-texas.html,https://www.nytimes.com/interactive/2020/11/03/us/elections/ap-polls-texas.html,https://www.nytimes.com/interactive/2020/11/03/us/elections/exit-polls-texas.html,house,general,2020-11-03,FALSE,U.S. House District 27,U.S. House,H,solid-rep,27,District 27,TX,texas,Texas,Texas,horizontal,"",FALSE,TRUE,winner,AP,FALSE,"",272411,231234,13,unknown,Most polls close at 8 p.m. Eastern time.,Polls close in,Polls have closed.,2020-11-04T01:00:00.000Z,8 p.m.,288,323,89% reporting,89%,90,303000,edison,90%,90% reported,edison,republican,FALSE,2020-11-18T17:17:34Z,TRUE,28.16223,76717,R+28,Cloud +28,republican,"","",1,0,1604455850962
48355,Nueces,124054,108608,118,128,Released as a precinct as first report of the night,92,134334,92%,92% reported,edison,2,unknown,100673,65229,55945,2880,57145,49216,2247,2020-11-16T15:47:45Z,7.48384,R+7,Cloud +7,republican,TX-G-H-27-2020-11-03,tx-house-general-district-027-2020-11-03,https://www.nytimes.com/interactive/2020/11/03/us/elections/results-texas-house-district-27.html,https://www.nytimes.com/interactive/2020/11/03/us/elections/results-texas.html,https://www.nytimes.com/interactive/2020/11/03/us/elections/ap-polls-texas.html,https://www.nytimes.com/interactive/2020/11/03/us/elections/exit-polls-texas.html,house,general,2020-11-03,FALSE,U.S. House District 27,U.S. House,H,solid-rep,27,District 27,TX,texas,Texas,Texas,horizontal,"",FALSE,TRUE,winner,AP,FALSE,"",272411,231234,13,unknown,Most polls close at 8 p.m. Eastern time.,Polls close in,Polls have closed.,2020-11-04T01:00:00.000Z,8 p.m.,288,323,89% reporting,89%,90,303000,edison,90%,90% reported,edison,republican,FALSE,2020-11-18T17:17:34Z,TRUE,28.16223,76717,R+28,Cloud +28,republican,"","",1,0,1604455850962
48391,Refugio,3172,2402,9,11,Released as a precinct as first report of the night,83,3799,83%,83% reported,edison,2,unknown,2120,2133,988,51,1632,736,34,2020-11-16T15:47:57Z,36.0971,R+36,Cloud +36,republican,TX-G-H-27-2020-11-03,tx-house-general-district-027-2020-11-03,https://www.nytimes.com/interactive/2020/11/03/us/elections/results-texas-house-district-27.html,https://www.nytimes.com/interactive/2020/11/03/us/elections/results-texas.html,https://www.nytimes.com/interactive/2020/11/03/us/elections/ap-polls-texas.html,https://www.nytimes.com/interactive/2020/11/03/us/elections/exit-polls-texas.html,house,general,2020-11-03,FALSE,U.S. House District 27,U.S. House,H,solid-rep,27,District 27,TX,texas,Texas,Texas,horizontal,"",FALSE,TRUE,winner,AP,FALSE,"",272411,231234,13,unknown,Most polls close at 8 p.m. Eastern time.,Polls close in,Polls have closed.,2020-11-04T01:00:00.000Z,8 p.m.,288,323,89% reporting,89%,90,303000,edison,90%,90% reported,edison,republican,FALSE,2020-11-18T17:17:34Z,TRUE,28.16223,76717,R+28,Cloud +28,republican,"","",1,0,1604455850962
48409,San Patricio,17930,15403,16,18,Released as a precinct as first report of the night,100,17930,>98%,>98% reported,edison,6,all,19161,12476,5042,412,10797,4289,317,2020-11-16T15:47:46Z,41.46124,R+41,Cloud +41,republican,TX-G-H-27-2020-11-03,tx-house-general-district-027-2020-11-03,https://www.nytimes.com/interactive/2020/11/03/us/elections/results-texas-house-district-27.html,https://www.nytimes.com/interactive/2020/11/03/us/elections/results-texas.html,https://www.nytimes.com/interactive/2020/11/03/us/elections/ap-polls-texas.html,https://www.nytimes.com/interactive/2020/11/03/us/elections/exit-polls-texas.html,house,general,2020-11-03,FALSE,U.S. House District 27,U.S. House,H,solid-rep,27,District 27,TX,texas,Texas,Texas,horizontal,"",FALSE,TRUE,winner,AP,FALSE,"",272411,231234,13,unknown,Most polls close at 8 p.m. Eastern time.,Polls close in,Polls have closed.,2020-11-04T01:00:00.000Z,8 p.m.,288,323,89% reporting,89%,90,303000,edison,90%,90% reported,edison,republican,FALSE,2020-11-18T17:17:34Z,TRUE,28.16223,76717,R+28,Cloud +28,republican,"","",1,0,1604455850962
48469,Victoria,33599,27513,29,35,Released as a precinct as first report of the night,84,40092,84%,84% reported,edison,2,unknown,29340,24002,9113,484,19498,7643,372,2020-11-16T15:47:58Z,44.31382,R+44,Cloud +44,republican,TX-G-H-27-2020-11-03,tx-house-general-district-027-2020-11-03,https://www.nytimes.com/interactive/2020/11/03/us/elections/results-texas-house-district-27.html,https://www.nytimes.com/interactive/2020/11/03/us/elections/results-texas.html,https://www.nytimes.com/interactive/2020/11/03/us/elections/ap-polls-texas.html,https://www.nytimes.com/interactive/2020/11/03/us/elections/exit-polls-texas.html,house,general,2020-11-03,FALSE,U.S. House District 27,U.S. House,H,solid-rep,27,District 27,TX,texas,Texas,Texas,horizontal,"",FALSE,TRUE,winner,AP,FALSE,"",272411,231234,13,unknown,Most polls close at 8 p.m. Eastern time.,Polls close in,Polls have closed.,2020-11-04T01:00:00.000Z,8 p.m.,288,323,89% reporting,89%,90,303000,edison,90%,90% reported,edison,republican,FALSE,2020-11-18T17:17:34Z,TRUE,28.16223,76717,R+28,Cloud +28,republican,"","",1,0,1604455850962
48481,Wharton,16519,14344,11,13,Released as a precinct as first report of the night,87,18972,87%,87% reported,edison,2,unknown,14576,11956,4330,233,10557,3611,176,2020-11-16T15:47:59Z,46.16502,R+46,Cloud +46,republican,TX-G-H-27-2020-11-03,tx-house-general-district-027-2020-11-03,https://www.nytimes.com/interactive/2020/11/03/us/elections/results-texas-house-district-27.html,https://www.nytimes.com/interactive/2020/11/03/us/elections/results-texas.html,https://www.nytimes.com/interactive/2020/11/03/us/elections/ap-polls-texas.html,https://www.nytimes.com/interactive/2020/11/03/us/elections/exit-polls-texas.html,house,general,2020-11-03,FALSE,U.S. House District 27,U.S. House,H,solid-rep,27,District 27,TX,texas,Texas,Texas,horizontal,"",FALSE,TRUE,winner,AP,FALSE,"",272411,231234,13,unknown,Most polls close at 8 p.m. Eastern time.,Polls close in,Polls have closed.,2020-11-04T01:00:00.000Z,8 p.m.,288,323,89% reporting,89%,90,303000,edison,90%,90% reported,edison,republican,FALSE,2020-11-18T17:17:34Z,TRUE,28.16223,76717,R+28,Cloud +28,republican,"","",1,0,1604455850962
