fips,name,votes,absentee_votes,reporting,precincts,absentee_method,eevp,tot_exp_vote,eevp_value,eevp_display,eevp_source,turnout_stage,absentee_count_progress,absentee_outstanding,absentee_max_ballots,provisional_outstanding,provisional_count_progress,results_trumpd,results_bidenj,results_jorgensenj,results_hawkinsh,results_de_la_fuenter,results_absentee_trumpd,results_absentee_bidenj,results_absentee_jorgensenj,results_absentee_hawkinsh,results_absentee_de_la_fuenter,last_updated,leader_margin_value,leader_margin_display,leader_margin_name_display,leader_party_id,margin2020,votes2016,margin2016,votes2012,margin2012,state,retrieved_time
45001,Abbeville,12433,6829,16,16,Merged into voters' home precincts and released with cumulative results,100,12439,>98%,>98% reported,edison,10,unknown,,3221,,,8215,4101,88,23,6,3901,2882,36,6,4,2020-11-16T15:48:06Z,33.08936,R+33,Trump +33,republican,33.08936,10775,28,10671,13.48,south-carolina,2020-11-21T00:43:36.706783Z
45003,Aiken,85185,44596,84,84,"As a precinct in the FIRST cumulative report, along with regular precincts",100,85185,>98%,>98% reported,edison,10,unknown,,20973,,,51589,32275,982,274,65,23768,20345,336,115,32,2020-11-16T15:48:07Z,22.67301,R+23,Trump +23,republican,22.67301,74851,27.5,70363,26.6,south-carolina,2020-11-21T00:43:36.706783Z
45005,Allendale,3593,2409,8,8,Released as a precinct as first report of the night,99,3625,>98%,>98% reported,edison,10,unknown,,2170,,,835,2718,19,19,2,389,1994,14,11,1,2020-11-16T15:48:09Z,52.40746,D+52,Biden +52,democrat,-52.40746,3592,-54.2,4163,-59.07,south-carolina,2020-11-21T00:43:36.706783Z
45007,Anderson,96093,31178,79,79,Released as a precinct at the end of tabulation,100,96093,>98%,>98% reported,edison,10,all,,15738,,,67565,27169,1123,178,58,17615,13252,243,49,19,2020-11-16T15:48:11Z,42.03844,R+42,Trump +42,republican,42.03844,80483,43.7,72212,36.43,south-carolina,2020-11-21T00:43:36.706783Z
45009,Bamberg,6482,3657,13,13,Released as a separate subtotal at the end of tabulation,100,6482,>98%,>98% reported,edison,10,unknown,,1944,,,2417,4010,31,17,7,1052,2574,16,9,6,2020-11-16T15:48:11Z,24.57575,D+25,Biden +25,democrat,-24.57575,6214,-27.3,6882,-35.31,south-carolina,2020-11-21T00:43:36.706783Z
45011,Barnwell,10321,5617,15,15,"As a precinct in the FIRST cumulative report, along with regular precincts",100,10321,>98%,>98% reported,edison,10,unknown,,2475,,,5492,4720,78,19,12,2618,2961,31,4,3,2020-11-16T15:48:12Z,7.4799,R+7,Trump +7,republican,7.4799,9485,5.2,9923,-5.33,south-carolina,2020-11-21T00:43:36.706783Z
45013,Beaufort,97835,56391,95,95,Released as a precinct at the end of tabulation,100,97915,>98%,>98% reported,edison,10,all,,27701,,,53194,43419,941,214,67,25926,29949,393,88,35,2020-11-16T15:48:13Z,9.99131,R+10,Trump +10,republican,9.99131,78524,13.7,73297,17.52,south-carolina,2020-11-21T00:43:36.706783Z
45015,Berkeley,104458,57080,96,96,"As a precinct in the FIRST cumulative report, along with regular precincts",100,104458,>98%,>98% reported,edison,10,all,,19053,,,57397,45223,1485,276,77,26688,29650,583,123,36,2020-11-16T15:48:14Z,11.65444,R+12,Trump +12,republican,11.65444,79517,17.5,68195,14.57,south-carolina,2020-11-21T00:43:36.706783Z
45017,Calhoun,8291,4327,12,12,Released as a precinct as first report of the night,100,8299,>98%,>98% reported,edison,10,unknown,,2608,,,4305,3905,58,18,5,1633,2661,22,9,2,2020-11-16T15:48:15Z,4.82451,R+5,Trump +5,republican,4.82451,7549,2.8,7834,-4.31,south-carolina,2020-11-21T00:43:36.706783Z
45019,Charleston,218857,161272,182,182,Released as a precinct as first report of the night,100,219114,>98%,>98% reported,edison,10,unknown,,54234,,,93297,121485,3177,743,155,63506,95351,1904,417,94,2020-11-16T15:48:16Z,12.87964,D+13,Biden +13,democrat,-12.87964,176345,-7.9,161707,-2.39,south-carolina,2020-11-21T00:43:36.706783Z
45021,Cherokee,25270,10578,29,29,"As a precinct in the FIRST cumulative report, along with regular precincts",100,25270,>98%,>98% reported,edison,10,unknown,,4510,,,18043,6983,186,48,10,6506,3976,67,24,5,2020-11-16T15:48:17Z,43.76731,R+44,Trump +44,republican,43.76731,21759,41.7,20773,29.28,south-carolina,2020-11-21T00:43:36.706783Z
45023,Chester,15757,8200,21,21,Merged into voters' home precincts and released with cumulative results,100,15757,>98%,>98% reported,edison,10,unknown,,7206,,,8660,6941,108,37,11,3671,4473,37,13,6,2020-11-16T15:48:18Z,10.90944,R+11,Trump +11,republican,10.90944,14192,4.8,14407,-10.58,south-carolina,2020-11-21T00:43:36.706783Z
45025,Chesterfield,18876,8896,25,25,Released separately AFTER election night,100,18876,>98%,>98% reported,edison,10,unknown,,3936,,,11297,7431,109,28,11,4423,4425,38,10,0,2020-11-16T15:48:19Z,20.48103,R+20,Trump +20,republican,20.48103,16581,14.8,16594,3.21,south-carolina,2020-11-21T00:43:36.706783Z
45027,Clarendon,16733,10227,25,25,None,100,16733,>98%,>98% reported,edison,10,unknown,,7824,,,8361,8250,67,42,13,4015,6149,31,26,6,2020-11-16T15:48:20Z,0.66336,R+0.66,Trump +0.66,republican,0.66336,15395,-2.2,16292,-12.4,south-carolina,2020-11-21T00:43:36.706783Z
45029,Colleton,19283,10106,32,32,"As a precinct in the FIRST cumulative report, along with regular precincts",100,19283,>98%,>98% reported,edison,10,unknown,,6733,,,10440,8602,178,56,7,4333,5677,70,23,3,2020-11-16T15:48:20Z,9.53171,R+10,Trump +10,republican,9.53171,17251,8.5,17086,-0.19,south-carolina,2020-11-21T00:43:36.706783Z
45031,Darlington,32417,18687,32,32,Released as a precinct as first report of the night,100,32417,>98%,>98% reported,edison,10,unknown,,9811,,,16832,15220,260,77,28,8001,10526,113,36,11,2020-11-16T15:48:21Z,4.9727,R+5,Trump +5,republican,4.9727,29674,3.7,30150,-3.39,south-carolina,2020-11-21T00:43:36.706783Z
45033,Dillon,13101,5996,19,19,Other,100,13101,>98%,>98% reported,edison,10,unknown,,4576,,,6582,6436,38,36,9,2392,3577,10,14,3,2020-11-16T15:48:22Z,1.11442,R+1.1,Trump +1.1,republican,1.11442,11698,-1.7,13035,-16.08,south-carolina,2020-11-21T00:43:36.706783Z
45035,Dorchester,77278,46641,81,81,"As a precinct in the FIRST cumulative report, along with regular precincts",100,77278,>98%,>98% reported,edison,10,unknown,,18464,,,41913,33824,1219,239,83,22514,23419,553,111,44,2020-11-16T15:48:23Z,10.4674,R+10,Trump +10,republican,10.4674,62567,17.5,56855,15.98,south-carolina,2020-11-21T00:43:36.706783Z
45037,Edgefield,13304,7081,12,12,Released as a precinct as first report of the night,100,13309,>98%,>98% reported,edison,10,unknown,,3950,,,8184,4953,120,39,8,3860,3148,49,18,6,2020-11-16T15:48:24Z,24.28593,R+24,Trump +24,republican,24.28593,11644,20.2,11586,13.34,south-carolina,2020-11-21T00:43:36.706783Z
45039,Fairfield,12136,6796,22,22,Released as a precinct as first report of the night,100,12136,>98%,>98% reported,edison,10,unknown,,3861,,,4625,7382,78,41,10,2126,4625,26,16,3,2020-11-16T15:48:24Z,22.71753,D+23,Biden +23,democrat,-22.71753,11267,-25.9,11895,-31.76,south-carolina,2020-11-21T00:43:36.706783Z
45041,Florence,64510,35728,63,63,Released as a precinct as first report of the night,100,64615,>98%,>98% reported,edison,10,unknown,,22227,,,32615,31153,503,194,45,14991,20421,192,101,23,2020-11-16T15:48:25Z,2.26632,R+2,Trump +2,republican,2.26632,57931,4.9,58122,0.6,south-carolina,2020-11-21T00:43:36.706783Z
45043,Georgetown,36668,21530,34,34,None,100,36702,>98%,>98% reported,edison,10,unknown,,12821,,,20487,15822,237,93,29,10660,10704,108,43,15,2020-11-16T15:48:25Z,12.72226,R+13,Trump +13,republican,12.72226,31657,12.9,30965,7.63,south-carolina,2020-11-21T00:43:36.706783Z
45045,Greenville,258155,93850,151,151,Released as a precinct in the middle of the night,100,258155,>98%,>98% reported,edison,10,unknown,,32851,,,150021,103030,4179,698,227,38872,53743,951,209,75,2020-11-16T15:48:26Z,18.20263,R+18,Trump +18,republican,18.20263,215165,24.8,193189,27.75,south-carolina,2020-11-21T00:43:36.706783Z
45047,Greenwood,32006,15370,51,51,Released as a precinct as first report of the night,100,32006,>98%,>98% reported,edison,10,unknown,,10778,,,19431,12145,318,95,17,7908,7293,115,46,8,2020-11-16T15:48:26Z,22.76448,R+23,Trump +23,republican,22.76448,28763,21.7,28672,15.26,south-carolina,2020-11-21T00:43:36.706783Z
45049,Hampton,9305,4796,18,18,Released as a precinct as first report of the night,100,9305,>98%,>98% reported,edison,10,unknown,,3520,,,3906,5323,44,22,10,1415,3347,16,11,7,2020-11-16T15:48:27Z,15.22837,D+15,Biden +15,democrat,-15.22837,8806,-19.1,9206,-27.4,south-carolina,2020-11-21T00:43:36.706783Z
45051,Horry,179744,100347,124,124,Released as a precinct as first report of the night,100,179744,>98%,>98% reported,edison,10,some,,24302,,,118821,59180,1255,397,91,58798,40840,490,174,45,2020-11-16T15:48:27Z,33.18108,R+33,Trump +33,republican,33.18108,132920,37.5,112393,29.58,south-carolina,2020-11-21T00:43:36.706783Z
45053,Jasper,14394,7524,15,15,"As a precinct in the FIRST cumulative report, along with regular precincts",100,14411,>98%,>98% reported,edison,10,unknown,,3843,,,7078,7185,92,32,7,3145,4379,0,0,0,2020-11-16T15:48:27Z,0.74337,D+0.74,Biden +0.74,democrat,-0.74337,11427,-6.7,10021,-15.85,south-carolina,2020-11-21T00:43:36.706783Z
45055,Kershaw,33629,18395,34,34,Released as a precinct as first report of the night,100,33629,>98%,>98% reported,edison,10,unknown,,9565,,,20471,12699,344,90,25,9355,8825,160,43,12,2020-11-16T15:48:28Z,23.11101,R+23,Trump +23,republican,23.11101,28995,24.9,27946,18.12,south-carolina,2020-11-21T00:43:36.706783Z
45057,Lancaster,49868,27850,36,36,Released as a separate subtotal as first report of the night,100,49868,>98%,>98% reported,edison,10,unknown,,12466,,,30312,18937,492,93,34,14726,12870,207,38,9,2020-11-16T15:48:28Z,22.81022,R+23,Trump +23,republican,22.81022,38938,25.4,33144,17.84,south-carolina,2020-11-21T00:43:36.706783Z
45059,Laurens,30488,10721,33,33,Released as a precinct as first report of the night,100,30488,>98%,>98% reported,edison,10,unknown,,5470,,,20004,10159,238,67,20,5435,5197,58,22,9,2020-11-16T15:48:29Z,32.29139,R+32,Trump +32,republican,32.29139,26566,29.8,25416,17.42,south-carolina,2020-11-21T00:43:36.706783Z
45061,Lee,8431,4455,22,22,None,100,8435,>98%,>98% reported,edison,10,unknown,,2691,,,3008,5329,71,18,5,1176,3234,34,8,3,2020-11-16T15:48:29Z,27.52936,D+28,Biden +28,democrat,-27.52936,8156,-29.4,8907,-35.31,south-carolina,2020-11-21T00:43:36.706783Z
45063,Lexington,144568,58329,96,96,Merged into voters' home precincts and released with cumulative results,100,144568,>98%,>98% reported,edison,10,unknown,,29053,,,92817,49301,1935,397,118,31077,26517,546,140,49,2020-11-16T15:48:29Z,30.10071,R+30,Trump +30,republican,30.10071,122093,36.7,112623,37.75,south-carolina,2020-11-21T00:43:36.706783Z
45067,Marion,14704,8791,15,15,Released as a separate subtotal as first report of the night,100,14717,>98%,>98% reported,edison,10,unknown,,4710,,,5711,8872,63,40,18,2777,5955,31,20,8,2020-11-16T15:47:42Z,21.49755,D+21,Biden +21,democrat,-21.49755,14276,-21.9,14986,-30.19,south-carolina,2020-11-21T00:43:36.706783Z
45069,Marlboro,11446,7722,11,11,Merged into voters' home precincts AFTER election night,100,11448,>98%,>98% reported,edison,10,unknown,,7086,,,5044,6290,69,33,10,2824,4839,35,21,3,2020-11-16T15:47:43Z,10.8859,D+11,Biden +11,democrat,-10.8859,10389,-16.2,9853,-24.6,south-carolina,2020-11-21T00:43:36.706783Z
45065,McCormick,5697,3848,17,17,Released as a separate subtotal at the end of tabulation,100,5720,>98%,>98% reported,edison,10,unknown,,3494,,,2958,2687,28,20,4,1778,2036,17,14,3,2020-11-16T15:47:39Z,4.75689,R+5,Trump +5,republican,4.75689,5216,3.3,5160,-3.6,south-carolina,2020-11-21T00:43:36.706783Z
45071,Newberry,18631,9281,30,30,Released as a precinct as first report of the night,100,18631,>98%,>98% reported,edison,10,unknown,,3907,,,11443,6958,152,60,18,5054,4129,59,26,13,2020-11-16T15:47:44Z,24.07278,R+24,Trump +24,republican,24.07278,16807,22.6,16351,14.35,south-carolina,2020-11-21T00:43:36.706783Z
45073,Oconee,40668,19684,31,31,Released as a precinct as first report of the night,100,40668,>98%,>98% reported,edison,10,all,,11104,,,29698,10414,443,88,25,12738,6768,131,37,10,2020-11-16T15:47:45Z,47.41812,R+47,Trump +47,republican,47.41812,33635,48.1,30666,42.59,south-carolina,2020-11-21T00:43:36.706783Z
45075,Orangeburg,41205,25673,53,53,"As a precinct in the FIRST cumulative report, along with regular precincts",100,41240,>98%,>98% reported,edison,10,unknown,,17131,,,13603,27295,172,106,29,6501,19048,70,44,10,2020-11-16T15:47:46Z,33.22898,D+33,Biden +33,democrat,-33.22898,38910,-37,43041,-43.44,south-carolina,2020-11-21T00:43:36.706783Z
45077,Pickens,57546,24482,61,61,Released as a precinct as first report of the night,100,57546,>98%,>98% reported,edison,10,unknown,,7925,,,42907,13645,793,162,39,15760,8393,257,54,18,2020-11-16T15:47:46Z,50.84975,R+51,Trump +51,republican,50.84975,49049,52.8,45549,49,south-carolina,2020-11-21T00:43:36.706783Z
45079,Richland,193822,0,149,149,Released as a separate subtotal as first report of the night,100,194045,>98%,>98% reported,edison,10,unknown,,56221,,,58313,132570,2027,732,180,0,0,0,0,0,2020-11-16T15:47:47Z,38.31196,D+38,Biden +38,democrat,-38.31196,168722,-32.9,159154,-31.97,south-carolina,2020-11-21T00:43:36.706783Z
45081,Saluda,9274,3902,18,18,Released as a separate subtotal as first report of the night,100,9279,>98%,>98% reported,edison,10,unknown,,1664,,,6210,2963,75,21,5,2166,1697,25,12,2,2020-11-16T15:47:48Z,35.01186,R+35,Trump +35,republican,35.01186,8564,31.7,8564,21.1,south-carolina,2020-11-21T00:43:36.706783Z
45083,Spartanburg,148655,63900,98,98,Released as a precinct as first report of the night,100,148655,>98%,>98% reported,edison,10,all,,30728,,,93560,52926,1702,377,90,32387,30853,499,131,30,2020-11-16T15:47:49Z,27.33443,R+27,Trump +27,republican,27.33443,121090,30,109906,23.21,south-carolina,2020-11-21T00:43:36.706783Z
45085,Sumter,48920,31851,58,58,Released as a precinct in the middle of the night,100,48920,>98%,>98% reported,edison,10,unknown,,24925,,,21000,27379,355,152,34,11831,19749,178,77,16,2020-11-16T15:47:50Z,13.03966,D+13,Biden +13,democrat,-13.03966,44086,-12,47309,-17.58,south-carolina,2020-11-21T00:43:36.706783Z
45087,Union,13257,5678,23,23,Released as a precinct as first report of the night,100,13257,>98%,>98% reported,edison,10,unknown,,2534,,,8183,4935,96,36,7,3109,2569,0,0,0,2020-11-16T15:47:51Z,24.50026,R+25,Trump +25,republican,24.50026,12092,19.3,12541,6.28,south-carolina,2020-11-21T00:43:36.706783Z
45089,Williamsburg,15985,9398,28,28,None,100,16009,>98%,>98% reported,edison,10,unknown,,5763,,,5532,10289,81,62,21,2340,6989,29,28,12,2020-11-16T15:47:52Z,29.75915,D+30,Biden +30,democrat,-29.75915,15054,-33.8,16304,-39.93,south-carolina,2020-11-21T00:43:36.706783Z
45091,York,144050,69783,96,96,None,100,144050,>98%,>98% reported,edison,10,unknown,,33674,,,82727,59008,1807,398,110,32413,36606,567,157,40,2020-11-16T15:47:53Z,16.46581,R+16,Trump +16,republican,16.46581,114357,22,100210,20.37,south-carolina,2020-11-21T00:43:36.706783Z
