fips,name,votes,absentee_votes,reporting,precincts,absentee_method,eevp,tot_exp_vote,eevp_value,eevp_display,eevp_source,turnout_stage,absentee_count_progress,absentee_outstanding,absentee_max_ballots,provisional_outstanding,provisional_count_progress,results_bidenj,results_trumpd,results_jorgensenj,results_write_ins,results_absentee_bidenj,results_absentee_trumpd,results_absentee_jorgensenj,results_absentee_write_ins,last_updated,leader_margin_value,leader_margin_display,leader_margin_name_display,leader_party_id,margin2020,votes2016,margin2016,votes2012,margin2012,state,retrieved_time
51001,Accomack,16962,8645,17,17,Released separately AFTER election night,99,17184,>98%,>98% reported,edison,2,none,,1487,,,7578,9172,188,24,5495,3084,66,0,2020-11-17T20:30:27Z,9.39748,R+9,Trump +9,republican,9.39748,15818,11.7,16051,3.48,virginia,2020-11-21T00:42:45.437713Z
51003,Albemarle,64657,43352,30,31,Released as a precinct at the end of tabulation,100,64182,>98%,>98% reported,edison,4,unknown,,6993,,,42466,20804,1014,373,33906,8979,467,0,2020-11-17T20:30:53Z,33.50295,D+34,Biden +34,democrat,-33.50295,56726,-24.8,53907,-11.98,virginia,2020-11-21T00:42:45.437713Z
51510,Alexandria,81806,65530,28,31,Released as a precinct at the end of tabulation,91,89409,91%,91% reported,edison,2,unknown,,19940,,,66240,14544,1022,,55940,8951,639,,2020-11-16T15:48:01Z,63.19341,D+63,Biden +63,democrat,-63.19341,75762,-58,73411,-43.52,virginia,2020-11-21T00:42:45.437713Z
51005,Alleghany,8203,2724,12,13,Released as a separate subtotal at the end of tabulation,100,7854,>98%,>98% reported,edison,4,unknown,,550,,,2243,5859,89,12,1250,1450,24,0,2020-11-17T20:31:11Z,44.08143,R+44,Trump +44,republican,44.08143,7325,37,7173,2.68,virginia,2020-11-21T00:42:45.437713Z
51007,Amelia,7894,4351,6,6,Released as a precinct at the end of tabulation,100,7548,>98%,>98% reported,edison,4,unknown,,822,,,2411,5390,80,13,1719,2595,37,0,2020-11-17T20:31:41Z,37.73752,R+38,Trump +38,republican,37.73752,7040,36.6,6915,26.62,virginia,2020-11-21T00:42:45.437713Z
51009,Amherst,17005,8444,11,12,"As a subtotal in the FIRST cumulative report, along with regular precincts",100,16507,>98%,>98% reported,edison,2,unknown,,1222,,,5672,11041,251,41,3871,4487,86,0,2020-11-17T20:32:06Z,31.57307,R+32,Trump +32,republican,31.57307,15396,30.3,14970,19.88,virginia,2020-11-21T00:42:45.437713Z
51011,Appomattox,9268,4607,10,10,Released as a precinct in the middle of the night,100,8408,>98%,>98% reported,edison,4,unknown,,525,,,2418,6702,119,29,1565,2995,47,0,2020-11-17T20:32:27Z,46.22356,R+46,Trump +46,republican,46.22356,7997,46.2,7935,36.38,virginia,2020-11-21T00:42:45.437713Z
51013,Arlington,130739,107030,50,55,Released as a precinct at the end of tabulation,91,143200,91%,91% reported,edison,4,none,,37665,,,105344,22318,1836,1241,91963,13899,1168,0,2020-11-17T20:32:55Z,63.50515,D+64,Biden +64,democrat,-63.50515,121339,-59.2,117608,-39.79,virginia,2020-11-21T00:42:45.437713Z
51015,Augusta,42278,20996,26,26,Released separately AFTER election night,100,38142,>98%,>98% reported,edison,4,all,,2612,,,10840,30714,608,116,7874,12866,256,0,2020-11-17T20:33:10Z,47.0079,R+47,Trump +47,republican,47.0079,36343,49.5,33672,42.09,virginia,2020-11-21T00:42:45.437713Z
51017,Bath,2501,761,8,8,Released as a precinct in the middle of the night,100,2513,>98%,>98% reported,edison,6,all,,202,,,646,1834,16,5,358,399,4,0,2020-11-17T20:33:57Z,47.501,R+48,Trump +48,republican,47.501,2253,41.9,2223,17.09,virginia,2020-11-21T00:42:45.437713Z
51019,Bedford,48669,24216,32,33,Released as a precinct at the end of tabulation,100,44630,>98%,>98% reported,edison,4,unknown,,3722,,,12176,35600,708,185,8705,15208,303,0,2020-11-17T20:34:12Z,48.1292,R+48,Trump +48,republican,48.1292,42525,49.1,37425,44.01,virginia,2020-11-21T00:42:45.437713Z
51021,Bland,3479,1307,8,8,None,100,3366,>98%,>98% reported,edison,2,unknown,,209,,,532,2903,40,4,313,976,18,0,2020-11-17T20:34:26Z,68.15177,R+68,Trump +68,republican,68.15177,3139,67.5,2948,47.8,virginia,2020-11-21T00:42:45.437713Z
51023,Botetourt,21123,11571,10,11,"As a precinct in the FIRST cumulative report, along with regular precincts",100,19667,>98%,>98% reported,edison,2,unknown,,1719,,,5700,15099,264,60,4236,7215,120,0,2020-11-17T20:34:49Z,44.49652,R+44,Trump +44,republican,44.49652,18739,47.4,18241,38.52,virginia,2020-11-21T00:42:45.437713Z
51520,Bristol,7785,4707,5,5,Released as a separate subtotal as first report of the night,100,7730,>98%,>98% reported,edison,4,unknown,,770,,,2313,5347,125,,1746,2898,63,,2020-11-16T15:48:02Z,38.97238,R+39,Trump +39,republican,38.97238,7027,43.5,7387,30.97,virginia,2020-11-21T00:42:45.437713Z
51025,Brunswick,7948,4187,12,14,None,84,9479,84%,84% reported,edison,2,unknown,,801,,,4552,3357,34,5,2807,1368,12,0,2020-11-16T15:47:57Z,15.03523,D+15,Biden +15,democrat,-15.03523,7669,-18.7,8037,-25.21,virginia,2020-11-21T00:42:45.437713Z
51027,Buchanan,9957,3084,16,18,Released as a precinct in the middle of the night,100,9382,>98%,>98% reported,edison,6,all,,942,,,1587,8311,44,15,768,2306,10,0,2020-11-17T20:35:25Z,67.53038,R+68,Trump +68,republican,67.53038,9247,60.3,9646,34.65,virginia,2020-11-21T00:42:45.437713Z
51029,Buckingham,8129,4119,10,11,Released as a precinct in the middle of the night,100,8086,>98%,>98% reported,edison,6,all,,520,,,3471,4544,93,21,2285,1795,39,0,2020-11-17T20:35:39Z,13.19966,R+13,Trump +13,republican,13.19966,7289,11.3,7457,-2.43,virginia,2020-11-21T00:42:45.437713Z
51530,Buena Vista,2815,1837,3,3,Merged into voters' home precincts and released with cumulative results,100,2757,>98%,>98% reported,edison,6,unknown,,2407,,,825,1863,127,,637,1128,72,,2020-11-16T15:48:03Z,36.87389,R+37,Trump +37,republican,36.87389,2407,30.6,2526,25.53,virginia,2020-11-21T00:42:45.437713Z
51031,Campbell,29901,15055,16,17,Released separately AFTER election night,100,28898,>98%,>98% reported,edison,2,unknown,,2042,,,8070,21245,490,96,5539,9336,180,0,2020-11-17T20:36:01Z,44.06207,R+44,Trump +44,republican,44.06207,27535,46.8,25696,39.31,virginia,2020-11-21T00:42:45.437713Z
51033,Caroline,16288,7880,13,13,None,100,15598,>98%,>98% reported,edison,2,unknown,,1350,,,7657,8336,259,36,4957,2839,84,0,2020-11-16T15:48:00Z,4.16871,R+4,Trump +4,republican,4.16871,14248,5,13652,-8.24,virginia,2020-11-21T00:42:45.437713Z
51035,Carroll,15657,5682,17,18,Released as a precinct at the end of tabulation,100,14655,>98%,>98% reported,edison,2,unknown,,1199,,,2842,12659,118,38,1740,3909,33,0,2020-11-17T20:36:20Z,62.70039,R+63,Trump +63,republican,62.70039,13655,59.3,12918,39.1,virginia,2020-11-21T00:42:45.437713Z
51036,Charles City,4441,2856,4,4,Released separately AFTER election night,89,4971,89%,89% reported,edison,2,unknown,,611,,,2624,1761,54,2,2024,811,21,0,2020-11-17T20:36:33Z,19.43256,D+19,Biden +19,democrat,-19.43256,4107,-24.8,4232,-32.51,virginia,2020-11-21T00:42:45.437713Z
51037,Charlotte,6191,2943,7,8,None,98,6324,98%,98% reported,edison,4,all,,425,,,2317,3815,48,11,1532,1390,21,0,2020-11-17T20:36:45Z,24.19641,R+24,Trump +24,republican,24.19641,5807,22.8,5898,13.7,virginia,2020-11-21T00:42:45.437713Z
51540,Charlottesville,24101,17826,9,10,Released as a precinct in the middle of the night,91,26517,91%,91% reported,edison,2,unknown,,3257,,,20696,3094,311,,16289,1399,138,,2020-11-16T15:48:03Z,73.03431,D+73,Biden +73,democrat,-73.03431,22467,-66.5,21797,-53.52,virginia,2020-11-21T00:42:45.437713Z
51550,Chesapeake,126655,90410,61,64,"As a precinct in the FIRST cumulative report, along with regular precincts",95,132992,95%,95% reported,edison,2,none,,15226,,,66377,58180,2098,,53788,35502,1120,,2020-11-16T15:48:04Z,6.47191,D+6,Biden +6,democrat,-6.47191,112662,1.3,110425,-1.04,virginia,2020-11-21T00:42:45.437713Z
51041,Chesterfield,203955,154319,81,81,Released as a precinct at the end of tabulation,98,208224,98%,98% reported,edison,2,unknown,,17975,,,106935,93326,2927,767,90088,62602,1629,0,2020-11-17T20:37:02Z,6.67255,D+7,Biden +7,democrat,-6.67255,176362,2.3,170988,7.74,virginia,2020-11-21T00:42:45.437713Z
51043,Clarke,9337,5765,8,8,Released as a precinct at the end of tabulation,100,8619,>98%,>98% reported,edison,2,unknown,,1052,,,3920,5192,178,47,3121,2554,90,0,2020-11-17T20:37:13Z,13.62322,R+14,Trump +14,republican,13.62322,8213,19.6,7762,13.62,virginia,2020-11-21T00:42:45.437713Z
51570,Colonial Heights,9114,5736,5,6,Released as a separate subtotal at the end of tabulation,100,9026,>98%,>98% reported,edison,2,unknown,,1209,,,2972,6007,135,,2095,3577,64,,2020-11-16T15:48:05Z,33.30042,R+33,Trump +33,republican,33.30042,8457,39.2,8624,39.39,virginia,2020-11-21T00:42:45.437713Z
51580,Covington,2594,1108,6,6,None,100,2554,>98%,>98% reported,edison,4,unknown,,181,,,964,1580,50,,578,510,20,,2020-11-16T15:48:06Z,23.74711,R+24,Trump +24,republican,23.74711,2382,18.3,2330,-14.76,virginia,2020-11-21T00:42:45.437713Z
51045,Craig,3170,1127,9,9,Merged into voters' home precincts and released with cumulative results,100,2996,>98%,>98% reported,edison,2,unknown,,2794,,,587,2536,40,7,313,804,10,0,2020-11-17T20:37:25Z,61.48265,R+61,Trump +61,republican,61.48265,2791,57.3,2667,34.76,virginia,2020-11-21T00:42:45.437713Z
51047,Culpeper,27116,15044,16,16,"As a precinct in the FIRST cumulative report, along with regular precincts",100,23318,>98%,>98% reported,edison,4,unknown,,2558,,,10617,16012,406,81,8016,6837,191,0,2020-11-16T15:48:07Z,19.896,R+20,Trump +20,republican,19.896,22218,25.2,20211,16.3,virginia,2020-11-21T00:42:45.437713Z
51049,Cumberland,5313,2481,5,6,Released as a separate subtotal in the middle of the tabulation,98,5404,98%,98% reported,edison,4,some,,345,,,2227,3019,53,14,1422,1039,20,0,2020-11-17T20:38:02Z,14.90683,R+15,Trump +15,republican,14.90683,4906,13.5,5048,2.3,virginia,2020-11-21T00:42:45.437713Z
51590,Danville,19333,11815,15,17,Released as a precinct in the middle of the night,81,23811,81%,81% reported,edison,4,unknown,,2090,,,11710,7428,195,,7555,4186,74,,2020-11-16T15:48:07Z,22.14866,D+22,Biden +22,democrat,-22.14866,18940,-19.8,20204,-22.05,virginia,2020-11-21T00:42:45.437713Z
51051,Dickenson,7307,3510,11,11,None,99,7376,>98%,>98% reported,edison,4,all,,793,,,1503,5748,44,12,1030,2462,18,0,2020-11-17T20:38:17Z,58.09498,R+58,Trump +58,republican,58.09498,6440,55.9,6904,26.09,virginia,2020-11-21T00:42:45.437713Z
51053,Dinwiddie,15092,8306,13,14,None,100,14555,>98%,>98% reported,edison,4,all,,1542,,,6224,8695,144,29,4265,3982,59,0,2020-11-17T20:38:32Z,16.37291,R+16,Trump +16,republican,16.37291,13575,12.4,13589,2.39,virginia,2020-11-21T00:42:45.437713Z
51595,Emporia,2379,1043,7,8,Merged into voters' home precincts and released with cumulative results,75,3177,75%,75% reported,edison,4,all,,2367,,,1612,754,13,,796,244,3,,2020-11-16T15:48:09Z,36.06557,D+36,Biden +36,democrat,-36.06557,2366,-31.3,2696,-33.64,virginia,2020-11-21T00:42:45.437713Z
51057,Essex,6178,3893,5,5,"As a precinct in the FIRST cumulative report, along with regular precincts",100,6082,>98%,>98% reported,edison,2,unknown,,644,,,3038,3075,58,7,2131,1736,26,0,2020-11-17T20:38:44Z,0.5989,R+0.60,Trump +0.60,republican,0.5989,5372,2.1,5675,-7.3,virginia,2020-11-21T00:42:45.437713Z
51059,Fairfax,601243,410021,244,244,Released as a precinct in the middle of the night,92,650396,92%,92% reported,edison,4,all,,93111,,,419943,168401,8014,4885,321219,84585,4217,0,2020-11-17T20:39:01Z,41.83699,D+42,Biden +42,democrat,-41.83699,551183,-35.8,529287,-20.5,virginia,2020-11-21T00:42:45.437713Z
51600,Fairfax City,13397,10107,7,7,Released separately AFTER election night,100,13209,>98%,>98% reported,edison,6,none,,2574,,,9192,4002,203,,7610,2374,123,,2020-11-16T15:48:10Z,38.74002,D+39,Biden +39,democrat,-38.74002,12028,-30.5,11629,-16.13,virginia,2020-11-21T00:42:45.437713Z
51610,Falls Church,8750,7531,4,4,Released as a precinct in the middle of the night,96,9153,96%,96% reported,edison,4,none,,2617,,,7146,1490,114,,6481,976,74,,2020-11-16T15:48:11Z,64.64,D+65,Biden +65,democrat,-64.64,7757,-57.9,7276,-39.42,virginia,2020-11-21T00:42:45.437713Z
51061,Fauquier,43671,28122,21,21,None,100,39321,>98%,>98% reported,edison,2,none,,4691,,,17565,25106,777,223,14131,13573,418,0,2020-11-17T20:39:15Z,17.26775,R+17,Trump +17,republican,17.26775,37460,24.4,35555,19.88,virginia,2020-11-21T00:42:45.437713Z
51063,Floyd,9412,5466,6,6,Released as a precinct at the end of tabulation,100,9329,>98%,>98% reported,edison,6,some,,1069,,,3004,6225,147,36,2524,2851,91,0,2020-11-17T20:39:33Z,34.22227,R+34,Trump +34,republican,34.22227,8050,37.2,7644,25.39,virginia,2020-11-21T00:42:45.437713Z
51065,Fluvanna,15846,10462,6,6,Released with cumulative results periodically election night,100,15620,>98%,>98% reported,edison,6,all,,1896,,,7414,8155,226,51,6083,4248,131,0,2020-11-17T20:39:49Z,4.67626,R+5,Trump +5,republican,4.67626,13592,9.3,12749,6.16,virginia,2020-11-21T00:42:45.437713Z
51067,Franklin,29704,12153,22,24,None,100,29646,>98%,>98% reported,edison,6,all,,2169,,,8381,20895,354,74,5368,6670,115,0,2020-11-17T20:40:06Z,42.12901,R+42,Trump +42,republican,42.12901,26971,41.9,26707,28.56,virginia,2020-11-21T00:42:45.437713Z
51620,Franklin City,4047,2363,6,7,"As a precinct in the FIRST cumulative report, along with regular precincts",79,5138,79%,79% reported,edison,4,all,,369,,,2525,1487,35,,1615,737,11,,2020-11-16T15:48:11Z,25.64863,D+26,Biden +26,democrat,-25.64863,4061,-27,4360,-30.67,virginia,2020-11-21T00:42:45.437713Z
51069,Frederick,48718,28873,22,22,"As a precinct in the FIRST cumulative report, along with regular precincts",100,42442,>98%,>98% reported,edison,4,unknown,,3376,,,17207,30558,781,172,13094,15416,363,0,2020-11-17T20:40:41Z,27.40466,R+27,Trump +27,republican,27.40466,40440,35,36394,27.94,virginia,2020-11-21T00:42:45.437713Z
51630,Fredericksburg,12794,8870,6,6,None,100,12710,>98%,>98% reported,edison,6,unknown,,1464,,,8517,4037,240,,6529,2202,139,,2020-11-16T15:48:12Z,35.01641,D+35,Biden +35,democrat,-35.01641,11257,-26.3,11437,-26.85,virginia,2020-11-21T00:42:45.437713Z
51640,Galax,2633,1431,4,4,Released as a precinct at the end of tabulation,100,2548,>98%,>98% reported,edison,2,unknown,,275,,,777,1838,18,,537,886,8,,2020-11-16T15:48:13Z,40.29624,R+40,Trump +40,republican,40.29624,2376,38.8,2277,18.97,virginia,2020-11-21T00:42:45.437713Z
51071,Giles,9178,4240,9,10,Released as a precinct at the end of tabulation,100,8805,>98%,>98% reported,edison,2,unknown,,706,,,2156,6876,125,21,1443,2754,43,0,2020-11-17T20:40:59Z,51.42733,R+51,Trump +51,republican,51.42733,8212,48.2,7558,25.54,virginia,2020-11-21T00:42:45.437713Z
51073,Gloucester,22284,11428,12,12,Released separately AFTER election night,100,20590,>98%,>98% reported,edison,4,none,,1618,,,6964,14875,389,56,4993,6267,168,0,2020-11-17T20:41:13Z,35.50081,R+36,Trump +36,republican,35.50081,19619,39.2,19283,27.86,virginia,2020-11-21T00:42:45.437713Z
51075,Goochland,16952,10767,11,11,"As a subtotal in the FIRST cumulative report, along with regular precincts",100,15882,>98%,>98% reported,edison,2,unknown,,1503,,,6685,9966,242,59,5260,5393,114,0,2020-11-17T20:41:31Z,19.35465,R+19,Trump +19,republican,19.35465,14037,24.9,13315,28.33,virginia,2020-11-21T00:42:45.437713Z
51077,Grayson,8131,3152,15,16,Released separately AFTER election night,100,7811,>98%,>98% reported,edison,2,unknown,,769,,,1535,6529,56,11,987,2146,19,0,2020-11-17T20:41:45Z,61.41926,R+61,Trump +61,republican,61.41926,7285,57.4,7121,38.38,virginia,2020-11-21T00:42:45.437713Z
51079,Greene,11270,7032,6,6,Released as a precinct at the end of tabulation,100,10083,>98%,>98% reported,edison,2,unknown,,1078,,,4163,6866,241,,3343,3558,131,,2020-11-16T15:48:21Z,23.98403,R+24,Trump +24,republican,23.98403,9607,31.4,9023,25.26,virginia,2020-11-21T00:42:45.437713Z
51081,Greensville,4574,2017,9,10,Merged into voters' home precincts and released with cumulative results,100,4551,>98%,>98% reported,edison,6,all,,4363,,,2627,1914,23,10,1353,658,6,0,2020-11-17T20:42:15Z,15.58811,D+16,Biden +16,democrat,-15.58811,4363,-18.8,4926,-27.79,virginia,2020-11-21T00:42:45.437713Z
51083,Halifax,18248,10459,19,21,Released separately AFTER election night,100,18228,>98%,>98% reported,edison,4,unknown,,1636,,,7666,10418,140,24,5551,4844,64,0,2020-11-17T20:42:27Z,15.0811,R+15,Trump +15,republican,15.0811,16994,16.5,16692,5.56,virginia,2020-11-21T00:42:45.437713Z
51650,Hampton,65656,45108,28,31,None,84,78306,84%,84% reported,edison,2,unknown,,6950,,,46220,18430,1006,,35251,9386,471,,2020-11-16T15:48:14Z,42.32667,D+42,Biden +42,democrat,-42.32667,62277,-37.6,66490,-42.6,virginia,2020-11-21T00:42:45.437713Z
51085,Hanover,70988,43342,35,37,Released separately AFTER election night,100,71002,>98%,>98% reported,edison,2,unknown,,5539,,,25307,44318,1103,260,19046,23708,588,0,2020-11-17T20:42:46Z,26.78058,R+27,Trump +27,republican,26.78058,62723,32.3,59058,36.65,virginia,2020-11-21T00:42:45.437713Z
51660,Harrisonburg,16977,11265,7,9,Released separately AFTER election night,83,20358,83%,83% reported,edison,2,unknown,,1409,,,11022,5591,364,,8254,2830,181,,2020-11-16T15:48:15Z,31.99034,D+32,Biden +32,democrat,-31.99034,17987,-22,15593,-13.4,virginia,2020-11-21T00:42:45.437713Z
51087,Henrico,183299,109861,87,92,Released as a precinct at the end of tabulation,95,193112,95%,95% reported,edison,2,unknown,,17095,,,116572,63440,2414,873,81563,27296,1002,0,2020-11-17T20:43:04Z,28.98652,D+29,Biden +29,democrat,-28.98652,163536,-20.8,162241,-11.8,virginia,2020-11-21T00:42:45.437713Z
51089,Henry,26105,13396,23,25,"As a precinct in the FIRST cumulative report, along with regular precincts",100,25817,>98%,>98% reported,edison,6,some,,1528,,,9127,16725,223,30,6395,6911,90,0,2020-11-17T20:43:16Z,29.10554,R+29,Trump +29,republican,29.10554,24091,29.1,24963,14.69,virginia,2020-11-21T00:42:45.437713Z
51091,Highland,1533,479,7,7,Merged into voters' home precincts and released with cumulative results,100,1527,>98%,>98% reported,edison,6,all,,1391,,,417,1092,22,2,233,237,9,0,2020-11-17T20:43:29Z,44.03131,R+44,Trump +44,republican,44.03131,1391,42.2,1413,32.91,virginia,2020-11-21T00:42:45.437713Z
51670,Hopewell,9613,5426,7,8,Released as a precinct at the end of tabulation,90,10637,90%,90% reported,edison,4,unknown,,788,,,5432,4020,161,,3390,1964,72,,2020-11-20T22:30:53Z,14.68844,D+15,Biden +15,democrat,-14.68844,9008,-9.3,9031,-15.95,virginia,2020-11-21T00:42:45.437713Z
51093,Isle of Wight,23456,13524,13,14,Released as a precinct at the end of tabulation,100,22119,>98%,>98% reported,edison,4,none,,1924,,,9399,13707,328,22,6891,6487,146,0,2020-11-17T20:43:43Z,18.3663,R+18,Trump +18,republican,18.3663,21075,20.5,20827,14.6,virginia,2020-11-21T00:42:45.437713Z
51095,James City,49639,37016,19,20,"As a precinct in the FIRST cumulative report, along with regular precincts",100,48847,>98%,>98% reported,edison,4,unknown,,7037,,,25553,23153,710,223,21882,14707,427,0,2020-11-17T20:44:01Z,4.83491,D+5,Biden +5,democrat,-4.83491,43169,5.1,41240,12.04,virginia,2020-11-21T00:42:45.437713Z
51099,King George,14227,9750,6,6,"As a precinct in the FIRST cumulative report, along with regular precincts",100,12656,>98%,>98% reported,edison,4,unknown,,1496,,,5404,8446,314,63,4376,5182,192,0,2020-11-17T20:44:20Z,21.38188,R+21,Trump +21,republican,21.38188,12050,27.7,11325,18.78,virginia,2020-11-21T00:42:45.437713Z
51101,King William,10737,4827,7,7,Released separately AFTER election night,100,9614,>98%,>98% reported,edison,4,unknown,,566,,,3260,7320,142,15,2054,2735,38,0,2020-11-17T20:44:29Z,37.81317,R+38,Trump +38,republican,37.81317,9146,35.2,8923,23.78,virginia,2020-11-21T00:42:45.437713Z
51097,King and Queen,4115,1891,6,6,"As a precinct in the FIRST cumulative report, along with regular precincts",100,3880,>98%,>98% reported,edison,2,unknown,,354,,,1590,2450,64,11,984,887,20,0,2020-11-17T20:44:11Z,20.89915,R+21,Trump +21,republican,20.89915,3690,17.1,3655,3.28,virginia,2020-11-21T00:42:45.437713Z
51103,Lancaster,7152,4194,6,7,"As a precinct in the FIRST cumulative report, along with regular precincts",98,7295,98%,98% reported,edison,2,unknown,,810,,,3368,3697,71,16,2478,1687,29,0,2020-11-17T20:44:40Z,4.60011,R+5,Trump +5,republican,4.60011,6645,9.8,6961,8.68,virginia,2020-11-21T00:42:45.437713Z
51105,Lee,9947,3001,15,17,None,97,10274,97%,97% reported,edison,2,unknown,,754,,,1489,8365,78,15,765,2219,17,0,2020-11-17T20:44:50Z,69.12637,R+69,Trump +69,republican,69.12637,9399,62.9,9598,44.43,virginia,2020-11-21T00:42:45.437713Z
51678,Lexington,2753,2112,2,2,Merged into voters' home precincts and released with cumulative results,100,2736,>98%,>98% reported,edison,6,none,,437,,,1797,908,48,,1574,515,23,,2020-11-16T15:48:16Z,32.29205,D+32,Biden +32,democrat,-32.29205,2465,-30.3,2687,-12.65,virginia,2020-11-21T00:42:45.437713Z
51107,Loudoun,224976,155434,99,99,Released as a precinct at the end of tabulation,100,221500,>98%,>98% reported,edison,4,unknown,,31586,,,138372,82088,3139,1377,109335,44292,1807,0,2020-11-17T20:45:12Z,25.01778,D+25,Biden +25,democrat,-25.01778,183050,-16.9,160060,-4.49,virginia,2020-11-21T00:42:45.437713Z
51109,Louisa,21916,11522,16,16,Released as a precinct in the middle of the night,100,21740,>98%,>98% reported,edison,6,unknown,,1893,,,8269,13294,295,58,6092,5313,117,0,2020-11-17T20:46:34Z,22.92845,R+23,Trump +23,republican,22.92845,17612,24.5,16452,13.75,virginia,2020-11-21T00:42:45.437713Z
51111,Lunenburg,6002,2871,11,12,Released as a precinct in the middle of the night,98,6140,98%,98% reported,edison,2,unknown,,507,,,2418,3537,40,7,1495,1354,22,0,2020-11-17T20:47:53Z,18.64379,R+19,Trump +19,republican,18.64379,5586,17.5,5734,4.97,virginia,2020-11-21T00:42:45.437713Z
51680,Lynchburg,36002,18012,19,19,"As a precinct in the FIRST cumulative report, along with regular precincts",94,38146,94%,94% reported,edison,4,all,,2505,,,18048,17097,857,,11985,5746,281,,2020-11-16T15:48:17Z,2.64152,D+3,Biden +3,democrat,-2.64152,35657,8.9,36448,10.58,virginia,2020-11-21T00:42:45.437713Z
51113,Madison,8133,3804,10,10,"As a precinct in the FIRST cumulative report, along with regular precincts",100,7324,>98%,>98% reported,edison,4,some,,658,,,2698,5300,106,29,1911,1856,37,0,2020-11-17T20:47:06Z,31.99311,R+32,Trump +32,republican,31.99311,6979,31.8,6614,18.6,virginia,2020-11-21T00:42:45.437713Z
51683,Manassas,16892,11922,7,7,"As a precinct in the FIRST cumulative report, along with regular precincts",100,16174,>98%,>98% reported,edison,2,unknown,,2919,,,10356,6256,280,,8007,3760,155,,2020-11-16T15:48:18Z,24.27184,D+24,Biden +24,democrat,-24.27184,15411,-16,15200,-13.26,virginia,2020-11-21T00:42:45.437713Z
51685,Manassas Park,6071,4437,4,4,None,100,5491,>98%,>98% reported,edison,2,unknown,,1108,,,3913,2062,96,,3137,1239,61,,2020-11-16T15:48:19Z,30.48921,D+30,Biden +30,democrat,-30.48921,5232,-28.1,4656,-25.34,virginia,2020-11-21T00:42:45.437713Z
51690,Martinsville,6004,3748,6,7,"As a precinct in the FIRST cumulative report, along with regular precincts",100,5978,>98%,>98% reported,edison,6,all,,563,,,3766,2165,73,,2624,1096,28,,2020-11-16T15:48:20Z,26.66556,D+27,Biden +27,democrat,-26.66556,5907,-23.4,6284,-24.55,virginia,2020-11-21T00:42:45.437713Z
51115,Mathews,5829,4239,4,4,None,100,5630,>98%,>98% reported,edison,4,all,,1133,,,1825,3901,87,16,1560,2618,53,8,2020-11-17T20:47:32Z,35.61503,R+36,Trump +36,republican,35.61503,5311,36.8,5374,31.28,virginia,2020-11-21T00:42:45.437713Z
51117,Mecklenburg,16207,8302,22,24,Released separately AFTER election night,100,16162,>98%,>98% reported,edison,4,some,,1999,,,6803,9266,113,25,4150,4111,41,0,2020-11-17T20:48:10Z,15.19714,R+15,Trump +15,republican,15.19714,14945,13.4,15077,6.98,virginia,2020-11-21T00:42:45.437713Z
51119,Middlesex,6785,3480,7,7,Released as a precinct in the middle of the night,100,6367,>98%,>98% reported,edison,2,unknown,,626,,,2491,4196,77,21,1788,1664,28,0,2020-11-17T20:48:25Z,25.12896,R+25,Trump +25,republican,25.12896,6017,26,6080,20.54,virginia,2020-11-21T00:42:45.437713Z
51121,Montgomery,45037,28450,22,25,Released as a precinct at the end of tabulation,93,48687,93%,93% reported,edison,4,all,,3313,,,23218,20629,942,248,18499,9479,472,0,2020-11-17T20:48:38Z,5.74861,D+6,Biden +6,democrat,-5.74861,43031,-1.3,41009,0.25,virginia,2020-11-21T00:42:45.437713Z
51125,Nelson,9318,4839,10,10,None,100,8730,>98%,>98% reported,edison,4,some,,580,,,4327,4812,150,29,3184,1512,143,0,2020-11-17T20:49:23Z,5.20498,R+5,Trump +5,republican,5.20498,8311,5.6,8250,-2.72,virginia,2020-11-21T00:42:45.437713Z
51127,New Kent,14461,6202,11,11,Released as a precinct in the middle of the night,100,12848,>98%,>98% reported,edison,2,unknown,,992,,,4610,9636,172,43,3143,2989,70,0,2020-11-17T20:49:46Z,34.75555,R+35,Trump +35,republican,34.75555,12233,37.4,10953,33.7,virginia,2020-11-21T00:42:45.437713Z
51700,Newport News,81203,48299,46,46,None,87,93580,87%,87% reported,edison,2,all,,5890,,,53099,26377,1438,289,35999,11557,622,121,2020-11-16T15:48:20Z,32.90765,D+33,Biden +33,democrat,-32.90765,75637,-26.6,79444,-30.05,virginia,2020-11-21T00:42:45.437713Z
51710,Norfolk,89491,57966,45,49,Released as a precinct at the end of tabulation,87,102455,87%,87% reported,edison,2,none,,6725,,,64440,23443,1608,,45563,11652,751,,2020-11-16T15:48:21Z,45.81131,D+46,Biden +46,democrat,-45.81131,83385,-42.5,87043,-45.43,virginia,2020-11-21T00:42:45.437713Z
51131,Northampton,6732,4477,6,6,Released as a precinct at the end of tabulation,99,6806,>98%,>98% reported,edison,2,unknown,,792,,,3667,2955,100,10,2814,1623,40,0,2020-11-17T20:50:40Z,10.57635,D+11,Biden +11,democrat,-10.57635,6168,-9.2,6491,-16.41,virginia,2020-11-21T00:42:45.437713Z
51133,Northumberland,7815,4762,5,6,Released as a precinct in the middle of the night,99,7923,>98%,>98% reported,edison,2,unknown,,822,,,3252,4485,56,22,2467,2269,26,0,2020-11-17T20:50:49Z,15.77735,R+16,Trump +16,republican,15.77735,7397,19.6,7558,14.81,virginia,2020-11-21T00:42:45.437713Z
51720,Norton,1597,0,1,1,Merged into voters' home precincts and released with cumulative results,100,1593,>98%,>98% reported,edison,4,none,,1460,,,464,1112,21,,0,0,0,,2020-11-16T15:48:21Z,40.57608,R+41,Trump +41,republican,40.57608,1460,43.7,1492,22.05,virginia,2020-11-21T00:42:45.437713Z
51135,Nottoway,7078,3943,9,10,None,96,7338,96%,96% reported,edison,4,some,,735,,,2971,4027,72,8,1945,1968,30,0,2020-11-17T20:51:11Z,14.91947,R+15,Trump +15,republican,14.91947,6744,13.1,6846,0.95,virginia,2020-11-21T00:42:45.437713Z
51137,Orange,20754,9861,11,11,None,100,18125,>98%,>98% reported,edison,4,some,,1498,,,7995,12426,267,66,5510,4252,99,0,2020-11-17T20:51:22Z,21.3501,R+21,Trump +21,republican,21.3501,17267,26.4,16354,14.52,virginia,2020-11-21T00:42:45.437713Z
51139,Page,12514,5087,6,6,Released as a precinct in the middle of the night,100,11515,>98%,>98% reported,edison,2,unknown,,904,,,3007,9345,134,28,2149,2895,43,0,2020-11-17T20:51:34Z,50.64728,R+51,Trump +51,republican,50.64728,10740,49.5,10228,25.62,virginia,2020-11-21T00:42:45.437713Z
51141,Patrick,9535,3666,13,14,"As a precinct in the FIRST cumulative report, along with regular precincts",100,9141,>98%,>98% reported,edison,2,some,,749,,,1954,7485,81,15,1197,2439,30,0,2020-11-17T20:51:48Z,58.00734,R+58,Trump +58,republican,58.00734,8525,55,8259,38.81,virginia,2020-11-21T00:42:45.437713Z
51730,Petersburg,14081,9326,7,8,Released as a precinct in the middle of the night,75,18743,75%,75% reported,edison,2,unknown,,2313,,,12389,1584,108,,8421,856,49,,2020-11-16T15:48:22Z,76.73461,D+77,Biden +77,democrat,-76.73461,13786,-76.7,15908,-80.19,virginia,2020-11-21T00:42:45.437713Z
51143,Pittsylvania,34227,18138,27,30,Released as a precinct in the middle of the night,100,33880,>98%,>98% reported,edison,2,unknown,,2965,,,10115,23751,285,76,6414,11590,134,0,2020-11-17T20:52:02Z,39.83989,R+40,Trump +40,republican,39.83989,31598,39.1,30681,27.39,virginia,2020-11-21T00:42:45.437713Z
51735,Poquoson,7819,5009,4,4,Released separately AFTER election night,96,8120,96%,96% reported,edison,2,unknown,,868,,,2054,5605,160,,1635,3285,89,,2020-11-16T15:48:23Z,45.41501,R+45,Trump +45,republican,45.41501,7177,48.6,7106,51.13,virginia,2020-11-21T00:42:45.437713Z
51740,Portsmouth,44426,24212,28,32,Released separately AFTER election night,82,54103,82%,82% reported,edison,4,unknown,,4194,,,30948,12755,723,,19680,4281,251,,2020-11-16T15:48:24Z,40.95124,D+41,Biden +41,democrat,-40.95124,43261,-36.3,45922,-42.77,virginia,2020-11-21T00:42:45.437713Z
51145,Powhatan,19733,10072,13,13,"As a precinct in the FIRST cumulative report, along with regular precincts",100,19683,>98%,>98% reported,edison,6,unknown,,1526,,,5320,14055,321,37,3781,6162,129,0,2020-11-17T20:52:16Z,44.26595,R+44,Trump +44,republican,44.26595,16888,46.3,15525,45.81,virginia,2020-11-21T00:42:45.437713Z
51147,Prince Edward,9575,4911,10,11,None,99,9680,>98%,>98% reported,edison,4,none,,743,,,4973,4434,136,32,3048,1810,53,0,2020-11-17T20:52:33Z,5.62924,D+6,Biden +6,democrat,-5.62924,9143,-5.4,9239,-12.77,virginia,2020-11-21T00:42:45.437713Z
51149,Prince George,17439,10260,10,11,"As a precinct in the FIRST cumulative report, along with regular precincts",100,16985,>98%,>98% reported,edison,4,all,,2071,,,7103,10103,195,38,5101,5080,79,0,2020-11-17T20:52:44Z,17.20282,R+17,Trump +17,republican,17.20282,16184,16.9,16046,11.77,virginia,2020-11-21T00:42:45.437713Z
51153,Prince William,228267,169243,92,94,Released as a precinct in the middle of the night,98,231915,98%,98% reported,edison,2,unknown,,50233,,,142863,81222,3242,940,114350,52887,2006,0,2020-11-17T20:52:58Z,27.0039,D+27,Biden +27,democrat,-27.0039,196442,-21.1,180195,-16.02,virginia,2020-11-21T00:42:45.437713Z
51155,Pulaski,17386,8930,13,13,None,100,16262,>98%,>98% reported,edison,4,all,,1096,,,4925,12127,275,59,3526,5300,104,0,2020-11-17T20:53:11Z,41.42413,R+41,Trump +41,republican,41.42413,15165,40.6,14680,24.71,virginia,2020-11-21T00:42:45.437713Z
51750,Radford,6289,3694,4,5,Released as a precinct in the middle of the night,91,6885,91%,91% reported,edison,4,unknown,,497,,,3358,2786,145,,2324,1304,66,,2020-11-16T15:48:24Z,9.09525,D+9,Biden +9,democrat,-9.09525,6082,-4.7,5399,-3.93,virginia,2020-11-21T00:42:45.437713Z
51157,Rappahannock,4979,2130,7,7,Other,100,4705,>98%,>98% reported,edison,4,none,,451,,,2096,2812,56,15,1470,639,21,0,2020-11-17T20:53:26Z,14.3804,R+14,Trump +14,republican,14.3804,4483,17.7,4357,7.6,virginia,2020-11-21T00:42:45.437713Z
51159,Richmond,4102,2349,6,6,Merged into voters' home precincts and released with cumulative results,100,4040,>98%,>98% reported,edison,2,unknown,,283,,,1513,2547,31,11,1083,1253,13,0,2020-11-17T20:53:47Z,25.20722,R+25,Trump +25,republican,25.20722,3661,23.7,3770,15.54,virginia,2020-11-21T00:42:45.437713Z
51760,Richmond City,110469,71940,63,70,Released as a precinct in the middle of the night,90,122111,90%,90% reported,edison,2,unknown,,7463,,,92175,16603,1691,,63694,7533,713,,2020-11-18T13:31:04Z,68.41014,D+68,Biden +68,democrat,-68.41014,103406,-63.5,97569,-57.26,virginia,2020-11-21T00:42:45.437713Z
51161,Roanoke,57226,37752,32,34,None,100,54038,>98%,>98% reported,edison,2,unknown,,4981,,,21801,34268,910,247,18010,19279,463,0,2020-11-19T14:52:00Z,21.78555,R+22,Trump +22,republican,21.78555,51489,27.6,51217,25.21,virginia,2020-11-21T00:42:45.437713Z
51770,Roanoke City,43157,27708,19,21,Released as a precinct at the end of tabulation,100,42063,>98%,>98% reported,edison,2,none,,4517,,,26773,15607,777,,19780,7594,334,,2020-11-16T15:48:25Z,25.87298,D+26,Biden +26,democrat,-25.87298,39466,-19,40155,-22.77,virginia,2020-11-21T00:42:45.437713Z
51163,Rockbridge,12377,5132,17,18,Released as a precinct at the end of tabulation,100,11329,>98%,>98% reported,edison,4,unknown,,929,,,4086,8088,165,38,2787,2175,158,12,2020-11-19T14:52:41Z,32.33417,R+32,Trump +32,republican,32.33417,10795,29.4,10177,17.79,virginia,2020-11-21T00:42:45.437713Z
51165,Rockingham,43646,18011,32,32,Released with cumulative results periodically election night,100,39343,>98%,>98% reported,edison,4,unknown,,2635,,,12644,30349,653,,8527,9267,217,,2020-11-16T15:47:42Z,40.565,R+41,Trump +41,republican,40.565,37487,44.3,34866,40.5,virginia,2020-11-21T00:42:45.437713Z
51167,Russell,13368,5362,15,16,"As a precinct in the FIRST cumulative report, along with regular precincts",100,13324,>98%,>98% reported,edison,6,all,,1136,,,2373,10879,116,,1375,3939,48,,2020-11-16T15:47:45Z,63.62956,R+64,Trump +64,republican,63.62956,12246,58.7,12088,36.91,virginia,2020-11-21T00:42:45.437713Z
51775,Salem,13053,9030,10,11,Released as a separate subtotal at the end of tabulation,100,12893,>98%,>98% reported,edison,4,unknown,,1333,,,5148,7685,220,,4211,4710,109,,2020-11-16T15:48:26Z,19.43614,R+19,Trump +19,republican,19.43614,12225,24.7,12318,20.61,virginia,2020-11-21T00:42:45.437713Z
51169,Scott,10845,4599,16,18,None,100,10739,>98%,>98% reported,edison,6,all,,965,,,1692,9063,90,,978,3588,33,,2020-11-16T15:47:46Z,67.9668,R+68,Trump +68,republican,67.9668,10100,66,9992,50.48,virginia,2020-11-21T00:42:45.437713Z
51171,Shenandoah,23645,10951,13,13,Released as a precinct at the end of tabulation,100,21528,>98%,>98% reported,edison,2,unknown,,1752,,,6836,16463,346,,4729,6083,139,,2020-11-16T15:47:47Z,40.71474,R+41,Trump +41,republican,40.71474,20508,43,19373,31.33,virginia,2020-11-21T00:42:45.437713Z
51173,Smyth,14104,4671,14,15,Released as a precinct in the middle of the night,100,13820,>98%,>98% reported,edison,4,some,,841,,,3008,10963,133,,1694,2925,52,,2020-11-16T15:47:48Z,56.40244,R+56,Trump +56,republican,56.40244,12890,55,12777,32.93,virginia,2020-11-21T00:42:45.437713Z
51175,Southampton,9786,4471,13,14,Merged into voters' home precincts AFTER election night,100,9719,>98%,>98% reported,edison,6,all,,598,,,3969,5730,87,,2341,2102,28,,2020-11-16T15:47:49Z,17.9951,R+18,Trump +18,republican,17.9951,8872,16.2,9264,3.2,virginia,2020-11-21T00:42:45.437713Z
51177,Spotsylvania,75212,48674,27,27,Released as a precinct in the middle of the night,100,65659,>98%,>98% reported,edison,4,unknown,,8867,,,34385,39506,1321,,26907,21092,675,,2020-11-16T15:47:50Z,6.80875,R+7,Trump +7,republican,6.80875,62549,16.7,57974,11.52,virginia,2020-11-21T00:42:45.437713Z
51179,Stafford,79257,49511,28,28,Released as a precinct in the middle of the night,100,78500,>98%,>98% reported,edison,4,some,,9001,,,40245,37636,1376,,30328,18509,674,,2020-11-16T15:47:51Z,3.29182,D+3,Biden +3,democrat,-3.29182,65934,9,60583,8.75,virginia,2020-11-21T00:42:45.437713Z
51790,Staunton,12990,8987,6,6,Released as a precinct at the end of tabulation,100,11812,>98%,>98% reported,edison,4,none,,1258,,,6981,5695,249,65,5813,3053,121,0,2020-11-16T15:48:26Z,9.89992,D+10,Biden +10,democrat,-9.89992,11255,-1.8,11210,-4.07,virginia,2020-11-21T00:42:45.437713Z
51800,Suffolk,49482,30739,27,28,Released as a precinct as first report of the night,97,51023,97%,97% reported,edison,2,unknown,,5506,,,28676,20082,724,,20922,9474,343,,2020-11-16T15:48:27Z,17.36793,D+17,Biden +17,democrat,-17.36793,43240,-12.2,42566,-15.15,virginia,2020-11-21T00:42:45.437713Z
51181,Surry,4462,2624,7,8,Merged into voters' home precincts and released with cumulative results,88,5079,88%,88% reported,edison,4,some,,4228,,,2397,2025,40,,1722,885,17,,2020-11-16T15:47:52Z,8.33707,D+8,Biden +8,democrat,-8.33707,4228,-10.7,4308,-21.01,virginia,2020-11-21T00:42:45.437713Z
51183,Sussex,5081,2286,10,12,None,79,6410,79%,79% reported,edison,4,unknown,,363,,,2827,2219,35,,1470,801,15,,2020-11-16T15:47:53Z,11.96615,D+12,Biden +12,democrat,-11.96615,5044,-16.3,5440,-24.58,virginia,2020-11-21T00:42:45.437713Z
51185,Tazewell,20095,9973,19,21,Released as a precinct at the end of tabulation,100,19906,>98%,>98% reported,edison,2,unknown,,1686,,,3205,16731,159,,2219,7682,72,,2020-11-16T15:47:54Z,67.31028,R+67,Trump +67,republican,67.31028,18566,66.1,17732,57.42,virginia,2020-11-21T00:42:45.437713Z
51810,Virginia Beach,227561,130244,101,101,Released as a precinct as first report of the night,89,255000,89%,89% reported,edison,4,all,,29739,,,117393,105087,4208,873,81003,47179,1665,397,2020-11-16T15:48:27Z,5.40778,D+5,Biden +5,democrat,-5.40778,203019,3.5,196641,2.54,virginia,2020-11-21T00:42:45.437713Z
51187,Warren,21037,11410,12,12,Other,100,18849,>98%,>98% reported,edison,2,unknown,,1693,,,6603,14069,365,,4959,6296,155,,2020-11-16T15:47:55Z,35.48985,R+35,Trump +35,republican,35.48985,17951,36.8,16698,20.46,virginia,2020-11-21T00:42:45.437713Z
51191,Washington,28684,15854,19,20,Released as a precinct in the middle of the night,100,27126,>98%,>98% reported,edison,4,some,,2689,,,6617,21678,304,85,5122,10595,137,0,2020-11-16T15:47:57Z,52.50662,R+53,Trump +53,republican,52.50662,25846,53.3,25632,43.17,virginia,2020-11-21T00:42:45.437713Z
51820,Waynesboro,10677,6763,5,5,Released as a precinct in the middle of the night,100,9660,>98%,>98% reported,edison,2,unknown,,708,,,4961,5507,209,,3799,2866,98,,2020-11-16T15:48:27Z,5.1138,R+5,Trump +5,republican,5.1138,9204,11.3,8791,10.81,virginia,2020-11-21T00:42:45.437713Z
51193,Westmoreland,9909,5241,9,9,Released with cumulative results periodically election night,100,8998,>98%,>98% reported,edison,2,unknown,,1118,,,4501,5318,90,,3086,2125,30,,2020-11-16T15:47:58Z,8.24503,R+8,Trump +8,republican,8.24503,8574,7.1,8120,-6.95,virginia,2020-11-21T00:42:45.437713Z
51830,Williamsburg,6845,5430,2,3,None,100,6797,>98%,>98% reported,edison,6,all,,961,,,4790,1963,92,,4035,1341,54,,2020-11-16T15:48:28Z,41.30022,D+41,Biden +41,democrat,-41.30022,7626,-43,7748,-28.67,virginia,2020-11-21T00:42:45.437713Z
51840,Winchester,12044,8025,7,7,None,100,11195,>98%,>98% reported,edison,4,none,,1269,,,6610,5221,213,,5093,2825,107,,2020-11-16T15:48:28Z,11.53271,D+12,Biden +12,democrat,-11.53271,10665,-3.5,10296,-1.44,virginia,2020-11-21T00:42:45.437713Z
51195,Wise,16584,9207,12,13,Released as a precinct in the middle of the night,100,16257,>98%,>98% reported,edison,4,all,,1328,,,3110,13366,108,,2172,6984,51,,2020-11-16T15:47:59Z,61.84274,R+62,Trump +62,republican,61.84274,15163,61.9,15018,48.71,virginia,2020-11-21T00:42:45.437713Z
51197,Wythe,15046,6109,11,12,None,100,14307,>98%,>98% reported,edison,2,unknown,,896,,,3143,11733,170,,2065,3982,62,,2020-11-16T15:48:00Z,57.09159,R+57,Trump +57,republican,57.09159,13328,54.6,12358,36.75,virginia,2020-11-21T00:42:45.437713Z
51199,York,38604,27930,13,14,Released as a precinct at the end of tabulation,100,38602,>98%,>98% reported,edison,2,none,,3644,,,17683,20241,680,,14654,12902,374,,2020-11-16T15:48:01Z,6.62626,R+7,Trump +7,republican,6.62626,34113,17.1,33953,20.68,virginia,2020-11-21T00:42:45.437713Z
