fips,name,votes,absentee_votes,reporting,precincts,absentee_method,eevp,tot_exp_vote,eevp_value,eevp_display,eevp_source,turnout_stage,absentee_count_progress,absentee_outstanding,absentee_max_ballots,provisional_outstanding,provisional_count_progress,results_warnerm,results_gaded,results_absentee_warnerm,results_absentee_gaded,last_updated,leader_margin_value,leader_margin_display,leader_margin_name_display,leader_party_id,state,retrieved_time
51001,Accomack,16802,8569,15,17,Released separately AFTER election night,98,17184,98%,98% reported,edison,2,none,,1487,,,7939,8863,5569,3000,2020-11-17T20:30:33Z,5.49935,R+5,Gade +5,republican,virginia,2020-11-22T00:51:02.461244Z
51003,Albemarle,63430,42507,29,31,Released as a precinct at the end of tabulation,99,64182,>98%,>98% reported,edison,4,unknown,,6993,,,42730,20700,33176,9331,2020-11-17T20:30:55Z,34.7312,D+35,Warner +35,democrat,virginia,2020-11-22T00:51:02.461244Z
51510,Alexandria,81873,65545,28,31,Released as a precinct at the end of tabulation,92,89409,92%,92% reported,edison,2,unknown,,19940,,,65071,16802,54818,10727,2020-11-16T15:47:43Z,58.95594,D+59,Warner +59,democrat,virginia,2020-11-22T00:51:02.461244Z
51005,Alleghany,7981,2662,12,13,Released as a separate subtotal at the end of tabulation,100,7854,>98%,>98% reported,edison,4,unknown,,550,,,2822,5159,1380,1282,2020-11-17T20:31:12Z,29.28204,R+29,Gade +29,republican,virginia,2020-11-22T00:51:02.461244Z
51007,Amelia,7825,4331,6,6,Released as a precinct at the end of tabulation,100,7548,>98%,>98% reported,edison,4,unknown,,822,,,2559,5266,1786,2545,2020-11-17T20:31:43Z,34.59425,R+35,Gade +35,republican,virginia,2020-11-22T00:51:02.461244Z
51009,Amherst,16977,8467,11,12,"As a subtotal in the FIRST cumulative report, along with regular precincts",100,16507,>98%,>98% reported,edison,2,unknown,,1222,,,6331,10646,4133,4334,2020-11-17T20:32:08Z,25.41674,R+25,Gade +25,republican,virginia,2020-11-22T00:51:02.461244Z
51011,Appomattox,9047,4487,10,10,Released as a precinct in the middle of the night,100,8408,>98%,>98% reported,edison,4,unknown,,525,,,2741,6306,1689,2798,2020-11-17T20:32:28Z,39.40533,R+39,Gade +39,republican,virginia,2020-11-22T00:51:02.461244Z
51013,Arlington,129470,106823,50,55,Released as a precinct at the end of tabulation,90,143200,90%,90% reported,edison,4,none,,37665,,,102880,26590,89563,17260,2020-11-17T20:32:56Z,58.92485,D+59,Warner +59,democrat,virginia,2020-11-22T00:51:02.461244Z
51015,Augusta,42018,20904,25,26,Released separately AFTER election night,100,38142,>98%,>98% reported,edison,4,all,,2612,,,12224,29794,8314,12590,2020-11-17T20:33:11Z,41.81541,R+42,Gade +42,republican,virginia,2020-11-22T00:51:02.461244Z
51017,Bath,2432,744,7,8,Released as a precinct in the middle of the night,97,2513,97%,97% reported,edison,6,all,,202,,,744,1688,377,367,2020-11-17T20:33:59Z,38.81579,R+39,Gade +39,republican,virginia,2020-11-22T00:51:02.461244Z
51019,Bedford,48279,24093,32,33,Released as a precinct at the end of tabulation,100,44630,>98%,>98% reported,edison,4,unknown,,3722,,,13872,34407,9312,14781,2020-11-17T20:34:13Z,42.53402,R+43,Gade +43,republican,virginia,2020-11-22T00:51:02.461244Z
51021,Bland,3383,1268,7,8,None,100,3366,>98%,>98% reported,edison,2,unknown,,209,,,732,2651,375,893,2020-11-17T20:34:26Z,56.7248,R+57,Gade +57,republican,virginia,2020-11-22T00:51:02.461244Z
51023,Botetourt,20710,11343,10,11,"As a precinct in the FIRST cumulative report, along with regular precincts",100,19667,>98%,>98% reported,edison,2,unknown,,1719,,,6517,14193,4550,6793,2020-11-17T20:34:50Z,37.06422,R+37,Gade +37,republican,virginia,2020-11-22T00:51:02.461244Z
51520,Bristol,7679,4644,5,5,Released as a separate subtotal as first report of the night,99,7730,>98%,>98% reported,edison,4,unknown,,770,,,2787,4892,2008,2636,2020-11-16T15:47:46Z,27.41242,R+27,Gade +27,republican,virginia,2020-11-22T00:51:02.461244Z
51025,Brunswick,7919,4170,12,14,None,84,9479,84%,84% reported,edison,2,unknown,,801,,,4727,3192,2859,1311,2020-11-16T15:48:33Z,19.38376,D+19,Warner +19,democrat,virginia,2020-11-22T00:51:02.461244Z
51027,Buchanan,9724,3023,16,18,Released as a precinct in the middle of the night,100,9382,>98%,>98% reported,edison,6,all,,942,,,2522,7202,983,2040,2020-11-17T20:35:27Z,48.12834,R+48,Gade +48,republican,virginia,2020-11-22T00:51:02.461244Z
51029,Buckingham,8048,4099,10,11,Released as a precinct in the middle of the night,100,8086,>98%,>98% reported,edison,6,all,,520,,,3656,4392,2353,1746,2020-11-17T20:35:40Z,9.14513,R+9,Gade +9,republican,virginia,2020-11-22T00:51:02.461244Z
51530,Buena Vista,2744,1783,3,3,Merged into voters' home precincts and released with cumulative results,100,2757,>98%,>98% reported,edison,6,unknown,,2407,,,1020,1724,760,1023,2020-11-16T15:47:47Z,25.65598,R+26,Gade +26,republican,virginia,2020-11-22T00:51:02.461244Z
51031,Campbell,29623,14943,15,17,Released separately AFTER election night,100,28898,>98%,>98% reported,edison,2,unknown,,2042,,,9281,20342,6035,8908,2020-11-17T20:36:02Z,37.33923,R+37,Gade +37,republican,virginia,2020-11-22T00:51:02.461244Z
51033,Caroline,16160,7834,12,13,None,100,15598,>98%,>98% reported,edison,2,unknown,,1350,,,8124,8036,5078,2756,2020-11-16T15:48:34Z,0.54455,D+0.54,Warner +0.54,democrat,virginia,2020-11-22T00:51:02.461244Z
51035,Carroll,15201,5486,17,18,Released as a precinct at the end of tabulation,100,14655,>98%,>98% reported,edison,2,unknown,,1199,,,3591,11610,1953,3533,2020-11-17T20:36:21Z,52.75311,R+53,Gade +53,republican,virginia,2020-11-22T00:51:02.461244Z
51036,Charles City,4404,2835,4,4,Released separately AFTER election night,89,4971,89%,89% reported,edison,2,unknown,,611,,,2700,1704,2049,786,2020-11-17T20:36:34Z,22.6158,D+23,Warner +23,democrat,virginia,2020-11-22T00:51:02.461244Z
51037,Charlotte,6155,2927,7,8,None,97,6324,97%,97% reported,edison,4,all,,425,,,2522,3633,1596,1331,2020-11-17T20:36:46Z,18.05037,R+18,Gade +18,republican,virginia,2020-11-22T00:51:02.461244Z
51540,Charlottesville,24081,17799,9,10,Released as a precinct in the middle of the night,91,26517,91%,91% reported,edison,2,unknown,,3257,,,20672,3409,16213,1586,2020-11-16T15:47:48Z,71.68722,D+72,Warner +72,democrat,virginia,2020-11-22T00:51:02.461244Z
51550,Chesapeake,126283,90164,61,64,"As a precinct in the FIRST cumulative report, along with regular precincts",95,132992,95%,95% reported,edison,2,none,,15226,,,68129,58154,54418,35746,2020-11-16T15:47:49Z,7.89893,D+8,Warner +8,democrat,virginia,2020-11-22T00:51:02.461244Z
51041,Chesterfield,200226,142095,81,81,Released as a precinct at the end of tabulation,96,208224,96%,96% reported,edison,2,unknown,,17975,,,107568,92658,85134,56961,2020-11-17T20:37:02Z,7.44659,D+7,Warner +7,democrat,virginia,2020-11-22T00:51:02.461244Z
51043,Clarke,9266,5745,8,8,Released as a precinct at the end of tabulation,100,8619,>98%,>98% reported,edison,2,unknown,,1052,,,4052,5214,3159,2586,2020-11-17T20:37:14Z,12.54047,R+13,Gade +13,republican,virginia,2020-11-22T00:51:02.461244Z
51570,Colonial Heights,8931,5640,5,6,Released as a separate subtotal at the end of tabulation,99,9026,>98%,>98% reported,edison,2,unknown,,1209,,,3143,5788,2173,3467,2020-11-16T15:47:50Z,29.61594,R+30,Gade +30,republican,virginia,2020-11-22T00:51:02.461244Z
51580,Covington,2543,1085,5,6,None,100,2554,>98%,>98% reported,edison,4,unknown,,181,,,1157,1386,626,459,2020-11-16T15:47:51Z,9.00511,R+9,Gade +9,republican,virginia,2020-11-22T00:51:02.461244Z
51045,Craig,3138,1107,9,9,Merged into voters' home precincts and released with cumulative results,100,2996,>98%,>98% reported,edison,2,unknown,,2794,,,757,2381,371,736,2020-11-17T20:37:26Z,51.75271,R+52,Gade +52,republican,virginia,2020-11-22T00:51:02.461244Z
51047,Culpeper,26714,14840,16,16,"As a precinct in the FIRST cumulative report, along with regular precincts",100,23318,>98%,>98% reported,edison,4,unknown,,2558,,,11123,15591,8141,6699,2020-11-16T15:47:43Z,16.72531,R+17,Gade +17,republican,virginia,2020-11-22T00:51:02.461244Z
51049,Cumberland,5264,2460,5,6,Released as a separate subtotal in the middle of the tabulation,97,5404,97%,97% reported,edison,4,some,,345,,,2317,2947,1441,1019,2020-11-17T20:38:03Z,11.96809,R+12,Gade +12,republican,virginia,2020-11-22T00:51:02.461244Z
51590,Danville,19199,11729,15,17,Released as a precinct in the middle of the night,81,23811,81%,81% reported,edison,4,unknown,,2090,,,12519,6680,7923,3806,2020-11-16T15:47:51Z,30.41304,D+30,Warner +30,democrat,virginia,2020-11-22T00:51:02.461244Z
51051,Dickenson,7194,3471,10,11,None,98,7376,98%,98% reported,edison,4,all,,793,,,2052,5142,1269,2202,2020-11-17T20:38:18Z,42.95246,R+43,Gade +43,republican,virginia,2020-11-22T00:51:02.461244Z
51053,Dinwiddie,14859,8185,13,14,None,100,14555,>98%,>98% reported,edison,4,all,,1542,,,6445,8414,4344,3841,2020-11-17T20:38:33Z,13.25123,R+13,Gade +13,republican,virginia,2020-11-22T00:51:02.461244Z
51595,Emporia,2330,1027,7,8,Merged into voters' home precincts and released with cumulative results,73,3177,73%,73% reported,edison,4,all,,2367,,,1618,712,789,238,2020-11-16T15:47:52Z,38.88412,D+39,Warner +39,democrat,virginia,2020-11-22T00:51:02.461244Z
51057,Essex,6111,3846,5,5,"As a precinct in the FIRST cumulative report, along with regular precincts",100,6082,>98%,>98% reported,edison,2,unknown,,644,,,3194,2917,2215,1631,2020-11-17T20:38:45Z,4.53281,D+5,Warner +5,democrat,virginia,2020-11-22T00:51:02.461244Z
51059,Fairfax,572734,0,68,244,Released as a precinct in the middle of the night,88,650396,88%,88% reported,edison,4,unknown,,93111,,,401005,171729,0,0,2020-11-17T20:39:01Z,40.03185,D+40,Warner +40,democrat,virginia,2020-11-22T00:51:02.461244Z
51600,Fairfax City,13323,10046,7,7,Released separately AFTER election night,100,13209,>98%,>98% reported,edison,6,none,,2574,,,9190,4133,7540,2506,2020-11-16T15:47:53Z,37.95692,D+38,Warner +38,democrat,virginia,2020-11-22T00:51:02.461244Z
51610,Falls Church,8766,7524,4,4,Released as a precinct in the middle of the night,96,9153,96%,96% reported,edison,4,none,,2617,,,7016,1750,6337,1187,2020-11-16T15:47:53Z,60.07301,D+60,Warner +60,democrat,virginia,2020-11-22T00:51:02.461244Z
51061,Fauquier,42405,27400,20,21,None,100,39321,>98%,>98% reported,edison,2,none,,4691,,,17468,24937,13838,13562,2020-11-17T20:39:15Z,17.61349,R+18,Gade +18,republican,virginia,2020-11-22T00:51:02.461244Z
51063,Floyd,9315,5420,6,6,Released as a precinct at the end of tabulation,100,9329,>98%,>98% reported,edison,6,some,,1069,,,3407,5908,2725,2695,2020-11-17T20:39:34Z,26.84917,R+27,Gade +27,republican,virginia,2020-11-22T00:51:02.461244Z
51065,Fluvanna,15710,10400,6,6,Released with cumulative results periodically election night,100,15620,>98%,>98% reported,edison,6,all,,1896,,,7830,7880,6315,4085,2020-11-17T20:39:50Z,0.31827,R+0.32,Gade +0.32,republican,virginia,2020-11-22T00:51:02.461244Z
51067,Franklin,29646,12390,22,24,None,100,29646,>98%,>98% reported,edison,6,all,,2169,,,9831,19815,5777,6613,2020-11-17T20:40:06Z,33.67739,R+34,Gade +34,republican,virginia,2020-11-22T00:51:02.461244Z
51620,Franklin City,3959,2300,6,7,"As a precinct in the FIRST cumulative report, along with regular precincts",77,5138,77%,77% reported,edison,4,all,,369,,,2549,1410,1591,709,2020-11-16T15:47:55Z,28.76989,D+29,Warner +29,democrat,virginia,2020-11-22T00:51:02.461244Z
51069,Frederick,47902,28220,22,22,"As a precinct in the FIRST cumulative report, along with regular precincts",100,42442,>98%,>98% reported,edison,4,unknown,,3376,,,17962,29940,13228,14992,2020-11-17T20:40:41Z,25.00522,R+25,Gade +25,republican,virginia,2020-11-22T00:51:02.461244Z
51630,Fredericksburg,12575,8735,6,6,None,99,12710,>98%,>98% reported,edison,6,unknown,,1464,,,8495,4080,6458,2277,2020-11-16T15:47:56Z,35.10934,D+35,Warner +35,democrat,virginia,2020-11-22T00:51:02.461244Z
51640,Galax,2598,1411,4,4,Released as a precinct at the end of tabulation,100,2548,>98%,>98% reported,edison,2,unknown,,275,,,919,1679,608,803,2020-11-16T15:47:57Z,29.25327,R+29,Gade +29,republican,virginia,2020-11-22T00:51:02.461244Z
51071,Giles,9019,4173,9,10,Released as a precinct at the end of tabulation,100,8805,>98%,>98% reported,edison,2,unknown,,706,,,2713,6306,1667,2506,2020-11-17T20:40:59Z,39.83812,R+40,Gade +40,republican,virginia,2020-11-22T00:51:02.461244Z
51073,Gloucester,22126,11376,11,12,Released separately AFTER election night,100,20590,>98%,>98% reported,edison,4,none,,1618,,,7521,14605,5177,6199,2020-11-17T20:41:13Z,32.01663,R+32,Gade +32,republican,virginia,2020-11-22T00:51:02.461244Z
51075,Goochland,16702,10628,11,11,"As a subtotal in the FIRST cumulative report, along with regular precincts",100,15882,>98%,>98% reported,edison,2,unknown,,1503,,,6730,9972,5178,5450,2020-11-17T20:41:31Z,19.41085,R+19,Gade +19,republican,virginia,2020-11-22T00:51:02.461244Z
51077,Grayson,7918,3054,15,16,Released separately AFTER election night,100,7811,>98%,>98% reported,edison,2,unknown,,769,,,1946,5972,1129,1925,2020-11-17T20:41:46Z,50.84617,R+51,Gade +51,republican,virginia,2020-11-22T00:51:02.461244Z
51079,Greene,11190,6983,6,6,Released as a precinct at the end of tabulation,100,10083,>98%,>98% reported,edison,2,unknown,,1078,,,4529,6661,3504,3479,2020-11-16T15:47:54Z,19.05273,R+19,Gade +19,republican,virginia,2020-11-22T00:51:02.461244Z
51081,Greensville,4538,1999,9,10,Merged into voters' home precincts and released with cumulative results,100,4551,>98%,>98% reported,edison,6,all,,4363,,,2716,1822,1363,636,2020-11-17T20:42:16Z,19.70031,D+20,Warner +20,democrat,virginia,2020-11-22T00:51:02.461244Z
51083,Halifax,18082,10376,19,21,Released separately AFTER election night,99,18228,>98%,>98% reported,edison,4,unknown,,1636,,,8258,9824,5819,4557,2020-11-17T20:42:27Z,8.66055,R+9,Gade +9,republican,virginia,2020-11-22T00:51:02.461244Z
51650,Hampton,64404,44191,27,31,None,82,78306,82%,82% reported,edison,2,unknown,,6950,,,46627,17777,35056,9135,2020-11-16T15:47:58Z,44.79535,D+45,Warner +45,democrat,virginia,2020-11-22T00:51:02.461244Z
51085,Hanover,69757,42721,35,37,Released separately AFTER election night,98,71002,98%,98% reported,edison,2,unknown,,5539,,,25864,43893,19077,23644,2020-11-17T20:42:47Z,25.84543,R+26,Gade +26,republican,virginia,2020-11-22T00:51:02.461244Z
51660,Harrisonburg,16750,11120,7,9,Released separately AFTER election night,82,20358,82%,82% reported,edison,2,unknown,,1409,,,11116,5634,8226,2894,2020-11-16T15:47:59Z,32.72836,D+33,Warner +33,democrat,virginia,2020-11-22T00:51:02.461244Z
51087,Henrico,179885,108259,86,92,Released as a precinct at the end of tabulation,93,193112,93%,93% reported,edison,2,unknown,,17095,,,117199,62686,80869,27390,2020-11-17T20:43:06Z,30.30436,D+30,Warner +30,democrat,virginia,2020-11-22T00:51:02.461244Z
51089,Henry,25667,13161,23,25,"As a precinct in the FIRST cumulative report, along with regular precincts",99,25817,>98%,>98% reported,edison,6,some,,1528,,,10616,15051,6936,6225,2020-11-17T20:43:17Z,17.279,R+17,Gade +17,republican,virginia,2020-11-22T00:51:02.461244Z
51091,Highland,1524,479,6,7,Merged into voters' home precincts and released with cumulative results,100,1527,>98%,>98% reported,edison,6,all,,1391,,,504,1020,246,233,2020-11-17T20:43:30Z,33.85827,R+34,Gade +34,republican,virginia,2020-11-22T00:51:02.461244Z
51670,Hopewell,9542,5388,7,8,Released as a precinct at the end of tabulation,90,10637,90%,90% reported,edison,4,unknown,,788,,,5695,3847,3509,1879,2020-11-20T22:30:56Z,19.36701,D+19,Warner +19,democrat,virginia,2020-11-22T00:51:02.461244Z
51093,Isle of Wight,23367,13488,13,14,Released as a precinct at the end of tabulation,100,22119,>98%,>98% reported,edison,4,none,,1924,,,9821,13546,7024,6464,2020-11-17T20:43:43Z,15.94128,R+16,Gade +16,republican,virginia,2020-11-22T00:51:02.461244Z
51095,James City,49285,36920,19,20,"As a precinct in the FIRST cumulative report, along with regular precincts",100,48847,>98%,>98% reported,edison,4,unknown,,7037,,,25685,23600,21728,15192,2020-11-17T20:44:02Z,4.2305,D+4,Warner +4,democrat,virginia,2020-11-22T00:51:02.461244Z
51099,King George,14142,9735,6,6,"As a precinct in the FIRST cumulative report, along with regular precincts",100,12656,>98%,>98% reported,edison,4,unknown,,1496,,,5758,8384,4543,5192,2020-11-17T20:44:20Z,18.5688,R+19,Gade +19,republican,virginia,2020-11-22T00:51:02.461244Z
51101,King William,10526,4731,7,7,Released separately AFTER election night,100,9614,>98%,>98% reported,edison,4,unknown,,566,,,3447,7079,2095,2636,2020-11-17T20:44:30Z,34.50504,R+35,Gade +35,republican,virginia,2020-11-22T00:51:02.461244Z
51097,King and Queen,4077,1884,6,6,"As a precinct in the FIRST cumulative report, along with regular precincts",100,3880,>98%,>98% reported,edison,2,unknown,,354,,,1705,2372,1017,867,2020-11-17T20:44:12Z,16.36007,R+16,Gade +16,republican,virginia,2020-11-22T00:51:02.461244Z
51103,Lancaster,7105,4180,6,7,"As a precinct in the FIRST cumulative report, along with regular precincts",97,7295,97%,97% reported,edison,2,unknown,,810,,,3457,3648,2501,1679,2020-11-17T20:44:41Z,2.68825,R+3,Gade +3,republican,virginia,2020-11-22T00:51:02.461244Z
51105,Lee,9840,2960,15,17,None,96,10274,96%,96% reported,edison,2,unknown,,754,,,2240,7600,940,2020,2020-11-17T20:44:51Z,54.47154,R+54,Gade +54,republican,virginia,2020-11-22T00:51:02.461244Z
51678,Lexington,2754,2114,2,2,Merged into voters' home precincts and released with cumulative results,100,2736,>98%,>98% reported,edison,6,none,,437,,,1857,897,1597,517,2020-11-16T15:48:00Z,34.85839,D+35,Warner +35,democrat,virginia,2020-11-22T00:51:02.461244Z
51107,Loudoun,222805,154707,99,99,Released as a precinct at the end of tabulation,100,221500,>98%,>98% reported,edison,4,unknown,,31586,,,137814,84991,107800,46907,2020-11-17T20:45:13Z,23.70818,D+24,Warner +24,democrat,virginia,2020-11-22T00:51:02.461244Z
51109,Louisa,21739,11458,16,16,Released as a precinct in the middle of the night,100,21740,>98%,>98% reported,edison,6,unknown,,1893,,,8700,13039,6207,5251,2020-11-17T20:46:35Z,19.95952,R+20,Gade +20,republican,virginia,2020-11-22T00:51:02.461244Z
51111,Lunenburg,5893,2824,11,12,Released as a precinct in the middle of the night,96,6140,96%,96% reported,edison,2,unknown,,507,,,2531,3362,1519,1305,2020-11-17T20:47:53Z,14.10148,R+14,Gade +14,republican,virginia,2020-11-22T00:51:02.461244Z
51680,Lynchburg,35795,17844,19,19,"As a precinct in the FIRST cumulative report, along with regular precincts",94,38146,94%,94% reported,edison,4,unknown,,2505,,,18587,17208,12125,5719,2020-11-16T15:48:01Z,3.85249,D+4,Warner +4,democrat,virginia,2020-11-22T00:51:02.461244Z
51113,Madison,8081,3786,10,10,"As a precinct in the FIRST cumulative report, along with regular precincts",100,7324,>98%,>98% reported,edison,4,unknown,,658,,,2925,5156,1961,1825,2020-11-17T20:47:06Z,27.60797,R+28,Gade +28,republican,virginia,2020-11-22T00:51:02.461244Z
51683,Manassas,16774,11840,6,7,"As a precinct in the FIRST cumulative report, along with regular precincts",100,16174,>98%,>98% reported,edison,2,unknown,,2919,,,10547,6227,8035,3805,2020-11-16T15:48:02Z,25.75414,D+26,Warner +26,democrat,virginia,2020-11-22T00:51:02.461244Z
51685,Manassas Park,6013,4391,4,4,None,100,5491,>98%,>98% reported,edison,2,unknown,,1108,,,4084,1929,3155,1236,2020-11-16T15:48:02Z,35.83902,D+36,Warner +36,democrat,virginia,2020-11-22T00:51:02.461244Z
51690,Martinsville,5838,3636,6,7,"As a precinct in the FIRST cumulative report, along with regular precincts",98,5978,98%,98% reported,edison,6,all,,563,,,3957,1881,2679,957,2020-11-16T15:48:03Z,35.56012,D+36,Warner +36,democrat,virginia,2020-11-22T00:51:02.461244Z
51115,Mathews,5799,4221,4,4,None,100,5630,>98%,>98% reported,edison,4,all,,1133,,,1943,3856,1618,2603,2020-11-17T20:47:34Z,32.98845,R+33,Gade +33,republican,virginia,2020-11-22T00:51:02.461244Z
51117,Mecklenburg,15875,8131,22,24,Released separately AFTER election night,98,16162,98%,98% reported,edison,4,some,,1999,,,7004,8871,4188,3943,2020-11-17T20:48:10Z,11.76063,R+12,Gade +12,republican,virginia,2020-11-22T00:51:02.461244Z
51119,Middlesex,6738,3475,7,7,Released as a precinct in the middle of the night,100,6367,>98%,>98% reported,edison,2,unknown,,626,,,2658,4080,1812,1663,2020-11-17T20:48:25Z,21.10419,R+21,Gade +21,republican,virginia,2020-11-22T00:51:02.461244Z
51121,Montgomery,44581,28298,22,25,Released as a precinct at the end of tabulation,92,48687,92%,92% reported,edison,4,all,,3313,,,24589,19992,19069,9229,2020-11-17T20:48:38Z,10.31157,D+10,Warner +10,democrat,virginia,2020-11-22T00:51:02.461244Z
51125,Nelson,9199,4728,9,10,None,100,8730,>98%,>98% reported,edison,4,some,,580,,,4673,4526,3283,1445,2020-11-17T20:49:24Z,1.598,D+1.6,Warner +1.6,democrat,virginia,2020-11-22T00:51:02.461244Z
51127,New Kent,14213,6137,11,11,Released as a precinct in the middle of the night,100,12848,>98%,>98% reported,edison,2,unknown,,992,,,4764,9449,3134,3003,2020-11-17T20:49:47Z,32.96278,R+33,Gade +33,republican,virginia,2020-11-22T00:51:02.461244Z
51700,Newport News,78693,0,39,46,None,84,93580,84%,84% reported,edison,2,all,,5890,,,53265,25428,0,0,2020-11-16T15:48:03Z,35.37418,D+35,Warner +35,democrat,virginia,2020-11-22T00:51:02.461244Z
51710,Norfolk,89236,57829,44,49,Released as a precinct at the end of tabulation,87,102455,87%,87% reported,edison,2,none,,6725,,,66152,23084,46031,11798,2020-11-16T15:48:03Z,48.26303,D+48,Warner +48,democrat,virginia,2020-11-22T00:51:02.461244Z
51131,Northampton,6684,4453,6,6,Released as a precinct at the end of tabulation,98,6806,98%,98% reported,edison,2,unknown,,792,,,3889,2795,2900,1553,2020-11-17T20:50:41Z,16.36744,D+16,Warner +16,democrat,virginia,2020-11-22T00:51:02.461244Z
51133,Northumberland,7896,4919,5,6,Released as a precinct in the middle of the night,100,7923,>98%,>98% reported,edison,2,unknown,,822,,,3388,4508,2539,2380,2020-11-17T20:50:50Z,14.1844,R+14,Gade +14,republican,virginia,2020-11-22T00:51:02.461244Z
51720,Norton,1581,0,1,1,Merged into voters' home precincts and released with cumulative results,99,1593,>98%,>98% reported,edison,4,none,,1460,,,592,989,0,0,2020-11-16T15:48:04Z,25.11069,R+25,Gade +25,republican,virginia,2020-11-22T00:51:02.461244Z
51135,Nottoway,7015,3904,9,10,None,96,7338,96%,96% reported,edison,4,some,,735,,,3141,3874,2015,1889,2020-11-17T20:51:12Z,10.44904,R+10,Gade +10,republican,virginia,2020-11-22T00:51:02.461244Z
51137,Orange,20562,9799,11,11,None,100,18125,>98%,>98% reported,edison,4,some,,1498,,,8392,12170,5593,4206,2020-11-17T20:51:22Z,18.3737,R+18,Gade +18,republican,virginia,2020-11-22T00:51:02.461244Z
51139,Page,12388,5047,6,6,Released as a precinct in the middle of the night,100,11515,>98%,>98% reported,edison,2,unknown,,904,,,3420,8968,2219,2828,2020-11-17T20:51:35Z,44.78528,R+45,Gade +45,republican,virginia,2020-11-22T00:51:02.461244Z
51141,Patrick,9185,3528,13,14,"As a precinct in the FIRST cumulative report, along with regular precincts",100,9141,>98%,>98% reported,edison,2,unknown,,749,,,2310,6875,1309,2219,2020-11-17T20:51:48Z,49.7006,R+50,Gade +50,republican,virginia,2020-11-22T00:51:02.461244Z
51730,Petersburg,13918,9218,7,8,Released as a precinct in the middle of the night,74,18743,74%,74% reported,edison,2,unknown,,2313,,,12413,1505,8421,797,2020-11-16T15:48:05Z,78.37333,D+78,Warner +78,democrat,virginia,2020-11-22T00:51:02.461244Z
51143,Pittsylvania,33502,17814,27,30,Released as a precinct in the middle of the night,99,33880,>98%,>98% reported,edison,2,unknown,,2965,,,11509,21993,7059,10755,2020-11-17T20:52:03Z,31.29365,R+31,Gade +31,republican,virginia,2020-11-22T00:51:02.461244Z
51735,Poquoson,7806,4992,4,4,Released separately AFTER election night,96,8120,96%,96% reported,edison,2,unknown,,868,,,2212,5594,1707,3285,2020-11-16T15:48:05Z,43.32565,R+43,Gade +43,republican,virginia,2020-11-22T00:51:02.461244Z
51740,Portsmouth,43761,23911,27,32,Released separately AFTER election night,81,54103,81%,81% reported,edison,4,unknown,,4194,,,31520,12241,19664,4247,2020-11-16T15:48:06Z,44.05521,D+44,Warner +44,democrat,virginia,2020-11-22T00:51:02.461244Z
51145,Powhatan,19683,10038,13,13,"As a precinct in the FIRST cumulative report, along with regular precincts",100,19683,>98%,>98% reported,edison,6,unknown,,1526,,,5638,14045,3883,6155,2020-11-17T20:52:16Z,42.71198,R+43,Gade +43,republican,virginia,2020-11-22T00:51:02.461244Z
51147,Prince Edward,9486,4870,10,11,None,98,9680,98%,98% reported,edison,4,none,,743,,,5195,4291,3134,1736,2020-11-17T20:52:34Z,9.52983,D+10,Warner +10,democrat,virginia,2020-11-22T00:51:02.461244Z
51149,Prince George,17041,10022,10,11,"As a precinct in the FIRST cumulative report, along with regular precincts",100,16985,>98%,>98% reported,edison,4,all,,2071,,,7199,9842,5072,4950,2020-11-17T20:52:44Z,15.50965,R+16,Gade +16,republican,virginia,2020-11-22T00:51:02.461244Z
51153,Prince William,224232,167433,91,94,Released as a precinct in the middle of the night,97,231915,97%,97% reported,edison,2,unknown,,50233,,,144162,80070,115546,51887,2020-11-17T20:52:59Z,28.5829,D+29,Warner +29,democrat,virginia,2020-11-22T00:51:02.461244Z
51155,Pulaski,17144,8839,12,13,None,100,16262,>98%,>98% reported,edison,4,all,,1096,,,5941,11203,3978,4861,2020-11-17T20:53:12Z,30.69295,R+31,Gade +31,republican,virginia,2020-11-22T00:51:02.461244Z
51750,Radford,6241,3656,4,5,Released as a precinct in the middle of the night,91,6885,91%,91% reported,edison,4,unknown,,497,,,3551,2690,2417,1239,2020-11-16T15:48:07Z,13.79587,D+14,Warner +14,democrat,virginia,2020-11-22T00:51:02.461244Z
51157,Rappahannock,4953,2127,7,7,Other,100,4705,>98%,>98% reported,edison,4,none,,451,,,2219,2734,1500,627,2020-11-17T20:53:27Z,10.39774,R+10,Gade +10,republican,virginia,2020-11-22T00:51:02.461244Z
51159,Richmond,4034,2311,6,6,Merged into voters' home precincts and released with cumulative results,100,4040,>98%,>98% reported,edison,2,unknown,,283,,,1687,2347,1153,1158,2020-11-17T20:53:48Z,16.36093,R+16,Gade +16,republican,virginia,2020-11-22T00:51:02.461244Z
51760,Richmond City,109427,71261,63,70,Released as a precinct in the middle of the night,90,122111,90%,90% reported,edison,2,unknown,,7463,,,91222,18205,62702,8559,2020-11-18T13:30:59Z,66.72668,D+67,Warner +67,democrat,virginia,2020-11-22T00:51:02.461244Z
51161,Roanoke,56685,37092,32,34,None,100,54038,>98%,>98% reported,edison,2,unknown,,4981,,,24043,32642,18582,18510,2020-11-19T14:52:02Z,15.1698,R+15,Gade +15,republican,virginia,2020-11-22T00:51:02.461244Z
51770,Roanoke City,42844,27534,19,21,Released as a precinct at the end of tabulation,100,42063,>98%,>98% reported,edison,2,none,,4517,,,28345,14499,20450,7084,2020-11-16T15:48:10Z,32.31724,D+32,Warner +32,democrat,virginia,2020-11-22T00:51:02.461244Z
51163,Rockbridge,12277,5042,17,18,Released as a precinct at the end of tabulation,100,11329,>98%,>98% reported,edison,4,unknown,,929,,,4631,7646,2942,2100,2020-11-19T14:52:42Z,24.55812,R+25,Gade +25,republican,virginia,2020-11-22T00:51:02.461244Z
51165,Rockingham,43439,17906,31,32,Released with cumulative results periodically election night,100,39343,>98%,>98% reported,edison,4,unknown,,2635,,,13739,29700,8665,9241,2020-11-16T15:48:24Z,36.74348,R+37,Gade +37,republican,virginia,2020-11-22T00:51:02.461244Z
51167,Russell,13250,5315,15,16,"As a precinct in the FIRST cumulative report, along with regular precincts",99,13324,>98%,>98% reported,edison,6,all,,1136,,,3288,9962,1709,3606,2020-11-16T15:48:24Z,50.36981,R+50,Gade +50,republican,virginia,2020-11-22T00:51:02.461244Z
51775,Salem,13024,8946,10,11,Released as a separate subtotal at the end of tabulation,100,12893,>98%,>98% reported,edison,4,unknown,,1333,,,5691,7333,4554,4392,2020-11-16T15:48:10Z,12.60749,R+13,Gade +13,republican,virginia,2020-11-22T00:51:02.461244Z
51169,Scott,10734,4541,16,18,None,100,10739,>98%,>98% reported,edison,6,all,,965,,,2191,8543,1153,3388,2020-11-16T15:48:25Z,59.17645,R+59,Gade +59,republican,virginia,2020-11-22T00:51:02.461244Z
51171,Shenandoah,23536,10899,13,13,Released as a precinct at the end of tabulation,100,21528,>98%,>98% reported,edison,2,unknown,,1752,,,7313,16223,4851,6048,2020-11-16T15:48:25Z,37.8569,R+38,Gade +38,republican,virginia,2020-11-22T00:51:02.461244Z
51173,Smyth,13986,4605,14,15,Released as a precinct in the middle of the night,100,13820,>98%,>98% reported,edison,4,some,,841,,,3973,10013,1912,2693,2020-11-16T15:48:26Z,43.18604,R+43,Gade +43,republican,virginia,2020-11-22T00:51:02.461244Z
51175,Southampton,9615,4392,13,14,Merged into voters' home precincts AFTER election night,99,9719,>98%,>98% reported,edison,6,all,,598,,,4123,5492,2356,2036,2020-11-16T15:48:26Z,14.23817,R+14,Gade +14,republican,virginia,2020-11-22T00:51:02.461244Z
51177,Spotsylvania,74819,48416,27,27,Released as a precinct in the middle of the night,100,65659,>98%,>98% reported,edison,4,unknown,,8867,,,35605,39214,27263,21153,2020-11-16T15:48:27Z,4.82364,R+5,Gade +5,republican,virginia,2020-11-22T00:51:02.461244Z
51179,Stafford,77955,48548,28,28,Released as a precinct in the middle of the night,99,78500,>98%,>98% reported,edison,4,some,,9001,,,40566,37389,29797,18751,2020-11-16T15:48:27Z,4.07543,D+4,Warner +4,democrat,virginia,2020-11-22T00:51:02.461244Z
51790,Staunton,12835,8909,6,6,Released as a precinct at the end of tabulation,100,11812,>98%,>98% reported,edison,4,none,,1258,,,7289,5546,5901,3008,2020-11-16T15:48:11Z,13.58005,D+14,Warner +14,democrat,virginia,2020-11-22T00:51:02.461244Z
51800,Suffolk,49230,30578,27,28,Released as a precinct as first report of the night,96,51023,96%,96% reported,edison,2,unknown,,5506,,,29275,19955,21057,9521,2020-11-16T15:48:12Z,18.93155,D+19,Warner +19,democrat,virginia,2020-11-22T00:51:02.461244Z
51181,Surry,4397,2579,7,8,Merged into voters' home precincts and released with cumulative results,87,5079,87%,87% reported,edison,4,some,,4228,,,2439,1958,1722,857,2020-11-16T15:48:27Z,10.93928,D+11,Warner +11,democrat,virginia,2020-11-22T00:51:02.461244Z
51183,Sussex,5070,2283,10,12,None,79,6410,79%,79% reported,edison,4,unknown,,363,,,2924,2146,1498,785,2020-11-16T15:48:28Z,15.34517,D+15,Warner +15,democrat,virginia,2020-11-22T00:51:02.461244Z
51185,Tazewell,19537,9716,19,21,Released as a precinct at the end of tabulation,98,19906,98%,98% reported,edison,2,unknown,,1686,,,4504,15033,2743,6973,2020-11-16T15:48:28Z,53.89261,R+54,Gade +54,republican,virginia,2020-11-22T00:51:02.461244Z
51810,Virginia Beach,223790,128358,94,101,Released as a precinct as first report of the night,88,255000,88%,88% reported,edison,4,unknown,,29739,,,120753,103037,81120,47238,2020-11-16T15:48:12Z,7.91635,D+8,Warner +8,democrat,virginia,2020-11-22T00:51:02.461244Z
51187,Warren,20949,11351,12,12,Other,100,18849,>98%,>98% reported,edison,2,unknown,,1693,,,7075,13874,5084,6267,2020-11-16T15:48:29Z,32.45501,R+32,Gade +32,republican,virginia,2020-11-22T00:51:02.461244Z
51191,Washington,28400,15756,19,20,Released as a precinct in the middle of the night,100,27126,>98%,>98% reported,edison,4,some,,2689,,,7744,20656,5577,10179,2020-11-16T15:48:29Z,45.46479,R+45,Gade +45,republican,virginia,2020-11-22T00:51:02.461244Z
51820,Waynesboro,10599,6715,5,5,Released as a precinct in the middle of the night,100,9660,>98%,>98% reported,edison,2,unknown,,708,,,5275,5324,3917,2798,2020-11-16T15:48:13Z,0.46231,R+0.46,Gade +0.46,republican,virginia,2020-11-22T00:51:02.461244Z
51193,Westmoreland,9830,5186,9,9,Released with cumulative results periodically election night,100,8998,>98%,>98% reported,edison,2,unknown,,1118,,,4821,5009,3162,2024,2020-11-16T15:48:29Z,1.91251,R+1.9,Gade +1.9,republican,virginia,2020-11-22T00:51:02.461244Z
51830,Williamsburg,6831,5421,2,3,None,100,6797,>98%,>98% reported,edison,6,all,,961,,,4811,2020,4037,1384,2020-11-16T15:48:14Z,40.85785,D+41,Warner +41,democrat,virginia,2020-11-22T00:51:02.461244Z
51840,Winchester,11974,7982,7,7,None,100,11195,>98%,>98% reported,edison,4,none,,1269,,,6898,5076,5181,2801,2020-11-16T15:48:14Z,15.2163,D+15,Warner +15,democrat,virginia,2020-11-22T00:51:02.461244Z
51195,Wise,16224,9008,12,13,Released as a precinct in the middle of the night,100,16257,>98%,>98% reported,edison,4,all,,1328,,,4128,12096,2654,6354,2020-11-16T15:48:30Z,49.11243,R+49,Gade +49,republican,virginia,2020-11-22T00:51:02.461244Z
51197,Wythe,14830,6003,11,12,None,100,14307,>98%,>98% reported,edison,2,unknown,,896,,,4043,10787,2355,3648,2020-11-16T15:48:30Z,45.47539,R+45,Gade +45,republican,virginia,2020-11-22T00:51:02.461244Z
51199,York,38549,27861,13,14,Released as a precinct at the end of tabulation,100,38602,>98%,>98% reported,edison,2,none,,3644,,,18025,20524,14685,13176,2020-11-16T15:48:30Z,6.48266,R+6,Gade +6,republican,virginia,2020-11-22T00:51:02.461244Z
