fips,name,votes,absentee_votes,reporting,precincts,absentee_method,eevp,tot_exp_vote,eevp_value,eevp_display,eevp_source,turnout_stage,absentee_count_progress,absentee_max_ballots,results_palmerg,results_write_ins,results_absentee_palmerg,results_absentee_write_ins,last_updated,leader_margin_value,leader_margin_display,leader_margin_name_display,leader_party_id,race_id_race,race_slug_race,url_race,state_page_url_race,ap_polls_page_race,edison_exit_polls_page_race,race_type_race,election_type_race,election_date_race,runoff_race,race_name_race,office_race,officeid_race,race_rating_race,seat_race,seat_name_race,state_id_race,state_slug_race,state_name_race,state_nyt_abbrev_race,state_shape_race,state_aspect_ratio_race,party_id_race,uncontested_race,report_race,result_race,result_source_race,gain_race,lost_seat_race,votes_race,absentee_votes_race,absentee_counties_race,absentee_count_progress_race,poll_display_race,poll_countdown_display_race,poll_waiting_display_race,poll_time_race,poll_time_short_race,precincts_reporting_race,precincts_total_race,reporting_display_race,reporting_value_race,eevp_race,tot_exp_vote_race,eevp_source_race,eevp_value_race,eevp_display_race,county_data_source_race,incumbent_party_race,no_forecast_race,last_updated_race,has_incumbent_race,leader_margin_value_race,leader_margin_votes_race,leader_margin_display_race,leader_margin_name_display_race,leader_party_id_race,edison_certified_race,expectations_text_race,expectations_text_short_race,absentee_ballot_deadline_race,absentee_postmark_deadline_race,winner_called_timestamp_race
01007,Bibb,7837,397,10,10,"As a precinct in the FIRST cumulative report, along with regular precincts",100,7837,>98%,>98% reported,edison,10,all,410,7744,93,384,13,2020-11-24T13:23:32Z,97.62664,R+98,Palmer +98,republican,AL-G-H-6-2020-11-03,al-house-general-district-006-2020-11-03,https://www.nytimes.com/interactive/2020/11/03/us/elections/results-alabama.html,https://www.nytimes.com/interactive/2020/11/03/us/elections/results-alabama.html,https://www.nytimes.com/interactive/2020/11/03/us/elections/ap-polls-alabama.html,https://www.nytimes.com/interactive/2020/11/03/us/elections/exit-polls-alabama.html,house,general,2020-11-03,FALSE,U.S. House District 6,U.S. House,H,solid-rep,6,District 6,AL,alabama,Alabama,Ala.,vertical,1,"",FALSE,TRUE,winner,AP,FALSE,"",282261,611,2,unknown,Polls close at 8 p.m. Eastern time.,Polls close in,Polls have closed.,2020-11-04T01:00:00.000Z,8 p.m.,215,215,100% reporting,100%,100,282261,edison,>98%,>98% reported,edison,republican,FALSE,2020-11-24T13:23:43Z,TRUE,94.25992,266059,R+94,Palmer +94,republican,TRUE,"","",0,-1,1604451730465
01009,Blount,23023,0,23,23,"As a precinct in the FIRST cumulative report, along with regular precincts",100,23023,>98%,>98% reported,edison,10,all,1181,22877,146,0,0,2020-11-24T13:23:33Z,98.7317,R+99,Palmer +99,republican,AL-G-H-6-2020-11-03,al-house-general-district-006-2020-11-03,https://www.nytimes.com/interactive/2020/11/03/us/elections/results-alabama.html,https://www.nytimes.com/interactive/2020/11/03/us/elections/results-alabama.html,https://www.nytimes.com/interactive/2020/11/03/us/elections/ap-polls-alabama.html,https://www.nytimes.com/interactive/2020/11/03/us/elections/exit-polls-alabama.html,house,general,2020-11-03,FALSE,U.S. House District 6,U.S. House,H,solid-rep,6,District 6,AL,alabama,Alabama,Ala.,vertical,1,"",FALSE,TRUE,winner,AP,FALSE,"",282261,611,2,unknown,Polls close at 8 p.m. Eastern time.,Polls close in,Polls have closed.,2020-11-04T01:00:00.000Z,8 p.m.,215,215,100% reporting,100%,100,282261,edison,>98%,>98% reported,edison,republican,FALSE,2020-11-24T13:23:43Z,TRUE,94.25992,266059,R+94,Palmer +94,republican,TRUE,"","",0,-1,1604451730465
01021,Chilton,16228,0,19,19,"As a subtotal in the FIRST cumulative report, along with regular precincts",100,16228,>98%,>98% reported,edison,10,all,1819,16111,117,0,0,2020-11-24T13:23:32Z,98.55805,R+99,Palmer +99,republican,AL-G-H-6-2020-11-03,al-house-general-district-006-2020-11-03,https://www.nytimes.com/interactive/2020/11/03/us/elections/results-alabama.html,https://www.nytimes.com/interactive/2020/11/03/us/elections/results-alabama.html,https://www.nytimes.com/interactive/2020/11/03/us/elections/ap-polls-alabama.html,https://www.nytimes.com/interactive/2020/11/03/us/elections/exit-polls-alabama.html,house,general,2020-11-03,FALSE,U.S. House District 6,U.S. House,H,solid-rep,6,District 6,AL,alabama,Alabama,Ala.,vertical,1,"",FALSE,TRUE,winner,AP,FALSE,"",282261,611,2,unknown,Polls close at 8 p.m. Eastern time.,Polls close in,Polls have closed.,2020-11-04T01:00:00.000Z,8 p.m.,215,215,100% reporting,100%,100,282261,edison,>98%,>98% reported,edison,republican,FALSE,2020-11-24T13:23:43Z,TRUE,94.25992,266059,R+94,Palmer +94,republican,TRUE,"","",0,-1,1604451730465
01037,Coosa,3835,214,13,13,Released as a precinct as first report of the night,100,3835,>98%,>98% reported,edison,10,all,288,3774,61,214,0,2020-11-24T13:23:33Z,96.81877,R+97,Palmer +97,republican,AL-G-H-6-2020-11-03,al-house-general-district-006-2020-11-03,https://www.nytimes.com/interactive/2020/11/03/us/elections/results-alabama.html,https://www.nytimes.com/interactive/2020/11/03/us/elections/results-alabama.html,https://www.nytimes.com/interactive/2020/11/03/us/elections/ap-polls-alabama.html,https://www.nytimes.com/interactive/2020/11/03/us/elections/exit-polls-alabama.html,house,general,2020-11-03,FALSE,U.S. House District 6,U.S. House,H,solid-rep,6,District 6,AL,alabama,Alabama,Ala.,vertical,1,"",FALSE,TRUE,winner,AP,FALSE,"",282261,611,2,unknown,Polls close at 8 p.m. Eastern time.,Polls close in,Polls have closed.,2020-11-04T01:00:00.000Z,8 p.m.,215,215,100% reporting,100%,100,282261,edison,>98%,>98% reported,edison,republican,FALSE,2020-11-24T13:23:43Z,TRUE,94.25992,266059,R+94,Palmer +94,republican,TRUE,"","",0,-1,1604451730465
01073,Jefferson,140568,0,101,101,Released as a precinct as first report of the night,100,140568,>98%,>98% reported,edison,10,all,15352,135207,5361,0,0,2020-11-24T13:23:33Z,92.37237,R+92,Palmer +92,republican,AL-G-H-6-2020-11-03,al-house-general-district-006-2020-11-03,https://www.nytimes.com/interactive/2020/11/03/us/elections/results-alabama.html,https://www.nytimes.com/interactive/2020/11/03/us/elections/results-alabama.html,https://www.nytimes.com/interactive/2020/11/03/us/elections/ap-polls-alabama.html,https://www.nytimes.com/interactive/2020/11/03/us/elections/exit-polls-alabama.html,house,general,2020-11-03,FALSE,U.S. House District 6,U.S. House,H,solid-rep,6,District 6,AL,alabama,Alabama,Ala.,vertical,1,"",FALSE,TRUE,winner,AP,FALSE,"",282261,611,2,unknown,Polls close at 8 p.m. Eastern time.,Polls close in,Polls have closed.,2020-11-04T01:00:00.000Z,8 p.m.,215,215,100% reporting,100%,100,282261,edison,>98%,>98% reported,edison,republican,FALSE,2020-11-24T13:23:43Z,TRUE,94.25992,266059,R+94,Palmer +94,republican,TRUE,"","",0,-1,1604451730465
01117,Shelby,90770,0,49,49,"As a precinct in the FIRST cumulative report, along with regular precincts",100,90770,>98%,>98% reported,edison,10,all,5451,88447,2323,0,0,2020-11-24T13:23:33Z,94.88157,R+95,Palmer +95,republican,AL-G-H-6-2020-11-03,al-house-general-district-006-2020-11-03,https://www.nytimes.com/interactive/2020/11/03/us/elections/results-alabama.html,https://www.nytimes.com/interactive/2020/11/03/us/elections/results-alabama.html,https://www.nytimes.com/interactive/2020/11/03/us/elections/ap-polls-alabama.html,https://www.nytimes.com/interactive/2020/11/03/us/elections/exit-polls-alabama.html,house,general,2020-11-03,FALSE,U.S. House District 6,U.S. House,H,solid-rep,6,District 6,AL,alabama,Alabama,Ala.,vertical,1,"",FALSE,TRUE,winner,AP,FALSE,"",282261,611,2,unknown,Polls close at 8 p.m. Eastern time.,Polls close in,Polls have closed.,2020-11-04T01:00:00.000Z,8 p.m.,215,215,100% reporting,100%,100,282261,edison,>98%,>98% reported,edison,republican,FALSE,2020-11-24T13:23:43Z,TRUE,94.25992,266059,R+94,Palmer +94,republican,TRUE,"","",0,-1,1604451730465
