fips,name,votes,absentee_votes,reporting,precincts,absentee_method,eevp,tot_exp_vote,eevp_value,eevp_display,eevp_source,turnout_stage,absentee_count_progress,absentee_max_ballots,results_gravess,results_rossg,results_higginsj,results_absentee_gravess,results_absentee_rossg,results_absentee_higginsj,last_updated,leader_margin_value,leader_margin_display,leader_margin_name_display,leader_party_id,race_id_race,race_slug_race,url_race,state_page_url_race,ap_polls_page_race,race_type_race,election_type_race,election_date_race,runoff_race,race_name_race,office_race,officeid_race,race_rating_race,seat_race,seat_name_race,state_id_race,state_slug_race,state_name_race,state_nyt_abbrev_race,state_shape_race,party_id_race,uncontested_race,report_race,result_race,result_source_race,gain_race,lost_seat_race,votes_race,absentee_votes_race,absentee_counties_race,absentee_count_progress_race,poll_display_race,poll_countdown_display_race,poll_waiting_display_race,poll_time_race,poll_time_short_race,precincts_reporting_race,precincts_total_race,reporting_display_race,reporting_value_race,eevp_race,tot_exp_vote_race,eevp_source_race,eevp_value_race,eevp_display_race,county_data_source_race,incumbent_party_race,no_forecast_race,last_updated_race,has_incumbent_race,leader_margin_value_race,leader_margin_votes_race,leader_margin_display_race,leader_margin_name_display_race,leader_party_id_race,edison_certified_race,expectations_text_race,expectations_text_short_race,absentee_ballot_deadline_race,absentee_postmark_deadline_race,winner_called_timestamp_race
29001,Adair,10202,0,11,12,"As a precinct in the FIRST cumulative report, along with regular precincts",100,10202,>98%,>98% reported,edison,6,unknown,2792,6793,3215,194,0,0,0,2020-11-24T13:22:16Z,35.07155,R+35,Graves +35,republican,MO-G-H-6-2020-11-03,mo-house-general-district-006-2020-11-03,https://www.nytimes.com/interactive/2020/11/03/us/elections/results-missouri-house-district-6.html,https://www.nytimes.com/interactive/2020/11/03/us/elections/results-missouri.html,https://www.nytimes.com/interactive/2020/11/03/us/elections/ap-polls-missouri.html,house,general,2020-11-03,FALSE,U.S. House District 6,U.S. House,H,solid-rep,6,District 6,MO,missouri,Missouri,Mo.,horizontal,"",FALSE,TRUE,winner,AP,FALSE,"",388063,1606,3,unknown,Polls close at 8 p.m. Eastern time.,Polls close in,Polls have closed.,2020-11-04T01:00:00.000Z,8 p.m.,425,450,94% reporting,94%,100,390000,edison,>98%,>98% reported,edison,republican,FALSE,2020-11-24T13:26:10Z,TRUE,35.60092,138154,R+36,Graves +36,republican,FALSE,"","",0,0,1604461440767
29003,Andrew,9639,0,19,20,Released as a precinct in the middle of the night,100,9639,>98%,>98% reported,edison,6,all,1074,7420,2002,217,0,0,0,2020-11-24T13:23:18Z,56.20915,R+56,Graves +56,republican,MO-G-H-6-2020-11-03,mo-house-general-district-006-2020-11-03,https://www.nytimes.com/interactive/2020/11/03/us/elections/results-missouri-house-district-6.html,https://www.nytimes.com/interactive/2020/11/03/us/elections/results-missouri.html,https://www.nytimes.com/interactive/2020/11/03/us/elections/ap-polls-missouri.html,house,general,2020-11-03,FALSE,U.S. House District 6,U.S. House,H,solid-rep,6,District 6,MO,missouri,Missouri,Mo.,horizontal,"",FALSE,TRUE,winner,AP,FALSE,"",388063,1606,3,unknown,Polls close at 8 p.m. Eastern time.,Polls close in,Polls have closed.,2020-11-04T01:00:00.000Z,8 p.m.,425,450,94% reporting,94%,100,390000,edison,>98%,>98% reported,edison,republican,FALSE,2020-11-24T13:26:10Z,TRUE,35.60092,138154,R+36,Graves +36,republican,FALSE,"","",0,0,1604461440767
29005,Atchison,2773,0,6,6,None,100,2773,>98%,>98% reported,edison,6,unknown,334,2257,444,72,0,0,0,2020-11-24T13:23:18Z,65.38045,R+65,Graves +65,republican,MO-G-H-6-2020-11-03,mo-house-general-district-006-2020-11-03,https://www.nytimes.com/interactive/2020/11/03/us/elections/results-missouri-house-district-6.html,https://www.nytimes.com/interactive/2020/11/03/us/elections/results-missouri.html,https://www.nytimes.com/interactive/2020/11/03/us/elections/ap-polls-missouri.html,house,general,2020-11-03,FALSE,U.S. House District 6,U.S. House,H,solid-rep,6,District 6,MO,missouri,Missouri,Mo.,horizontal,"",FALSE,TRUE,winner,AP,FALSE,"",388063,1606,3,unknown,Polls close at 8 p.m. Eastern time.,Polls close in,Polls have closed.,2020-11-04T01:00:00.000Z,8 p.m.,425,450,94% reporting,94%,100,390000,edison,>98%,>98% reported,edison,republican,FALSE,2020-11-24T13:26:10Z,TRUE,35.60092,138154,R+36,Graves +36,republican,FALSE,"","",0,0,1604461440767
29007,Audrain,2107,0,3,3,Released as a precinct as first report of the night,100,2107,>98%,>98% reported,edison,6,all,1222,1628,427,52,0,0,0,2020-11-24T13:22:16Z,57.00047,R+57,Graves +57,republican,MO-G-H-6-2020-11-03,mo-house-general-district-006-2020-11-03,https://www.nytimes.com/interactive/2020/11/03/us/elections/results-missouri-house-district-6.html,https://www.nytimes.com/interactive/2020/11/03/us/elections/results-missouri.html,https://www.nytimes.com/interactive/2020/11/03/us/elections/ap-polls-missouri.html,house,general,2020-11-03,FALSE,U.S. House District 6,U.S. House,H,solid-rep,6,District 6,MO,missouri,Missouri,Mo.,horizontal,"",FALSE,TRUE,winner,AP,FALSE,"",388063,1606,3,unknown,Polls close at 8 p.m. Eastern time.,Polls close in,Polls have closed.,2020-11-04T01:00:00.000Z,8 p.m.,425,450,94% reporting,94%,100,390000,edison,>98%,>98% reported,edison,republican,FALSE,2020-11-24T13:26:10Z,TRUE,35.60092,138154,R+36,Graves +36,republican,FALSE,"","",0,0,1604461440767
29021,Buchanan,36190,0,22,24,Released as a precinct as first report of the night,92,39128,92%,92% reported,edison,2,some,4203,23523,11659,1008,0,0,0,2020-11-24T13:23:19Z,32.78254,R+33,Graves +33,republican,MO-G-H-6-2020-11-03,mo-house-general-district-006-2020-11-03,https://www.nytimes.com/interactive/2020/11/03/us/elections/results-missouri-house-district-6.html,https://www.nytimes.com/interactive/2020/11/03/us/elections/results-missouri.html,https://www.nytimes.com/interactive/2020/11/03/us/elections/ap-polls-missouri.html,house,general,2020-11-03,FALSE,U.S. House District 6,U.S. House,H,solid-rep,6,District 6,MO,missouri,Missouri,Mo.,horizontal,"",FALSE,TRUE,winner,AP,FALSE,"",388063,1606,3,unknown,Polls close at 8 p.m. Eastern time.,Polls close in,Polls have closed.,2020-11-04T01:00:00.000Z,8 p.m.,425,450,94% reporting,94%,100,390000,edison,>98%,>98% reported,edison,republican,FALSE,2020-11-24T13:26:10Z,TRUE,35.60092,138154,R+36,Graves +36,republican,FALSE,"","",0,0,1604461440767
29025,Caldwell,4603,0,11,11,None,97,4742,97%,97% reported,edison,2,unknown,552,3693,768,142,0,0,0,2020-11-24T13:23:20Z,63.54551,R+64,Graves +64,republican,MO-G-H-6-2020-11-03,mo-house-general-district-006-2020-11-03,https://www.nytimes.com/interactive/2020/11/03/us/elections/results-missouri-house-district-6.html,https://www.nytimes.com/interactive/2020/11/03/us/elections/results-missouri.html,https://www.nytimes.com/interactive/2020/11/03/us/elections/ap-polls-missouri.html,house,general,2020-11-03,FALSE,U.S. House District 6,U.S. House,H,solid-rep,6,District 6,MO,missouri,Missouri,Mo.,horizontal,"",FALSE,TRUE,winner,AP,FALSE,"",388063,1606,3,unknown,Polls close at 8 p.m. Eastern time.,Polls close in,Polls have closed.,2020-11-04T01:00:00.000Z,8 p.m.,425,450,94% reporting,94%,100,390000,edison,>98%,>98% reported,edison,republican,FALSE,2020-11-24T13:26:10Z,TRUE,35.60092,138154,R+36,Graves +36,republican,FALSE,"","",0,0,1604461440767
29033,Carroll,4466,0,12,13,Released as a precinct as first report of the night,100,3529,>98%,>98% reported,edison,2,unknown,694,3772,639,55,0,0,0,2020-11-24T13:23:20Z,70.15226,R+70,Graves +70,republican,MO-G-H-6-2020-11-03,mo-house-general-district-006-2020-11-03,https://www.nytimes.com/interactive/2020/11/03/us/elections/results-missouri-house-district-6.html,https://www.nytimes.com/interactive/2020/11/03/us/elections/results-missouri.html,https://www.nytimes.com/interactive/2020/11/03/us/elections/ap-polls-missouri.html,house,general,2020-11-03,FALSE,U.S. House District 6,U.S. House,H,solid-rep,6,District 6,MO,missouri,Missouri,Mo.,horizontal,"",FALSE,TRUE,winner,AP,FALSE,"",388063,1606,3,unknown,Polls close at 8 p.m. Eastern time.,Polls close in,Polls have closed.,2020-11-04T01:00:00.000Z,8 p.m.,425,450,94% reporting,94%,100,390000,edison,>98%,>98% reported,edison,republican,FALSE,2020-11-24T13:26:10Z,TRUE,35.60092,138154,R+36,Graves +36,republican,FALSE,"","",0,0,1604461440767
29041,Chariton,4016,528,12,13,Released as a precinct as first report of the night,100,528,>98%,>98% reported,edison,6,unknown,437,3174,782,60,343,177,8,2020-11-24T13:21:50Z,59.56175,R+60,Graves +60,republican,MO-G-H-6-2020-11-03,mo-house-general-district-006-2020-11-03,https://www.nytimes.com/interactive/2020/11/03/us/elections/results-missouri-house-district-6.html,https://www.nytimes.com/interactive/2020/11/03/us/elections/results-missouri.html,https://www.nytimes.com/interactive/2020/11/03/us/elections/ap-polls-missouri.html,house,general,2020-11-03,FALSE,U.S. House District 6,U.S. House,H,solid-rep,6,District 6,MO,missouri,Missouri,Mo.,horizontal,"",FALSE,TRUE,winner,AP,FALSE,"",388063,1606,3,unknown,Polls close at 8 p.m. Eastern time.,Polls close in,Polls have closed.,2020-11-04T01:00:00.000Z,8 p.m.,425,450,94% reporting,94%,100,390000,edison,>98%,>98% reported,edison,republican,FALSE,2020-11-24T13:26:10Z,TRUE,35.60092,138154,R+36,Graves +36,republican,FALSE,"","",0,0,1604461440767
29045,Clark,3319,0,5,6,None,100,3319,>98%,>98% reported,edison,6,all,523,2660,587,72,0,0,0,2020-11-24T13:22:19Z,62.45857,R+62,Graves +62,republican,MO-G-H-6-2020-11-03,mo-house-general-district-006-2020-11-03,https://www.nytimes.com/interactive/2020/11/03/us/elections/results-missouri-house-district-6.html,https://www.nytimes.com/interactive/2020/11/03/us/elections/results-missouri.html,https://www.nytimes.com/interactive/2020/11/03/us/elections/ap-polls-missouri.html,house,general,2020-11-03,FALSE,U.S. House District 6,U.S. House,H,solid-rep,6,District 6,MO,missouri,Missouri,Mo.,horizontal,"",FALSE,TRUE,winner,AP,FALSE,"",388063,1606,3,unknown,Polls close at 8 p.m. Eastern time.,Polls close in,Polls have closed.,2020-11-04T01:00:00.000Z,8 p.m.,425,450,94% reporting,94%,100,390000,edison,>98%,>98% reported,edison,republican,FALSE,2020-11-24T13:26:10Z,TRUE,35.60092,138154,R+36,Graves +36,republican,FALSE,"","",0,0,1604461440767
29047,Clay,91094,0,55,55,Released as a separate subtotal as first report of the night,100,91094,>98%,>98% reported,edison,6,all,16870,52532,36634,1928,0,0,0,2020-11-24T13:21:54Z,17.4523,R+17,Graves +17,republican,MO-G-H-6-2020-11-03,mo-house-general-district-006-2020-11-03,https://www.nytimes.com/interactive/2020/11/03/us/elections/results-missouri-house-district-6.html,https://www.nytimes.com/interactive/2020/11/03/us/elections/results-missouri.html,https://www.nytimes.com/interactive/2020/11/03/us/elections/ap-polls-missouri.html,house,general,2020-11-03,FALSE,U.S. House District 6,U.S. House,H,solid-rep,6,District 6,MO,missouri,Missouri,Mo.,horizontal,"",FALSE,TRUE,winner,AP,FALSE,"",388063,1606,3,unknown,Polls close at 8 p.m. Eastern time.,Polls close in,Polls have closed.,2020-11-04T01:00:00.000Z,8 p.m.,425,450,94% reporting,94%,100,390000,edison,>98%,>98% reported,edison,republican,FALSE,2020-11-24T13:26:10Z,TRUE,35.60092,138154,R+36,Graves +36,republican,FALSE,"","",0,0,1604461440767
29049,Clinton,10717,0,7,7,Released as a precinct as first report of the night,95,11229,95%,95% reported,edison,4,some,1293,7912,2548,257,0,0,0,2020-11-24T13:21:55Z,50.05132,R+50,Graves +50,republican,MO-G-H-6-2020-11-03,mo-house-general-district-006-2020-11-03,https://www.nytimes.com/interactive/2020/11/03/us/elections/results-missouri-house-district-6.html,https://www.nytimes.com/interactive/2020/11/03/us/elections/results-missouri.html,https://www.nytimes.com/interactive/2020/11/03/us/elections/ap-polls-missouri.html,house,general,2020-11-03,FALSE,U.S. House District 6,U.S. House,H,solid-rep,6,District 6,MO,missouri,Missouri,Mo.,horizontal,"",FALSE,TRUE,winner,AP,FALSE,"",388063,1606,3,unknown,Polls close at 8 p.m. Eastern time.,Polls close in,Polls have closed.,2020-11-04T01:00:00.000Z,8 p.m.,425,450,94% reporting,94%,100,390000,edison,>98%,>98% reported,edison,republican,FALSE,2020-11-24T13:26:10Z,TRUE,35.60092,138154,R+36,Graves +36,republican,FALSE,"","",0,0,1604461440767
29061,Daviess,3813,0,6,6,Released as a precinct as first report of the night,100,3813,>98%,>98% reported,edison,6,all,525,3098,633,82,0,0,0,2020-11-24T13:21:56Z,64.64726,R+65,Graves +65,republican,MO-G-H-6-2020-11-03,mo-house-general-district-006-2020-11-03,https://www.nytimes.com/interactive/2020/11/03/us/elections/results-missouri-house-district-6.html,https://www.nytimes.com/interactive/2020/11/03/us/elections/results-missouri.html,https://www.nytimes.com/interactive/2020/11/03/us/elections/ap-polls-missouri.html,house,general,2020-11-03,FALSE,U.S. House District 6,U.S. House,H,solid-rep,6,District 6,MO,missouri,Missouri,Mo.,horizontal,"",FALSE,TRUE,winner,AP,FALSE,"",388063,1606,3,unknown,Polls close at 8 p.m. Eastern time.,Polls close in,Polls have closed.,2020-11-04T01:00:00.000Z,8 p.m.,425,450,94% reporting,94%,100,390000,edison,>98%,>98% reported,edison,republican,FALSE,2020-11-24T13:26:10Z,TRUE,35.60092,138154,R+36,Graves +36,republican,FALSE,"","",0,0,1604461440767
29063,DeKalb,4774,0,9,9,Released as a precinct as first report of the night,95,5049,95%,95% reported,edison,2,unknown,475,3839,820,115,0,0,0,2020-11-24T13:21:58Z,63.23837,R+63,Graves +63,republican,MO-G-H-6-2020-11-03,mo-house-general-district-006-2020-11-03,https://www.nytimes.com/interactive/2020/11/03/us/elections/results-missouri-house-district-6.html,https://www.nytimes.com/interactive/2020/11/03/us/elections/results-missouri.html,https://www.nytimes.com/interactive/2020/11/03/us/elections/ap-polls-missouri.html,house,general,2020-11-03,FALSE,U.S. House District 6,U.S. House,H,solid-rep,6,District 6,MO,missouri,Missouri,Mo.,horizontal,"",FALSE,TRUE,winner,AP,FALSE,"",388063,1606,3,unknown,Polls close at 8 p.m. Eastern time.,Polls close in,Polls have closed.,2020-11-04T01:00:00.000Z,8 p.m.,425,450,94% reporting,94%,100,390000,edison,>98%,>98% reported,edison,republican,FALSE,2020-11-24T13:26:10Z,TRUE,35.60092,138154,R+36,Graves +36,republican,FALSE,"","",0,0,1604461440767
29075,Gentry,3196,0,11,11,Released as a precinct as first report of the night,100,3196,>98%,>98% reported,edison,6,all,422,2598,535,63,0,0,0,2020-11-24T13:21:59Z,64.54944,R+65,Graves +65,republican,MO-G-H-6-2020-11-03,mo-house-general-district-006-2020-11-03,https://www.nytimes.com/interactive/2020/11/03/us/elections/results-missouri-house-district-6.html,https://www.nytimes.com/interactive/2020/11/03/us/elections/results-missouri.html,https://www.nytimes.com/interactive/2020/11/03/us/elections/ap-polls-missouri.html,house,general,2020-11-03,FALSE,U.S. House District 6,U.S. House,H,solid-rep,6,District 6,MO,missouri,Missouri,Mo.,horizontal,"",FALSE,TRUE,winner,AP,FALSE,"",388063,1606,3,unknown,Polls close at 8 p.m. Eastern time.,Polls close in,Polls have closed.,2020-11-04T01:00:00.000Z,8 p.m.,425,450,94% reporting,94%,100,390000,edison,>98%,>98% reported,edison,republican,FALSE,2020-11-24T13:26:10Z,TRUE,35.60092,138154,R+36,Graves +36,republican,FALSE,"","",0,0,1604461440767
29079,Grundy,4397,0,8,9,None,100,3571,>98%,>98% reported,edison,2,unknown,150,3662,661,74,0,0,0,2020-11-24T13:22:01Z,68.25108,R+68,Graves +68,republican,MO-G-H-6-2020-11-03,mo-house-general-district-006-2020-11-03,https://www.nytimes.com/interactive/2020/11/03/us/elections/results-missouri-house-district-6.html,https://www.nytimes.com/interactive/2020/11/03/us/elections/results-missouri.html,https://www.nytimes.com/interactive/2020/11/03/us/elections/ap-polls-missouri.html,house,general,2020-11-03,FALSE,U.S. House District 6,U.S. House,H,solid-rep,6,District 6,MO,missouri,Missouri,Mo.,horizontal,"",FALSE,TRUE,winner,AP,FALSE,"",388063,1606,3,unknown,Polls close at 8 p.m. Eastern time.,Polls close in,Polls have closed.,2020-11-04T01:00:00.000Z,8 p.m.,425,450,94% reporting,94%,100,390000,edison,>98%,>98% reported,edison,republican,FALSE,2020-11-24T13:26:10Z,TRUE,35.60092,138154,R+36,Graves +36,republican,FALSE,"","",0,0,1604461440767
29081,Harrison,3788,0,7,7,"As a precinct in the FIRST cumulative report, along with regular precincts",100,2979,>98%,>98% reported,edison,4,all,706,3250,496,42,0,0,0,2020-11-24T13:22:01Z,72.70327,R+73,Graves +73,republican,MO-G-H-6-2020-11-03,mo-house-general-district-006-2020-11-03,https://www.nytimes.com/interactive/2020/11/03/us/elections/results-missouri-house-district-6.html,https://www.nytimes.com/interactive/2020/11/03/us/elections/results-missouri.html,https://www.nytimes.com/interactive/2020/11/03/us/elections/ap-polls-missouri.html,house,general,2020-11-03,FALSE,U.S. House District 6,U.S. House,H,solid-rep,6,District 6,MO,missouri,Missouri,Mo.,horizontal,"",FALSE,TRUE,winner,AP,FALSE,"",388063,1606,3,unknown,Polls close at 8 p.m. Eastern time.,Polls close in,Polls have closed.,2020-11-04T01:00:00.000Z,8 p.m.,425,450,94% reporting,94%,100,390000,edison,>98%,>98% reported,edison,republican,FALSE,2020-11-24T13:26:10Z,TRUE,35.60092,138154,R+36,Graves +36,republican,FALSE,"","",0,0,1604461440767
29087,Holt,2318,0,4,5,Released as a precinct as first report of the night,100,1901,>98%,>98% reported,edison,2,unknown,312,2002,264,52,0,0,0,2020-11-24T13:22:02Z,74.97843,R+75,Graves +75,republican,MO-G-H-6-2020-11-03,mo-house-general-district-006-2020-11-03,https://www.nytimes.com/interactive/2020/11/03/us/elections/results-missouri-house-district-6.html,https://www.nytimes.com/interactive/2020/11/03/us/elections/results-missouri.html,https://www.nytimes.com/interactive/2020/11/03/us/elections/ap-polls-missouri.html,house,general,2020-11-03,FALSE,U.S. House District 6,U.S. House,H,solid-rep,6,District 6,MO,missouri,Missouri,Mo.,horizontal,"",FALSE,TRUE,winner,AP,FALSE,"",388063,1606,3,unknown,Polls close at 8 p.m. Eastern time.,Polls close in,Polls have closed.,2020-11-04T01:00:00.000Z,8 p.m.,425,450,94% reporting,94%,100,390000,edison,>98%,>98% reported,edison,republican,FALSE,2020-11-24T13:26:10Z,TRUE,35.60092,138154,R+36,Graves +36,republican,FALSE,"","",0,0,1604461440767
29095,Jackson,48425,0,21,21,Released as a separate subtotal as first report of the night,100,47434,>98%,>98% reported,edison,2,unknown,50123,28786,18543,1096,0,0,0,2020-11-24T13:22:03Z,21.1523,R+21,Graves +21,republican,MO-G-H-6-2020-11-03,mo-house-general-district-006-2020-11-03,https://www.nytimes.com/interactive/2020/11/03/us/elections/results-missouri-house-district-6.html,https://www.nytimes.com/interactive/2020/11/03/us/elections/results-missouri.html,https://www.nytimes.com/interactive/2020/11/03/us/elections/ap-polls-missouri.html,house,general,2020-11-03,FALSE,U.S. House District 6,U.S. House,H,solid-rep,6,District 6,MO,missouri,Missouri,Mo.,horizontal,"",FALSE,TRUE,winner,AP,FALSE,"",388063,1606,3,unknown,Polls close at 8 p.m. Eastern time.,Polls close in,Polls have closed.,2020-11-04T01:00:00.000Z,8 p.m.,425,450,94% reporting,94%,100,390000,edison,>98%,>98% reported,edison,republican,FALSE,2020-11-24T13:26:10Z,TRUE,35.60092,138154,R+36,Graves +36,republican,FALSE,"","",0,0,1604461440767
29103,Knox,1794,0,6,7,Released as a precinct as first report of the night,100,1794,>98%,>98% reported,edison,6,all,443,1513,252,29,0,0,0,2020-11-24T13:22:20Z,70.28986,R+70,Graves +70,republican,MO-G-H-6-2020-11-03,mo-house-general-district-006-2020-11-03,https://www.nytimes.com/interactive/2020/11/03/us/elections/results-missouri-house-district-6.html,https://www.nytimes.com/interactive/2020/11/03/us/elections/results-missouri.html,https://www.nytimes.com/interactive/2020/11/03/us/elections/ap-polls-missouri.html,house,general,2020-11-03,FALSE,U.S. House District 6,U.S. House,H,solid-rep,6,District 6,MO,missouri,Missouri,Mo.,horizontal,"",FALSE,TRUE,winner,AP,FALSE,"",388063,1606,3,unknown,Polls close at 8 p.m. Eastern time.,Polls close in,Polls have closed.,2020-11-04T01:00:00.000Z,8 p.m.,425,450,94% reporting,94%,100,390000,edison,>98%,>98% reported,edison,republican,FALSE,2020-11-24T13:26:10Z,TRUE,35.60092,138154,R+36,Graves +36,republican,FALSE,"","",0,0,1604461440767
29111,Lewis,4469,0,6,7,"As a subtotal in the FIRST cumulative report, along with regular precincts",100,4439,>98%,>98% reported,edison,4,all,421,3614,782,73,0,0,0,2020-11-24T13:22:21Z,63.36988,R+63,Graves +63,republican,MO-G-H-6-2020-11-03,mo-house-general-district-006-2020-11-03,https://www.nytimes.com/interactive/2020/11/03/us/elections/results-missouri-house-district-6.html,https://www.nytimes.com/interactive/2020/11/03/us/elections/results-missouri.html,https://www.nytimes.com/interactive/2020/11/03/us/elections/ap-polls-missouri.html,house,general,2020-11-03,FALSE,U.S. House District 6,U.S. House,H,solid-rep,6,District 6,MO,missouri,Missouri,Mo.,horizontal,"",FALSE,TRUE,winner,AP,FALSE,"",388063,1606,3,unknown,Polls close at 8 p.m. Eastern time.,Polls close in,Polls have closed.,2020-11-04T01:00:00.000Z,8 p.m.,425,450,94% reporting,94%,100,390000,edison,>98%,>98% reported,edison,republican,FALSE,2020-11-24T13:26:10Z,TRUE,35.60092,138154,R+36,Graves +36,republican,FALSE,"","",0,0,1604461440767
29115,Linn,5610,0,19,21,"As a precinct in the FIRST cumulative report, along with regular precincts",100,4513,>98%,>98% reported,edison,2,unknown,907,4411,1090,109,0,0,0,2020-11-24T13:22:04Z,59.19786,R+59,Graves +59,republican,MO-G-H-6-2020-11-03,mo-house-general-district-006-2020-11-03,https://www.nytimes.com/interactive/2020/11/03/us/elections/results-missouri-house-district-6.html,https://www.nytimes.com/interactive/2020/11/03/us/elections/results-missouri.html,https://www.nytimes.com/interactive/2020/11/03/us/elections/ap-polls-missouri.html,house,general,2020-11-03,FALSE,U.S. House District 6,U.S. House,H,solid-rep,6,District 6,MO,missouri,Missouri,Mo.,horizontal,"",FALSE,TRUE,winner,AP,FALSE,"",388063,1606,3,unknown,Polls close at 8 p.m. Eastern time.,Polls close in,Polls have closed.,2020-11-04T01:00:00.000Z,8 p.m.,425,450,94% reporting,94%,100,390000,edison,>98%,>98% reported,edison,republican,FALSE,2020-11-24T13:26:10Z,TRUE,35.60092,138154,R+36,Graves +36,republican,FALSE,"","",0,0,1604461440767
29117,Livingston,6664,0,12,13,Released as a precinct as first report of the night,100,5185,>98%,>98% reported,edison,2,unknown,1254,5535,1039,90,0,0,0,2020-11-24T13:22:05Z,67.46699,R+67,Graves +67,republican,MO-G-H-6-2020-11-03,mo-house-general-district-006-2020-11-03,https://www.nytimes.com/interactive/2020/11/03/us/elections/results-missouri-house-district-6.html,https://www.nytimes.com/interactive/2020/11/03/us/elections/results-missouri.html,https://www.nytimes.com/interactive/2020/11/03/us/elections/ap-polls-missouri.html,house,general,2020-11-03,FALSE,U.S. House District 6,U.S. House,H,solid-rep,6,District 6,MO,missouri,Missouri,Mo.,horizontal,"",FALSE,TRUE,winner,AP,FALSE,"",388063,1606,3,unknown,Polls close at 8 p.m. Eastern time.,Polls close in,Polls have closed.,2020-11-04T01:00:00.000Z,8 p.m.,425,450,94% reporting,94%,100,390000,edison,>98%,>98% reported,edison,republican,FALSE,2020-11-24T13:26:10Z,TRUE,35.60092,138154,R+36,Graves +36,republican,FALSE,"","",0,0,1604461440767
29121,Macon,7711,0,12,13,None,100,7711,>98%,>98% reported,edison,6,unknown,1174,6191,1412,108,0,0,0,2020-11-24T13:22:22Z,61.9764,R+62,Graves +62,republican,MO-G-H-6-2020-11-03,mo-house-general-district-006-2020-11-03,https://www.nytimes.com/interactive/2020/11/03/us/elections/results-missouri-house-district-6.html,https://www.nytimes.com/interactive/2020/11/03/us/elections/results-missouri.html,https://www.nytimes.com/interactive/2020/11/03/us/elections/ap-polls-missouri.html,house,general,2020-11-03,FALSE,U.S. House District 6,U.S. House,H,solid-rep,6,District 6,MO,missouri,Missouri,Mo.,horizontal,"",FALSE,TRUE,winner,AP,FALSE,"",388063,1606,3,unknown,Polls close at 8 p.m. Eastern time.,Polls close in,Polls have closed.,2020-11-04T01:00:00.000Z,8 p.m.,425,450,94% reporting,94%,100,390000,edison,>98%,>98% reported,edison,republican,FALSE,2020-11-24T13:26:10Z,TRUE,35.60092,138154,R+36,Graves +36,republican,FALSE,"","",0,0,1604461440767
29127,Marion,13128,0,16,17,None,100,13128,>98%,>98% reported,edison,6,all,1762,10166,2742,220,0,0,0,2020-11-24T13:22:23Z,56.55088,R+57,Graves +57,republican,MO-G-H-6-2020-11-03,mo-house-general-district-006-2020-11-03,https://www.nytimes.com/interactive/2020/11/03/us/elections/results-missouri-house-district-6.html,https://www.nytimes.com/interactive/2020/11/03/us/elections/results-missouri.html,https://www.nytimes.com/interactive/2020/11/03/us/elections/ap-polls-missouri.html,house,general,2020-11-03,FALSE,U.S. House District 6,U.S. House,H,solid-rep,6,District 6,MO,missouri,Missouri,Mo.,horizontal,"",FALSE,TRUE,winner,AP,FALSE,"",388063,1606,3,unknown,Polls close at 8 p.m. Eastern time.,Polls close in,Polls have closed.,2020-11-04T01:00:00.000Z,8 p.m.,425,450,94% reporting,94%,100,390000,edison,>98%,>98% reported,edison,republican,FALSE,2020-11-24T13:26:10Z,TRUE,35.60092,138154,R+36,Graves +36,republican,FALSE,"","",0,0,1604461440767
29129,Mercer,1744,0,5,5,Released separately AFTER election night,100,1733,>98%,>98% reported,edison,2,unknown,302,1544,181,19,0,0,0,2020-11-24T13:22:07Z,78.15367,R+78,Graves +78,republican,MO-G-H-6-2020-11-03,mo-house-general-district-006-2020-11-03,https://www.nytimes.com/interactive/2020/11/03/us/elections/results-missouri-house-district-6.html,https://www.nytimes.com/interactive/2020/11/03/us/elections/results-missouri.html,https://www.nytimes.com/interactive/2020/11/03/us/elections/ap-polls-missouri.html,house,general,2020-11-03,FALSE,U.S. House District 6,U.S. House,H,solid-rep,6,District 6,MO,missouri,Missouri,Mo.,horizontal,"",FALSE,TRUE,winner,AP,FALSE,"",388063,1606,3,unknown,Polls close at 8 p.m. Eastern time.,Polls close in,Polls have closed.,2020-11-04T01:00:00.000Z,8 p.m.,425,450,94% reporting,94%,100,390000,edison,>98%,>98% reported,edison,republican,FALSE,2020-11-24T13:26:10Z,TRUE,35.60092,138154,R+36,Graves +36,republican,FALSE,"","",0,0,1604461440767
29137,Monroe,4333,0,9,9,Released as a precinct as first report of the night,100,4134,>98%,>98% reported,edison,2,unknown,592,3450,798,85,0,0,0,2020-11-24T13:22:23Z,61.20471,R+61,Graves +61,republican,MO-G-H-6-2020-11-03,mo-house-general-district-006-2020-11-03,https://www.nytimes.com/interactive/2020/11/03/us/elections/results-missouri-house-district-6.html,https://www.nytimes.com/interactive/2020/11/03/us/elections/results-missouri.html,https://www.nytimes.com/interactive/2020/11/03/us/elections/ap-polls-missouri.html,house,general,2020-11-03,FALSE,U.S. House District 6,U.S. House,H,solid-rep,6,District 6,MO,missouri,Missouri,Mo.,horizontal,"",FALSE,TRUE,winner,AP,FALSE,"",388063,1606,3,unknown,Polls close at 8 p.m. Eastern time.,Polls close in,Polls have closed.,2020-11-04T01:00:00.000Z,8 p.m.,425,450,94% reporting,94%,100,390000,edison,>98%,>98% reported,edison,republican,FALSE,2020-11-24T13:26:10Z,TRUE,35.60092,138154,R+36,Graves +36,republican,FALSE,"","",0,0,1604461440767
29147,Nodaway,9775,0,19,20,None,100,7639,>98%,>98% reported,edison,2,unknown,1334,7235,2370,170,0,0,0,2020-11-24T13:22:09Z,49.76982,R+50,Graves +50,republican,MO-G-H-6-2020-11-03,mo-house-general-district-006-2020-11-03,https://www.nytimes.com/interactive/2020/11/03/us/elections/results-missouri-house-district-6.html,https://www.nytimes.com/interactive/2020/11/03/us/elections/results-missouri.html,https://www.nytimes.com/interactive/2020/11/03/us/elections/ap-polls-missouri.html,house,general,2020-11-03,FALSE,U.S. House District 6,U.S. House,H,solid-rep,6,District 6,MO,missouri,Missouri,Mo.,horizontal,"",FALSE,TRUE,winner,AP,FALSE,"",388063,1606,3,unknown,Polls close at 8 p.m. Eastern time.,Polls close in,Polls have closed.,2020-11-04T01:00:00.000Z,8 p.m.,425,450,94% reporting,94%,100,390000,edison,>98%,>98% reported,edison,republican,FALSE,2020-11-24T13:26:10Z,TRUE,35.60092,138154,R+36,Graves +36,republican,FALSE,"","",0,0,1604461440767
29163,Pike,7511,0,13,14,Released as a precinct as first report of the night,100,7351,>98%,>98% reported,edison,2,unknown,1005,5813,1572,126,0,0,0,2020-11-24T13:22:24Z,56.46385,R+56,Graves +56,republican,MO-G-H-6-2020-11-03,mo-house-general-district-006-2020-11-03,https://www.nytimes.com/interactive/2020/11/03/us/elections/results-missouri-house-district-6.html,https://www.nytimes.com/interactive/2020/11/03/us/elections/results-missouri.html,https://www.nytimes.com/interactive/2020/11/03/us/elections/ap-polls-missouri.html,house,general,2020-11-03,FALSE,U.S. House District 6,U.S. House,H,solid-rep,6,District 6,MO,missouri,Missouri,Mo.,horizontal,"",FALSE,TRUE,winner,AP,FALSE,"",388063,1606,3,unknown,Polls close at 8 p.m. Eastern time.,Polls close in,Polls have closed.,2020-11-04T01:00:00.000Z,8 p.m.,425,450,94% reporting,94%,100,390000,edison,>98%,>98% reported,edison,republican,FALSE,2020-11-24T13:26:10Z,TRUE,35.60092,138154,R+36,Graves +36,republican,FALSE,"","",0,0,1604461440767
29165,Platte,57863,0,28,28,Released as a precinct as first report of the night,100,57863,>98%,>98% reported,edison,6,all,7942,31778,24843,1242,0,0,0,2020-11-24T13:22:12Z,11.98521,R+12,Graves +12,republican,MO-G-H-6-2020-11-03,mo-house-general-district-006-2020-11-03,https://www.nytimes.com/interactive/2020/11/03/us/elections/results-missouri-house-district-6.html,https://www.nytimes.com/interactive/2020/11/03/us/elections/results-missouri.html,https://www.nytimes.com/interactive/2020/11/03/us/elections/ap-polls-missouri.html,house,general,2020-11-03,FALSE,U.S. House District 6,U.S. House,H,solid-rep,6,District 6,MO,missouri,Missouri,Mo.,horizontal,"",FALSE,TRUE,winner,AP,FALSE,"",388063,1606,3,unknown,Polls close at 8 p.m. Eastern time.,Polls close in,Polls have closed.,2020-11-04T01:00:00.000Z,8 p.m.,425,450,94% reporting,94%,100,390000,edison,>98%,>98% reported,edison,republican,FALSE,2020-11-24T13:26:10Z,TRUE,35.60092,138154,R+36,Graves +36,republican,FALSE,"","",0,0,1604461440767
29171,Putnam,2311,0,8,9,None,100,1896,>98%,>98% reported,edison,2,unknown,506,2013,272,26,0,0,0,2020-11-24T13:22:14Z,75.33535,R+75,Graves +75,republican,MO-G-H-6-2020-11-03,mo-house-general-district-006-2020-11-03,https://www.nytimes.com/interactive/2020/11/03/us/elections/results-missouri-house-district-6.html,https://www.nytimes.com/interactive/2020/11/03/us/elections/results-missouri.html,https://www.nytimes.com/interactive/2020/11/03/us/elections/ap-polls-missouri.html,house,general,2020-11-03,FALSE,U.S. House District 6,U.S. House,H,solid-rep,6,District 6,MO,missouri,Missouri,Mo.,horizontal,"",FALSE,TRUE,winner,AP,FALSE,"",388063,1606,3,unknown,Polls close at 8 p.m. Eastern time.,Polls close in,Polls have closed.,2020-11-04T01:00:00.000Z,8 p.m.,425,450,94% reporting,94%,100,390000,edison,>98%,>98% reported,edison,republican,FALSE,2020-11-24T13:26:10Z,TRUE,35.60092,138154,R+36,Graves +36,republican,FALSE,"","",0,0,1604461440767
29173,Ralls,4659,0,6,8,Released separately AFTER election night,89,5249,89%,89% reported,edison,2,unknown,838,4369,194,96,0,0,0,2020-11-24T13:22:24Z,89.6115,R+90,Graves +90,republican,MO-G-H-6-2020-11-03,mo-house-general-district-006-2020-11-03,https://www.nytimes.com/interactive/2020/11/03/us/elections/results-missouri-house-district-6.html,https://www.nytimes.com/interactive/2020/11/03/us/elections/results-missouri.html,https://www.nytimes.com/interactive/2020/11/03/us/elections/ap-polls-missouri.html,house,general,2020-11-03,FALSE,U.S. House District 6,U.S. House,H,solid-rep,6,District 6,MO,missouri,Missouri,Mo.,horizontal,"",FALSE,TRUE,winner,AP,FALSE,"",388063,1606,3,unknown,Polls close at 8 p.m. Eastern time.,Polls close in,Polls have closed.,2020-11-04T01:00:00.000Z,8 p.m.,425,450,94% reporting,94%,100,390000,edison,>98%,>98% reported,edison,republican,FALSE,2020-11-24T13:26:10Z,TRUE,35.60092,138154,R+36,Graves +36,republican,FALSE,"","",0,0,1604461440767
29197,Schuyler,1954,0,5,5,Released as a precinct as first report of the night,100,1954,>98%,>98% reported,edison,6,all,286,1624,290,40,0,0,0,2020-11-24T13:22:14Z,68.27021,R+68,Graves +68,republican,MO-G-H-6-2020-11-03,mo-house-general-district-006-2020-11-03,https://www.nytimes.com/interactive/2020/11/03/us/elections/results-missouri-house-district-6.html,https://www.nytimes.com/interactive/2020/11/03/us/elections/results-missouri.html,https://www.nytimes.com/interactive/2020/11/03/us/elections/ap-polls-missouri.html,house,general,2020-11-03,FALSE,U.S. House District 6,U.S. House,H,solid-rep,6,District 6,MO,missouri,Missouri,Mo.,horizontal,"",FALSE,TRUE,winner,AP,FALSE,"",388063,1606,3,unknown,Polls close at 8 p.m. Eastern time.,Polls close in,Polls have closed.,2020-11-04T01:00:00.000Z,8 p.m.,425,450,94% reporting,94%,100,390000,edison,>98%,>98% reported,edison,republican,FALSE,2020-11-24T13:26:10Z,TRUE,35.60092,138154,R+36,Graves +36,republican,FALSE,"","",0,0,1604461440767
29199,Scotland,1921,441,5,6,Released as a precinct as first report of the night,100,1921,>98%,>98% reported,edison,6,all,466,1614,277,30,334,102,5,2020-11-24T13:22:26Z,69.59917,R+70,Graves +70,republican,MO-G-H-6-2020-11-03,mo-house-general-district-006-2020-11-03,https://www.nytimes.com/interactive/2020/11/03/us/elections/results-missouri-house-district-6.html,https://www.nytimes.com/interactive/2020/11/03/us/elections/results-missouri.html,https://www.nytimes.com/interactive/2020/11/03/us/elections/ap-polls-missouri.html,house,general,2020-11-03,FALSE,U.S. House District 6,U.S. House,H,solid-rep,6,District 6,MO,missouri,Missouri,Mo.,horizontal,"",FALSE,TRUE,winner,AP,FALSE,"",388063,1606,3,unknown,Polls close at 8 p.m. Eastern time.,Polls close in,Polls have closed.,2020-11-04T01:00:00.000Z,8 p.m.,425,450,94% reporting,94%,100,390000,edison,>98%,>98% reported,edison,republican,FALSE,2020-11-24T13:26:10Z,TRUE,35.60092,138154,R+36,Graves +36,republican,FALSE,"","",0,0,1604461440767
29205,Shelby,3256,637,6,7,Released as a precinct at the end of tabulation,100,3255,>98%,>98% reported,edison,6,all,602,2704,502,50,464,166,7,2020-11-24T13:22:29Z,67.62899,R+68,Graves +68,republican,MO-G-H-6-2020-11-03,mo-house-general-district-006-2020-11-03,https://www.nytimes.com/interactive/2020/11/03/us/elections/results-missouri-house-district-6.html,https://www.nytimes.com/interactive/2020/11/03/us/elections/results-missouri.html,https://www.nytimes.com/interactive/2020/11/03/us/elections/ap-polls-missouri.html,house,general,2020-11-03,FALSE,U.S. House District 6,U.S. House,H,solid-rep,6,District 6,MO,missouri,Missouri,Mo.,horizontal,"",FALSE,TRUE,winner,AP,FALSE,"",388063,1606,3,unknown,Polls close at 8 p.m. Eastern time.,Polls close in,Polls have closed.,2020-11-04T01:00:00.000Z,8 p.m.,425,450,94% reporting,94%,100,390000,edison,>98%,>98% reported,edison,republican,FALSE,2020-11-24T13:26:10Z,TRUE,35.60092,138154,R+36,Graves +36,republican,FALSE,"","",0,0,1604461440767
29211,Sullivan,2436,0,13,15,Released as a precinct as first report of the night,100,2010,>98%,>98% reported,edison,2,unknown,542,1992,411,33,0,0,0,2020-11-24T13:22:15Z,64.90148,R+65,Graves +65,republican,MO-G-H-6-2020-11-03,mo-house-general-district-006-2020-11-03,https://www.nytimes.com/interactive/2020/11/03/us/elections/results-missouri-house-district-6.html,https://www.nytimes.com/interactive/2020/11/03/us/elections/results-missouri.html,https://www.nytimes.com/interactive/2020/11/03/us/elections/ap-polls-missouri.html,house,general,2020-11-03,FALSE,U.S. House District 6,U.S. House,H,solid-rep,6,District 6,MO,missouri,Missouri,Mo.,horizontal,"",FALSE,TRUE,winner,AP,FALSE,"",388063,1606,3,unknown,Polls close at 8 p.m. Eastern time.,Polls close in,Polls have closed.,2020-11-04T01:00:00.000Z,8 p.m.,425,450,94% reporting,94%,100,390000,edison,>98%,>98% reported,edison,republican,FALSE,2020-11-24T13:26:10Z,TRUE,35.60092,138154,R+36,Graves +36,republican,FALSE,"","",0,0,1604461440767
29227,Worth,1087,0,8,8,Released as a precinct as first report of the night,100,847,>98%,>98% reported,edison,2,unknown,224,865,192,30,0,0,0,2020-11-24T13:22:15Z,61.91352,R+62,Graves +62,republican,MO-G-H-6-2020-11-03,mo-house-general-district-006-2020-11-03,https://www.nytimes.com/interactive/2020/11/03/us/elections/results-missouri-house-district-6.html,https://www.nytimes.com/interactive/2020/11/03/us/elections/results-missouri.html,https://www.nytimes.com/interactive/2020/11/03/us/elections/ap-polls-missouri.html,house,general,2020-11-03,FALSE,U.S. House District 6,U.S. House,H,solid-rep,6,District 6,MO,missouri,Missouri,Mo.,horizontal,"",FALSE,TRUE,winner,AP,FALSE,"",388063,1606,3,unknown,Polls close at 8 p.m. Eastern time.,Polls close in,Polls have closed.,2020-11-04T01:00:00.000Z,8 p.m.,425,450,94% reporting,94%,100,390000,edison,>98%,>98% reported,edison,republican,FALSE,2020-11-24T13:26:10Z,TRUE,35.60092,138154,R+36,Graves +36,republican,FALSE,"","",0,0,1604461440767
