fips,name,votes,absentee_votes,reporting,precincts,absentee_method,eevp,tot_exp_vote,eevp_value,eevp_display,eevp_source,turnout_stage,absentee_count_progress,results_nadlerj,results_bernsteinc,results_madridm,results_absentee_nadlerj,results_absentee_bernsteinc,results_absentee_madridm,last_updated,leader_margin_value,leader_margin_display,leader_margin_name_display,leader_party_id,race_id_race,race_slug_race,url_race,state_page_url_race,ap_polls_page_race,edison_exit_polls_page_race,race_type_race,election_type_race,election_date_race,runoff_race,race_name_race,office_race,officeid_race,race_rating_race,seat_race,seat_name_race,state_id_race,state_slug_race,state_name_race,state_nyt_abbrev_race,state_shape_race,party_id_race,uncontested_race,report_race,result_race,result_source_race,gain_race,lost_seat_race,votes_race,absentee_votes_race,absentee_count_progress_race,poll_display_race,poll_countdown_display_race,poll_waiting_display_race,poll_time_race,poll_time_short_race,precincts_reporting_race,precincts_total_race,reporting_display_race,reporting_value_race,eevp_race,tot_exp_vote_race,eevp_source_race,eevp_value_race,eevp_display_race,county_data_source_race,incumbent_party_race,no_forecast_race,last_updated_race,has_incumbent_race,leader_margin_value_race,leader_margin_votes_race,leader_margin_display_race,leader_margin_name_display_race,leader_party_id_race,edison_certified_race,expectations_text_race,expectations_text_short_race,absentee_ballot_deadline_race,absentee_postmark_deadline_race,winner_called_timestamp_race
36047,Brooklyn,58256,0,114,135,Merged into voters' home precincts AFTER election night,85,68837,85%,85% reported,edison,2,unknown,24607,33124,525,0,0,0,2020-11-24T13:22:35Z,14.61995,R+15,Bernstein +15,republican,NY-G-H-10-2020-11-03,ny-house-general-district-010-2020-11-03,https://www.nytimes.com/interactive/2020/11/03/us/elections/results-new-york-house-district-10.html,https://www.nytimes.com/interactive/2020/11/03/us/elections/results-new-york.html,https://www.nytimes.com/interactive/2020/11/03/us/elections/ap-polls-new-york.html,https://www.nytimes.com/interactive/2020/11/03/us/elections/exit-polls-new-york.html,house,general,2020-11-03,FALSE,U.S. House District 10,U.S. House,H,solid-dem,10,District 10,NY,new-york,New York,N.Y.,horizontal,"",FALSE,TRUE,winner,AP,FALSE,"",175271,0,unknown,Polls close at 9 p.m. Eastern time.,Polls close in,Polls have closed.,2020-11-04T02:00:00.000Z,9 p.m.,304,491,62% reporting,62%,61,289000,edison,61%,61% reported,edison,democrat,FALSE,2020-11-24T13:23:26Z,TRUE,38.47242,67431,D+38,Nadler +38,democrat,FALSE,"Only unofficial results from in-person early and Election Day voting were released on election night. Mail ballots, which had until Nov. 10 to arrive if postmarked by Election Day, are still being counted. It took weeks to finish counting ballots during the state's June primary.",Only unofficial results from in-person early and Election Day voting were released on election night. Mail ballots are still being counted.,7,0,1604460483988
36061,Manhattan,117015,0,190,356,Merged into voters' home precincts AFTER election night,53,219303,53%,53% reported,edison,2,none,95666,19718,1631,0,0,0,2020-11-24T13:22:36Z,64.9045,D+65,Nadler +65,democrat,NY-G-H-10-2020-11-03,ny-house-general-district-010-2020-11-03,https://www.nytimes.com/interactive/2020/11/03/us/elections/results-new-york-house-district-10.html,https://www.nytimes.com/interactive/2020/11/03/us/elections/results-new-york.html,https://www.nytimes.com/interactive/2020/11/03/us/elections/ap-polls-new-york.html,https://www.nytimes.com/interactive/2020/11/03/us/elections/exit-polls-new-york.html,house,general,2020-11-03,FALSE,U.S. House District 10,U.S. House,H,solid-dem,10,District 10,NY,new-york,New York,N.Y.,horizontal,"",FALSE,TRUE,winner,AP,FALSE,"",175271,0,unknown,Polls close at 9 p.m. Eastern time.,Polls close in,Polls have closed.,2020-11-04T02:00:00.000Z,9 p.m.,304,491,62% reporting,62%,61,289000,edison,61%,61% reported,edison,democrat,FALSE,2020-11-24T13:23:26Z,TRUE,38.47242,67431,D+38,Nadler +38,democrat,FALSE,"Only unofficial results from in-person early and Election Day voting were released on election night. Mail ballots, which had until Nov. 10 to arrive if postmarked by Election Day, are still being counted. It took weeks to finish counting ballots during the state's June primary.",Only unofficial results from in-person early and Election Day voting were released on election night. Mail ballots are still being counted.,7,0,1604460483988
