fips,name,votes,absentee_votes,reporting,precincts,absentee_method,eevp,tot_exp_vote,eevp_value,eevp_display,eevp_source,turnout_stage,absentee_count_progress,absentee_max_ballots,results_fudgem,results_gorel,results_absentee_fudgem,results_absentee_gorel,last_updated,leader_margin_value,leader_margin_display,leader_margin_name_display,leader_party_id,race_id_race,race_slug_race,url_race,state_page_url_race,ap_polls_page_race,edison_exit_polls_page_race,race_type_race,election_type_race,election_date_race,runoff_race,race_name_race,office_race,officeid_race,race_rating_race,seat_race,seat_name_race,state_id_race,state_slug_race,state_name_race,state_nyt_abbrev_race,state_shape_race,party_id_race,uncontested_race,report_race,result_race,result_source_race,gain_race,lost_seat_race,votes_race,absentee_votes_race,absentee_counties_race,absentee_count_progress_race,poll_display_race,poll_countdown_display_race,poll_waiting_display_race,poll_time_race,poll_time_short_race,precincts_reporting_race,precincts_total_race,reporting_display_race,reporting_value_race,eevp_race,tot_exp_vote_race,eevp_source_race,eevp_value_race,eevp_display_race,county_data_source_race,incumbent_party_race,no_forecast_race,last_updated_race,has_incumbent_race,leader_margin_value_race,leader_margin_votes_race,leader_margin_display_race,leader_margin_name_display_race,leader_party_id_race,edison_certified_race,expectations_text_race,expectations_text_short_race,absentee_ballot_deadline_race,absentee_postmark_deadline_race,winner_called_timestamp_race
39035,Cuyahoga,260601,26951,431,529,Released as a separate subtotal as first report of the night,81,319966,81%,81% reported,edison,4,all,431608,212304,48297,21202,5749,2020-11-24T13:22:21Z,62.93414,D+63,Fudge +63,democrat,OH-G-H-11-2020-11-03,oh-house-general-district-011-2020-11-03,https://www.nytimes.com/interactive/2020/11/03/us/elections/results-ohio-house-district-11.html,https://www.nytimes.com/interactive/2020/11/03/us/elections/results-ohio.html,https://www.nytimes.com/interactive/2020/11/03/us/elections/ap-polls-ohio.html,https://www.nytimes.com/interactive/2020/11/03/us/elections/exit-polls-ohio.html,house,general,2020-11-03,FALSE,U.S. House District 11,U.S. House,H,solid-dem,11,District 11,OH,ohio,Ohio,Ohio,horizontal,"",FALSE,TRUE,winner,AP,FALSE,"",302421,53902,2,unknown,Polls close at 7:30 p.m. Eastern time.,Polls close in,Polls have closed.,2020-11-04T00:30:00.000Z,7:30 p.m.,499,611,82% reporting,82%,82,369000,edison,82%,82% reported,edison,democrat,FALSE,2020-11-24T13:23:23Z,TRUE,60.10661,181775,D+60,Fudge +60,democrat,FALSE,"Postmarked ballots have until Nov. 13 to arrive, but no additional results will be reported reported for at least a week and a half after the election. Counties may report their full official count after their vote canvass, due by Nov. 18, but full statewide results will not be available until final certification, due by Nov. 28. ","Postmarked ballots have until Nov. 13 to arrive, but no additional results will be reported for at least a week and a half after the election.",10,-1,1604450929651
39153,Summit,41820,26951,68,82,None,86,48596,86%,86% reported,edison,2,unknown,138795,29794,12026,21202,5749,2020-11-24T13:22:23Z,42.48685,D+42,Fudge +42,democrat,OH-G-H-11-2020-11-03,oh-house-general-district-011-2020-11-03,https://www.nytimes.com/interactive/2020/11/03/us/elections/results-ohio-house-district-11.html,https://www.nytimes.com/interactive/2020/11/03/us/elections/results-ohio.html,https://www.nytimes.com/interactive/2020/11/03/us/elections/ap-polls-ohio.html,https://www.nytimes.com/interactive/2020/11/03/us/elections/exit-polls-ohio.html,house,general,2020-11-03,FALSE,U.S. House District 11,U.S. House,H,solid-dem,11,District 11,OH,ohio,Ohio,Ohio,horizontal,"",FALSE,TRUE,winner,AP,FALSE,"",302421,53902,2,unknown,Polls close at 7:30 p.m. Eastern time.,Polls close in,Polls have closed.,2020-11-04T00:30:00.000Z,7:30 p.m.,499,611,82% reporting,82%,82,369000,edison,82%,82% reported,edison,democrat,FALSE,2020-11-24T13:23:23Z,TRUE,60.10661,181775,D+60,Fudge +60,democrat,FALSE,"Postmarked ballots have until Nov. 13 to arrive, but no additional results will be reported reported for at least a week and a half after the election. Counties may report their full official count after their vote canvass, due by Nov. 18, but full statewide results will not be available until final certification, due by Nov. 28. ","Postmarked ballots have until Nov. 13 to arrive, but no additional results will be reported for at least a week and a half after the election.",10,-1,1604450929651
