fips,name,votes,absentee_votes,reporting,precincts,eevp_display,eevp_source,results_cicillined,results_wysockif,results_lemirej,results_absentee_cicillined,results_absentee_wysockif,results_absentee_lemirej,last_updated,leader_margin_value,leader_margin_display,leader_margin_name_display,leader_party_id,race_id_race,race_slug_race,url_race,state_page_url_race,ap_polls_page_race,race_type_race,election_type_race,election_date_race,runoff_race,race_name_race,office_race,officeid_race,race_rating_race,seat_race,seat_name_race,state_id_race,state_slug_race,state_name_race,state_nyt_abbrev_race,state_shape_race,state_aspect_ratio_race,party_id_race,uncontested_race,report_race,result_race,result_source_race,gain_race,lost_seat_race,votes_race,absentee_votes_race,absentee_count_progress_race,poll_display_race,poll_countdown_display_race,poll_waiting_display_race,poll_time_race,poll_time_short_race,precincts_reporting_race,precincts_total_race,reporting_display_race,reporting_value_race,eevp_race,tot_exp_vote_race,eevp_source_race,eevp_value_race,eevp_display_race,county_data_source_race,incumbent_party_race,no_forecast_race,last_updated_race,has_incumbent_race,leader_margin_value_race,leader_margin_votes_race,leader_margin_display_race,leader_margin_name_display_race,leader_party_id_race,edison_certified_race,expectations_text_race,expectations_text_short_race,absentee_ballot_deadline_race,absentee_postmark_deadline_race,winner_called_timestamp_race
44001,Bristol,26063,0,16,17,"",edison,18038,4587,3438,0,0,0,2020-11-24T13:22:35Z,51.60956,D+52,Cicilline +52,democrat,RI-G-H-1-2020-11-03,ri-house-general-district-001-2020-11-03,https://www.nytimes.com/interactive/2020/11/03/us/elections/results-rhode-island-house-district-1.html,https://www.nytimes.com/interactive/2020/11/03/us/elections/results-rhode-island.html,https://www.nytimes.com/interactive/2020/11/03/us/elections/ap-polls-rhode-island.html,house,general,2020-11-03,FALSE,U.S. House District 1,U.S. House,H,solid-dem,1,District 1,RI,rhode-island,Rhode Island,R.I.,vertical,1.1,"",FALSE,TRUE,winner,AP,FALSE,"",221575,0,unknown,Polls close at 8 p.m. Eastern time.,Polls close in,Polls have closed.,2020-11-04T01:00:00.000Z,8 p.m.,194,215,90% reporting,90%,92,242000,edison,92%,92% reported,edison,democrat,FALSE,2020-11-24T19:40:54Z,TRUE,55.25623,122434,D+55,Cicilline +55,democrat,FALSE,"","",0,0,1604467470312
44005,Newport,41558,0,28,31,"",edison,29281,7229,5048,0,0,0,2020-11-24T19:40:51Z,53.06319,D+53,Cicilline +53,democrat,RI-G-H-1-2020-11-03,ri-house-general-district-001-2020-11-03,https://www.nytimes.com/interactive/2020/11/03/us/elections/results-rhode-island-house-district-1.html,https://www.nytimes.com/interactive/2020/11/03/us/elections/results-rhode-island.html,https://www.nytimes.com/interactive/2020/11/03/us/elections/ap-polls-rhode-island.html,house,general,2020-11-03,FALSE,U.S. House District 1,U.S. House,H,solid-dem,1,District 1,RI,rhode-island,Rhode Island,R.I.,vertical,1.1,"",FALSE,TRUE,winner,AP,FALSE,"",221575,0,unknown,Polls close at 8 p.m. Eastern time.,Polls close in,Polls have closed.,2020-11-04T01:00:00.000Z,8 p.m.,194,215,90% reporting,90%,92,242000,edison,92%,92% reported,edison,democrat,FALSE,2020-11-24T19:40:54Z,TRUE,55.25623,122434,D+55,Cicilline +55,democrat,FALSE,"","",0,0,1604467470312
44007,Providence,153954,0,150,167,"",edison,110544,23613,19797,0,0,0,2020-11-24T13:22:39Z,56.46557,D+56,Cicilline +56,democrat,RI-G-H-1-2020-11-03,ri-house-general-district-001-2020-11-03,https://www.nytimes.com/interactive/2020/11/03/us/elections/results-rhode-island-house-district-1.html,https://www.nytimes.com/interactive/2020/11/03/us/elections/results-rhode-island.html,https://www.nytimes.com/interactive/2020/11/03/us/elections/ap-polls-rhode-island.html,house,general,2020-11-03,FALSE,U.S. House District 1,U.S. House,H,solid-dem,1,District 1,RI,rhode-island,Rhode Island,R.I.,vertical,1.1,"",FALSE,TRUE,winner,AP,FALSE,"",221575,0,unknown,Polls close at 8 p.m. Eastern time.,Polls close in,Polls have closed.,2020-11-04T01:00:00.000Z,8 p.m.,194,215,90% reporting,90%,92,242000,edison,92%,92% reported,edison,democrat,FALSE,2020-11-24T19:40:54Z,TRUE,55.25623,122434,D+55,Cicilline +55,democrat,FALSE,"","",0,0,1604467470312
