fips,name,votes,absentee_votes,reporting,precincts,absentee_method,eevp,tot_exp_vote,eevp_value,eevp_display,eevp_source,turnout_stage,absentee_count_progress,absentee_max_ballots,results_kindr,results_van_ordend,results_absentee_kindr,results_absentee_van_ordend,last_updated,leader_margin_value,leader_margin_display,leader_margin_name_display,leader_party_id,race_id_race,race_slug_race,url_race,state_page_url_race,ap_polls_page_race,edison_exit_polls_page_race,race_type_race,election_type_race,election_date_race,runoff_race,race_name_race,office_race,officeid_race,race_rating_race,seat_race,seat_name_race,state_id_race,state_slug_race,state_name_race,state_nyt_abbrev_race,state_shape_race,party_id_race,uncontested_race,report_race,result_race,result_source_race,gain_race,lost_seat_race,votes_race,absentee_votes_race,absentee_count_progress_race,poll_display_race,poll_countdown_display_race,poll_waiting_display_race,poll_time_race,poll_time_short_race,precincts_reporting_race,precincts_total_race,reporting_display_race,reporting_value_race,eevp_race,tot_exp_vote_race,eevp_source_race,eevp_value_race,eevp_display_race,county_data_source_race,incumbent_party_race,no_forecast_race,last_updated_race,has_incumbent_race,leader_margin_value_race,leader_margin_votes_race,leader_margin_display_race,leader_margin_name_display_race,leader_party_id_race,edison_certified_race,expectations_text_race,expectations_text_short_race,absentee_ballot_deadline_race,absentee_postmark_deadline_race,winner_called_timestamp_race
55001,Adams,11549,0,20,20,Merged into voters' home precincts and released with cumulative results,100,11549,>98%,>98% reported,edison,10,unknown,2010,4639,6910,0,0,2020-11-24T13:22:01Z,19.66404,R+20,Van Orden +20,republican,WI-G-H-3-2020-11-03,wi-house-general-district-003-2020-11-03,https://www.nytimes.com/interactive/2020/11/03/us/elections/results-wisconsin-house-district-3.html,https://www.nytimes.com/interactive/2020/11/03/us/elections/results-wisconsin.html,https://www.nytimes.com/interactive/2020/11/03/us/elections/ap-polls-wisconsin.html,https://www.nytimes.com/interactive/2020/11/03/us/elections/exit-polls-wisconsin.html,house,general,2020-11-03,FALSE,U.S. House District 3,U.S. House,H,lean-dem,3,District 3,WI,wisconsin,Wisconsin,Wis.,horizontal,"",FALSE,TRUE,winner,AP,FALSE,"",389504,0,unknown,Polls close at 9 p.m. Eastern time.,Polls close in,Polls have closed.,2020-11-04T02:00:00.000Z,9 p.m.,612,622,98% reporting,98%,100,389504,edison,>98%,>98% reported,edison,democrat,FALSE,2020-11-24T13:24:02Z,TRUE,2.63566,10266,D+3,Kind +3,democrat,TRUE,"","",0,0,1604509733895
55011,Buffalo,7739,0,23,23,Merged into voters' home precincts and released with cumulative results,100,7739,>98%,>98% reported,edison,10,unknown,1338,3457,4282,0,0,2020-11-24T13:23:01Z,10.66029,R+11,Van Orden +11,republican,WI-G-H-3-2020-11-03,wi-house-general-district-003-2020-11-03,https://www.nytimes.com/interactive/2020/11/03/us/elections/results-wisconsin-house-district-3.html,https://www.nytimes.com/interactive/2020/11/03/us/elections/results-wisconsin.html,https://www.nytimes.com/interactive/2020/11/03/us/elections/ap-polls-wisconsin.html,https://www.nytimes.com/interactive/2020/11/03/us/elections/exit-polls-wisconsin.html,house,general,2020-11-03,FALSE,U.S. House District 3,U.S. House,H,lean-dem,3,District 3,WI,wisconsin,Wisconsin,Wis.,horizontal,"",FALSE,TRUE,winner,AP,FALSE,"",389504,0,unknown,Polls close at 9 p.m. Eastern time.,Polls close in,Polls have closed.,2020-11-04T02:00:00.000Z,9 p.m.,612,622,98% reporting,98%,100,389504,edison,>98%,>98% reported,edison,democrat,FALSE,2020-11-24T13:24:02Z,TRUE,2.63566,10266,D+3,Kind +3,democrat,TRUE,"","",0,0,1604509733895
55017,Chippewa,20919,0,28,28,Merged into voters' home precincts and released with cumulative results,100,20919,>98%,>98% reported,edison,10,some,5366,10332,10587,0,0,2020-11-24T13:21:58Z,1.21899,R+1.2,Van Orden +1.2,republican,WI-G-H-3-2020-11-03,wi-house-general-district-003-2020-11-03,https://www.nytimes.com/interactive/2020/11/03/us/elections/results-wisconsin-house-district-3.html,https://www.nytimes.com/interactive/2020/11/03/us/elections/results-wisconsin.html,https://www.nytimes.com/interactive/2020/11/03/us/elections/ap-polls-wisconsin.html,https://www.nytimes.com/interactive/2020/11/03/us/elections/exit-polls-wisconsin.html,house,general,2020-11-03,FALSE,U.S. House District 3,U.S. House,H,lean-dem,3,District 3,WI,wisconsin,Wisconsin,Wis.,horizontal,"",FALSE,TRUE,winner,AP,FALSE,"",389504,0,unknown,Polls close at 9 p.m. Eastern time.,Polls close in,Polls have closed.,2020-11-04T02:00:00.000Z,9 p.m.,612,622,98% reporting,98%,100,389504,edison,>98%,>98% reported,edison,democrat,FALSE,2020-11-24T13:24:02Z,TRUE,2.63566,10266,D+3,Kind +3,democrat,TRUE,"","",0,0,1604509733895
55023,Crawford,8606,0,27,27,Merged into voters' home precincts and released with cumulative results,100,8606,>98%,>98% reported,edison,10,unknown,1396,4551,4055,0,0,2020-11-24T13:23:01Z,5.76342,D+6,Kind +6,democrat,WI-G-H-3-2020-11-03,wi-house-general-district-003-2020-11-03,https://www.nytimes.com/interactive/2020/11/03/us/elections/results-wisconsin-house-district-3.html,https://www.nytimes.com/interactive/2020/11/03/us/elections/results-wisconsin.html,https://www.nytimes.com/interactive/2020/11/03/us/elections/ap-polls-wisconsin.html,https://www.nytimes.com/interactive/2020/11/03/us/elections/exit-polls-wisconsin.html,house,general,2020-11-03,FALSE,U.S. House District 3,U.S. House,H,lean-dem,3,District 3,WI,wisconsin,Wisconsin,Wis.,horizontal,"",FALSE,TRUE,winner,AP,FALSE,"",389504,0,unknown,Polls close at 9 p.m. Eastern time.,Polls close in,Polls have closed.,2020-11-04T02:00:00.000Z,9 p.m.,612,622,98% reporting,98%,100,389504,edison,>98%,>98% reported,edison,democrat,FALSE,2020-11-24T13:24:02Z,TRUE,2.63566,10266,D+3,Kind +3,democrat,TRUE,"","",0,0,1604509733895
55033,Dunn,23283,0,36,36,Other,100,23283,>98%,>98% reported,edison,10,unknown,3873,10667,12616,0,0,2020-11-24T13:23:03Z,8.37091,R+8,Van Orden +8,republican,WI-G-H-3-2020-11-03,wi-house-general-district-003-2020-11-03,https://www.nytimes.com/interactive/2020/11/03/us/elections/results-wisconsin-house-district-3.html,https://www.nytimes.com/interactive/2020/11/03/us/elections/results-wisconsin.html,https://www.nytimes.com/interactive/2020/11/03/us/elections/ap-polls-wisconsin.html,https://www.nytimes.com/interactive/2020/11/03/us/elections/exit-polls-wisconsin.html,house,general,2020-11-03,FALSE,U.S. House District 3,U.S. House,H,lean-dem,3,District 3,WI,wisconsin,Wisconsin,Wis.,horizontal,"",FALSE,TRUE,winner,AP,FALSE,"",389504,0,unknown,Polls close at 9 p.m. Eastern time.,Polls close in,Polls have closed.,2020-11-04T02:00:00.000Z,9 p.m.,612,622,98% reporting,98%,100,389504,edison,>98%,>98% reported,edison,democrat,FALSE,2020-11-24T13:24:02Z,TRUE,2.63566,10266,D+3,Kind +3,democrat,TRUE,"","",0,0,1604509733895
55035,Eau Claire,57470,0,95,95,Merged into voters' home precincts and released with cumulative results,100,57470,>98%,>98% reported,edison,10,unknown,18289,33210,24260,0,0,2020-11-24T13:23:04Z,15.57334,D+16,Kind +16,democrat,WI-G-H-3-2020-11-03,wi-house-general-district-003-2020-11-03,https://www.nytimes.com/interactive/2020/11/03/us/elections/results-wisconsin-house-district-3.html,https://www.nytimes.com/interactive/2020/11/03/us/elections/results-wisconsin.html,https://www.nytimes.com/interactive/2020/11/03/us/elections/ap-polls-wisconsin.html,https://www.nytimes.com/interactive/2020/11/03/us/elections/exit-polls-wisconsin.html,house,general,2020-11-03,FALSE,U.S. House District 3,U.S. House,H,lean-dem,3,District 3,WI,wisconsin,Wisconsin,Wis.,horizontal,"",FALSE,TRUE,winner,AP,FALSE,"",389504,0,unknown,Polls close at 9 p.m. Eastern time.,Polls close in,Polls have closed.,2020-11-04T02:00:00.000Z,9 p.m.,612,622,98% reporting,98%,100,389504,edison,>98%,>98% reported,edison,democrat,FALSE,2020-11-24T13:24:02Z,TRUE,2.63566,10266,D+3,Kind +3,democrat,TRUE,"","",0,0,1604509733895
55043,Grant,25081,0,52,52,Merged into voters' home precincts and released with cumulative results,100,25081,>98%,>98% reported,edison,10,unknown,5001,11967,13114,0,0,2020-11-24T13:23:04Z,4.57318,R+5,Van Orden +5,republican,WI-G-H-3-2020-11-03,wi-house-general-district-003-2020-11-03,https://www.nytimes.com/interactive/2020/11/03/us/elections/results-wisconsin-house-district-3.html,https://www.nytimes.com/interactive/2020/11/03/us/elections/results-wisconsin.html,https://www.nytimes.com/interactive/2020/11/03/us/elections/ap-polls-wisconsin.html,https://www.nytimes.com/interactive/2020/11/03/us/elections/exit-polls-wisconsin.html,house,general,2020-11-03,FALSE,U.S. House District 3,U.S. House,H,lean-dem,3,District 3,WI,wisconsin,Wisconsin,Wis.,horizontal,"",FALSE,TRUE,winner,AP,FALSE,"",389504,0,unknown,Polls close at 9 p.m. Eastern time.,Polls close in,Polls have closed.,2020-11-04T02:00:00.000Z,9 p.m.,612,622,98% reporting,98%,100,389504,edison,>98%,>98% reported,edison,democrat,FALSE,2020-11-24T13:24:02Z,TRUE,2.63566,10266,D+3,Kind +3,democrat,TRUE,"","",0,0,1604509733895
55053,Jackson,9015,0,25,28,None,100,9015,>98%,>98% reported,edison,10,unknown,1378,4508,4507,0,0,2020-11-24T13:23:05Z,0.01109,D+0.01,Kind +0.01,democrat,WI-G-H-3-2020-11-03,wi-house-general-district-003-2020-11-03,https://www.nytimes.com/interactive/2020/11/03/us/elections/results-wisconsin-house-district-3.html,https://www.nytimes.com/interactive/2020/11/03/us/elections/results-wisconsin.html,https://www.nytimes.com/interactive/2020/11/03/us/elections/ap-polls-wisconsin.html,https://www.nytimes.com/interactive/2020/11/03/us/elections/exit-polls-wisconsin.html,house,general,2020-11-03,FALSE,U.S. House District 3,U.S. House,H,lean-dem,3,District 3,WI,wisconsin,Wisconsin,Wis.,horizontal,"",FALSE,TRUE,winner,AP,FALSE,"",389504,0,unknown,Polls close at 9 p.m. Eastern time.,Polls close in,Polls have closed.,2020-11-04T02:00:00.000Z,9 p.m.,612,622,98% reporting,98%,100,389504,edison,>98%,>98% reported,edison,democrat,FALSE,2020-11-24T13:24:02Z,TRUE,2.63566,10266,D+3,Kind +3,democrat,TRUE,"","",0,0,1604509733895
55057,Juneau,10020,0,21,21,Released as a separate subtotal at the end of tabulation,100,10020,>98%,>98% reported,edison,10,unknown,1959,4063,5957,0,0,2020-11-24T13:21:46Z,18.9022,R+19,Van Orden +19,republican,WI-G-H-3-2020-11-03,wi-house-general-district-003-2020-11-03,https://www.nytimes.com/interactive/2020/11/03/us/elections/results-wisconsin-house-district-3.html,https://www.nytimes.com/interactive/2020/11/03/us/elections/results-wisconsin.html,https://www.nytimes.com/interactive/2020/11/03/us/elections/ap-polls-wisconsin.html,https://www.nytimes.com/interactive/2020/11/03/us/elections/exit-polls-wisconsin.html,house,general,2020-11-03,FALSE,U.S. House District 3,U.S. House,H,lean-dem,3,District 3,WI,wisconsin,Wisconsin,Wis.,horizontal,"",FALSE,TRUE,winner,AP,FALSE,"",389504,0,unknown,Polls close at 9 p.m. Eastern time.,Polls close in,Polls have closed.,2020-11-04T02:00:00.000Z,9 p.m.,612,622,98% reporting,98%,100,389504,edison,>98%,>98% reported,edison,democrat,FALSE,2020-11-24T13:24:02Z,TRUE,2.63566,10266,D+3,Kind +3,democrat,TRUE,"","",0,0,1604509733895
55063,La Crosse,67202,0,55,55,Merged into voters' home precincts and released with cumulative results,100,67202,>98%,>98% reported,edison,10,unknown,24362,40504,26698,0,0,2020-11-24T13:21:52Z,20.54403,D+21,Kind +21,democrat,WI-G-H-3-2020-11-03,wi-house-general-district-003-2020-11-03,https://www.nytimes.com/interactive/2020/11/03/us/elections/results-wisconsin-house-district-3.html,https://www.nytimes.com/interactive/2020/11/03/us/elections/results-wisconsin.html,https://www.nytimes.com/interactive/2020/11/03/us/elections/ap-polls-wisconsin.html,https://www.nytimes.com/interactive/2020/11/03/us/elections/exit-polls-wisconsin.html,house,general,2020-11-03,FALSE,U.S. House District 3,U.S. House,H,lean-dem,3,District 3,WI,wisconsin,Wisconsin,Wis.,horizontal,"",FALSE,TRUE,winner,AP,FALSE,"",389504,0,unknown,Polls close at 9 p.m. Eastern time.,Polls close in,Polls have closed.,2020-11-04T02:00:00.000Z,9 p.m.,612,622,98% reporting,98%,100,389504,edison,>98%,>98% reported,edison,democrat,FALSE,2020-11-24T13:24:02Z,TRUE,2.63566,10266,D+3,Kind +3,democrat,TRUE,"","",0,0,1604509733895
55081,Monroe,19685,0,35,39,Merged into voters' home precincts and released with cumulative results,100,19685,>98%,>98% reported,edison,10,unknown,5014,8684,11001,0,0,2020-11-24T13:21:53Z,11.77038,R+12,Van Orden +12,republican,WI-G-H-3-2020-11-03,wi-house-general-district-003-2020-11-03,https://www.nytimes.com/interactive/2020/11/03/us/elections/results-wisconsin-house-district-3.html,https://www.nytimes.com/interactive/2020/11/03/us/elections/results-wisconsin.html,https://www.nytimes.com/interactive/2020/11/03/us/elections/ap-polls-wisconsin.html,https://www.nytimes.com/interactive/2020/11/03/us/elections/exit-polls-wisconsin.html,house,general,2020-11-03,FALSE,U.S. House District 3,U.S. House,H,lean-dem,3,District 3,WI,wisconsin,Wisconsin,Wis.,horizontal,"",FALSE,TRUE,winner,AP,FALSE,"",389504,0,unknown,Polls close at 9 p.m. Eastern time.,Polls close in,Polls have closed.,2020-11-04T02:00:00.000Z,9 p.m.,612,622,98% reporting,98%,100,389504,edison,>98%,>98% reported,edison,democrat,FALSE,2020-11-24T13:24:02Z,TRUE,2.63566,10266,D+3,Kind +3,democrat,TRUE,"","",0,0,1604509733895
55091,Pepin,4107,0,11,11,Merged into voters' home precincts and released with cumulative results,100,4107,>98%,>98% reported,edison,10,unknown,566,1682,2425,0,0,2020-11-24T13:21:54Z,18.09106,R+18,Van Orden +18,republican,WI-G-H-3-2020-11-03,wi-house-general-district-003-2020-11-03,https://www.nytimes.com/interactive/2020/11/03/us/elections/results-wisconsin-house-district-3.html,https://www.nytimes.com/interactive/2020/11/03/us/elections/results-wisconsin.html,https://www.nytimes.com/interactive/2020/11/03/us/elections/ap-polls-wisconsin.html,https://www.nytimes.com/interactive/2020/11/03/us/elections/exit-polls-wisconsin.html,house,general,2020-11-03,FALSE,U.S. House District 3,U.S. House,H,lean-dem,3,District 3,WI,wisconsin,Wisconsin,Wis.,horizontal,"",FALSE,TRUE,winner,AP,FALSE,"",389504,0,unknown,Polls close at 9 p.m. Eastern time.,Polls close in,Polls have closed.,2020-11-04T02:00:00.000Z,9 p.m.,612,622,98% reporting,98%,100,389504,edison,>98%,>98% reported,edison,democrat,FALSE,2020-11-24T13:24:02Z,TRUE,2.63566,10266,D+3,Kind +3,democrat,TRUE,"","",0,0,1604509733895
55093,Pierce,23189,0,25,28,None,100,23189,>98%,>98% reported,edison,10,unknown,3021,10223,12966,0,0,2020-11-24T13:21:54Z,11.82888,R+12,Van Orden +12,republican,WI-G-H-3-2020-11-03,wi-house-general-district-003-2020-11-03,https://www.nytimes.com/interactive/2020/11/03/us/elections/results-wisconsin-house-district-3.html,https://www.nytimes.com/interactive/2020/11/03/us/elections/results-wisconsin.html,https://www.nytimes.com/interactive/2020/11/03/us/elections/ap-polls-wisconsin.html,https://www.nytimes.com/interactive/2020/11/03/us/elections/exit-polls-wisconsin.html,house,general,2020-11-03,FALSE,U.S. House District 3,U.S. House,H,lean-dem,3,District 3,WI,wisconsin,Wisconsin,Wis.,horizontal,"",FALSE,TRUE,winner,AP,FALSE,"",389504,0,unknown,Polls close at 9 p.m. Eastern time.,Polls close in,Polls have closed.,2020-11-04T02:00:00.000Z,9 p.m.,612,622,98% reporting,98%,100,389504,edison,>98%,>98% reported,edison,democrat,FALSE,2020-11-24T13:24:02Z,TRUE,2.63566,10266,D+3,Kind +3,democrat,TRUE,"","",0,0,1604509733895
55097,Portage,39902,0,47,47,None,100,39902,>98%,>98% reported,edison,10,unknown,14091,21626,18276,0,0,2020-11-24T13:22:02Z,8.39557,D+8,Kind +8,democrat,WI-G-H-3-2020-11-03,wi-house-general-district-003-2020-11-03,https://www.nytimes.com/interactive/2020/11/03/us/elections/results-wisconsin-house-district-3.html,https://www.nytimes.com/interactive/2020/11/03/us/elections/results-wisconsin.html,https://www.nytimes.com/interactive/2020/11/03/us/elections/ap-polls-wisconsin.html,https://www.nytimes.com/interactive/2020/11/03/us/elections/exit-polls-wisconsin.html,house,general,2020-11-03,FALSE,U.S. House District 3,U.S. House,H,lean-dem,3,District 3,WI,wisconsin,Wisconsin,Wis.,horizontal,"",FALSE,TRUE,winner,AP,FALSE,"",389504,0,unknown,Polls close at 9 p.m. Eastern time.,Polls close in,Polls have closed.,2020-11-04T02:00:00.000Z,9 p.m.,612,622,98% reporting,98%,100,389504,edison,>98%,>98% reported,edison,democrat,FALSE,2020-11-24T13:24:02Z,TRUE,2.63566,10266,D+3,Kind +3,democrat,TRUE,"","",0,0,1604509733895
55103,Richland,7101,0,27,27,Merged into voters' home precincts and released with cumulative results,100,7101,>98%,>98% reported,edison,10,all,1485,3513,3588,0,0,2020-11-24T13:21:55Z,1.05619,R+1.1,Van Orden +1.1,republican,WI-G-H-3-2020-11-03,wi-house-general-district-003-2020-11-03,https://www.nytimes.com/interactive/2020/11/03/us/elections/results-wisconsin-house-district-3.html,https://www.nytimes.com/interactive/2020/11/03/us/elections/results-wisconsin.html,https://www.nytimes.com/interactive/2020/11/03/us/elections/ap-polls-wisconsin.html,https://www.nytimes.com/interactive/2020/11/03/us/elections/exit-polls-wisconsin.html,house,general,2020-11-03,FALSE,U.S. House District 3,U.S. House,H,lean-dem,3,District 3,WI,wisconsin,Wisconsin,Wis.,horizontal,"",FALSE,TRUE,winner,AP,FALSE,"",389504,0,unknown,Polls close at 9 p.m. Eastern time.,Polls close in,Polls have closed.,2020-11-04T02:00:00.000Z,9 p.m.,612,622,98% reporting,98%,100,389504,edison,>98%,>98% reported,edison,democrat,FALSE,2020-11-24T13:24:02Z,TRUE,2.63566,10266,D+3,Kind +3,democrat,TRUE,"","",0,0,1604509733895
55121,Trempealeau,15240,0,26,26,Merged into voters' home precincts and released with cumulative results,100,15240,>98%,>98% reported,edison,10,unknown,1841,7154,8086,0,0,2020-11-24T13:21:55Z,6.11549,R+6,Van Orden +6,republican,WI-G-H-3-2020-11-03,wi-house-general-district-003-2020-11-03,https://www.nytimes.com/interactive/2020/11/03/us/elections/results-wisconsin-house-district-3.html,https://www.nytimes.com/interactive/2020/11/03/us/elections/results-wisconsin.html,https://www.nytimes.com/interactive/2020/11/03/us/elections/ap-polls-wisconsin.html,https://www.nytimes.com/interactive/2020/11/03/us/elections/exit-polls-wisconsin.html,house,general,2020-11-03,FALSE,U.S. House District 3,U.S. House,H,lean-dem,3,District 3,WI,wisconsin,Wisconsin,Wis.,horizontal,"",FALSE,TRUE,winner,AP,FALSE,"",389504,0,unknown,Polls close at 9 p.m. Eastern time.,Polls close in,Polls have closed.,2020-11-04T02:00:00.000Z,9 p.m.,612,622,98% reporting,98%,100,389504,edison,>98%,>98% reported,edison,democrat,FALSE,2020-11-24T13:24:02Z,TRUE,2.63566,10266,D+3,Kind +3,democrat,TRUE,"","",0,0,1604509733895
55123,Vernon,15817,0,33,33,Merged into voters' home precincts and released with cumulative results,100,15817,>98%,>98% reported,edison,10,unknown,2379,8557,7260,0,0,2020-11-24T13:21:57Z,8.20004,D+8,Kind +8,democrat,WI-G-H-3-2020-11-03,wi-house-general-district-003-2020-11-03,https://www.nytimes.com/interactive/2020/11/03/us/elections/results-wisconsin-house-district-3.html,https://www.nytimes.com/interactive/2020/11/03/us/elections/results-wisconsin.html,https://www.nytimes.com/interactive/2020/11/03/us/elections/ap-polls-wisconsin.html,https://www.nytimes.com/interactive/2020/11/03/us/elections/exit-polls-wisconsin.html,house,general,2020-11-03,FALSE,U.S. House District 3,U.S. House,H,lean-dem,3,District 3,WI,wisconsin,Wisconsin,Wis.,horizontal,"",FALSE,TRUE,winner,AP,FALSE,"",389504,0,unknown,Polls close at 9 p.m. Eastern time.,Polls close in,Polls have closed.,2020-11-04T02:00:00.000Z,9 p.m.,612,622,98% reporting,98%,100,389504,edison,>98%,>98% reported,edison,democrat,FALSE,2020-11-24T13:24:02Z,TRUE,2.63566,10266,D+3,Kind +3,democrat,TRUE,"","",0,0,1604509733895
55141,Wood,23579,0,26,26,Merged into voters' home precincts and released with cumulative results,100,23579,>98%,>98% reported,edison,10,unknown,11250,10548,13031,0,0,2020-11-24T13:22:03Z,10.53056,R+11,Van Orden +11,republican,WI-G-H-3-2020-11-03,wi-house-general-district-003-2020-11-03,https://www.nytimes.com/interactive/2020/11/03/us/elections/results-wisconsin-house-district-3.html,https://www.nytimes.com/interactive/2020/11/03/us/elections/results-wisconsin.html,https://www.nytimes.com/interactive/2020/11/03/us/elections/ap-polls-wisconsin.html,https://www.nytimes.com/interactive/2020/11/03/us/elections/exit-polls-wisconsin.html,house,general,2020-11-03,FALSE,U.S. House District 3,U.S. House,H,lean-dem,3,District 3,WI,wisconsin,Wisconsin,Wis.,horizontal,"",FALSE,TRUE,winner,AP,FALSE,"",389504,0,unknown,Polls close at 9 p.m. Eastern time.,Polls close in,Polls have closed.,2020-11-04T02:00:00.000Z,9 p.m.,612,622,98% reporting,98%,100,389504,edison,>98%,>98% reported,edison,democrat,FALSE,2020-11-24T13:24:02Z,TRUE,2.63566,10266,D+3,Kind +3,democrat,TRUE,"","",0,0,1604509733895
