fips,name,votes,absentee_votes,reporting,precincts,eevp_display,eevp_source,results_himesj,results_riddlej,results_merlenb,results_write_ins,results_absentee_himesj,results_absentee_riddlej,results_absentee_merlenb,results_absentee_write_ins,last_updated,leader_margin_value,leader_margin_display,leader_margin_name_display,leader_party_id,race_id_race,race_slug_race,url_race,state_page_url_race,ap_polls_page_race,race_type_race,election_type_race,election_date_race,runoff_race,race_name_race,office_race,officeid_race,race_rating_race,seat_race,seat_name_race,state_id_race,state_slug_race,state_name_race,state_nyt_abbrev_race,state_shape_race,party_id_race,uncontested_race,report_race,result_race,result_source_race,gain_race,lost_seat_race,votes_race,absentee_votes_race,absentee_counties_race,absentee_count_progress_race,poll_display_race,poll_countdown_display_race,poll_waiting_display_race,poll_time_race,poll_time_short_race,precincts_reporting_race,precincts_total_race,reporting_display_race,reporting_value_race,eevp_race,tot_exp_vote_race,eevp_source_race,eevp_value_race,eevp_display_race,county_data_source_race,incumbent_party_race,no_forecast_race,last_updated_race,has_incumbent_race,leader_margin_value_race,leader_margin_votes_race,leader_margin_display_race,leader_margin_name_display_race,leader_party_id_race,expectations_text_race,expectations_text_short_race,absentee_ballot_deadline_race,absentee_postmark_deadline_race,winner_called_timestamp_race
09001,Fairfield,353621,13420,134,136,"",edison,222446,125646,5518,11,10348,2934,137,1,2020-11-16T15:48:02Z,27.37394,D+27,Himes +27,democrat,CT-G-H-4-2020-11-03,ct-house-general-district-004-2020-11-03,https://www.nytimes.com/interactive/2020/11/03/us/elections/results-connecticut-house-district-4.html,https://www.nytimes.com/interactive/2020/11/03/us/elections/results-connecticut.html,https://www.nytimes.com/interactive/2020/11/03/us/elections/ap-polls-connecticut.html,house,general,2020-11-03,FALSE,U.S. House District 4,U.S. House,H,solid-dem,4,District 4,CT,connecticut,Connecticut,Conn.,horizontal,"",FALSE,TRUE,winner,AP,FALSE,"",361891,13420,2,unknown,Polls close at 8 p.m. Eastern time.,Polls close in,Polls have closed.,2020-11-04T01:00:00.000Z,8 p.m.,135,137,99% reporting,99%,98,368000,edison,98%,98% reported,edison,democrat,FALSE,2020-11-20T14:23:24Z,TRUE,26.24077,94963,D+26,Himes +26,democrat,"","",0,0,1604471179533
09009,New Haven,8270,0,1,1,"",edison,3152,4989,129,0,0,0,0,0,2020-11-16T15:48:03Z,22.21282,R+22,Riddle +22,republican,CT-G-H-4-2020-11-03,ct-house-general-district-004-2020-11-03,https://www.nytimes.com/interactive/2020/11/03/us/elections/results-connecticut-house-district-4.html,https://www.nytimes.com/interactive/2020/11/03/us/elections/results-connecticut.html,https://www.nytimes.com/interactive/2020/11/03/us/elections/ap-polls-connecticut.html,house,general,2020-11-03,FALSE,U.S. House District 4,U.S. House,H,solid-dem,4,District 4,CT,connecticut,Connecticut,Conn.,horizontal,"",FALSE,TRUE,winner,AP,FALSE,"",361891,13420,2,unknown,Polls close at 8 p.m. Eastern time.,Polls close in,Polls have closed.,2020-11-04T01:00:00.000Z,8 p.m.,135,137,99% reporting,99%,98,368000,edison,98%,98% reported,edison,democrat,FALSE,2020-11-20T14:23:24Z,TRUE,26.24077,94963,D+26,Himes +26,democrat,"","",0,0,1604471179533
