fips,name,votes,absentee_votes,reporting,precincts,absentee_method,eevp,tot_exp_vote,eevp_value,eevp_display,eevp_source,turnout_stage,absentee_count_progress,absentee_max_ballots,results_loudermilkb,results_barrettd,results_absentee_loudermilkb,results_absentee_barrettd,last_updated,leader_margin_value,leader_margin_display,leader_margin_name_display,leader_party_id,race_id_race,race_slug_race,url_race,state_page_url_race,ap_polls_page_race,edison_exit_polls_page_race,race_type_race,election_type_race,election_date_race,runoff_race,race_name_race,office_race,officeid_race,race_rating_race,seat_race,seat_name_race,state_id_race,state_slug_race,state_name_race,state_nyt_abbrev_race,state_shape_race,state_aspect_ratio_race,party_id_race,uncontested_race,report_race,result_race,result_source_race,gain_race,lost_seat_race,votes_race,absentee_votes_race,absentee_counties_race,absentee_count_progress_race,poll_display_race,poll_countdown_display_race,poll_waiting_display_race,poll_time_race,poll_time_short_race,precincts_reporting_race,precincts_total_race,reporting_display_race,reporting_value_race,eevp_race,tot_exp_vote_race,eevp_source_race,eevp_value_race,eevp_display_race,county_data_source_race,incumbent_party_race,no_forecast_race,last_updated_race,has_incumbent_race,leader_margin_value_race,leader_margin_votes_race,leader_margin_display_race,leader_margin_name_display_race,leader_party_id_race,expectations_text_race,expectations_text_short_race,absentee_ballot_deadline_race,absentee_postmark_deadline_race,winner_called_timestamp_race
13015,Bartow,49544,37176,17,17,None,100,49544,>98%,>98% reported,edison,10,unknown,25757,38024,11520,27803,9373,2020-11-20T01:33:48Z,53.49588,R+53,Loudermilk +53,republican,GA-G-H-11-2020-11-03,ga-house-general-district-011-2020-11-03,https://www.nytimes.com/interactive/2020/11/03/us/elections/results-georgia-house-district-11.html,https://www.nytimes.com/interactive/2020/11/03/us/elections/results-georgia.html,https://www.nytimes.com/interactive/2020/11/03/us/elections/ap-polls-georgia.html,https://www.nytimes.com/interactive/2020/11/03/us/elections/exit-polls-georgia.html,house,general,2020-11-03,FALSE,U.S. House District 11,U.S. House,H,solid-rep,11,District 11,GA,georgia,Georgia,Ga.,vertical,1.3,"",FALSE,TRUE,winner,AP,FALSE,"",405882,326579,4,unknown,Polls close at 7 p.m. Eastern time.,Polls close in,Polls have closed.,2020-11-04T00:00:00.000Z,7 p.m.,149,149,100% reporting,100%,100,405882,edison,>98%,>98% reported,edison,republican,FALSE,2020-11-23T14:43:26Z,TRUE,20.85237,84636,R+21,Loudermilk +21,republican,"Because of the small margin between the candidates, the secretary of state authorized a hand recount of the presidential election in the state.","Because of the small margin between the candidates, the secretary of state authorized a hand recount of the presidential election in the state.",0,0,1604460860468
13057,Cherokee,141772,111308,42,42,Released as a separate subtotal as first report of the night,100,141772,>98%,>98% reported,edison,10,unknown,90723,102280,39492,77923,33385,2020-11-20T01:42:45Z,44.28801,R+44,Loudermilk +44,republican,GA-G-H-11-2020-11-03,ga-house-general-district-011-2020-11-03,https://www.nytimes.com/interactive/2020/11/03/us/elections/results-georgia-house-district-11.html,https://www.nytimes.com/interactive/2020/11/03/us/elections/results-georgia.html,https://www.nytimes.com/interactive/2020/11/03/us/elections/ap-polls-georgia.html,https://www.nytimes.com/interactive/2020/11/03/us/elections/exit-polls-georgia.html,house,general,2020-11-03,FALSE,U.S. House District 11,U.S. House,H,solid-rep,11,District 11,GA,georgia,Georgia,Ga.,vertical,1.3,"",FALSE,TRUE,winner,AP,FALSE,"",405882,326579,4,unknown,Polls close at 7 p.m. Eastern time.,Polls close in,Polls have closed.,2020-11-04T00:00:00.000Z,7 p.m.,149,149,100% reporting,100%,100,405882,edison,>98%,>98% reported,edison,republican,FALSE,2020-11-23T14:43:26Z,TRUE,20.85237,84636,R+21,Loudermilk +21,republican,"Because of the small margin between the candidates, the secretary of state authorized a hand recount of the presidential election in the state.","Because of the small margin between the candidates, the secretary of state authorized a hand recount of the presidential election in the state.",0,0,1604460860468
13067,Cobb,186313,152461,69,69,Merged into voters' home precincts and released with cumulative results,100,186313,>98%,>98% reported,edison,10,unknown,202586,89654,96659,70231,82230,2020-11-20T01:38:43Z,3.7598,D+4,Barrett +4,democrat,GA-G-H-11-2020-11-03,ga-house-general-district-011-2020-11-03,https://www.nytimes.com/interactive/2020/11/03/us/elections/results-georgia-house-district-11.html,https://www.nytimes.com/interactive/2020/11/03/us/elections/results-georgia.html,https://www.nytimes.com/interactive/2020/11/03/us/elections/ap-polls-georgia.html,https://www.nytimes.com/interactive/2020/11/03/us/elections/exit-polls-georgia.html,house,general,2020-11-03,FALSE,U.S. House District 11,U.S. House,H,solid-rep,11,District 11,GA,georgia,Georgia,Ga.,vertical,1.3,"",FALSE,TRUE,winner,AP,FALSE,"",405882,326579,4,unknown,Polls close at 7 p.m. Eastern time.,Polls close in,Polls have closed.,2020-11-04T00:00:00.000Z,7 p.m.,149,149,100% reporting,100%,100,405882,edison,>98%,>98% reported,edison,republican,FALSE,2020-11-23T14:43:26Z,TRUE,20.85237,84636,R+21,Loudermilk +21,republican,"Because of the small margin between the candidates, the secretary of state authorized a hand recount of the presidential election in the state.","Because of the small margin between the candidates, the secretary of state authorized a hand recount of the presidential election in the state.",0,0,1604460860468
13121,Fulton,28253,25634,21,21,Released as a precinct as first report of the night,100,28253,>98%,>98% reported,edison,10,unknown,262589,15301,12952,13505,12129,2020-11-20T21:49:10Z,8.31416,R+8,Loudermilk +8,republican,GA-G-H-11-2020-11-03,ga-house-general-district-011-2020-11-03,https://www.nytimes.com/interactive/2020/11/03/us/elections/results-georgia-house-district-11.html,https://www.nytimes.com/interactive/2020/11/03/us/elections/results-georgia.html,https://www.nytimes.com/interactive/2020/11/03/us/elections/ap-polls-georgia.html,https://www.nytimes.com/interactive/2020/11/03/us/elections/exit-polls-georgia.html,house,general,2020-11-03,FALSE,U.S. House District 11,U.S. House,H,solid-rep,11,District 11,GA,georgia,Georgia,Ga.,vertical,1.3,"",FALSE,TRUE,winner,AP,FALSE,"",405882,326579,4,unknown,Polls close at 7 p.m. Eastern time.,Polls close in,Polls have closed.,2020-11-04T00:00:00.000Z,7 p.m.,149,149,100% reporting,100%,100,405882,edison,>98%,>98% reported,edison,republican,FALSE,2020-11-23T14:43:26Z,TRUE,20.85237,84636,R+21,Loudermilk +21,republican,"Because of the small margin between the candidates, the secretary of state authorized a hand recount of the presidential election in the state.","Because of the small margin between the candidates, the secretary of state authorized a hand recount of the presidential election in the state.",0,0,1604460860468
