fips,name,votes,absentee_votes,reporting,precincts,eevp_display,eevp_source,absentee_count_progress,absentee_max_ballots,results_schneiderb,results_mukherjeev,results_write_ins,results_absentee_schneiderb,results_absentee_mukherjeev,results_absentee_write_ins,last_updated,leader_margin_value,leader_margin_display,leader_margin_name_display,leader_party_id,absentee_method,eevp,tot_exp_vote,eevp_value,turnout_stage,race_id_race,race_slug_race,url_race,state_page_url_race,ap_polls_page_race,race_type_race,election_type_race,election_date_race,runoff_race,race_name_race,office_race,officeid_race,race_rating_race,seat_race,seat_name_race,state_id_race,state_slug_race,state_name_race,state_nyt_abbrev_race,state_shape_race,state_aspect_ratio_race,party_id_race,uncontested_race,report_race,result_race,result_source_race,gain_race,lost_seat_race,votes_race,absentee_votes_race,absentee_counties_race,absentee_count_progress_race,poll_display_race,poll_countdown_display_race,poll_waiting_display_race,poll_time_race,poll_time_short_race,precincts_reporting_race,precincts_total_race,reporting_display_race,reporting_value_race,eevp_race,tot_exp_vote_race,eevp_source_race,eevp_value_race,eevp_display_race,county_data_source_race,incumbent_party_race,no_forecast_race,last_updated_race,has_incumbent_race,leader_margin_value_race,leader_margin_votes_race,leader_margin_display_race,leader_margin_name_display_race,leader_party_id_race,expectations_text_race,expectations_text_short_race,absentee_ballot_deadline_race,absentee_postmark_deadline_race,winner_called_timestamp_race
17031,Cook,77242,0,92,104,"",edison,unknown,376245,49220,28022,0,0,0,0,2020-11-20T14:48:26Z,27.44362,D+27,Schneider +27,democrat,,,,,,IL-G-H-10-2020-11-03,il-house-general-district-010-2020-11-03,https://www.nytimes.com/interactive/2020/11/03/us/elections/results-illinois-house-district-10.html,https://www.nytimes.com/interactive/2020/11/03/us/elections/results-illinois.html,https://www.nytimes.com/interactive/2020/11/03/us/elections/ap-polls-illinois.html,house,general,2020-11-03,FALSE,U.S. House District 10,U.S. House,H,solid-dem,10,District 10,IL,illinois,Illinois,Ill.,vertical,0.9,"",FALSE,TRUE,winner,AP,FALSE,"",311903,130667,1,unknown,Polls close at 8 p.m. Eastern time.,Polls close in,Polls have closed.,2020-11-04T01:00:00.000Z,8 p.m.,384,409,94% reporting,94%,97,323000,edison,97%,97% reported,edison,democrat,FALSE,2020-11-20T14:48:03Z,TRUE,27.53067,85869,D+28,Schneider +28,democrat,Mail ballots postmarked by Election Day have two weeks to arrive in the mail. The state's election board will post the number of unreturned mail ballots on its website.,Mail ballots postmarked by Election Day have two weeks to arrive in the mail.,14,0,1604479351931
17097,Lake,234661,130667,292,305,96% reported,edison,unknown,165277,149666,84995,0,85272,45395,0,2020-11-18T23:07:30Z,27.55933,D+28,Schneider +28,democrat,None,96,245304,96%,4,IL-G-H-10-2020-11-03,il-house-general-district-010-2020-11-03,https://www.nytimes.com/interactive/2020/11/03/us/elections/results-illinois-house-district-10.html,https://www.nytimes.com/interactive/2020/11/03/us/elections/results-illinois.html,https://www.nytimes.com/interactive/2020/11/03/us/elections/ap-polls-illinois.html,house,general,2020-11-03,FALSE,U.S. House District 10,U.S. House,H,solid-dem,10,District 10,IL,illinois,Illinois,Ill.,vertical,0.9,"",FALSE,TRUE,winner,AP,FALSE,"",311903,130667,1,unknown,Polls close at 8 p.m. Eastern time.,Polls close in,Polls have closed.,2020-11-04T01:00:00.000Z,8 p.m.,384,409,94% reporting,94%,97,323000,edison,97%,97% reported,edison,democrat,FALSE,2020-11-20T14:48:03Z,TRUE,27.53067,85869,D+28,Schneider +28,democrat,Mail ballots postmarked by Election Day have two weeks to arrive in the mail. The state's election board will post the number of unreturned mail ballots on its website.,Mail ballots postmarked by Election Day have two weeks to arrive in the mail.,14,0,1604479351931
