fips,name,votes,absentee_votes,reporting,precincts,eevp_display,eevp_source,results_pressleya,results_owensr,results_absentee_pressleya,results_absentee_owensr,last_updated,leader_margin_value,leader_margin_display,leader_margin_name_display,leader_party_id,race_id_race,race_slug_race,url_race,state_page_url_race,ap_polls_page_race,race_type_race,election_type_race,election_date_race,runoff_race,race_name_race,office_race,officeid_race,race_rating_race,seat_race,seat_name_race,state_id_race,state_slug_race,state_name_race,state_nyt_abbrev_race,state_shape_race,party_id_race,uncontested_race,report_race,result_race,result_source_race,gain_race,lost_seat_race,votes_race,absentee_votes_race,absentee_count_progress_race,poll_display_race,poll_countdown_display_race,poll_waiting_display_race,poll_time_race,poll_time_short_race,precincts_reporting_race,precincts_total_race,reporting_display_race,reporting_value_race,eevp_race,tot_exp_vote_race,eevp_source_race,eevp_value_race,eevp_display_race,county_data_source_race,incumbent_party_race,no_forecast_race,last_updated_race,has_incumbent_race,leader_margin_value_race,leader_margin_votes_race,leader_margin_display_race,leader_margin_name_display_race,leader_party_id_race,expectations_text_race,expectations_text_short_race,absentee_ballot_deadline_race,absentee_postmark_deadline_race,winner_called_timestamp_race
25017,Middlesex,77399,0,49,50,"",edison,67865,9534,0,0,2020-11-16T15:47:53Z,75.36402,D+75,Pressley +75,democrat,MA-G-H-7-2020-11-03,ma-house-general-district-007-2020-11-03,https://www.nytimes.com/interactive/2020/11/03/us/elections/results-massachusetts-house-district-7.html,https://www.nytimes.com/interactive/2020/11/03/us/elections/results-massachusetts.html,https://www.nytimes.com/interactive/2020/11/03/us/elections/ap-polls-massachusetts.html,house,general,2020-11-03,FALSE,U.S. House District 7,U.S. House,H,solid-dem,7,District 7,MA,massachusetts,Massachusetts,Mass.,horizontal,"",FALSE,TRUE,winner,AP,FALSE,"",150204,0,unknown,Polls close at 8 p.m. Eastern time.,Polls close in,Polls have closed.,2020-11-04T01:00:00.000Z,8 p.m.,121,264,46% reporting,46%,50,302000,edison,50%,50% reported,edison,democrat,FALSE,2020-11-20T14:22:05Z,TRUE,71.45549,107329,D+71,Pressley +71,democrat,"","",3,0,1604462265001
25021,Norfolk,16100,0,12,15,"",edison,13281,2819,0,0,2020-11-16T15:47:53Z,64.98137,D+65,Pressley +65,democrat,MA-G-H-7-2020-11-03,ma-house-general-district-007-2020-11-03,https://www.nytimes.com/interactive/2020/11/03/us/elections/results-massachusetts-house-district-7.html,https://www.nytimes.com/interactive/2020/11/03/us/elections/results-massachusetts.html,https://www.nytimes.com/interactive/2020/11/03/us/elections/ap-polls-massachusetts.html,house,general,2020-11-03,FALSE,U.S. House District 7,U.S. House,H,solid-dem,7,District 7,MA,massachusetts,Massachusetts,Mass.,horizontal,"",FALSE,TRUE,winner,AP,FALSE,"",150204,0,unknown,Polls close at 8 p.m. Eastern time.,Polls close in,Polls have closed.,2020-11-04T01:00:00.000Z,8 p.m.,121,264,46% reporting,46%,50,302000,edison,50%,50% reported,edison,democrat,FALSE,2020-11-20T14:22:05Z,TRUE,71.45549,107329,D+71,Pressley +71,democrat,"","",3,0,1604462265001
25025,Suffolk,55446,0,60,199,"",edison,46991,8455,0,0,2020-11-16T15:47:52Z,69.50186,D+70,Pressley +70,democrat,MA-G-H-7-2020-11-03,ma-house-general-district-007-2020-11-03,https://www.nytimes.com/interactive/2020/11/03/us/elections/results-massachusetts-house-district-7.html,https://www.nytimes.com/interactive/2020/11/03/us/elections/results-massachusetts.html,https://www.nytimes.com/interactive/2020/11/03/us/elections/ap-polls-massachusetts.html,house,general,2020-11-03,FALSE,U.S. House District 7,U.S. House,H,solid-dem,7,District 7,MA,massachusetts,Massachusetts,Mass.,horizontal,"",FALSE,TRUE,winner,AP,FALSE,"",150204,0,unknown,Polls close at 8 p.m. Eastern time.,Polls close in,Polls have closed.,2020-11-04T01:00:00.000Z,8 p.m.,121,264,46% reporting,46%,50,302000,edison,50%,50% reported,edison,democrat,FALSE,2020-11-20T14:22:05Z,TRUE,71.45549,107329,D+71,Pressley +71,democrat,"","",3,0,1604462265001
