fips,name,votes,absentee_votes,reporting,precincts,absentee_method,eevp,tot_exp_vote,eevp_value,eevp_display,eevp_source,turnout_stage,absentee_count_progress,absentee_max_ballots,results_siresa,results_mushnickj,results_delaneyd,results_absentee_siresa,results_absentee_mushnickj,results_absentee_delaneyd,last_updated,leader_margin_value,leader_margin_display,leader_margin_name_display,leader_party_id,race_id_race,race_slug_race,url_race,state_page_url_race,ap_polls_page_race,race_type_race,election_type_race,election_date_race,runoff_race,race_name_race,office_race,officeid_race,race_rating_race,seat_race,seat_name_race,state_id_race,state_slug_race,state_name_race,state_nyt_abbrev_race,state_shape_race,state_aspect_ratio_race,party_id_race,uncontested_race,report_race,result_race,result_source_race,gain_race,lost_seat_race,votes_race,absentee_votes_race,absentee_counties_race,absentee_count_progress_race,poll_display_race,poll_countdown_display_race,poll_waiting_display_race,poll_time_race,poll_time_short_race,precincts_reporting_race,precincts_total_race,reporting_display_race,reporting_value_race,eevp_race,tot_exp_vote_race,eevp_source_race,eevp_value_race,eevp_display_race,county_data_source_race,incumbent_party_race,no_forecast_race,last_updated_race,has_incumbent_race,leader_margin_value_race,leader_margin_votes_race,leader_margin_display_race,leader_margin_name_display_race,leader_party_id_race,expectations_text_race,expectations_text_short_race,absentee_ballot_deadline_race,absentee_postmark_deadline_race,winner_called_timestamp_race
34003,Bergen,3609,2625,3,5,Merged into voters' home precincts AFTER election night,85,4251,85%,85% reported,edison,2,some,45653,2335,1228,46,1720,871,34,2020-11-17T19:35:51Z,30.67332,D+31,Sires +31,democrat,NJ-G-H-8-2020-11-03,nj-house-general-district-008-2020-11-03,https://www.nytimes.com/interactive/2020/11/03/us/elections/results-new-jersey-house-district-8.html,https://www.nytimes.com/interactive/2020/11/03/us/elections/results-new-jersey.html,https://www.nytimes.com/interactive/2020/11/03/us/elections/ap-polls-new-jersey.html,house,general,2020-11-03,FALSE,U.S. House District 8,U.S. House,H,solid-dem,8,District 8,NJ,new-jersey,New Jersey,N.J.,vertical,0.7,"",FALSE,TRUE,winner,AP,FALSE,"",189382,14771,2,unknown,Polls close at 8 p.m. Eastern time.,Polls close in,Polls have closed.,2020-11-04T01:00:00.000Z,8 p.m.,326,456,71% reporting,71%,72,262000,edison,72%,72% reported,edison,democrat,FALSE,2020-11-20T20:20:49Z,TRUE,53.37572,101084,D+53,Sires +53,democrat,"","",7,0,1604455797886
34013,Essex,41330,0,64,77,Released as a separate subtotal as first report of the night,83,49698,83%,83% reported,edison,2,unknown,24131,30689,10333,308,0,0,0,2020-11-19T21:40:40Z,49.25236,D+49,Sires +49,democrat,NJ-G-H-8-2020-11-03,nj-house-general-district-008-2020-11-03,https://www.nytimes.com/interactive/2020/11/03/us/elections/results-new-jersey-house-district-8.html,https://www.nytimes.com/interactive/2020/11/03/us/elections/results-new-jersey.html,https://www.nytimes.com/interactive/2020/11/03/us/elections/ap-polls-new-jersey.html,house,general,2020-11-03,FALSE,U.S. House District 8,U.S. House,H,solid-dem,8,District 8,NJ,new-jersey,New Jersey,N.J.,vertical,0.7,"",FALSE,TRUE,winner,AP,FALSE,"",189382,14771,2,unknown,Polls close at 8 p.m. Eastern time.,Polls close in,Polls have closed.,2020-11-04T01:00:00.000Z,8 p.m.,326,456,71% reporting,71%,72,262000,edison,72%,72% reported,edison,democrat,FALSE,2020-11-20T20:20:49Z,TRUE,53.37572,101084,D+53,Sires +53,democrat,"","",7,0,1604455797886
34017,Hudson,112897,0,205,311,Released as a separate subtotal as first report of the night,66,171154,66%,66% reported,edison,2,some,14745,87448,23627,1822,0,0,0,2020-11-16T15:48:14Z,56.53029,D+57,Sires +57,democrat,NJ-G-H-8-2020-11-03,nj-house-general-district-008-2020-11-03,https://www.nytimes.com/interactive/2020/11/03/us/elections/results-new-jersey-house-district-8.html,https://www.nytimes.com/interactive/2020/11/03/us/elections/results-new-jersey.html,https://www.nytimes.com/interactive/2020/11/03/us/elections/ap-polls-new-jersey.html,house,general,2020-11-03,FALSE,U.S. House District 8,U.S. House,H,solid-dem,8,District 8,NJ,new-jersey,New Jersey,N.J.,vertical,0.7,"",FALSE,TRUE,winner,AP,FALSE,"",189382,14771,2,unknown,Polls close at 8 p.m. Eastern time.,Polls close in,Polls have closed.,2020-11-04T01:00:00.000Z,8 p.m.,326,456,71% reporting,71%,72,262000,edison,72%,72% reported,edison,democrat,FALSE,2020-11-20T20:20:49Z,TRUE,53.37572,101084,D+53,Sires +53,democrat,"","",7,0,1604455797886
34039,Union,31546,12146,54,63,Merged into voters' home precincts and released with cumulative results,100,12162,>98%,>98% reported,edison,6,all,25247,23577,7777,192,9685,2396,65,2020-11-20T20:20:43Z,50.08559,D+50,Sires +50,democrat,NJ-G-H-8-2020-11-03,nj-house-general-district-008-2020-11-03,https://www.nytimes.com/interactive/2020/11/03/us/elections/results-new-jersey-house-district-8.html,https://www.nytimes.com/interactive/2020/11/03/us/elections/results-new-jersey.html,https://www.nytimes.com/interactive/2020/11/03/us/elections/ap-polls-new-jersey.html,house,general,2020-11-03,FALSE,U.S. House District 8,U.S. House,H,solid-dem,8,District 8,NJ,new-jersey,New Jersey,N.J.,vertical,0.7,"",FALSE,TRUE,winner,AP,FALSE,"",189382,14771,2,unknown,Polls close at 8 p.m. Eastern time.,Polls close in,Polls have closed.,2020-11-04T01:00:00.000Z,8 p.m.,326,456,71% reporting,71%,72,262000,edison,72%,72% reported,edison,democrat,FALSE,2020-11-20T20:20:49Z,TRUE,53.37572,101084,D+53,Sires +53,democrat,"","",7,0,1604455797886
