fips,name,votes,absentee_votes,reporting,precincts,absentee_method,eevp,tot_exp_vote,eevp_value,eevp_display,eevp_source,turnout_stage,absentee_count_progress,absentee_max_ballots,results_gottheimerj,results_pallottaf,results_velluccil,results_absentee_gottheimerj,results_absentee_pallottaf,results_absentee_velluccil,last_updated,leader_margin_value,leader_margin_display,leader_margin_name_display,leader_party_id,race_id_race,race_slug_race,url_race,state_page_url_race,ap_polls_page_race,race_type_race,election_type_race,election_date_race,runoff_race,race_name_race,office_race,officeid_race,race_rating_race,seat_race,seat_name_race,state_id_race,state_slug_race,state_name_race,state_nyt_abbrev_race,state_shape_race,state_aspect_ratio_race,party_id_race,uncontested_race,report_race,result_race,result_source_race,gain_race,lost_seat_race,votes_race,absentee_votes_race,absentee_counties_race,absentee_count_progress_race,poll_display_race,poll_countdown_display_race,poll_waiting_display_race,poll_time_race,poll_time_short_race,precincts_reporting_race,precincts_total_race,reporting_display_race,reporting_value_race,eevp_race,tot_exp_vote_race,eevp_source_race,eevp_value_race,eevp_display_race,county_data_source_race,incumbent_party_race,no_forecast_race,last_updated_race,has_incumbent_race,leader_margin_value_race,leader_margin_votes_race,leader_margin_display_race,leader_margin_name_display_race,leader_party_id_race,expectations_text_race,expectations_text_short_race,absentee_ballot_deadline_race,absentee_postmark_deadline_race,winner_called_timestamp_race
34003,Bergen,304854,270594,331,353,Merged into voters' home precincts AFTER election night,100,300668,>98%,>98% reported,edison,2,some,45653,177285,124664,2905,159804,108363,2427,2020-11-17T19:35:51Z,17.26105,D+17,Gottheimer +17,democrat,NJ-G-H-5-2020-11-03,nj-house-general-district-005-2020-11-03,https://www.nytimes.com/interactive/2020/11/03/us/elections/results-new-jersey-house-district-5.html,https://www.nytimes.com/interactive/2020/11/03/us/elections/results-new-jersey.html,https://www.nytimes.com/interactive/2020/11/03/us/elections/ap-polls-new-jersey.html,house,general,2020-11-03,FALSE,U.S. House District 5,U.S. House,H,solid-dem,5,District 5,NJ,new-jersey,New Jersey,N.J.,vertical,0.7,"",FALSE,TRUE,winner,AP,FALSE,"",423335,367591,4,unknown,Polls close at 8 p.m. Eastern time.,Polls close in,Polls have closed.,2020-11-04T01:00:00.000Z,8 p.m.,452,474,95% reporting,95%,100,416000,edison,>98%,>98% reported,edison,democrat,FALSE,2020-11-21T00:05:54Z,TRUE,7.52973,31876,D+8,Gottheimer +8,democrat,"","",7,0,1604463441693
34031,Passaic,22831,13809,29,29,None,100,22458,>98%,>98% reported,edison,2,some,17333,9629,12749,453,6666,6915,228,2020-11-21T00:29:25Z,13.66563,R+14,Pallotta +14,republican,NJ-G-H-5-2020-11-03,nj-house-general-district-005-2020-11-03,https://www.nytimes.com/interactive/2020/11/03/us/elections/results-new-jersey-house-district-5.html,https://www.nytimes.com/interactive/2020/11/03/us/elections/results-new-jersey.html,https://www.nytimes.com/interactive/2020/11/03/us/elections/ap-polls-new-jersey.html,house,general,2020-11-03,FALSE,U.S. House District 5,U.S. House,H,solid-dem,5,District 5,NJ,new-jersey,New Jersey,N.J.,vertical,0.7,"",FALSE,TRUE,winner,AP,FALSE,"",423335,367591,4,unknown,Polls close at 8 p.m. Eastern time.,Polls close in,Polls have closed.,2020-11-04T01:00:00.000Z,8 p.m.,452,474,95% reporting,95%,100,416000,edison,>98%,>98% reported,edison,democrat,FALSE,2020-11-21T00:05:54Z,TRUE,7.52973,31876,D+8,Gottheimer +8,democrat,"","",7,0,1604463441693
34037,Sussex,56744,48860,78,78,Merged into voters' home precincts and released with cumulative results,100,55535,>98%,>98% reported,edison,4,some,9122,22324,33373,1047,19773,28279,808,2020-11-16T17:11:49Z,19.47166,R+19,Pallotta +19,republican,NJ-G-H-5-2020-11-03,nj-house-general-district-005-2020-11-03,https://www.nytimes.com/interactive/2020/11/03/us/elections/results-new-jersey-house-district-5.html,https://www.nytimes.com/interactive/2020/11/03/us/elections/results-new-jersey.html,https://www.nytimes.com/interactive/2020/11/03/us/elections/ap-polls-new-jersey.html,house,general,2020-11-03,FALSE,U.S. House District 5,U.S. House,H,solid-dem,5,District 5,NJ,new-jersey,New Jersey,N.J.,vertical,0.7,"",FALSE,TRUE,winner,AP,FALSE,"",423335,367591,4,unknown,Polls close at 8 p.m. Eastern time.,Polls close in,Polls have closed.,2020-11-04T01:00:00.000Z,8 p.m.,452,474,95% reporting,95%,100,416000,edison,>98%,>98% reported,edison,democrat,FALSE,2020-11-21T00:05:54Z,TRUE,7.52973,31876,D+8,Gottheimer +8,democrat,"","",7,0,1604463441693
34041,Warren,38906,34328,14,14,Merged into voters' home precincts and released with cumulative results,100,36921,>98%,>98% reported,edison,4,some,7469,15805,22381,720,14251,19483,594,2020-11-20T18:19:13Z,16.90228,R+17,Pallotta +17,republican,NJ-G-H-5-2020-11-03,nj-house-general-district-005-2020-11-03,https://www.nytimes.com/interactive/2020/11/03/us/elections/results-new-jersey-house-district-5.html,https://www.nytimes.com/interactive/2020/11/03/us/elections/results-new-jersey.html,https://www.nytimes.com/interactive/2020/11/03/us/elections/ap-polls-new-jersey.html,house,general,2020-11-03,FALSE,U.S. House District 5,U.S. House,H,solid-dem,5,District 5,NJ,new-jersey,New Jersey,N.J.,vertical,0.7,"",FALSE,TRUE,winner,AP,FALSE,"",423335,367591,4,unknown,Polls close at 8 p.m. Eastern time.,Polls close in,Polls have closed.,2020-11-04T01:00:00.000Z,8 p.m.,452,474,95% reporting,95%,100,416000,edison,>98%,>98% reported,edison,democrat,FALSE,2020-11-21T00:05:54Z,TRUE,7.52973,31876,D+8,Gottheimer +8,democrat,"","",7,0,1604463441693
