fips,name,votes,absentee_votes,reporting,precincts,absentee_method,eevp,tot_exp_vote,eevp_value,eevp_display,eevp_source,turnout_stage,absentee_count_progress,absentee_max_ballots,results_lattab,results_rubandon,results_absentee_lattab,results_absentee_rubandon,last_updated,leader_margin_value,leader_margin_display,leader_margin_name_display,leader_party_id,race_id_race,race_slug_race,url_race,state_page_url_race,ap_polls_page_race,edison_exit_polls_page_race,race_type_race,election_type_race,election_date_race,runoff_race,race_name_race,office_race,officeid_race,race_rating_race,seat_race,seat_name_race,state_id_race,state_slug_race,state_name_race,state_nyt_abbrev_race,state_shape_race,party_id_race,uncontested_race,report_race,result_race,result_source_race,gain_race,lost_seat_race,votes_race,absentee_votes_race,absentee_counties_race,absentee_count_progress_race,poll_display_race,poll_countdown_display_race,poll_waiting_display_race,poll_time_race,poll_time_short_race,precincts_reporting_race,precincts_total_race,reporting_display_race,reporting_value_race,eevp_race,tot_exp_vote_race,eevp_source_race,eevp_value_race,eevp_display_race,county_data_source_race,incumbent_party_race,no_forecast_race,last_updated_race,has_incumbent_race,leader_margin_value_race,leader_margin_votes_race,leader_margin_display_race,leader_margin_name_display_race,leader_party_id_race,expectations_text_race,expectations_text_short_race,absentee_ballot_deadline_race,absentee_postmark_deadline_race,winner_called_timestamp_race
39039,Defiance,19176,12954,33,33,Merged into voters' home precincts and released with cumulative results,93,20656,93%,93% reported,edison,4,unknown,9581,14024,5152,8846,4108,2020-11-19T17:36:28Z,46.26617,R+46,Latta +46,republican,OH-G-H-5-2020-11-03,oh-house-general-district-005-2020-11-03,https://www.nytimes.com/interactive/2020/11/03/us/elections/results-ohio-house-district-5.html,https://www.nytimes.com/interactive/2020/11/03/us/elections/results-ohio.html,https://www.nytimes.com/interactive/2020/11/03/us/elections/ap-polls-ohio.html,https://www.nytimes.com/interactive/2020/11/03/us/elections/exit-polls-ohio.html,house,general,2020-11-03,FALSE,U.S. House District 5,U.S. House,H,solid-rep,5,District 5,OH,ohio,Ohio,Ohio,horizontal,"",FALSE,TRUE,winner,AP,FALSE,"",377209,26181,3,unknown,Polls close at 7:30 p.m. Eastern time.,Polls close in,Polls have closed.,2020-11-04T00:30:00.000Z,7:30 p.m.,579,589,98% reporting,98%,92,410000,edison,92%,92% reported,edison,republican,FALSE,2020-11-20T20:50:55Z,TRUE,35.9501,135607,R+36,Latta +36,republican,"Postmarked ballots have until Nov. 13 to arrive, but no additional results will be reported reported for at least a week and a half after the election. Counties may report their full official count after their vote canvass, due by Nov. 18, but full statewide results will not be available until final certification, due by Nov. 28. ","Postmarked ballots have until Nov. 13 to arrive, but no additional results will be reported for at least a week and a half after the election.",10,-1,1604451701594
39051,Fulton,22354,0,27,29,Released as a separate subtotal as first report of the night,93,24063,93%,93% reported,edison,2,some,8866,16945,5409,0,0,2020-11-18T19:33:38Z,51.60598,R+52,Latta +52,republican,OH-G-H-5-2020-11-03,oh-house-general-district-005-2020-11-03,https://www.nytimes.com/interactive/2020/11/03/us/elections/results-ohio-house-district-5.html,https://www.nytimes.com/interactive/2020/11/03/us/elections/results-ohio.html,https://www.nytimes.com/interactive/2020/11/03/us/elections/ap-polls-ohio.html,https://www.nytimes.com/interactive/2020/11/03/us/elections/exit-polls-ohio.html,house,general,2020-11-03,FALSE,U.S. House District 5,U.S. House,H,solid-rep,5,District 5,OH,ohio,Ohio,Ohio,horizontal,"",FALSE,TRUE,winner,AP,FALSE,"",377209,26181,3,unknown,Polls close at 7:30 p.m. Eastern time.,Polls close in,Polls have closed.,2020-11-04T00:30:00.000Z,7:30 p.m.,579,589,98% reporting,98%,92,410000,edison,92%,92% reported,edison,republican,FALSE,2020-11-20T20:50:55Z,TRUE,35.9501,135607,R+36,Latta +36,republican,"Postmarked ballots have until Nov. 13 to arrive, but no additional results will be reported reported for at least a week and a half after the election. Counties may report their full official count after their vote canvass, due by Nov. 18, but full statewide results will not be available until final certification, due by Nov. 28. ","Postmarked ballots have until Nov. 13 to arrive, but no additional results will be reported for at least a week and a half after the election.",10,-1,1604451701594
39063,Hancock,37891,0,60,60,Merged into voters' home precincts and released with cumulative results,93,40884,93%,93% reported,edison,2,unknown,19219,27919,9972,0,0,2020-11-19T17:36:49Z,47.36481,R+47,Latta +47,republican,OH-G-H-5-2020-11-03,oh-house-general-district-005-2020-11-03,https://www.nytimes.com/interactive/2020/11/03/us/elections/results-ohio-house-district-5.html,https://www.nytimes.com/interactive/2020/11/03/us/elections/results-ohio.html,https://www.nytimes.com/interactive/2020/11/03/us/elections/ap-polls-ohio.html,https://www.nytimes.com/interactive/2020/11/03/us/elections/exit-polls-ohio.html,house,general,2020-11-03,FALSE,U.S. House District 5,U.S. House,H,solid-rep,5,District 5,OH,ohio,Ohio,Ohio,horizontal,"",FALSE,TRUE,winner,AP,FALSE,"",377209,26181,3,unknown,Polls close at 7:30 p.m. Eastern time.,Polls close in,Polls have closed.,2020-11-04T00:30:00.000Z,7:30 p.m.,579,589,98% reporting,98%,92,410000,edison,92%,92% reported,edison,republican,FALSE,2020-11-20T20:50:55Z,TRUE,35.9501,135607,R+36,Latta +36,republican,"Postmarked ballots have until Nov. 13 to arrive, but no additional results will be reported reported for at least a week and a half after the election. Counties may report their full official count after their vote canvass, due by Nov. 18, but full statewide results will not be available until final certification, due by Nov. 28. ","Postmarked ballots have until Nov. 13 to arrive, but no additional results will be reported for at least a week and a half after the election.",10,-1,1604451701594
39065,Hardin,12836,0,19,21,Other,92,13978,92%,92% reported,edison,2,unknown,6294,10063,2773,0,0,2020-11-18T19:33:55Z,56.79339,R+57,Latta +57,republican,OH-G-H-5-2020-11-03,oh-house-general-district-005-2020-11-03,https://www.nytimes.com/interactive/2020/11/03/us/elections/results-ohio-house-district-5.html,https://www.nytimes.com/interactive/2020/11/03/us/elections/results-ohio.html,https://www.nytimes.com/interactive/2020/11/03/us/elections/ap-polls-ohio.html,https://www.nytimes.com/interactive/2020/11/03/us/elections/exit-polls-ohio.html,house,general,2020-11-03,FALSE,U.S. House District 5,U.S. House,H,solid-rep,5,District 5,OH,ohio,Ohio,Ohio,horizontal,"",FALSE,TRUE,winner,AP,FALSE,"",377209,26181,3,unknown,Polls close at 7:30 p.m. Eastern time.,Polls close in,Polls have closed.,2020-11-04T00:30:00.000Z,7:30 p.m.,579,589,98% reporting,98%,92,410000,edison,92%,92% reported,edison,republican,FALSE,2020-11-20T20:50:55Z,TRUE,35.9501,135607,R+36,Latta +36,republican,"Postmarked ballots have until Nov. 13 to arrive, but no additional results will be reported reported for at least a week and a half after the election. Counties may report their full official count after their vote canvass, due by Nov. 18, but full statewide results will not be available until final certification, due by Nov. 28. ","Postmarked ballots have until Nov. 13 to arrive, but no additional results will be reported for at least a week and a half after the election.",10,-1,1604451701594
39069,Henry,14659,0,21,23,Merged into voters' home precincts and released with cumulative results,92,15876,92%,92% reported,edison,2,unknown,7016,11423,3236,0,0,2020-11-18T22:15:48Z,55.84965,R+56,Latta +56,republican,OH-G-H-5-2020-11-03,oh-house-general-district-005-2020-11-03,https://www.nytimes.com/interactive/2020/11/03/us/elections/results-ohio-house-district-5.html,https://www.nytimes.com/interactive/2020/11/03/us/elections/results-ohio.html,https://www.nytimes.com/interactive/2020/11/03/us/elections/ap-polls-ohio.html,https://www.nytimes.com/interactive/2020/11/03/us/elections/exit-polls-ohio.html,house,general,2020-11-03,FALSE,U.S. House District 5,U.S. House,H,solid-rep,5,District 5,OH,ohio,Ohio,Ohio,horizontal,"",FALSE,TRUE,winner,AP,FALSE,"",377209,26181,3,unknown,Polls close at 7:30 p.m. Eastern time.,Polls close in,Polls have closed.,2020-11-04T00:30:00.000Z,7:30 p.m.,579,589,98% reporting,98%,92,410000,edison,92%,92% reported,edison,republican,FALSE,2020-11-20T20:50:55Z,TRUE,35.9501,135607,R+36,Latta +36,republican,"Postmarked ballots have until Nov. 13 to arrive, but no additional results will be reported reported for at least a week and a half after the election. Counties may report their full official count after their vote canvass, due by Nov. 18, but full statewide results will not be available until final certification, due by Nov. 28. ","Postmarked ballots have until Nov. 13 to arrive, but no additional results will be reported for at least a week and a half after the election.",10,-1,1604451701594
39095,Lucas,110546,0,165,165,Released as a separate subtotal as first report of the night,93,119138,93%,93% reported,edison,2,unknown,101640,60942,49604,0,0,2020-11-19T00:09:43Z,10.25636,R+10,Latta +10,republican,OH-G-H-5-2020-11-03,oh-house-general-district-005-2020-11-03,https://www.nytimes.com/interactive/2020/11/03/us/elections/results-ohio-house-district-5.html,https://www.nytimes.com/interactive/2020/11/03/us/elections/results-ohio.html,https://www.nytimes.com/interactive/2020/11/03/us/elections/ap-polls-ohio.html,https://www.nytimes.com/interactive/2020/11/03/us/elections/exit-polls-ohio.html,house,general,2020-11-03,FALSE,U.S. House District 5,U.S. House,H,solid-rep,5,District 5,OH,ohio,Ohio,Ohio,horizontal,"",FALSE,TRUE,winner,AP,FALSE,"",377209,26181,3,unknown,Polls close at 7:30 p.m. Eastern time.,Polls close in,Polls have closed.,2020-11-04T00:30:00.000Z,7:30 p.m.,579,589,98% reporting,98%,92,410000,edison,92%,92% reported,edison,republican,FALSE,2020-11-20T20:50:55Z,TRUE,35.9501,135607,R+36,Latta +36,republican,"Postmarked ballots have until Nov. 13 to arrive, but no additional results will be reported reported for at least a week and a half after the election. Counties may report their full official count after their vote canvass, due by Nov. 18, but full statewide results will not be available until final certification, due by Nov. 28. ","Postmarked ballots have until Nov. 13 to arrive, but no additional results will be reported for at least a week and a half after the election.",10,-1,1604451701594
39107,Mercer,10764,7640,17,17,Released as a separate subtotal as first report of the night,100,10764,>98%,>98% reported,edison,6,all,12162,8668,2096,5876,1764,2020-11-16T15:47:52Z,61.05537,R+61,Latta +61,republican,OH-G-H-5-2020-11-03,oh-house-general-district-005-2020-11-03,https://www.nytimes.com/interactive/2020/11/03/us/elections/results-ohio-house-district-5.html,https://www.nytimes.com/interactive/2020/11/03/us/elections/results-ohio.html,https://www.nytimes.com/interactive/2020/11/03/us/elections/ap-polls-ohio.html,https://www.nytimes.com/interactive/2020/11/03/us/elections/exit-polls-ohio.html,house,general,2020-11-03,FALSE,U.S. House District 5,U.S. House,H,solid-rep,5,District 5,OH,ohio,Ohio,Ohio,horizontal,"",FALSE,TRUE,winner,AP,FALSE,"",377209,26181,3,unknown,Polls close at 7:30 p.m. Eastern time.,Polls close in,Polls have closed.,2020-11-04T00:30:00.000Z,7:30 p.m.,579,589,98% reporting,98%,92,410000,edison,92%,92% reported,edison,republican,FALSE,2020-11-20T20:50:55Z,TRUE,35.9501,135607,R+36,Latta +36,republican,"Postmarked ballots have until Nov. 13 to arrive, but no additional results will be reported reported for at least a week and a half after the election. Counties may report their full official count after their vote canvass, due by Nov. 18, but full statewide results will not be available until final certification, due by Nov. 28. ","Postmarked ballots have until Nov. 13 to arrive, but no additional results will be reported for at least a week and a half after the election.",10,-1,1604451701594
39123,Ottawa,10909,0,17,17,Merged into voters' home precincts and released with cumulative results,93,11743,93%,93% reported,edison,4,unknown,11056,7546,3363,0,0,2020-11-18T22:35:06Z,38.34449,R+38,Latta +38,republican,OH-G-H-5-2020-11-03,oh-house-general-district-005-2020-11-03,https://www.nytimes.com/interactive/2020/11/03/us/elections/results-ohio-house-district-5.html,https://www.nytimes.com/interactive/2020/11/03/us/elections/results-ohio.html,https://www.nytimes.com/interactive/2020/11/03/us/elections/ap-polls-ohio.html,https://www.nytimes.com/interactive/2020/11/03/us/elections/exit-polls-ohio.html,house,general,2020-11-03,FALSE,U.S. House District 5,U.S. House,H,solid-rep,5,District 5,OH,ohio,Ohio,Ohio,horizontal,"",FALSE,TRUE,winner,AP,FALSE,"",377209,26181,3,unknown,Polls close at 7:30 p.m. Eastern time.,Polls close in,Polls have closed.,2020-11-04T00:30:00.000Z,7:30 p.m.,579,589,98% reporting,98%,92,410000,edison,92%,92% reported,edison,republican,FALSE,2020-11-20T20:50:55Z,TRUE,35.9501,135607,R+36,Latta +36,republican,"Postmarked ballots have until Nov. 13 to arrive, but no additional results will be reported reported for at least a week and a half after the election. Counties may report their full official count after their vote canvass, due by Nov. 18, but full statewide results will not be available until final certification, due by Nov. 28. ","Postmarked ballots have until Nov. 13 to arrive, but no additional results will be reported for at least a week and a half after the election.",10,-1,1604451701594
39125,Paulding,9189,5587,16,16,Merged into voters' home precincts and released with cumulative results,100,8999,>98%,>98% reported,edison,6,all,4563,7154,2035,4087,1500,2020-11-19T17:26:14Z,55.70791,R+56,Latta +56,republican,OH-G-H-5-2020-11-03,oh-house-general-district-005-2020-11-03,https://www.nytimes.com/interactive/2020/11/03/us/elections/results-ohio-house-district-5.html,https://www.nytimes.com/interactive/2020/11/03/us/elections/results-ohio.html,https://www.nytimes.com/interactive/2020/11/03/us/elections/ap-polls-ohio.html,https://www.nytimes.com/interactive/2020/11/03/us/elections/exit-polls-ohio.html,house,general,2020-11-03,FALSE,U.S. House District 5,U.S. House,H,solid-rep,5,District 5,OH,ohio,Ohio,Ohio,horizontal,"",FALSE,TRUE,winner,AP,FALSE,"",377209,26181,3,unknown,Polls close at 7:30 p.m. Eastern time.,Polls close in,Polls have closed.,2020-11-04T00:30:00.000Z,7:30 p.m.,579,589,98% reporting,98%,92,410000,edison,92%,92% reported,edison,republican,FALSE,2020-11-20T20:50:55Z,TRUE,35.9501,135607,R+36,Latta +36,republican,"Postmarked ballots have until Nov. 13 to arrive, but no additional results will be reported reported for at least a week and a half after the election. Counties may report their full official count after their vote canvass, due by Nov. 18, but full statewide results will not be available until final certification, due by Nov. 28. ","Postmarked ballots have until Nov. 13 to arrive, but no additional results will be reported for at least a week and a half after the election.",10,-1,1604451701594
39137,Putnam,19396,0,23,25,Merged into voters' home precincts AFTER election night,91,21332,91%,91% reported,edison,2,unknown,8054,16935,2461,0,0,2020-11-19T17:45:03Z,74.62363,R+75,Latta +75,republican,OH-G-H-5-2020-11-03,oh-house-general-district-005-2020-11-03,https://www.nytimes.com/interactive/2020/11/03/us/elections/results-ohio-house-district-5.html,https://www.nytimes.com/interactive/2020/11/03/us/elections/results-ohio.html,https://www.nytimes.com/interactive/2020/11/03/us/elections/ap-polls-ohio.html,https://www.nytimes.com/interactive/2020/11/03/us/elections/exit-polls-ohio.html,house,general,2020-11-03,FALSE,U.S. House District 5,U.S. House,H,solid-rep,5,District 5,OH,ohio,Ohio,Ohio,horizontal,"",FALSE,TRUE,winner,AP,FALSE,"",377209,26181,3,unknown,Polls close at 7:30 p.m. Eastern time.,Polls close in,Polls have closed.,2020-11-04T00:30:00.000Z,7:30 p.m.,579,589,98% reporting,98%,92,410000,edison,92%,92% reported,edison,republican,FALSE,2020-11-20T20:50:55Z,TRUE,35.9501,135607,R+36,Latta +36,republican,"Postmarked ballots have until Nov. 13 to arrive, but no additional results will be reported reported for at least a week and a half after the election. Counties may report their full official count after their vote canvass, due by Nov. 18, but full statewide results will not be available until final certification, due by Nov. 28. ","Postmarked ballots have until Nov. 13 to arrive, but no additional results will be reported for at least a week and a half after the election.",10,-1,1604451701594
39161,Van Wert,14554,0,39,39,Merged into voters' home precincts and released with cumulative results,100,14341,>98%,>98% reported,edison,6,some,9334,11928,2626,0,0,2020-11-19T17:51:32Z,63.9137,R+64,Latta +64,republican,OH-G-H-5-2020-11-03,oh-house-general-district-005-2020-11-03,https://www.nytimes.com/interactive/2020/11/03/us/elections/results-ohio-house-district-5.html,https://www.nytimes.com/interactive/2020/11/03/us/elections/results-ohio.html,https://www.nytimes.com/interactive/2020/11/03/us/elections/ap-polls-ohio.html,https://www.nytimes.com/interactive/2020/11/03/us/elections/exit-polls-ohio.html,house,general,2020-11-03,FALSE,U.S. House District 5,U.S. House,H,solid-rep,5,District 5,OH,ohio,Ohio,Ohio,horizontal,"",FALSE,TRUE,winner,AP,FALSE,"",377209,26181,3,unknown,Polls close at 7:30 p.m. Eastern time.,Polls close in,Polls have closed.,2020-11-04T00:30:00.000Z,7:30 p.m.,579,589,98% reporting,98%,92,410000,edison,92%,92% reported,edison,republican,FALSE,2020-11-20T20:50:55Z,TRUE,35.9501,135607,R+36,Latta +36,republican,"Postmarked ballots have until Nov. 13 to arrive, but no additional results will be reported reported for at least a week and a half after the election. Counties may report their full official count after their vote canvass, due by Nov. 18, but full statewide results will not be available until final certification, due by Nov. 28. ","Postmarked ballots have until Nov. 13 to arrive, but no additional results will be reported for at least a week and a half after the election.",10,-1,1604451701594
39171,Williams,17827,0,26,26,Released as a separate subtotal as first report of the night,100,17827,>98%,>98% reported,edison,6,all,7416,13919,3908,0,0,2020-11-20T20:50:54Z,56.15639,R+56,Latta +56,republican,OH-G-H-5-2020-11-03,oh-house-general-district-005-2020-11-03,https://www.nytimes.com/interactive/2020/11/03/us/elections/results-ohio-house-district-5.html,https://www.nytimes.com/interactive/2020/11/03/us/elections/results-ohio.html,https://www.nytimes.com/interactive/2020/11/03/us/elections/ap-polls-ohio.html,https://www.nytimes.com/interactive/2020/11/03/us/elections/exit-polls-ohio.html,house,general,2020-11-03,FALSE,U.S. House District 5,U.S. House,H,solid-rep,5,District 5,OH,ohio,Ohio,Ohio,horizontal,"",FALSE,TRUE,winner,AP,FALSE,"",377209,26181,3,unknown,Polls close at 7:30 p.m. Eastern time.,Polls close in,Polls have closed.,2020-11-04T00:30:00.000Z,7:30 p.m.,579,589,98% reporting,98%,92,410000,edison,92%,92% reported,edison,republican,FALSE,2020-11-20T20:50:55Z,TRUE,35.9501,135607,R+36,Latta +36,republican,"Postmarked ballots have until Nov. 13 to arrive, but no additional results will be reported reported for at least a week and a half after the election. Counties may report their full official count after their vote canvass, due by Nov. 18, but full statewide results will not be available until final certification, due by Nov. 28. ","Postmarked ballots have until Nov. 13 to arrive, but no additional results will be reported for at least a week and a half after the election.",10,-1,1604451701594
39173,Wood,66126,0,95,95,Merged into voters' home precincts and released with cumulative results,90,73089,90%,90% reported,edison,4,unknown,29603,40267,25859,0,0,2020-11-18T19:03:31Z,21.78871,R+22,Latta +22,republican,OH-G-H-5-2020-11-03,oh-house-general-district-005-2020-11-03,https://www.nytimes.com/interactive/2020/11/03/us/elections/results-ohio-house-district-5.html,https://www.nytimes.com/interactive/2020/11/03/us/elections/results-ohio.html,https://www.nytimes.com/interactive/2020/11/03/us/elections/ap-polls-ohio.html,https://www.nytimes.com/interactive/2020/11/03/us/elections/exit-polls-ohio.html,house,general,2020-11-03,FALSE,U.S. House District 5,U.S. House,H,solid-rep,5,District 5,OH,ohio,Ohio,Ohio,horizontal,"",FALSE,TRUE,winner,AP,FALSE,"",377209,26181,3,unknown,Polls close at 7:30 p.m. Eastern time.,Polls close in,Polls have closed.,2020-11-04T00:30:00.000Z,7:30 p.m.,579,589,98% reporting,98%,92,410000,edison,92%,92% reported,edison,republican,FALSE,2020-11-20T20:50:55Z,TRUE,35.9501,135607,R+36,Latta +36,republican,"Postmarked ballots have until Nov. 13 to arrive, but no additional results will be reported reported for at least a week and a half after the election. Counties may report their full official count after their vote canvass, due by Nov. 18, but full statewide results will not be available until final certification, due by Nov. 28. ","Postmarked ballots have until Nov. 13 to arrive, but no additional results will be reported for at least a week and a half after the election.",10,-1,1604451701594
39175,Wyandot,10982,0,21,23,Merged into voters' home precincts and released with cumulative results,91,12048,91%,91% reported,edison,2,unknown,4205,8675,2307,0,0,2020-11-16T15:47:56Z,57.98579,R+58,Latta +58,republican,OH-G-H-5-2020-11-03,oh-house-general-district-005-2020-11-03,https://www.nytimes.com/interactive/2020/11/03/us/elections/results-ohio-house-district-5.html,https://www.nytimes.com/interactive/2020/11/03/us/elections/results-ohio.html,https://www.nytimes.com/interactive/2020/11/03/us/elections/ap-polls-ohio.html,https://www.nytimes.com/interactive/2020/11/03/us/elections/exit-polls-ohio.html,house,general,2020-11-03,FALSE,U.S. House District 5,U.S. House,H,solid-rep,5,District 5,OH,ohio,Ohio,Ohio,horizontal,"",FALSE,TRUE,winner,AP,FALSE,"",377209,26181,3,unknown,Polls close at 7:30 p.m. Eastern time.,Polls close in,Polls have closed.,2020-11-04T00:30:00.000Z,7:30 p.m.,579,589,98% reporting,98%,92,410000,edison,92%,92% reported,edison,republican,FALSE,2020-11-20T20:50:55Z,TRUE,35.9501,135607,R+36,Latta +36,republican,"Postmarked ballots have until Nov. 13 to arrive, but no additional results will be reported reported for at least a week and a half after the election. Counties may report their full official count after their vote canvass, due by Nov. 18, but full statewide results will not be available until final certification, due by Nov. 28. ","Postmarked ballots have until Nov. 13 to arrive, but no additional results will be reported for at least a week and a half after the election.",10,-1,1604451701594
