fips,name,votes,absentee_votes,reporting,precincts,absentee_method,eevp,tot_exp_vote,eevp_value,eevp_display,eevp_source,turnout_stage,absentee_count_progress,absentee_max_ballots,results_lucasf,results_midyettz,results_absentee_lucasf,results_absentee_midyettz,last_updated,leader_margin_value,leader_margin_display,leader_margin_name_display,leader_party_id,race_id_race,race_slug_race,url_race,state_page_url_race,ap_polls_page_race,race_type_race,election_type_race,election_date_race,runoff_race,race_name_race,office_race,officeid_race,race_rating_race,seat_race,seat_name_race,state_id_race,state_slug_race,state_name_race,state_nyt_abbrev_race,state_shape_race,party_id_race,uncontested_race,report_race,result_race,result_source_race,gain_race,lost_seat_race,votes_race,absentee_votes_race,absentee_counties_race,absentee_count_progress_race,poll_display_race,poll_countdown_display_race,poll_waiting_display_race,poll_time_race,poll_time_short_race,precincts_reporting_race,precincts_total_race,reporting_display_race,reporting_value_race,eevp_race,tot_exp_vote_race,eevp_source_race,eevp_value_race,eevp_display_race,county_data_source_race,incumbent_party_race,no_forecast_race,last_updated_race,has_incumbent_race,leader_margin_value_race,leader_margin_votes_race,leader_margin_display_race,leader_margin_name_display_race,leader_party_id_race,absentee_ballot_deadline_race,absentee_postmark_deadline_race,winner_called_timestamp_race
40003,Alfalfa,2252,529,8,8,Released as a separate subtotal as first report of the night,100,2252,>98%,>98% reported,edison,10,unknown,512,2034,218,444,85,2020-11-16T15:48:29Z,80.63943,R+81,Lucas +81,republican,OK-G-H-3-2020-11-03,ok-house-general-district-003-2020-11-03,https://www.nytimes.com/interactive/2020/11/03/us/elections/results-oklahoma-house-district-3.html,https://www.nytimes.com/interactive/2020/11/03/us/elections/results-oklahoma.html,https://www.nytimes.com/interactive/2020/11/03/us/elections/ap-polls-oklahoma.html,house,general,2020-11-03,FALSE,U.S. House District 3,U.S. House,H,solid-rep,3,District 3,OK,oklahoma,Oklahoma,Okla.,horizontal,"",FALSE,TRUE,winner,AP,FALSE,"",309178,79235,32,unknown,Polls close at 8 p.m. Eastern time.,Polls close in,Polls have closed.,2020-11-04T01:00:00.000Z,8 p.m.,479,479,100% reporting,100%,100,309178,edison,>98%,>98% reported,edison,republican,FALSE,2020-11-23T15:12:29Z,TRUE,56.98206,176176,R+57,Lucas +57,republican,0,0,1604456490818
40007,Beaver,2163,504,7,7,Released as a separate subtotal as first report of the night,100,2163,>98%,>98% reported,edison,10,unknown,675,1988,175,432,72,2020-11-16T15:48:30Z,83.81877,R+84,Lucas +84,republican,OK-G-H-3-2020-11-03,ok-house-general-district-003-2020-11-03,https://www.nytimes.com/interactive/2020/11/03/us/elections/results-oklahoma-house-district-3.html,https://www.nytimes.com/interactive/2020/11/03/us/elections/results-oklahoma.html,https://www.nytimes.com/interactive/2020/11/03/us/elections/ap-polls-oklahoma.html,house,general,2020-11-03,FALSE,U.S. House District 3,U.S. House,H,solid-rep,3,District 3,OK,oklahoma,Oklahoma,Okla.,horizontal,"",FALSE,TRUE,winner,AP,FALSE,"",309178,79235,32,unknown,Polls close at 8 p.m. Eastern time.,Polls close in,Polls have closed.,2020-11-04T01:00:00.000Z,8 p.m.,479,479,100% reporting,100%,100,309178,edison,>98%,>98% reported,edison,republican,FALSE,2020-11-23T15:12:29Z,TRUE,56.98206,176176,R+57,Lucas +57,republican,0,0,1604456490818
40009,Beckham,7915,2178,13,13,Released as a separate subtotal as first report of the night,100,7915,>98%,>98% reported,edison,10,unknown,1622,6884,1031,1806,372,2020-11-16T15:48:30Z,73.9482,R+74,Lucas +74,republican,OK-G-H-3-2020-11-03,ok-house-general-district-003-2020-11-03,https://www.nytimes.com/interactive/2020/11/03/us/elections/results-oklahoma-house-district-3.html,https://www.nytimes.com/interactive/2020/11/03/us/elections/results-oklahoma.html,https://www.nytimes.com/interactive/2020/11/03/us/elections/ap-polls-oklahoma.html,house,general,2020-11-03,FALSE,U.S. House District 3,U.S. House,H,solid-rep,3,District 3,OK,oklahoma,Oklahoma,Okla.,horizontal,"",FALSE,TRUE,winner,AP,FALSE,"",309178,79235,32,unknown,Polls close at 8 p.m. Eastern time.,Polls close in,Polls have closed.,2020-11-04T01:00:00.000Z,8 p.m.,479,479,100% reporting,100%,100,309178,edison,>98%,>98% reported,edison,republican,FALSE,2020-11-23T15:12:29Z,TRUE,56.98206,176176,R+57,Lucas +57,republican,0,0,1604456490818
40011,Blaine,3878,821,9,9,Released as a separate subtotal as first report of the night,100,3878,>98%,>98% reported,edison,10,unknown,846,3253,625,651,170,2020-11-16T15:48:31Z,67.76689,R+68,Lucas +68,republican,OK-G-H-3-2020-11-03,ok-house-general-district-003-2020-11-03,https://www.nytimes.com/interactive/2020/11/03/us/elections/results-oklahoma-house-district-3.html,https://www.nytimes.com/interactive/2020/11/03/us/elections/results-oklahoma.html,https://www.nytimes.com/interactive/2020/11/03/us/elections/ap-polls-oklahoma.html,house,general,2020-11-03,FALSE,U.S. House District 3,U.S. House,H,solid-rep,3,District 3,OK,oklahoma,Oklahoma,Okla.,horizontal,"",FALSE,TRUE,winner,AP,FALSE,"",309178,79235,32,unknown,Polls close at 8 p.m. Eastern time.,Polls close in,Polls have closed.,2020-11-04T01:00:00.000Z,8 p.m.,479,479,100% reporting,100%,100,309178,edison,>98%,>98% reported,edison,republican,FALSE,2020-11-23T15:12:29Z,TRUE,56.98206,176176,R+57,Lucas +57,republican,0,0,1604456490818
40015,Caddo,9806,1528,20,20,Released as a separate subtotal as first report of the night,100,9806,>98%,>98% reported,edison,10,unknown,1565,7346,2460,955,573,2020-11-16T15:48:31Z,49.82664,R+50,Lucas +50,republican,OK-G-H-3-2020-11-03,ok-house-general-district-003-2020-11-03,https://www.nytimes.com/interactive/2020/11/03/us/elections/results-oklahoma-house-district-3.html,https://www.nytimes.com/interactive/2020/11/03/us/elections/results-oklahoma.html,https://www.nytimes.com/interactive/2020/11/03/us/elections/ap-polls-oklahoma.html,house,general,2020-11-03,FALSE,U.S. House District 3,U.S. House,H,solid-rep,3,District 3,OK,oklahoma,Oklahoma,Okla.,horizontal,"",FALSE,TRUE,winner,AP,FALSE,"",309178,79235,32,unknown,Polls close at 8 p.m. Eastern time.,Polls close in,Polls have closed.,2020-11-04T01:00:00.000Z,8 p.m.,479,479,100% reporting,100%,100,309178,edison,>98%,>98% reported,edison,republican,FALSE,2020-11-23T15:12:29Z,TRUE,56.98206,176176,R+57,Lucas +57,republican,0,0,1604456490818
40017,Canadian,51836,13560,42,42,Released as a separate subtotal as first report of the night,100,51836,>98%,>98% reported,edison,10,unknown,10027,38550,13286,8033,5527,2020-11-16T15:48:32Z,48.73833,R+49,Lucas +49,republican,OK-G-H-3-2020-11-03,ok-house-general-district-003-2020-11-03,https://www.nytimes.com/interactive/2020/11/03/us/elections/results-oklahoma-house-district-3.html,https://www.nytimes.com/interactive/2020/11/03/us/elections/results-oklahoma.html,https://www.nytimes.com/interactive/2020/11/03/us/elections/ap-polls-oklahoma.html,house,general,2020-11-03,FALSE,U.S. House District 3,U.S. House,H,solid-rep,3,District 3,OK,oklahoma,Oklahoma,Okla.,horizontal,"",FALSE,TRUE,winner,AP,FALSE,"",309178,79235,32,unknown,Polls close at 8 p.m. Eastern time.,Polls close in,Polls have closed.,2020-11-04T01:00:00.000Z,8 p.m.,479,479,100% reporting,100%,100,309178,edison,>98%,>98% reported,edison,republican,FALSE,2020-11-23T15:12:29Z,TRUE,56.98206,176176,R+57,Lucas +57,republican,0,0,1604456490818
40025,Cimarron,1042,402,6,6,Released as a separate subtotal as first report of the night,100,1042,>98%,>98% reported,edison,10,unknown,672,967,75,374,28,2020-11-16T15:48:32Z,85.60461,R+86,Lucas +86,republican,OK-G-H-3-2020-11-03,ok-house-general-district-003-2020-11-03,https://www.nytimes.com/interactive/2020/11/03/us/elections/results-oklahoma-house-district-3.html,https://www.nytimes.com/interactive/2020/11/03/us/elections/results-oklahoma.html,https://www.nytimes.com/interactive/2020/11/03/us/elections/ap-polls-oklahoma.html,house,general,2020-11-03,FALSE,U.S. House District 3,U.S. House,H,solid-rep,3,District 3,OK,oklahoma,Oklahoma,Okla.,horizontal,"",FALSE,TRUE,winner,AP,FALSE,"",309178,79235,32,unknown,Polls close at 8 p.m. Eastern time.,Polls close in,Polls have closed.,2020-11-04T01:00:00.000Z,8 p.m.,479,479,100% reporting,100%,100,309178,edison,>98%,>98% reported,edison,republican,FALSE,2020-11-23T15:12:29Z,TRUE,56.98206,176176,R+57,Lucas +57,republican,0,0,1604456490818
40037,Creek,27064,5378,31,31,Released as a separate subtotal as first report of the night,100,27064,>98%,>98% reported,edison,10,all,6525,21329,5735,3409,1969,2020-11-16T15:48:33Z,57.61898,R+58,Lucas +58,republican,OK-G-H-3-2020-11-03,ok-house-general-district-003-2020-11-03,https://www.nytimes.com/interactive/2020/11/03/us/elections/results-oklahoma-house-district-3.html,https://www.nytimes.com/interactive/2020/11/03/us/elections/results-oklahoma.html,https://www.nytimes.com/interactive/2020/11/03/us/elections/ap-polls-oklahoma.html,house,general,2020-11-03,FALSE,U.S. House District 3,U.S. House,H,solid-rep,3,District 3,OK,oklahoma,Oklahoma,Okla.,horizontal,"",FALSE,TRUE,winner,AP,FALSE,"",309178,79235,32,unknown,Polls close at 8 p.m. Eastern time.,Polls close in,Polls have closed.,2020-11-04T01:00:00.000Z,8 p.m.,479,479,100% reporting,100%,100,309178,edison,>98%,>98% reported,edison,republican,FALSE,2020-11-23T15:12:29Z,TRUE,56.98206,176176,R+57,Lucas +57,republican,0,0,1604456490818
40039,Custer,10639,2545,13,13,Released as a separate subtotal as first report of the night,100,10639,>98%,>98% reported,edison,10,unknown,2330,8554,2085,1828,717,2020-11-16T15:48:34Z,60.80459,R+61,Lucas +61,republican,OK-G-H-3-2020-11-03,ok-house-general-district-003-2020-11-03,https://www.nytimes.com/interactive/2020/11/03/us/elections/results-oklahoma-house-district-3.html,https://www.nytimes.com/interactive/2020/11/03/us/elections/results-oklahoma.html,https://www.nytimes.com/interactive/2020/11/03/us/elections/ap-polls-oklahoma.html,house,general,2020-11-03,FALSE,U.S. House District 3,U.S. House,H,solid-rep,3,District 3,OK,oklahoma,Oklahoma,Okla.,horizontal,"",FALSE,TRUE,winner,AP,FALSE,"",309178,79235,32,unknown,Polls close at 8 p.m. Eastern time.,Polls close in,Polls have closed.,2020-11-04T01:00:00.000Z,8 p.m.,479,479,100% reporting,100%,100,309178,edison,>98%,>98% reported,edison,republican,FALSE,2020-11-23T15:12:29Z,TRUE,56.98206,176176,R+57,Lucas +57,republican,0,0,1604456490818
40043,Dewey,2354,371,9,9,Released as a separate subtotal as first report of the night,100,2354,>98%,>98% reported,edison,10,unknown,440,2169,185,331,40,2020-11-16T15:48:34Z,84.28207,R+84,Lucas +84,republican,OK-G-H-3-2020-11-03,ok-house-general-district-003-2020-11-03,https://www.nytimes.com/interactive/2020/11/03/us/elections/results-oklahoma-house-district-3.html,https://www.nytimes.com/interactive/2020/11/03/us/elections/results-oklahoma.html,https://www.nytimes.com/interactive/2020/11/03/us/elections/ap-polls-oklahoma.html,house,general,2020-11-03,FALSE,U.S. House District 3,U.S. House,H,solid-rep,3,District 3,OK,oklahoma,Oklahoma,Okla.,horizontal,"",FALSE,TRUE,winner,AP,FALSE,"",309178,79235,32,unknown,Polls close at 8 p.m. Eastern time.,Polls close in,Polls have closed.,2020-11-04T01:00:00.000Z,8 p.m.,479,479,100% reporting,100%,100,309178,edison,>98%,>98% reported,edison,republican,FALSE,2020-11-23T15:12:29Z,TRUE,56.98206,176176,R+57,Lucas +57,republican,0,0,1604456490818
40045,Ellis,1863,388,7,7,Released as a separate subtotal as first report of the night,100,1863,>98%,>98% reported,edison,10,unknown,469,1717,146,345,43,2020-11-16T15:48:34Z,84.32636,R+84,Lucas +84,republican,OK-G-H-3-2020-11-03,ok-house-general-district-003-2020-11-03,https://www.nytimes.com/interactive/2020/11/03/us/elections/results-oklahoma-house-district-3.html,https://www.nytimes.com/interactive/2020/11/03/us/elections/results-oklahoma.html,https://www.nytimes.com/interactive/2020/11/03/us/elections/ap-polls-oklahoma.html,house,general,2020-11-03,FALSE,U.S. House District 3,U.S. House,H,solid-rep,3,District 3,OK,oklahoma,Oklahoma,Okla.,horizontal,"",FALSE,TRUE,winner,AP,FALSE,"",309178,79235,32,unknown,Polls close at 8 p.m. Eastern time.,Polls close in,Polls have closed.,2020-11-04T01:00:00.000Z,8 p.m.,479,479,100% reporting,100%,100,309178,edison,>98%,>98% reported,edison,republican,FALSE,2020-11-23T15:12:29Z,TRUE,56.98206,176176,R+57,Lucas +57,republican,0,0,1604456490818
40047,Garfield,22267,5305,30,30,Released as a separate subtotal as first report of the night,100,22267,>98%,>98% reported,edison,10,all,5979,17804,4463,3612,1693,2020-11-16T15:48:34Z,59.91377,R+60,Lucas +60,republican,OK-G-H-3-2020-11-03,ok-house-general-district-003-2020-11-03,https://www.nytimes.com/interactive/2020/11/03/us/elections/results-oklahoma-house-district-3.html,https://www.nytimes.com/interactive/2020/11/03/us/elections/results-oklahoma.html,https://www.nytimes.com/interactive/2020/11/03/us/elections/ap-polls-oklahoma.html,house,general,2020-11-03,FALSE,U.S. House District 3,U.S. House,H,solid-rep,3,District 3,OK,oklahoma,Oklahoma,Okla.,horizontal,"",FALSE,TRUE,winner,AP,FALSE,"",309178,79235,32,unknown,Polls close at 8 p.m. Eastern time.,Polls close in,Polls have closed.,2020-11-04T01:00:00.000Z,8 p.m.,479,479,100% reporting,100%,100,309178,edison,>98%,>98% reported,edison,republican,FALSE,2020-11-23T15:12:29Z,TRUE,56.98206,176176,R+57,Lucas +57,republican,0,0,1604456490818
40053,Grant,2205,434,7,7,Released as a separate subtotal as first report of the night,100,2205,>98%,>98% reported,edison,10,unknown,400,1957,248,351,83,2020-11-16T15:48:35Z,77.50567,R+78,Lucas +78,republican,OK-G-H-3-2020-11-03,ok-house-general-district-003-2020-11-03,https://www.nytimes.com/interactive/2020/11/03/us/elections/results-oklahoma-house-district-3.html,https://www.nytimes.com/interactive/2020/11/03/us/elections/results-oklahoma.html,https://www.nytimes.com/interactive/2020/11/03/us/elections/ap-polls-oklahoma.html,house,general,2020-11-03,FALSE,U.S. House District 3,U.S. House,H,solid-rep,3,District 3,OK,oklahoma,Oklahoma,Okla.,horizontal,"",FALSE,TRUE,winner,AP,FALSE,"",309178,79235,32,unknown,Polls close at 8 p.m. Eastern time.,Polls close in,Polls have closed.,2020-11-04T01:00:00.000Z,8 p.m.,479,479,100% reporting,100%,100,309178,edison,>98%,>98% reported,edison,republican,FALSE,2020-11-23T15:12:29Z,TRUE,56.98206,176176,R+57,Lucas +57,republican,0,0,1604456490818
40055,Greer,1954,498,8,8,Released as a separate subtotal as first report of the night,100,1954,>98%,>98% reported,edison,10,unknown,514,1655,299,393,105,2020-11-16T15:48:35Z,69.39611,R+69,Lucas +69,republican,OK-G-H-3-2020-11-03,ok-house-general-district-003-2020-11-03,https://www.nytimes.com/interactive/2020/11/03/us/elections/results-oklahoma-house-district-3.html,https://www.nytimes.com/interactive/2020/11/03/us/elections/results-oklahoma.html,https://www.nytimes.com/interactive/2020/11/03/us/elections/ap-polls-oklahoma.html,house,general,2020-11-03,FALSE,U.S. House District 3,U.S. House,H,solid-rep,3,District 3,OK,oklahoma,Oklahoma,Okla.,horizontal,"",FALSE,TRUE,winner,AP,FALSE,"",309178,79235,32,unknown,Polls close at 8 p.m. Eastern time.,Polls close in,Polls have closed.,2020-11-04T01:00:00.000Z,8 p.m.,479,479,100% reporting,100%,100,309178,edison,>98%,>98% reported,edison,republican,FALSE,2020-11-23T15:12:29Z,TRUE,56.98206,176176,R+57,Lucas +57,republican,0,0,1604456490818
40057,Harmon,929,278,7,7,Released as a separate subtotal as first report of the night,100,929,>98%,>98% reported,edison,10,unknown,288,770,159,219,59,2020-11-16T15:48:35Z,65.76964,R+66,Lucas +66,republican,OK-G-H-3-2020-11-03,ok-house-general-district-003-2020-11-03,https://www.nytimes.com/interactive/2020/11/03/us/elections/results-oklahoma-house-district-3.html,https://www.nytimes.com/interactive/2020/11/03/us/elections/results-oklahoma.html,https://www.nytimes.com/interactive/2020/11/03/us/elections/ap-polls-oklahoma.html,house,general,2020-11-03,FALSE,U.S. House District 3,U.S. House,H,solid-rep,3,District 3,OK,oklahoma,Oklahoma,Okla.,horizontal,"",FALSE,TRUE,winner,AP,FALSE,"",309178,79235,32,unknown,Polls close at 8 p.m. Eastern time.,Polls close in,Polls have closed.,2020-11-04T01:00:00.000Z,8 p.m.,479,479,100% reporting,100%,100,309178,edison,>98%,>98% reported,edison,republican,FALSE,2020-11-23T15:12:29Z,TRUE,56.98206,176176,R+57,Lucas +57,republican,0,0,1604456490818
40059,Harper,1476,305,6,6,Released as a separate subtotal as first report of the night,100,1476,>98%,>98% reported,edison,10,unknown,291,1366,110,268,37,2020-11-16T15:48:36Z,85.09485,R+85,Lucas +85,republican,OK-G-H-3-2020-11-03,ok-house-general-district-003-2020-11-03,https://www.nytimes.com/interactive/2020/11/03/us/elections/results-oklahoma-house-district-3.html,https://www.nytimes.com/interactive/2020/11/03/us/elections/results-oklahoma.html,https://www.nytimes.com/interactive/2020/11/03/us/elections/ap-polls-oklahoma.html,house,general,2020-11-03,FALSE,U.S. House District 3,U.S. House,H,solid-rep,3,District 3,OK,oklahoma,Oklahoma,Okla.,horizontal,"",FALSE,TRUE,winner,AP,FALSE,"",309178,79235,32,unknown,Polls close at 8 p.m. Eastern time.,Polls close in,Polls have closed.,2020-11-04T01:00:00.000Z,8 p.m.,479,479,100% reporting,100%,100,309178,edison,>98%,>98% reported,edison,republican,FALSE,2020-11-23T15:12:29Z,TRUE,56.98206,176176,R+57,Lucas +57,republican,0,0,1604456490818
40065,Jackson,8166,2159,15,15,Released as a separate subtotal as first report of the night,100,8166,>98%,>98% reported,edison,10,unknown,2832,6653,1513,1586,573,2020-11-16T15:47:43Z,62.94391,R+63,Lucas +63,republican,OK-G-H-3-2020-11-03,ok-house-general-district-003-2020-11-03,https://www.nytimes.com/interactive/2020/11/03/us/elections/results-oklahoma-house-district-3.html,https://www.nytimes.com/interactive/2020/11/03/us/elections/results-oklahoma.html,https://www.nytimes.com/interactive/2020/11/03/us/elections/ap-polls-oklahoma.html,house,general,2020-11-03,FALSE,U.S. House District 3,U.S. House,H,solid-rep,3,District 3,OK,oklahoma,Oklahoma,Okla.,horizontal,"",FALSE,TRUE,winner,AP,FALSE,"",309178,79235,32,unknown,Polls close at 8 p.m. Eastern time.,Polls close in,Polls have closed.,2020-11-04T01:00:00.000Z,8 p.m.,479,479,100% reporting,100%,100,309178,edison,>98%,>98% reported,edison,republican,FALSE,2020-11-23T15:12:29Z,TRUE,56.98206,176176,R+57,Lucas +57,republican,0,0,1604456490818
40071,Kay,17123,3732,28,28,Released as a separate subtotal as first report of the night,100,17123,>98%,>98% reported,edison,10,all,2845,13335,3788,2534,1198,2020-11-16T15:47:46Z,55.75542,R+56,Lucas +56,republican,OK-G-H-3-2020-11-03,ok-house-general-district-003-2020-11-03,https://www.nytimes.com/interactive/2020/11/03/us/elections/results-oklahoma-house-district-3.html,https://www.nytimes.com/interactive/2020/11/03/us/elections/results-oklahoma.html,https://www.nytimes.com/interactive/2020/11/03/us/elections/ap-polls-oklahoma.html,house,general,2020-11-03,FALSE,U.S. House District 3,U.S. House,H,solid-rep,3,District 3,OK,oklahoma,Oklahoma,Okla.,horizontal,"",FALSE,TRUE,winner,AP,FALSE,"",309178,79235,32,unknown,Polls close at 8 p.m. Eastern time.,Polls close in,Polls have closed.,2020-11-04T01:00:00.000Z,8 p.m.,479,479,100% reporting,100%,100,309178,edison,>98%,>98% reported,edison,republican,FALSE,2020-11-23T15:12:29Z,TRUE,56.98206,176176,R+57,Lucas +57,republican,0,0,1604456490818
40073,Kingfisher,6430,1640,14,14,Released as a separate subtotal as first report of the night,100,6430,>98%,>98% reported,edison,10,unknown,1557,5728,702,1395,245,2020-11-16T15:47:47Z,78.16485,R+78,Lucas +78,republican,OK-G-H-3-2020-11-03,ok-house-general-district-003-2020-11-03,https://www.nytimes.com/interactive/2020/11/03/us/elections/results-oklahoma-house-district-3.html,https://www.nytimes.com/interactive/2020/11/03/us/elections/results-oklahoma.html,https://www.nytimes.com/interactive/2020/11/03/us/elections/ap-polls-oklahoma.html,house,general,2020-11-03,FALSE,U.S. House District 3,U.S. House,H,solid-rep,3,District 3,OK,oklahoma,Oklahoma,Okla.,horizontal,"",FALSE,TRUE,winner,AP,FALSE,"",309178,79235,32,unknown,Polls close at 8 p.m. Eastern time.,Polls close in,Polls have closed.,2020-11-04T01:00:00.000Z,8 p.m.,479,479,100% reporting,100%,100,309178,edison,>98%,>98% reported,edison,republican,FALSE,2020-11-23T15:12:29Z,TRUE,56.98206,176176,R+57,Lucas +57,republican,0,0,1604456490818
40075,Kiowa,3409,850,14,14,Released as a separate subtotal as first report of the night,100,3409,>98%,>98% reported,edison,10,unknown,818,2828,581,656,194,2020-11-16T15:47:47Z,65.91376,R+66,Lucas +66,republican,OK-G-H-3-2020-11-03,ok-house-general-district-003-2020-11-03,https://www.nytimes.com/interactive/2020/11/03/us/elections/results-oklahoma-house-district-3.html,https://www.nytimes.com/interactive/2020/11/03/us/elections/results-oklahoma.html,https://www.nytimes.com/interactive/2020/11/03/us/elections/ap-polls-oklahoma.html,house,general,2020-11-03,FALSE,U.S. House District 3,U.S. House,H,solid-rep,3,District 3,OK,oklahoma,Oklahoma,Okla.,horizontal,"",FALSE,TRUE,winner,AP,FALSE,"",309178,79235,32,unknown,Polls close at 8 p.m. Eastern time.,Polls close in,Polls have closed.,2020-11-04T01:00:00.000Z,8 p.m.,479,479,100% reporting,100%,100,309178,edison,>98%,>98% reported,edison,republican,FALSE,2020-11-23T15:12:29Z,TRUE,56.98206,176176,R+57,Lucas +57,republican,0,0,1604456490818
40081,Lincoln,14748,3000,21,21,Released as a separate subtotal as first report of the night,100,14748,>98%,>98% reported,edison,10,all,2651,12215,2533,2190,810,2020-11-16T15:47:49Z,65.64958,R+66,Lucas +66,republican,OK-G-H-3-2020-11-03,ok-house-general-district-003-2020-11-03,https://www.nytimes.com/interactive/2020/11/03/us/elections/results-oklahoma-house-district-3.html,https://www.nytimes.com/interactive/2020/11/03/us/elections/results-oklahoma.html,https://www.nytimes.com/interactive/2020/11/03/us/elections/ap-polls-oklahoma.html,house,general,2020-11-03,FALSE,U.S. House District 3,U.S. House,H,solid-rep,3,District 3,OK,oklahoma,Oklahoma,Okla.,horizontal,"",FALSE,TRUE,winner,AP,FALSE,"",309178,79235,32,unknown,Polls close at 8 p.m. Eastern time.,Polls close in,Polls have closed.,2020-11-04T01:00:00.000Z,8 p.m.,479,479,100% reporting,100%,100,309178,edison,>98%,>98% reported,edison,republican,FALSE,2020-11-23T15:12:29Z,TRUE,56.98206,176176,R+57,Lucas +57,republican,0,0,1604456490818
40083,Logan,21350,6658,22,22,Released as a separate subtotal as first report of the night,100,21350,>98%,>98% reported,edison,10,unknown,5138,16349,5001,4344,2314,2020-11-16T15:47:49Z,53.15222,R+53,Lucas +53,republican,OK-G-H-3-2020-11-03,ok-house-general-district-003-2020-11-03,https://www.nytimes.com/interactive/2020/11/03/us/elections/results-oklahoma-house-district-3.html,https://www.nytimes.com/interactive/2020/11/03/us/elections/results-oklahoma.html,https://www.nytimes.com/interactive/2020/11/03/us/elections/ap-polls-oklahoma.html,house,general,2020-11-03,FALSE,U.S. House District 3,U.S. House,H,solid-rep,3,District 3,OK,oklahoma,Oklahoma,Okla.,horizontal,"",FALSE,TRUE,winner,AP,FALSE,"",309178,79235,32,unknown,Polls close at 8 p.m. Eastern time.,Polls close in,Polls have closed.,2020-11-04T01:00:00.000Z,8 p.m.,479,479,100% reporting,100%,100,309178,edison,>98%,>98% reported,edison,republican,FALSE,2020-11-23T15:12:29Z,TRUE,56.98206,176176,R+57,Lucas +57,republican,0,0,1604456490818
40093,Major,3451,935,8,8,Released as a separate subtotal as first report of the night,100,3451,>98%,>98% reported,edison,10,unknown,987,3160,291,807,128,2020-11-16T15:47:50Z,83.13532,R+83,Lucas +83,republican,OK-G-H-3-2020-11-03,ok-house-general-district-003-2020-11-03,https://www.nytimes.com/interactive/2020/11/03/us/elections/results-oklahoma-house-district-3.html,https://www.nytimes.com/interactive/2020/11/03/us/elections/results-oklahoma.html,https://www.nytimes.com/interactive/2020/11/03/us/elections/ap-polls-oklahoma.html,house,general,2020-11-03,FALSE,U.S. House District 3,U.S. House,H,solid-rep,3,District 3,OK,oklahoma,Oklahoma,Okla.,horizontal,"",FALSE,TRUE,winner,AP,FALSE,"",309178,79235,32,unknown,Polls close at 8 p.m. Eastern time.,Polls close in,Polls have closed.,2020-11-04T01:00:00.000Z,8 p.m.,479,479,100% reporting,100%,100,309178,edison,>98%,>98% reported,edison,republican,FALSE,2020-11-23T15:12:29Z,TRUE,56.98206,176176,R+57,Lucas +57,republican,0,0,1604456490818
40103,Noble,4911,1345,12,12,Released as a separate subtotal as first report of the night,100,4911,>98%,>98% reported,edison,10,unknown,1789,4047,864,1030,315,2020-11-16T15:47:50Z,64.81368,R+65,Lucas +65,republican,OK-G-H-3-2020-11-03,ok-house-general-district-003-2020-11-03,https://www.nytimes.com/interactive/2020/11/03/us/elections/results-oklahoma-house-district-3.html,https://www.nytimes.com/interactive/2020/11/03/us/elections/results-oklahoma.html,https://www.nytimes.com/interactive/2020/11/03/us/elections/ap-polls-oklahoma.html,house,general,2020-11-03,FALSE,U.S. House District 3,U.S. House,H,solid-rep,3,District 3,OK,oklahoma,Oklahoma,Okla.,horizontal,"",FALSE,TRUE,winner,AP,FALSE,"",309178,79235,32,unknown,Polls close at 8 p.m. Eastern time.,Polls close in,Polls have closed.,2020-11-04T01:00:00.000Z,8 p.m.,479,479,100% reporting,100%,100,309178,edison,>98%,>98% reported,edison,republican,FALSE,2020-11-23T15:12:29Z,TRUE,56.98206,176176,R+57,Lucas +57,republican,0,0,1604456490818
40113,Osage,20350,6423,28,28,Released as a separate subtotal as first report of the night,100,20350,>98%,>98% reported,edison,10,all,2789,14461,5889,3788,2635,2020-11-16T15:47:51Z,42.12285,R+42,Lucas +42,republican,OK-G-H-3-2020-11-03,ok-house-general-district-003-2020-11-03,https://www.nytimes.com/interactive/2020/11/03/us/elections/results-oklahoma-house-district-3.html,https://www.nytimes.com/interactive/2020/11/03/us/elections/results-oklahoma.html,https://www.nytimes.com/interactive/2020/11/03/us/elections/ap-polls-oklahoma.html,house,general,2020-11-03,FALSE,U.S. House District 3,U.S. House,H,solid-rep,3,District 3,OK,oklahoma,Oklahoma,Okla.,horizontal,"",FALSE,TRUE,winner,AP,FALSE,"",309178,79235,32,unknown,Polls close at 8 p.m. Eastern time.,Polls close in,Polls have closed.,2020-11-04T01:00:00.000Z,8 p.m.,479,479,100% reporting,100%,100,309178,edison,>98%,>98% reported,edison,republican,FALSE,2020-11-23T15:12:29Z,TRUE,56.98206,176176,R+57,Lucas +57,republican,0,0,1604456490818
40117,Pawnee,6709,1352,10,10,Released as a separate subtotal as first report of the night,100,6709,>98%,>98% reported,edison,10,unknown,1203,5370,1339,925,427,2020-11-16T15:47:52Z,60.08347,R+60,Lucas +60,republican,OK-G-H-3-2020-11-03,ok-house-general-district-003-2020-11-03,https://www.nytimes.com/interactive/2020/11/03/us/elections/results-oklahoma-house-district-3.html,https://www.nytimes.com/interactive/2020/11/03/us/elections/results-oklahoma.html,https://www.nytimes.com/interactive/2020/11/03/us/elections/ap-polls-oklahoma.html,house,general,2020-11-03,FALSE,U.S. House District 3,U.S. House,H,solid-rep,3,District 3,OK,oklahoma,Oklahoma,Okla.,horizontal,"",FALSE,TRUE,winner,AP,FALSE,"",309178,79235,32,unknown,Polls close at 8 p.m. Eastern time.,Polls close in,Polls have closed.,2020-11-04T01:00:00.000Z,8 p.m.,479,479,100% reporting,100%,100,309178,edison,>98%,>98% reported,edison,republican,FALSE,2020-11-23T15:12:29Z,TRUE,56.98206,176176,R+57,Lucas +57,republican,0,0,1604456490818
40119,Payne,29403,8938,31,31,Released as a separate subtotal as first report of the night,100,29403,>98%,>98% reported,edison,10,unknown,7976,19784,9619,4355,4583,2020-11-16T15:47:52Z,34.5713,R+35,Lucas +35,republican,OK-G-H-3-2020-11-03,ok-house-general-district-003-2020-11-03,https://www.nytimes.com/interactive/2020/11/03/us/elections/results-oklahoma-house-district-3.html,https://www.nytimes.com/interactive/2020/11/03/us/elections/results-oklahoma.html,https://www.nytimes.com/interactive/2020/11/03/us/elections/ap-polls-oklahoma.html,house,general,2020-11-03,FALSE,U.S. House District 3,U.S. House,H,solid-rep,3,District 3,OK,oklahoma,Oklahoma,Okla.,horizontal,"",FALSE,TRUE,winner,AP,FALSE,"",309178,79235,32,unknown,Polls close at 8 p.m. Eastern time.,Polls close in,Polls have closed.,2020-11-04T01:00:00.000Z,8 p.m.,479,479,100% reporting,100%,100,309178,edison,>98%,>98% reported,edison,republican,FALSE,2020-11-23T15:12:29Z,TRUE,56.98206,176176,R+57,Lucas +57,republican,0,0,1604456490818
40129,Roger Mills,1834,427,9,9,Released as a separate subtotal as first report of the night,100,1834,>98%,>98% reported,edison,10,unknown,458,1664,170,383,44,2020-11-16T15:47:53Z,81.46129,R+81,Lucas +81,republican,OK-G-H-3-2020-11-03,ok-house-general-district-003-2020-11-03,https://www.nytimes.com/interactive/2020/11/03/us/elections/results-oklahoma-house-district-3.html,https://www.nytimes.com/interactive/2020/11/03/us/elections/results-oklahoma.html,https://www.nytimes.com/interactive/2020/11/03/us/elections/ap-polls-oklahoma.html,house,general,2020-11-03,FALSE,U.S. House District 3,U.S. House,H,solid-rep,3,District 3,OK,oklahoma,Oklahoma,Okla.,horizontal,"",FALSE,TRUE,winner,AP,FALSE,"",309178,79235,32,unknown,Polls close at 8 p.m. Eastern time.,Polls close in,Polls have closed.,2020-11-04T01:00:00.000Z,8 p.m.,479,479,100% reporting,100%,100,309178,edison,>98%,>98% reported,edison,republican,FALSE,2020-11-23T15:12:29Z,TRUE,56.98206,176176,R+57,Lucas +57,republican,0,0,1604456490818
40139,Texas,5492,1573,11,11,Released as a separate subtotal as first report of the night,100,5492,>98%,>98% reported,edison,10,unknown,1739,4587,905,1235,338,2020-11-16T15:47:54Z,67.04297,R+67,Lucas +67,republican,OK-G-H-3-2020-11-03,ok-house-general-district-003-2020-11-03,https://www.nytimes.com/interactive/2020/11/03/us/elections/results-oklahoma-house-district-3.html,https://www.nytimes.com/interactive/2020/11/03/us/elections/results-oklahoma.html,https://www.nytimes.com/interactive/2020/11/03/us/elections/ap-polls-oklahoma.html,house,general,2020-11-03,FALSE,U.S. House District 3,U.S. House,H,solid-rep,3,District 3,OK,oklahoma,Oklahoma,Okla.,horizontal,"",FALSE,TRUE,winner,AP,FALSE,"",309178,79235,32,unknown,Polls close at 8 p.m. Eastern time.,Polls close in,Polls have closed.,2020-11-04T01:00:00.000Z,8 p.m.,479,479,100% reporting,100%,100,309178,edison,>98%,>98% reported,edison,republican,FALSE,2020-11-23T15:12:29Z,TRUE,56.98206,176176,R+57,Lucas +57,republican,0,0,1604456490818
40149,Washita,4755,972,12,12,Released as a separate subtotal as first report of the night,100,4755,>98%,>98% reported,edison,10,unknown,954,4229,526,803,169,2020-11-16T15:47:55Z,77.87592,R+78,Lucas +78,republican,OK-G-H-3-2020-11-03,ok-house-general-district-003-2020-11-03,https://www.nytimes.com/interactive/2020/11/03/us/elections/results-oklahoma-house-district-3.html,https://www.nytimes.com/interactive/2020/11/03/us/elections/results-oklahoma.html,https://www.nytimes.com/interactive/2020/11/03/us/elections/ap-polls-oklahoma.html,house,general,2020-11-03,FALSE,U.S. House District 3,U.S. House,H,solid-rep,3,District 3,OK,oklahoma,Oklahoma,Okla.,horizontal,"",FALSE,TRUE,winner,AP,FALSE,"",309178,79235,32,unknown,Polls close at 8 p.m. Eastern time.,Polls close in,Polls have closed.,2020-11-04T01:00:00.000Z,8 p.m.,479,479,100% reporting,100%,100,309178,edison,>98%,>98% reported,edison,republican,FALSE,2020-11-23T15:12:29Z,TRUE,56.98206,176176,R+57,Lucas +57,republican,0,0,1604456490818
40151,Woods,3657,1488,6,6,Released as a separate subtotal as first report of the night,100,3657,>98%,>98% reported,edison,10,unknown,1091,3103,554,1176,312,2020-11-16T15:47:56Z,69.70194,R+70,Lucas +70,republican,OK-G-H-3-2020-11-03,ok-house-general-district-003-2020-11-03,https://www.nytimes.com/interactive/2020/11/03/us/elections/results-oklahoma-house-district-3.html,https://www.nytimes.com/interactive/2020/11/03/us/elections/results-oklahoma.html,https://www.nytimes.com/interactive/2020/11/03/us/elections/ap-polls-oklahoma.html,house,general,2020-11-03,FALSE,U.S. House District 3,U.S. House,H,solid-rep,3,District 3,OK,oklahoma,Oklahoma,Okla.,horizontal,"",FALSE,TRUE,winner,AP,FALSE,"",309178,79235,32,unknown,Polls close at 8 p.m. Eastern time.,Polls close in,Polls have closed.,2020-11-04T01:00:00.000Z,8 p.m.,479,479,100% reporting,100%,100,309178,edison,>98%,>98% reported,edison,republican,FALSE,2020-11-23T15:12:29Z,TRUE,56.98206,176176,R+57,Lucas +57,republican,0,0,1604456490818
40153,Woodward,7747,2719,15,15,Released as a separate subtotal as first report of the night,100,7747,>98%,>98% reported,edison,10,unknown,2272,6821,926,2279,440,2020-11-16T15:47:57Z,76.09397,R+76,Lucas +76,republican,OK-G-H-3-2020-11-03,ok-house-general-district-003-2020-11-03,https://www.nytimes.com/interactive/2020/11/03/us/elections/results-oklahoma-house-district-3.html,https://www.nytimes.com/interactive/2020/11/03/us/elections/results-oklahoma.html,https://www.nytimes.com/interactive/2020/11/03/us/elections/ap-polls-oklahoma.html,house,general,2020-11-03,FALSE,U.S. House District 3,U.S. House,H,solid-rep,3,District 3,OK,oklahoma,Oklahoma,Okla.,horizontal,"",FALSE,TRUE,winner,AP,FALSE,"",309178,79235,32,unknown,Polls close at 8 p.m. Eastern time.,Polls close in,Polls have closed.,2020-11-04T01:00:00.000Z,8 p.m.,479,479,100% reporting,100%,100,309178,edison,>98%,>98% reported,edison,republican,FALSE,2020-11-23T15:12:29Z,TRUE,56.98206,176176,R+57,Lucas +57,republican,0,0,1604456490818
