fips,name,votes,absentee_votes,reporting,precincts,absentee_method,eevp,tot_exp_vote,eevp_value,eevp_display,eevp_source,turnout_stage,absentee_count_progress,absentee_max_ballots,results_cheneyl,results_grey_bulll,results_brubakerr,results_haggitj,results_absentee_cheneyl,results_absentee_grey_bulll,results_absentee_brubakerr,results_absentee_haggitj,last_updated,leader_margin_value,leader_margin_display,leader_margin_name_display,leader_party_id,race_id_race,race_slug_race,url_race,state_page_url_race,ap_polls_page_race,race_type_race,election_type_race,election_date_race,runoff_race,race_name_race,office_race,officeid_race,race_rating_race,seat_race,seat_name_race,state_id_race,state_slug_race,state_name_race,state_nyt_abbrev_race,state_shape_race,party_id_race,uncontested_race,report_race,result_race,result_source_race,gain_race,lost_seat_race,votes_race,absentee_votes_race,absentee_counties_race,absentee_count_progress_race,poll_display_race,poll_countdown_display_race,poll_waiting_display_race,poll_time_race,poll_time_short_race,precincts_reporting_race,precincts_total_race,reporting_display_race,reporting_value_race,eevp_race,tot_exp_vote_race,eevp_source_race,eevp_value_race,eevp_display_race,county_data_source_race,incumbent_party_race,no_forecast_race,last_updated_race,has_incumbent_race,leader_margin_value_race,leader_margin_votes_race,leader_margin_display_race,leader_margin_name_display_race,leader_party_id_race,expectations_text_race,expectations_text_short_race,absentee_ballot_deadline_race,absentee_postmark_deadline_race,winner_called_timestamp_race
56001,Albany,18198,0,14,14,Released as a separate subtotal as first report of the night,100,18198,>98%,>98% reported,edison,10,unknown,7554,8629,8440,737,392,0,0,0,0,2020-11-16T15:47:45Z,1.03858,R+1.0,Cheney +1.0,republican,WY-G-H-1-2020-11-03,wy-house-general-district-001-2020-11-03,https://www.nytimes.com/interactive/2020/11/03/us/elections/results-wyoming-house-district-at-large.html,https://www.nytimes.com/interactive/2020/11/03/us/elections/results-wyoming.html,https://www.nytimes.com/interactive/2020/11/03/us/elections/ap-polls-wyoming.html,house,general,2020-11-03,FALSE,U.S. House At-Large,U.S. House,H,solid-rep,1,At-Large,WY,wyoming,Wyoming,Wyo.,horizontal,"",FALSE,TRUE,winner,AP,FALSE,"",270367,44835,6,unknown,Polls close at 9 p.m. Eastern time.,Polls close in,Polls have closed.,2020-11-04T02:00:00.000Z,9 p.m.,483,483,100% reporting,100%,100,270367,edison,>98%,>98% reported,edison,republican,FALSE,2020-11-23T15:16:08Z,TRUE,44.07195,119156,R+44,Cheney +44,republican,"","",0,0,1604455373884
56003,Big Horn,5634,0,13,13,Merged into voters' home precincts and released with cumulative results,100,5634,>98%,>98% reported,edison,10,unknown,1650,4587,724,143,180,0,0,0,0,2020-11-16T15:47:46Z,68.56585,R+69,Cheney +69,republican,WY-G-H-1-2020-11-03,wy-house-general-district-001-2020-11-03,https://www.nytimes.com/interactive/2020/11/03/us/elections/results-wyoming-house-district-at-large.html,https://www.nytimes.com/interactive/2020/11/03/us/elections/results-wyoming.html,https://www.nytimes.com/interactive/2020/11/03/us/elections/ap-polls-wyoming.html,house,general,2020-11-03,FALSE,U.S. House At-Large,U.S. House,H,solid-rep,1,At-Large,WY,wyoming,Wyoming,Wyo.,horizontal,"",FALSE,TRUE,winner,AP,FALSE,"",270367,44835,6,unknown,Polls close at 9 p.m. Eastern time.,Polls close in,Polls have closed.,2020-11-04T02:00:00.000Z,9 p.m.,483,483,100% reporting,100%,100,270367,edison,>98%,>98% reported,edison,republican,FALSE,2020-11-23T15:16:08Z,TRUE,44.07195,119156,R+44,Cheney +44,republican,"","",0,0,1604455373884
56005,Campbell,18874,18872,37,37,Merged into voters' home precincts and released with cumulative results,100,18874,>98%,>98% reported,edison,10,unknown,8522,15732,1713,735,694,15730,1713,735,694,2020-11-16T15:47:46Z,74.27678,R+74,Cheney +74,republican,WY-G-H-1-2020-11-03,wy-house-general-district-001-2020-11-03,https://www.nytimes.com/interactive/2020/11/03/us/elections/results-wyoming-house-district-at-large.html,https://www.nytimes.com/interactive/2020/11/03/us/elections/results-wyoming.html,https://www.nytimes.com/interactive/2020/11/03/us/elections/ap-polls-wyoming.html,house,general,2020-11-03,FALSE,U.S. House At-Large,U.S. House,H,solid-rep,1,At-Large,WY,wyoming,Wyoming,Wyo.,horizontal,"",FALSE,TRUE,winner,AP,FALSE,"",270367,44835,6,unknown,Polls close at 9 p.m. Eastern time.,Polls close in,Polls have closed.,2020-11-04T02:00:00.000Z,9 p.m.,483,483,100% reporting,100%,100,270367,edison,>98%,>98% reported,edison,republican,FALSE,2020-11-23T15:16:08Z,TRUE,44.07195,119156,R+44,Cheney +44,republican,"","",0,0,1604455373884
56007,Carbon,6498,2797,19,19,Merged into voters' home precincts and released with cumulative results,100,6498,>98%,>98% reported,edison,10,unknown,2373,4644,1337,313,204,1741,879,110,67,2020-11-16T15:47:47Z,50.89258,R+51,Cheney +51,republican,WY-G-H-1-2020-11-03,wy-house-general-district-001-2020-11-03,https://www.nytimes.com/interactive/2020/11/03/us/elections/results-wyoming-house-district-at-large.html,https://www.nytimes.com/interactive/2020/11/03/us/elections/results-wyoming.html,https://www.nytimes.com/interactive/2020/11/03/us/elections/ap-polls-wyoming.html,house,general,2020-11-03,FALSE,U.S. House At-Large,U.S. House,H,solid-rep,1,At-Large,WY,wyoming,Wyoming,Wyo.,horizontal,"",FALSE,TRUE,winner,AP,FALSE,"",270367,44835,6,unknown,Polls close at 9 p.m. Eastern time.,Polls close in,Polls have closed.,2020-11-04T02:00:00.000Z,9 p.m.,483,483,100% reporting,100%,100,270367,edison,>98%,>98% reported,edison,republican,FALSE,2020-11-23T15:16:08Z,TRUE,44.07195,119156,R+44,Cheney +44,republican,"","",0,0,1604455373884
56009,Converse,6750,0,19,19,Merged into voters' home precincts and released with cumulative results,100,6750,>98%,>98% reported,edison,10,unknown,2742,5418,785,254,293,0,0,0,0,2020-11-16T15:47:48Z,68.63704,R+69,Cheney +69,republican,WY-G-H-1-2020-11-03,wy-house-general-district-001-2020-11-03,https://www.nytimes.com/interactive/2020/11/03/us/elections/results-wyoming-house-district-at-large.html,https://www.nytimes.com/interactive/2020/11/03/us/elections/results-wyoming.html,https://www.nytimes.com/interactive/2020/11/03/us/elections/ap-polls-wyoming.html,house,general,2020-11-03,FALSE,U.S. House At-Large,U.S. House,H,solid-rep,1,At-Large,WY,wyoming,Wyoming,Wyo.,horizontal,"",FALSE,TRUE,winner,AP,FALSE,"",270367,44835,6,unknown,Polls close at 9 p.m. Eastern time.,Polls close in,Polls have closed.,2020-11-04T02:00:00.000Z,9 p.m.,483,483,100% reporting,100%,100,270367,edison,>98%,>98% reported,edison,republican,FALSE,2020-11-23T15:16:08Z,TRUE,44.07195,119156,R+44,Cheney +44,republican,"","",0,0,1604455373884
56011,Crook,4037,0,17,17,Merged into voters' home precincts and released with cumulative results,100,4037,>98%,>98% reported,edison,10,some,1090,3442,337,117,141,0,0,0,0,2020-11-16T15:47:49Z,76.91355,R+77,Cheney +77,republican,WY-G-H-1-2020-11-03,wy-house-general-district-001-2020-11-03,https://www.nytimes.com/interactive/2020/11/03/us/elections/results-wyoming-house-district-at-large.html,https://www.nytimes.com/interactive/2020/11/03/us/elections/results-wyoming.html,https://www.nytimes.com/interactive/2020/11/03/us/elections/ap-polls-wyoming.html,house,general,2020-11-03,FALSE,U.S. House At-Large,U.S. House,H,solid-rep,1,At-Large,WY,wyoming,Wyoming,Wyo.,horizontal,"",FALSE,TRUE,winner,AP,FALSE,"",270367,44835,6,unknown,Polls close at 9 p.m. Eastern time.,Polls close in,Polls have closed.,2020-11-04T02:00:00.000Z,9 p.m.,483,483,100% reporting,100%,100,270367,edison,>98%,>98% reported,edison,republican,FALSE,2020-11-23T15:16:08Z,TRUE,44.07195,119156,R+44,Cheney +44,republican,"","",0,0,1604455373884
56013,Fremont,17778,0,33,33,Merged into voters' home precincts and released with cumulative results,100,17778,>98%,>98% reported,edison,10,unknown,5466,11505,5227,711,335,0,0,0,0,2020-11-16T15:47:49Z,35.31331,R+35,Cheney +35,republican,WY-G-H-1-2020-11-03,wy-house-general-district-001-2020-11-03,https://www.nytimes.com/interactive/2020/11/03/us/elections/results-wyoming-house-district-at-large.html,https://www.nytimes.com/interactive/2020/11/03/us/elections/results-wyoming.html,https://www.nytimes.com/interactive/2020/11/03/us/elections/ap-polls-wyoming.html,house,general,2020-11-03,FALSE,U.S. House At-Large,U.S. House,H,solid-rep,1,At-Large,WY,wyoming,Wyoming,Wyo.,horizontal,"",FALSE,TRUE,winner,AP,FALSE,"",270367,44835,6,unknown,Polls close at 9 p.m. Eastern time.,Polls close in,Polls have closed.,2020-11-04T02:00:00.000Z,9 p.m.,483,483,100% reporting,100%,100,270367,edison,>98%,>98% reported,edison,republican,FALSE,2020-11-23T15:16:08Z,TRUE,44.07195,119156,R+44,Cheney +44,republican,"","",0,0,1604455373884
56015,Goshen,6128,0,25,25,Merged into voters' home precincts and released with cumulative results,100,6128,>98%,>98% reported,edison,10,unknown,1994,4722,1037,159,210,0,0,0,0,2020-11-16T15:47:49Z,60.13381,R+60,Cheney +60,republican,WY-G-H-1-2020-11-03,wy-house-general-district-001-2020-11-03,https://www.nytimes.com/interactive/2020/11/03/us/elections/results-wyoming-house-district-at-large.html,https://www.nytimes.com/interactive/2020/11/03/us/elections/results-wyoming.html,https://www.nytimes.com/interactive/2020/11/03/us/elections/ap-polls-wyoming.html,house,general,2020-11-03,FALSE,U.S. House At-Large,U.S. House,H,solid-rep,1,At-Large,WY,wyoming,Wyoming,Wyo.,horizontal,"",FALSE,TRUE,winner,AP,FALSE,"",270367,44835,6,unknown,Polls close at 9 p.m. Eastern time.,Polls close in,Polls have closed.,2020-11-04T02:00:00.000Z,9 p.m.,483,483,100% reporting,100%,100,270367,edison,>98%,>98% reported,edison,republican,FALSE,2020-11-23T15:16:08Z,TRUE,44.07195,119156,R+44,Cheney +44,republican,"","",0,0,1604455373884
56017,Hot Springs,2520,0,4,4,Merged into voters' home precincts and released with cumulative results,100,2520,>98%,>98% reported,edison,10,unknown,862,1915,424,105,76,0,0,0,0,2020-11-16T15:47:50Z,59.16667,R+59,Cheney +59,republican,WY-G-H-1-2020-11-03,wy-house-general-district-001-2020-11-03,https://www.nytimes.com/interactive/2020/11/03/us/elections/results-wyoming-house-district-at-large.html,https://www.nytimes.com/interactive/2020/11/03/us/elections/results-wyoming.html,https://www.nytimes.com/interactive/2020/11/03/us/elections/ap-polls-wyoming.html,house,general,2020-11-03,FALSE,U.S. House At-Large,U.S. House,H,solid-rep,1,At-Large,WY,wyoming,Wyoming,Wyo.,horizontal,"",FALSE,TRUE,winner,AP,FALSE,"",270367,44835,6,unknown,Polls close at 9 p.m. Eastern time.,Polls close in,Polls have closed.,2020-11-04T02:00:00.000Z,9 p.m.,483,483,100% reporting,100%,100,270367,edison,>98%,>98% reported,edison,republican,FALSE,2020-11-23T15:16:08Z,TRUE,44.07195,119156,R+44,Cheney +44,republican,"","",0,0,1604455373884
56019,Johnson,4800,0,16,16,Merged into voters' home precincts and released with cumulative results,100,4800,>98%,>98% reported,edison,10,some,1765,3715,792,186,107,0,0,0,0,2020-11-16T15:47:50Z,60.89583,R+61,Cheney +61,republican,WY-G-H-1-2020-11-03,wy-house-general-district-001-2020-11-03,https://www.nytimes.com/interactive/2020/11/03/us/elections/results-wyoming-house-district-at-large.html,https://www.nytimes.com/interactive/2020/11/03/us/elections/results-wyoming.html,https://www.nytimes.com/interactive/2020/11/03/us/elections/ap-polls-wyoming.html,house,general,2020-11-03,FALSE,U.S. House At-Large,U.S. House,H,solid-rep,1,At-Large,WY,wyoming,Wyoming,Wyo.,horizontal,"",FALSE,TRUE,winner,AP,FALSE,"",270367,44835,6,unknown,Polls close at 9 p.m. Eastern time.,Polls close in,Polls have closed.,2020-11-04T02:00:00.000Z,9 p.m.,483,483,100% reporting,100%,100,270367,edison,>98%,>98% reported,edison,republican,FALSE,2020-11-23T15:16:08Z,TRUE,44.07195,119156,R+44,Cheney +44,republican,"","",0,0,1604455373884
56021,Laramie,44492,0,61,61,Merged into voters' home precincts and released with cumulative results,100,44492,>98%,>98% reported,edison,10,unknown,24234,27641,13863,1790,1198,0,0,0,0,2020-11-16T15:47:51Z,30.96736,R+31,Cheney +31,republican,WY-G-H-1-2020-11-03,wy-house-general-district-001-2020-11-03,https://www.nytimes.com/interactive/2020/11/03/us/elections/results-wyoming-house-district-at-large.html,https://www.nytimes.com/interactive/2020/11/03/us/elections/results-wyoming.html,https://www.nytimes.com/interactive/2020/11/03/us/elections/ap-polls-wyoming.html,house,general,2020-11-03,FALSE,U.S. House At-Large,U.S. House,H,solid-rep,1,At-Large,WY,wyoming,Wyoming,Wyo.,horizontal,"",FALSE,TRUE,winner,AP,FALSE,"",270367,44835,6,unknown,Polls close at 9 p.m. Eastern time.,Polls close in,Polls have closed.,2020-11-04T02:00:00.000Z,9 p.m.,483,483,100% reporting,100%,100,270367,edison,>98%,>98% reported,edison,republican,FALSE,2020-11-23T15:16:08Z,TRUE,44.07195,119156,R+44,Cheney +44,republican,"","",0,0,1604455373884
56023,Lincoln,10274,0,15,15,Merged into voters' home precincts and released with cumulative results,100,10274,>98%,>98% reported,edison,10,some,3246,8324,1429,262,259,0,0,0,0,2020-11-16T15:47:51Z,67.11115,R+67,Cheney +67,republican,WY-G-H-1-2020-11-03,wy-house-general-district-001-2020-11-03,https://www.nytimes.com/interactive/2020/11/03/us/elections/results-wyoming-house-district-at-large.html,https://www.nytimes.com/interactive/2020/11/03/us/elections/results-wyoming.html,https://www.nytimes.com/interactive/2020/11/03/us/elections/ap-polls-wyoming.html,house,general,2020-11-03,FALSE,U.S. House At-Large,U.S. House,H,solid-rep,1,At-Large,WY,wyoming,Wyoming,Wyo.,horizontal,"",FALSE,TRUE,winner,AP,FALSE,"",270367,44835,6,unknown,Polls close at 9 p.m. Eastern time.,Polls close in,Polls have closed.,2020-11-04T02:00:00.000Z,9 p.m.,483,483,100% reporting,100%,100,270367,edison,>98%,>98% reported,edison,republican,FALSE,2020-11-23T15:16:08Z,TRUE,44.07195,119156,R+44,Cheney +44,republican,"","",0,0,1604455373884
56025,Natrona,34281,17039,46,46,Released as a precinct as first report of the night,100,34281,>98%,>98% reported,edison,10,all,11960,24214,7454,1652,961,10983,5088,648,320,2020-11-16T15:47:52Z,48.89006,R+49,Cheney +49,republican,WY-G-H-1-2020-11-03,wy-house-general-district-001-2020-11-03,https://www.nytimes.com/interactive/2020/11/03/us/elections/results-wyoming-house-district-at-large.html,https://www.nytimes.com/interactive/2020/11/03/us/elections/results-wyoming.html,https://www.nytimes.com/interactive/2020/11/03/us/elections/ap-polls-wyoming.html,house,general,2020-11-03,FALSE,U.S. House At-Large,U.S. House,H,solid-rep,1,At-Large,WY,wyoming,Wyoming,Wyo.,horizontal,"",FALSE,TRUE,winner,AP,FALSE,"",270367,44835,6,unknown,Polls close at 9 p.m. Eastern time.,Polls close in,Polls have closed.,2020-11-04T02:00:00.000Z,9 p.m.,483,483,100% reporting,100%,100,270367,edison,>98%,>98% reported,edison,republican,FALSE,2020-11-23T15:16:08Z,TRUE,44.07195,119156,R+44,Cheney +44,republican,"","",0,0,1604455373884
56027,Niobrara,1287,376,6,6,None,100,1287,>98%,>98% reported,edison,10,some,480,1053,145,31,58,281,74,4,17,2020-11-16T15:47:53Z,70.55167,R+71,Cheney +71,republican,WY-G-H-1-2020-11-03,wy-house-general-district-001-2020-11-03,https://www.nytimes.com/interactive/2020/11/03/us/elections/results-wyoming-house-district-at-large.html,https://www.nytimes.com/interactive/2020/11/03/us/elections/results-wyoming.html,https://www.nytimes.com/interactive/2020/11/03/us/elections/ap-polls-wyoming.html,house,general,2020-11-03,FALSE,U.S. House At-Large,U.S. House,H,solid-rep,1,At-Large,WY,wyoming,Wyoming,Wyo.,horizontal,"",FALSE,TRUE,winner,AP,FALSE,"",270367,44835,6,unknown,Polls close at 9 p.m. Eastern time.,Polls close in,Polls have closed.,2020-11-04T02:00:00.000Z,9 p.m.,483,483,100% reporting,100%,100,270367,edison,>98%,>98% reported,edison,republican,FALSE,2020-11-23T15:16:08Z,TRUE,44.07195,119156,R+44,Cheney +44,republican,"","",0,0,1604455373884
56029,Park,16264,0,30,30,Merged into voters' home precincts and released with cumulative results,100,16264,>98%,>98% reported,edison,10,all,6325,12374,2874,511,505,0,0,0,0,2020-11-16T15:47:53Z,58.41121,R+58,Cheney +58,republican,WY-G-H-1-2020-11-03,wy-house-general-district-001-2020-11-03,https://www.nytimes.com/interactive/2020/11/03/us/elections/results-wyoming-house-district-at-large.html,https://www.nytimes.com/interactive/2020/11/03/us/elections/results-wyoming.html,https://www.nytimes.com/interactive/2020/11/03/us/elections/ap-polls-wyoming.html,house,general,2020-11-03,FALSE,U.S. House At-Large,U.S. House,H,solid-rep,1,At-Large,WY,wyoming,Wyoming,Wyo.,horizontal,"",FALSE,TRUE,winner,AP,FALSE,"",270367,44835,6,unknown,Polls close at 9 p.m. Eastern time.,Polls close in,Polls have closed.,2020-11-04T02:00:00.000Z,9 p.m.,483,483,100% reporting,100%,100,270367,edison,>98%,>98% reported,edison,republican,FALSE,2020-11-23T15:16:08Z,TRUE,44.07195,119156,R+44,Cheney +44,republican,"","",0,0,1604455373884
56031,Platte,4814,1945,13,13,Merged into voters' home precincts and released with cumulative results,100,4814,>98%,>98% reported,edison,10,all,1712,3589,868,142,215,1276,548,45,76,2020-11-16T15:47:55Z,56.52264,R+57,Cheney +57,republican,WY-G-H-1-2020-11-03,wy-house-general-district-001-2020-11-03,https://www.nytimes.com/interactive/2020/11/03/us/elections/results-wyoming-house-district-at-large.html,https://www.nytimes.com/interactive/2020/11/03/us/elections/results-wyoming.html,https://www.nytimes.com/interactive/2020/11/03/us/elections/ap-polls-wyoming.html,house,general,2020-11-03,FALSE,U.S. House At-Large,U.S. House,H,solid-rep,1,At-Large,WY,wyoming,Wyoming,Wyo.,horizontal,"",FALSE,TRUE,winner,AP,FALSE,"",270367,44835,6,unknown,Polls close at 9 p.m. Eastern time.,Polls close in,Polls have closed.,2020-11-04T02:00:00.000Z,9 p.m.,483,483,100% reporting,100%,100,270367,edison,>98%,>98% reported,edison,republican,FALSE,2020-11-23T15:16:08Z,TRUE,44.07195,119156,R+44,Cheney +44,republican,"","",0,0,1604455373884
56033,Sheridan,15999,0,29,29,None,100,15999,>98%,>98% reported,edison,10,all,5912,11588,3460,578,373,0,0,0,0,2020-11-16T15:47:56Z,50.80318,R+51,Cheney +51,republican,WY-G-H-1-2020-11-03,wy-house-general-district-001-2020-11-03,https://www.nytimes.com/interactive/2020/11/03/us/elections/results-wyoming-house-district-at-large.html,https://www.nytimes.com/interactive/2020/11/03/us/elections/results-wyoming.html,https://www.nytimes.com/interactive/2020/11/03/us/elections/ap-polls-wyoming.html,house,general,2020-11-03,FALSE,U.S. House At-Large,U.S. House,H,solid-rep,1,At-Large,WY,wyoming,Wyoming,Wyo.,horizontal,"",FALSE,TRUE,winner,AP,FALSE,"",270367,44835,6,unknown,Polls close at 9 p.m. Eastern time.,Polls close in,Polls have closed.,2020-11-04T02:00:00.000Z,9 p.m.,483,483,100% reporting,100%,100,270367,edison,>98%,>98% reported,edison,republican,FALSE,2020-11-23T15:16:08Z,TRUE,44.07195,119156,R+44,Cheney +44,republican,"","",0,0,1604455373884
56035,Sublette,4843,0,7,7,Merged into voters' home precincts and released with cumulative results,100,4843,>98%,>98% reported,edison,10,some,1936,3729,837,128,149,0,0,0,0,2020-11-16T15:47:57Z,59.71505,R+60,Cheney +60,republican,WY-G-H-1-2020-11-03,wy-house-general-district-001-2020-11-03,https://www.nytimes.com/interactive/2020/11/03/us/elections/results-wyoming-house-district-at-large.html,https://www.nytimes.com/interactive/2020/11/03/us/elections/results-wyoming.html,https://www.nytimes.com/interactive/2020/11/03/us/elections/ap-polls-wyoming.html,house,general,2020-11-03,FALSE,U.S. House At-Large,U.S. House,H,solid-rep,1,At-Large,WY,wyoming,Wyoming,Wyo.,horizontal,"",FALSE,TRUE,winner,AP,FALSE,"",270367,44835,6,unknown,Polls close at 9 p.m. Eastern time.,Polls close in,Polls have closed.,2020-11-04T02:00:00.000Z,9 p.m.,483,483,100% reporting,100%,100,270367,edison,>98%,>98% reported,edison,republican,FALSE,2020-11-23T15:16:08Z,TRUE,44.07195,119156,R+44,Cheney +44,republican,"","",0,0,1604455373884
56037,Sweetwater,16121,0,37,37,Merged into voters' home precincts and released with cumulative results,100,16121,>98%,>98% reported,edison,10,all,4187,11097,3680,733,611,0,0,0,0,2020-11-16T15:47:57Z,46.00831,R+46,Cheney +46,republican,WY-G-H-1-2020-11-03,wy-house-general-district-001-2020-11-03,https://www.nytimes.com/interactive/2020/11/03/us/elections/results-wyoming-house-district-at-large.html,https://www.nytimes.com/interactive/2020/11/03/us/elections/results-wyoming.html,https://www.nytimes.com/interactive/2020/11/03/us/elections/ap-polls-wyoming.html,house,general,2020-11-03,FALSE,U.S. House At-Large,U.S. House,H,solid-rep,1,At-Large,WY,wyoming,Wyoming,Wyo.,horizontal,"",FALSE,TRUE,winner,AP,FALSE,"",270367,44835,6,unknown,Polls close at 9 p.m. Eastern time.,Polls close in,Polls have closed.,2020-11-04T02:00:00.000Z,9 p.m.,483,483,100% reporting,100%,100,270367,edison,>98%,>98% reported,edison,republican,FALSE,2020-11-23T15:16:08Z,TRUE,44.07195,119156,R+44,Cheney +44,republican,"","",0,0,1604455373884
56039,Teton,14337,0,19,19,Released as a separate subtotal as first report of the night,100,14337,>98%,>98% reported,edison,10,unknown,7958,5210,8628,383,116,0,0,0,0,2020-11-16T15:47:58Z,23.84041,D+24,Grey Bull +24,democrat,WY-G-H-1-2020-11-03,wy-house-general-district-001-2020-11-03,https://www.nytimes.com/interactive/2020/11/03/us/elections/results-wyoming-house-district-at-large.html,https://www.nytimes.com/interactive/2020/11/03/us/elections/results-wyoming.html,https://www.nytimes.com/interactive/2020/11/03/us/elections/ap-polls-wyoming.html,house,general,2020-11-03,FALSE,U.S. House At-Large,U.S. House,H,solid-rep,1,At-Large,WY,wyoming,Wyoming,Wyo.,horizontal,"",FALSE,TRUE,winner,AP,FALSE,"",270367,44835,6,unknown,Polls close at 9 p.m. Eastern time.,Polls close in,Polls have closed.,2020-11-04T02:00:00.000Z,9 p.m.,483,483,100% reporting,100%,100,270367,edison,>98%,>98% reported,edison,republican,FALSE,2020-11-23T15:16:08Z,TRUE,44.07195,119156,R+44,Cheney +44,republican,"","",0,0,1604455373884
56041,Uinta,9093,3806,10,10,Merged into voters' home precincts and released with cumulative results,100,9093,>98%,>98% reported,edison,10,some,3219,6781,1521,269,522,2612,951,93,150,2020-11-16T15:47:59Z,57.8467,R+58,Cheney +58,republican,WY-G-H-1-2020-11-03,wy-house-general-district-001-2020-11-03,https://www.nytimes.com/interactive/2020/11/03/us/elections/results-wyoming-house-district-at-large.html,https://www.nytimes.com/interactive/2020/11/03/us/elections/results-wyoming.html,https://www.nytimes.com/interactive/2020/11/03/us/elections/ap-polls-wyoming.html,house,general,2020-11-03,FALSE,U.S. House At-Large,U.S. House,H,solid-rep,1,At-Large,WY,wyoming,Wyoming,Wyo.,horizontal,"",FALSE,TRUE,winner,AP,FALSE,"",270367,44835,6,unknown,Polls close at 9 p.m. Eastern time.,Polls close in,Polls have closed.,2020-11-04T02:00:00.000Z,9 p.m.,483,483,100% reporting,100%,100,270367,edison,>98%,>98% reported,edison,republican,FALSE,2020-11-23T15:16:08Z,TRUE,44.07195,119156,R+44,Cheney +44,republican,"","",0,0,1604455373884
56043,Washakie,3931,0,5,5,Merged into voters' home precincts and released with cumulative results,100,3931,>98%,>98% reported,edison,10,unknown,1323,3063,599,143,126,0,0,0,0,2020-11-16T15:47:59Z,62.68125,R+63,Cheney +63,republican,WY-G-H-1-2020-11-03,wy-house-general-district-001-2020-11-03,https://www.nytimes.com/interactive/2020/11/03/us/elections/results-wyoming-house-district-at-large.html,https://www.nytimes.com/interactive/2020/11/03/us/elections/results-wyoming.html,https://www.nytimes.com/interactive/2020/11/03/us/elections/ap-polls-wyoming.html,house,general,2020-11-03,FALSE,U.S. House At-Large,U.S. House,H,solid-rep,1,At-Large,WY,wyoming,Wyoming,Wyo.,horizontal,"",FALSE,TRUE,winner,AP,FALSE,"",270367,44835,6,unknown,Polls close at 9 p.m. Eastern time.,Polls close in,Polls have closed.,2020-11-04T02:00:00.000Z,9 p.m.,483,483,100% reporting,100%,100,270367,edison,>98%,>98% reported,edison,republican,FALSE,2020-11-23T15:16:08Z,TRUE,44.07195,119156,R+44,Cheney +44,republican,"","",0,0,1604455373884
56045,Weston,3414,0,8,8,Merged into voters' home precincts and released with cumulative results,100,3414,>98%,>98% reported,edison,10,some,1131,2760,402,72,180,0,0,0,0,2020-11-16T15:48:00Z,69.06854,R+69,Cheney +69,republican,WY-G-H-1-2020-11-03,wy-house-general-district-001-2020-11-03,https://www.nytimes.com/interactive/2020/11/03/us/elections/results-wyoming-house-district-at-large.html,https://www.nytimes.com/interactive/2020/11/03/us/elections/results-wyoming.html,https://www.nytimes.com/interactive/2020/11/03/us/elections/ap-polls-wyoming.html,house,general,2020-11-03,FALSE,U.S. House At-Large,U.S. House,H,solid-rep,1,At-Large,WY,wyoming,Wyoming,Wyo.,horizontal,"",FALSE,TRUE,winner,AP,FALSE,"",270367,44835,6,unknown,Polls close at 9 p.m. Eastern time.,Polls close in,Polls have closed.,2020-11-04T02:00:00.000Z,9 p.m.,483,483,100% reporting,100%,100,270367,edison,>98%,>98% reported,edison,republican,FALSE,2020-11-23T15:16:08Z,TRUE,44.07195,119156,R+44,Cheney +44,republican,"","",0,0,1604455373884
