fips,name,votes,absentee_votes,reporting,precincts,absentee_method,eevp,tot_exp_vote,eevp_value,eevp_display,eevp_source,turnout_stage,absentee_count_progress,absentee_outstanding,absentee_max_ballots,provisional_outstanding,provisional_count_progress,results_bidenj,results_trumpd,results_jorgensenj,results_hawkinsh,results_write_ins,results_carrollb,results_la_rivag,results_absentee_bidenj,results_absentee_trumpd,results_absentee_jorgensenj,results_absentee_hawkinsh,results_absentee_write_ins,results_absentee_carrollb,results_absentee_la_rivag,last_updated,leader_margin_value,leader_margin_display,leader_margin_name_display,leader_party_id,margin2020,votes2016,margin2016,votes2012,margin2012,state,retrieved_time
17001,Adams,33434,19084,69,74,Released as a separate subtotal at the end of tabulation,100,32202,>98%,>98% reported,edison,2,some,,8885,,,8569,24131,473,97,77,64,23,6454,12260,221,53,39,46,11,2020-11-24T13:22:13Z,46.54543,R+47,Trump +47,republican,46.54543,32310,46.8,30607,35.18,illinois,2020-11-26T00:49:17.653490Z
17003,Alexander,2625,0,11,11,None,87,3010,87%,87% reported,edison,6,unknown,,1150,,,1114,1486,7,5,7,0,6,0,0,0,0,0,0,0,2020-11-24T13:22:14Z,14.17143,R+14,Trump +14,republican,14.17143,2820,8.3,3501,-13.65,illinois,2020-11-26T00:49:17.653490Z
17005,Bond,8109,0,24,25,Released as a precinct at the end of tabulation,100,1160,>98%,>98% reported,edison,6,unknown,,2398,,,2275,5612,152,40,0,20,10,0,0,0,0,0,0,0,2020-11-24T13:22:14Z,41.15181,R+41,Trump +41,republican,41.15181,7570,37.3,7336,14.65,illinois,2020-11-26T00:49:17.653490Z
17007,Boone,24672,0,37,38,Other,100,22910,>98%,>98% reported,edison,4,some,,4522,,,10372,13762,350,141,0,26,21,0,0,0,0,0,0,0,2020-11-24T13:22:15Z,13.74027,R+14,Trump +14,republican,13.74027,23001,14.3,21365,5.68,illinois,2020-11-26T00:49:17.653490Z
17009,Brown,2523,0,13,14,None,97,2604,97%,97% reported,edison,4,some,,594,,,485,1930,47,10,4,39,8,0,0,0,0,0,0,0,2020-11-24T13:22:16Z,57.27309,R+57,Trump +57,republican,57.27309,2379,55.5,2364,30.71,illinois,2020-11-26T00:49:17.653490Z
17011,Bureau,17182,7409,47,50,Merged into voters' home precincts and released with cumulative results,95,18093,95%,95% reported,edison,4,unknown,,3786,,,6545,10296,202,90,0,37,12,3932,3375,52,33,0,12,5,2020-11-24T13:22:21Z,21.83099,R+22,Trump +22,republican,21.83099,16571,19.6,16631,0.18,illinois,2020-11-26T00:49:17.653490Z
17013,Calhoun,2767,0,7,7,Other,98,2827,98%,98% reported,edison,4,all,,710,,,674,2043,36,8,1,4,1,0,0,0,0,0,0,0,2020-11-24T13:22:22Z,49.47597,R+49,Trump +49,republican,49.47597,2571,38.2,2576,13.98,illinois,2020-11-26T00:49:17.653490Z
17015,Carroll,8006,0,21,22,Merged into voters' home precincts and released with cumulative results,100,1062,>98%,>98% reported,edison,6,unknown,,1638,,,2737,5098,111,39,0,11,10,0,0,0,0,0,0,0,2020-11-24T13:22:23Z,29.49038,R+29,Trump +29,republican,29.49038,7445,26.7,7386,-1.49,illinois,2020-11-26T00:49:17.653490Z
17017,Cass,5325,0,20,21,Other,95,5603,95%,95% reported,edison,4,some,,1222,,,1615,3624,50,17,9,6,4,0,0,0,0,0,0,0,2020-11-24T13:22:24Z,37.7277,R+38,Trump +38,republican,37.7277,5124,31.1,4862,13.45,illinois,2020-11-26T00:49:17.653490Z
17019,Champaign,94911,65966,110,118,None,94,101437,94%,94% reported,edison,4,unknown,,23782,,,56596,35122,1496,665,516,284,232,44428,19687,813,424,286,169,159,2020-11-24T13:22:25Z,22.62541,D+23,Biden +23,democrat,-22.62541,91628,-18.3,78359,-7.04,illinois,2020-11-26T00:49:17.653490Z
17021,Christian,16094,0,28,30,Merged into voters' home precincts and released with cumulative results,95,16962,95%,95% reported,edison,2,unknown,,3022,,,4286,11505,208,65,0,22,8,0,0,0,0,0,0,0,2020-11-24T13:22:28Z,44.85523,R+45,Trump +45,republican,44.85523,15477,42.3,14701,23.07,illinois,2020-11-26T00:49:17.653490Z
17023,Clark,8340,0,22,23,Released as a separate subtotal in the middle of the tabulation,96,8656,96%,96% reported,edison,4,some,,2598,,,1990,6215,95,27,0,8,5,0,0,0,0,0,0,0,2020-11-24T13:22:30Z,50.65947,R+51,Trump +51,republican,50.65947,7928,47.2,7860,32.48,illinois,2020-11-26T00:49:17.653490Z
17025,Clay,6896,0,21,22,Merged into voters' home precincts and released with cumulative results,99,6971,>98%,>98% reported,edison,4,some,,965,,,1129,5626,88,26,13,10,4,0,0,0,0,0,0,0,2020-11-24T13:22:33Z,65.21172,R+65,Trump +65,republican,65.21172,6350,63,5908,44.11,illinois,2020-11-26T00:49:17.653490Z
17027,Clinton,19139,0,39,40,Released as a precinct at the end of tabulation,100,17465,>98%,>98% reported,edison,4,unknown,,3803,,,4459,14264,258,76,44,23,15,0,0,0,0,0,0,0,2020-11-24T13:22:35Z,51.23047,R+51,Trump +51,republican,51.23047,17419,48.6,16450,29.96,illinois,2020-11-26T00:49:17.653490Z
17029,Coles,22470,0,41,44,None,100,21851,>98%,>98% reported,edison,4,unknown,,6758,,,7997,13981,300,130,0,34,28,0,0,0,0,0,0,0,2020-11-24T13:22:36Z,26.63106,R+27,Trump +27,republican,26.63106,21918,26,21358,11.09,illinois,2020-11-26T00:49:17.653490Z
17031,Cook,2321399,0,2869,3668,None,96,2417649,96%,96% reported,edison,2,some,,823434,,,1725973,558269,17657,12279,0,3085,4136,0,0,0,0,0,0,0,2020-11-24T15:09:20Z,50.30174,D+50,Biden +50,democrat,-50.30174,2180344,-53.1,2011598,-49.36,illinois,2020-11-26T00:49:17.653490Z
17033,Crawford,9419,0,23,24,None,98,9574,98%,98% reported,edison,4,some,,2307,,,2198,7025,119,43,16,8,10,0,0,0,0,0,0,0,2020-11-24T13:22:37Z,51.24748,R+51,Trump +51,republican,51.24748,8739,49,8609,31.68,illinois,2020-11-26T00:49:17.653490Z
17035,Cumberland,5843,0,11,12,Released as a separate subtotal at the end of tabulation,96,6100,96%,96% reported,edison,2,unknown,,741,,,1141,4595,63,21,19,3,1,0,0,0,0,0,0,0,2020-11-24T13:22:40Z,59.11347,R+59,Trump +59,republican,59.11347,5571,57,5295,35.28,illinois,2020-11-26T00:49:17.653490Z
17037,DeKalb,47989,0,65,65,None,100,43345,>98%,>98% reported,edison,4,unknown,,11174,,,24643,21905,783,331,170,103,54,0,0,0,0,0,0,0,2020-11-24T13:22:41Z,5.70547,D+6,Biden +6,democrat,-5.70547,43600,-3.2,41092,-5.53,illinois,2020-11-26T00:49:17.653490Z
17039,DeWitt,7994,0,22,23,Merged into voters' home precincts AFTER election night,100,7552,>98%,>98% reported,edison,4,unknown,,1771,,,2171,5623,138,47,0,12,3,0,0,0,0,0,0,0,2020-11-24T13:22:42Z,43.18239,R+43,Trump +43,republican,43.18239,7556,41.9,7345,26.93,illinois,2020-11-26T00:49:17.653490Z
17041,Douglas,8746,0,16,17,Merged into voters' home precincts and released with cumulative results,98,8970,98%,98% reported,edison,2,unknown,,1744,,,2327,6221,119,43,22,10,4,0,0,0,0,0,0,0,2020-11-24T13:22:43Z,44.52321,R+45,Trump +45,republican,44.52321,8195,45.7,7897,36.77,illinois,2020-11-26T00:49:17.653490Z
17043,DuPage,485064,0,930,930,Merged into voters' home precincts and released with cumulative results,100,474506,>98%,>98% reported,edison,4,unknown,,159736,,,281222,193611,6249,2490,0,1115,377,0,0,0,0,0,0,0,2020-11-24T13:22:43Z,18.06174,D+18,Biden +18,democrat,-18.06174,430674,-14.4,401081,-1.1,illinois,2020-11-26T00:49:17.653490Z
17045,Edgar,8152,0,29,31,Merged into voters' home precincts and released with cumulative results,94,8656,94%,94% reported,edison,4,all,,2528,,,1869,6169,75,27,0,8,4,0,0,0,0,0,0,0,2020-11-24T13:22:44Z,52.74779,R+53,Trump +53,republican,52.74779,7899,48.8,7819,32.83,illinois,2020-11-26T00:49:17.653490Z
17047,Edwards,3368,0,11,12,Merged into voters' home precincts and released with cumulative results,92,3670,92%,92% reported,edison,4,all,,874,,,488,2833,31,9,2,2,3,0,0,0,0,0,0,0,2020-11-24T13:22:45Z,69.62589,R+70,Trump +70,republican,69.62589,3324,70.5,3228,51.15,illinois,2020-11-26T00:49:17.653490Z
17049,Effingham,19041,0,36,37,Merged into voters' home precincts and released with cumulative results,100,17654,>98%,>98% reported,edison,4,unknown,,5338,,,3700,14983,230,58,34,27,9,0,0,0,0,0,0,0,2020-11-24T13:22:45Z,59.25634,R+59,Trump +59,republican,59.25634,17609,59.9,16613,52.01,illinois,2020-11-26T00:49:17.653490Z
17051,Fayette,10033,0,26,28,Merged into voters' home precincts and released with cumulative results,100,10033,>98%,>98% reported,edison,6,some,,1970,,,1815,8025,113,36,23,15,6,0,0,0,0,0,0,0,2020-11-24T13:22:48Z,61.89574,R+62,Trump +62,republican,61.89574,9591,57.9,8971,34.53,illinois,2020-11-26T00:49:17.653490Z
17053,Ford,6809,0,21,22,Merged into voters' home precincts and released with cumulative results,97,6997,97%,97% reported,edison,4,unknown,,1058,,,1691,4956,99,38,14,9,2,0,0,0,0,0,0,0,2020-11-24T13:22:49Z,47.95124,R+48,Trump +48,republican,47.95124,6396,47.9,6006,42.84,illinois,2020-11-26T00:49:17.653490Z
17055,Franklin,18488,0,31,35,None,90,20497,90%,90% reported,edison,2,some,,3605,,,4690,13514,140,80,43,12,9,0,0,0,0,0,0,0,2020-11-24T13:22:51Z,47.72826,R+48,Trump +48,republican,47.72826,18711,44.8,17914,16.82,illinois,2020-11-26T00:49:17.653490Z
17057,Fulton,16517,0,54,57,Merged into voters' home precincts and released with cumulative results,96,17278,96%,96% reported,edison,4,unknown,,2166,,,6371,9798,176,90,46,21,15,0,0,0,0,0,0,0,2020-11-24T13:22:51Z,20.74832,R+21,Trump +21,republican,20.74832,15797,14.9,15356,-11.04,illinois,2020-11-26T00:49:17.653490Z
17059,Gallatin,2673,266,10,11,Merged into voters' home precincts and released with cumulative results,90,2980,90%,90% reported,edison,4,all,,1011,,,621,2019,18,10,1,2,2,66,197,0,0,0,2,1,2020-11-24T13:22:53Z,52.30079,R+52,Trump +52,republican,52.30079,2707,47.5,2573,17.99,illinois,2020-11-26T00:49:17.653490Z
17061,Greene,6224,0,22,22,Merged into voters' home precincts and released with cumulative results,100,6137,>98%,>98% reported,edison,4,some,,1365,,,1349,4767,70,21,0,11,6,0,0,0,0,0,0,0,2020-11-24T13:22:53Z,54.91645,R+55,Trump +55,republican,54.91645,5585,52.6,5622,25.4,illinois,2020-11-26T00:49:17.653490Z
17063,Grundy,26400,0,40,40,Merged into voters' home precincts and released with cumulative results,100,26400,>98%,>98% reported,edison,6,unknown,,5610,,,9445,16372,344,119,63,32,25,0,0,0,0,0,0,0,2020-11-24T13:22:54Z,26.23864,R+26,Trump +26,republican,26.23864,23237,23.2,21244,8.91,illinois,2020-11-26T00:49:17.653490Z
17065,Hamilton,4316,0,15,16,None,94,4588,94%,94% reported,edison,4,none,,1330,,,821,3429,40,11,8,3,4,0,0,0,0,0,0,0,2020-11-24T13:22:56Z,60.42632,R+60,Trump +60,republican,60.42632,4156,57.8,3941,32.91,illinois,2020-11-26T00:49:17.653490Z
17067,Hancock,6565,0,21,33,None,72,9121,72%,72% reported,edison,4,none,,1187,,,1114,5309,94,27,16,2,3,0,0,0,0,0,0,0,2020-11-24T13:22:57Z,63.89947,R+64,Trump +64,republican,63.89947,9121,47,9111,17.79,illinois,2020-11-26T00:49:17.653490Z
17069,Hardin,0,0,0,6,Merged into voters' home precincts and released with cumulative results,0,2514,0%,0% reported,edison,,unknown,,1520,,,0,0,0,0,0,0,0,0,0,0,0,0,0,0,2020-11-24T13:22:58Z,,–,–,"",,2148,57.4,2330,34.03,illinois,2020-11-26T00:49:17.653490Z
17071,Henderson,3652,0,12,13,Merged into voters' home precincts and released with cumulative results,94,3885,94%,94% reported,edison,2,unknown,,675,,,1186,2391,49,11,9,4,2,0,0,0,0,0,0,0,2020-11-24T13:22:59Z,32.99562,R+33,Trump +33,republican,32.99562,3518,28.4,3568,-12.25,illinois,2020-11-26T00:49:17.653490Z
17073,Henry,25624,0,49,52,Merged into voters' home precincts and released with cumulative results,100,24559,>98%,>98% reported,edison,4,unknown,,4688,,,9762,15266,364,107,65,43,17,0,0,0,0,0,0,0,2020-11-24T13:23:00Z,21.47986,R+21,Trump +21,republican,21.47986,24643,20.8,24322,-3.08,illinois,2020-11-26T00:49:17.653490Z
17075,Iroquois,14011,0,36,37,Other,98,14348,98%,98% reported,edison,4,some,,3459,,,2895,10858,146,64,20,24,4,0,0,0,0,0,0,0,2020-11-24T13:23:00Z,56.83392,R+57,Trump +57,republican,56.83392,13102,55.3,12784,44.64,illinois,2020-11-26T00:49:17.653490Z
17077,Jackson,22575,0,47,56,Merged into voters' home precincts and released with cumulative results,83,27180,83%,83% reported,edison,2,unknown,,6498,,,11104,10835,306,190,73,34,33,0,0,0,0,0,0,0,2020-11-24T13:23:01Z,1.19158,D+1.2,Biden +1.2,democrat,-1.19158,24617,-3.2,24012,-14.39,illinois,2020-11-26T00:49:17.653490Z
17079,Jasper,5582,0,16,16,Merged into voters' home precincts and released with cumulative results,99,5643,>98%,>98% reported,edison,2,some,,2270,,,1006,4492,53,17,10,4,0,0,0,0,0,0,0,0,2020-11-24T13:23:01Z,62.45073,R+62,Trump +62,republican,62.45073,5112,59.7,5043,41.21,illinois,2020-11-26T00:49:17.653490Z
17081,Jefferson,17409,0,30,33,Merged into voters' home precincts and released with cumulative results,93,18631,93%,93% reported,edison,4,all,,4357,,,4597,12461,213,77,32,16,13,0,0,0,0,0,0,0,2020-11-24T13:23:02Z,45.17204,R+45,Trump +45,republican,45.17204,16999,42.8,16320,22.81,illinois,2020-11-26T00:49:17.653490Z
17083,Jersey,11942,0,24,25,Merged into voters' home precincts and released with cumulative results,99,12076,>98%,>98% reported,edison,4,some,,2467,,,2956,8699,202,45,23,10,7,0,0,0,0,0,0,0,2020-11-24T13:23:04Z,48.09077,R+48,Trump +48,republican,48.09077,10991,46.1,9959,23.82,illinois,2020-11-26T00:49:17.653490Z
17085,JoDaviess,12477,6000,29,29,None,100,11314,>98%,>98% reported,edison,2,unknown,,3006,,,5097,7161,124,61,0,16,18,3447,2458,47,30,0,10,8,2020-11-24T13:23:06Z,16.54244,R+17,Trump +17,republican,16.54244,11334,14.6,11429,-1.16,illinois,2020-11-26T00:49:17.653490Z
17087,Johnson,6442,0,15,16,Released as a precinct at the end of tabulation,100,6442,>98%,>98% reported,edison,6,some,,3610,,,1280,5052,53,37,13,3,4,0,0,0,0,0,0,0,2020-11-24T13:23:07Z,58.55324,R+59,Trump +59,republican,58.55324,6089,57.6,5672,42.15,illinois,2020-11-26T00:49:17.653490Z
17089,Kane,231876,183439,291,291,None,100,220744,>98%,>98% reported,edison,6,unknown,,93112,,,130166,96775,2878,1201,13,543,300,108918,71218,1890,835,8,388,182,2020-11-24T13:23:09Z,14.40037,D+14,Biden +14,democrat,-14.40037,199687,-10.5,181648,-1.1,illinois,2020-11-26T00:49:17.653490Z
17091,Kankakee,49729,0,61,64,None,100,47156,>98%,>98% reported,edison,4,unknown,,21168,,,20112,28410,786,185,137,55,44,0,0,0,0,0,0,0,2020-11-24T13:23:10Z,16.68644,R+17,Trump +17,republican,16.68644,47305,13,45509,3.39,illinois,2020-11-26T00:49:17.653490Z
17093,Kendall,64205,37347,87,87,None,100,59861,>98%,>98% reported,edison,2,unknown,,13923,,,33168,29492,810,334,234,102,65,22309,14337,345,170,106,50,30,2020-11-24T13:23:14Z,5.72541,D+6,Biden +6,democrat,-5.72541,54055,0.1,47295,3.33,illinois,2020-11-26T00:49:17.653490Z
17095,Knox,22716,0,28,31,None,90,25236,90%,90% reported,edison,2,unknown,,6554,,,10421,11818,249,112,62,22,32,0,0,0,0,0,0,0,2020-11-24T13:23:14Z,6.14985,R+6,Trump +6,republican,6.14985,22503,2.9,23278,-17.37,illinois,2020-11-26T00:49:17.653490Z
17099,LaSalle,52053,0,112,119,Merged into voters' home precincts and released with cumulative results,96,54372,96%,96% reported,edison,2,unknown,,7973,,,21491,29482,643,242,93,49,53,0,0,0,0,0,0,0,2020-11-24T13:23:15Z,15.35166,R+15,Trump +15,republican,15.35166,49743,14.4,47259,0.39,illinois,2020-11-26T00:49:17.653490Z
17097,Lake,334156,59287,406,415,None,100,334925,>98%,>98% reported,edison,4,unknown,,165277,,,204032,123594,4160,1441,0,553,376,47586,10876,519,194,0,71,41,2020-11-24T13:23:14Z,24.07199,D+24,Biden +24,democrat,-24.07199,303520,-20.2,287493,-8.35,illinois,2020-11-26T00:49:17.653490Z
17101,Lawrence,6379,0,21,22,None,95,6688,95%,95% reported,edison,4,none,,920,,,1414,4849,82,18,11,2,3,0,0,0,0,0,0,0,2020-11-24T13:23:16Z,53.84857,R+54,Trump +54,republican,53.84857,6094,53,5989,30.82,illinois,2020-11-26T00:49:17.653490Z
17103,Lee,16351,0,47,49,Merged into voters' home precincts and released with cumulative results,97,16895,97%,97% reported,edison,2,unknown,,4965,,,6368,9584,225,97,43,22,12,0,0,0,0,0,0,0,2020-11-24T13:23:17Z,19.66852,R+20,Trump +20,republican,19.66852,15489,19.9,15301,7.33,illinois,2020-11-26T00:49:17.653490Z
17105,Livingston,17049,0,47,47,None,100,5933,>98%,>98% reported,edison,6,unknown,,4304,,,4568,12134,243,72,0,20,12,0,0,0,0,0,0,0,2020-11-24T13:23:17Z,44.37797,R+44,Trump +44,republican,44.37797,15342,40.3,15039,31.47,illinois,2020-11-26T00:49:17.653490Z
17107,Logan,13117,0,28,29,Merged into voters' home precincts and released with cumulative results,100,13117,>98%,>98% reported,edison,6,all,,3994,,,3769,9042,204,64,0,24,14,0,0,0,0,0,0,0,2020-11-24T13:23:18Z,40.19974,R+40,Trump +40,republican,40.19974,12401,39.3,12053,32.08,illinois,2020-11-26T00:49:17.653490Z
17115,Macon,48934,0,66,72,Merged into voters' home precincts AFTER election night,100,45131,>98%,>98% reported,edison,6,unknown,,14264,,,19633,28373,587,204,0,82,55,0,0,0,0,0,0,0,2020-11-24T13:23:21Z,17.86079,R+18,Trump +18,republican,17.86079,48060,17.7,48899,5.17,illinois,2020-11-26T00:49:17.653490Z
17117,Macoupin,23919,0,59,61,Merged into voters' home precincts and released with cumulative results,97,24534,97%,97% reported,edison,4,unknown,,3614,,,7313,16058,346,110,48,24,20,0,0,0,0,0,0,0,2020-11-24T13:21:42Z,36.56089,R+37,Trump +37,republican,36.56089,22391,34.1,21010,7.05,illinois,2020-11-26T00:49:17.653490Z
17119,Madison,135686,0,212,225,None,100,129785,>98%,>98% reported,edison,2,some,,57323,,,56845,75272,2098,683,411,198,179,0,0,0,0,0,0,0,2020-11-24T13:21:46Z,13.58062,R+14,Trump +14,republican,13.58062,130179,15.3,122473,1.38,illinois,2020-11-26T00:49:17.653490Z
17121,Marion,17214,0,43,48,Merged into voters' home precincts and released with cumulative results,92,18728,92%,92% reported,edison,4,some,,4072,,,4396,12540,154,73,34,7,10,0,0,0,0,0,0,0,2020-11-24T13:21:47Z,47.31033,R+47,Trump +47,republican,47.31033,17098,43.8,15764,19.18,illinois,2020-11-26T00:49:17.653490Z
17123,Marshall,6343,0,13,14,Merged into voters' home precincts and released with cumulative results,97,6557,97%,97% reported,edison,2,unknown,,1712,,,2004,4196,94,27,11,6,5,0,0,0,0,0,0,0,2020-11-24T13:21:48Z,34.55778,R+35,Trump +35,republican,34.55778,5984,33.4,5850,14.27,illinois,2020-11-26T00:49:17.653490Z
17125,Mason,6756,2476,20,21,Merged into voters' home precincts and released with cumulative results,100,2476,>98%,>98% reported,edison,6,unknown,,1229,,,1984,4645,78,31,0,7,11,1133,1293,24,15,0,5,6,2020-11-24T13:21:51Z,39.38721,R+39,Trump +39,republican,39.38721,6493,31.5,6272,6.35,illinois,2020-11-26T00:49:17.653490Z
17127,Massac,6803,0,16,17,Merged into voters' home precincts and released with cumulative results,100,6803,>98%,>98% reported,edison,6,all,,1360,,,1719,4989,64,14,5,7,5,0,0,0,0,0,0,0,2020-11-24T13:21:54Z,48.06703,R+48,Trump +48,republican,48.06703,6697,49.1,6495,33.66,illinois,2020-11-26T00:49:17.653490Z
17109,McDonough,12290,0,26,31,Merged into voters' home precincts and released with cumulative results,94,13084,94%,94% reported,edison,2,unknown,,4725,,,4973,7009,173,54,42,19,20,0,0,0,0,0,0,0,2020-11-24T13:23:18Z,16.56631,R+17,Trump +17,republican,16.56631,13144,11.5,12454,1.45,illinois,2020-11-26T00:49:17.653490Z
17111,McHenry,164574,0,212,212,Merged into voters' home precincts and released with cumulative results,100,159365,>98%,>98% reported,edison,4,unknown,,16104,,,78153,82257,2176,781,704,298,205,0,0,0,0,0,0,0,2020-11-24T15:41:22Z,2.49371,R+2,Trump +2,republican,2.49371,143930,7.5,133844,8.82,illinois,2020-11-26T00:49:17.653490Z
17113,McLean,87013,0,68,70,None,97,89415,97%,97% reported,edison,2,unknown,,16888,,,43719,40365,1610,500,389,275,155,0,0,0,0,0,0,0,2020-11-24T13:23:20Z,3.8546,D+4,Biden +4,democrat,-3.8546,81324,1.3,73382,10.99,illinois,2020-11-26T00:49:17.653490Z
17129,Menard,6954,3081,13,14,Merged into voters' home precincts and released with cumulative results,100,6516,>98%,>98% reported,edison,4,some,,2304,,,2022,4764,95,33,26,5,9,1315,1696,39,12,11,4,4,2020-11-24T13:21:55Z,39.43054,R+39,Trump +39,republican,39.43054,6515,37.1,6151,30.04,illinois,2020-11-26T00:49:17.653490Z
17131,Mercer,8750,3242,22,24,"As a subtotal in the FIRST cumulative report, along with regular precincts",94,9326,94%,94% reported,edison,4,unknown,,1397,,,3212,5328,131,46,21,4,8,1745,1429,41,14,8,1,4,2020-11-24T13:21:56Z,24.18286,R+24,Trump +24,republican,24.18286,8525,20.4,8534,-7.39,illinois,2020-11-26T00:49:17.653490Z
17133,Monroe,21024,9432,36,37,Merged into voters' home precincts and released with cumulative results,100,19258,>98%,>98% reported,edison,4,some,,9262,,,6489,14046,305,82,58,27,17,3332,5853,135,46,36,16,14,2020-11-24T13:21:59Z,35.94463,R+36,Trump +36,republican,35.94463,19354,36.7,17432,26.81,illinois,2020-11-26T00:49:17.653490Z
17135,Montgomery,13701,0,36,38,Merged into voters' home precincts and released with cumulative results,96,14217,96%,96% reported,edison,2,unknown,,3024,,,3889,9504,201,53,34,14,6,0,0,0,0,0,0,0,2020-11-24T13:22:01Z,40.98241,R+41,Trump +41,republican,40.98241,12978,39.5,12133,14.16,illinois,2020-11-26T00:49:17.653490Z
17137,Morgan,15229,0,37,40,Merged into voters' home precincts and released with cumulative results,94,16167,94%,94% reported,edison,2,unknown,,2656,,,5020,9903,198,55,24,14,15,0,0,0,0,0,0,0,2020-11-24T13:22:02Z,32.06383,R+32,Trump +32,republican,32.06383,14800,29.6,14096,15.37,illinois,2020-11-26T00:49:17.653490Z
17139,Moultrie,6698,0,13,14,Merged into voters' home precincts and released with cumulative results,97,6879,97%,97% reported,edison,4,all,,2046,,,1645,4938,84,24,0,4,3,0,0,0,0,0,0,0,2020-11-24T13:22:15Z,49.16393,R+49,Trump +49,republican,49.16393,6283,47.3,6057,27.08,illinois,2020-11-26T00:49:17.653490Z
17141,Ogle,26040,0,51,52,Merged into voters' home precincts and released with cumulative results,99,26350,>98%,>98% reported,edison,2,unknown,,4760,,,9300,16092,378,142,68,37,23,0,0,0,0,0,0,0,2020-11-24T13:22:15Z,26.08295,R+26,Trump +26,republican,26.08295,24193,26,23367,16.72,illinois,2020-11-26T00:49:17.653490Z
17143,Peoria,82264,53195,157,169,Merged into voters' home precincts and released with cumulative results,100,82264,>98%,>98% reported,edison,6,all,,31962,,,42600,37612,1256,486,6,205,99,32623,19491,610,279,0,123,69,2020-11-24T13:22:19Z,6.06341,D+6,Biden +6,democrat,-6.06341,79102,-3.1,78411,-4.38,illinois,2020-11-26T00:49:17.653490Z
17145,Perry,10060,0,25,27,Released as a precinct at the end of tabulation,93,10817,93%,93% reported,edison,2,some,,2477,,,2609,7305,69,52,18,3,4,0,0,0,0,0,0,0,2020-11-24T13:22:20Z,46.67992,R+47,Trump +47,republican,46.67992,9874,44.5,9549,17.68,illinois,2020-11-26T00:49:17.653490Z
17147,Piatt,9791,0,16,16,Merged into voters' home precincts AFTER election night,100,9044,>98%,>98% reported,edison,4,unknown,,1656,,,3302,6219,165,34,29,28,14,0,0,0,0,0,0,0,2020-11-24T13:22:22Z,29.79267,R+30,Trump +30,republican,29.79267,9060,33,8707,26.68,illinois,2020-11-26T00:49:17.653490Z
17149,Pike,7836,0,29,31,Other,100,7690,>98%,>98% reported,edison,6,all,,1424,,,1458,6235,104,15,16,4,4,0,0,0,0,0,0,0,2020-11-24T13:22:23Z,60.96223,R+61,Trump +61,republican,60.96223,7530,57.6,7286,35.44,illinois,2020-11-26T00:49:17.653490Z
17151,Pope,2172,0,5,6,Merged into voters' home precincts and released with cumulative results,91,2386,91%,91% reported,edison,4,some,,758,,,432,1720,16,4,0,0,0,0,0,0,0,0,0,0,2020-11-24T13:22:23Z,59.30018,R+59,Trump +59,republican,59.30018,2142,60.8,2222,38.79,illinois,2020-11-26T00:49:17.653490Z
17153,Pulaski,2631,0,10,11,None,81,3260,81%,81% reported,edison,2,unknown,,1053,,,891,1699,23,7,7,4,0,0,0,0,0,0,0,0,2020-11-24T13:22:24Z,30.71076,R+31,Trump +31,republican,30.71076,2735,26.1,3003,5.83,illinois,2020-11-26T00:49:17.653490Z
17155,Putnam,3345,0,8,8,Merged into voters' home precincts and released with cumulative results,100,3345,>98%,>98% reported,edison,6,unknown,,926,,,1309,1978,33,16,0,7,2,0,0,0,0,0,0,0,2020-11-24T13:22:25Z,20,R+20,Trump +20,republican,20,3112,19.9,3135,-1.82,illinois,2020-11-26T00:49:17.653490Z
17157,Randolph,14896,0,35,37,None,96,15565,96%,96% reported,edison,2,unknown,,4659,,,3590,11065,131,69,19,17,5,0,0,0,0,0,0,0,2020-11-24T13:22:27Z,50.18126,R+50,Trump +50,republican,50.18126,14194,46.4,14392,17.59,illinois,2020-11-26T00:49:17.653490Z
17159,Richland,9343,0,21,21,Merged into voters' home precincts and released with cumulative results,100,7710,>98%,>98% reported,edison,4,all,,1760,,,1355,7988,0,0,0,0,0,0,0,0,0,0,0,0,2020-11-24T13:22:28Z,70.99433,R+71,Trump +71,republican,70.99433,7694,54,7282,32.88,illinois,2020-11-26T00:49:17.653490Z
17161,Rock Island,66750,0,120,120,None,100,64602,>98%,>98% reported,edison,2,unknown,,46442,,,36647,28585,957,308,59,107,87,0,0,0,0,0,0,0,2020-11-24T13:22:31Z,12.0779,D+12,Biden +12,democrat,-12.0779,63994,-8.3,65016,-21.88,illinois,2020-11-26T00:49:17.653490Z
17165,Saline,11079,0,25,28,Merged into voters' home precincts and released with cumulative results,89,12471,89%,89% reported,edison,4,some,,4206,,,2786,8096,124,35,23,4,11,0,0,0,0,0,0,0,2020-11-24T13:22:35Z,47.92851,R+48,Trump +48,republican,47.92851,11384,50.1,10720,28.96,illinois,2020-11-26T00:49:17.653490Z
17167,Sangamon,104395,0,173,180,Merged into voters' home precincts and released with cumulative results,96,108902,96%,96% reported,edison,4,unknown,,18626,,,48756,53303,1439,619,0,164,114,0,0,0,0,0,0,0,2020-11-24T13:22:37Z,4.35557,R+4,Trump +4,republican,4.35557,98373,9.2,94297,8.61,illinois,2020-11-26T00:49:17.653490Z
17169,Schuyler,3908,0,16,17,None,100,3908,>98%,>98% reported,edison,6,some,,1472,,,1064,2767,48,12,12,3,2,0,0,0,0,0,0,0,2020-11-24T13:22:37Z,43.57728,R+44,Trump +44,republican,43.57728,3834,37.8,3890,8.79,illinois,2020-11-26T00:49:17.653490Z
17171,Scott,2730,0,9,10,Other,95,2867,95%,95% reported,edison,2,unknown,,478,,,569,2104,31,11,6,4,5,0,0,0,0,0,0,0,2020-11-24T13:22:40Z,56.22711,R+56,Trump +56,republican,56.22711,2608,54.9,2555,26.5,illinois,2020-11-26T00:49:17.653490Z
17173,Shelby,12049,0,32,33,None,100,11901,>98%,>98% reported,edison,6,unknown,,2422,,,2488,9396,109,44,0,7,5,0,0,0,0,0,0,0,2020-11-24T13:22:41Z,57.33256,R+57,Trump +57,republican,57.33256,11049,53.8,10395,33.68,illinois,2020-11-26T00:49:17.653490Z
17163,St. Clair,125220,0,176,190,None,100,121541,>98%,>98% reported,edison,2,unknown,,32130,,,66698,56000,1554,638,14,171,145,0,0,0,0,0,0,0,2020-11-24T13:22:33Z,8.54336,D+9,Biden +9,democrat,-8.54336,121436,-5.7,119466,-14.36,illinois,2020-11-26T00:49:17.653490Z
17175,Stark,2881,0,9,10,Released as a precinct at the end of tabulation,96,2999,96%,96% reported,edison,2,unknown,,509,,,814,2000,42,17,3,3,2,0,0,0,0,0,0,0,2020-11-24T13:22:42Z,41.16626,R+41,Trump +41,republican,41.16626,2743,37.4,2662,16.27,illinois,2020-11-26T00:49:17.653490Z
17177,Stephenson,21446,0,38,40,Merged into voters' home precincts and released with cumulative results,100,21446,>98%,>98% reported,edison,6,all,,6222,,,8756,12253,310,82,0,26,19,0,0,0,0,0,0,0,2020-11-24T13:22:43Z,16.30607,R+16,Trump +16,republican,16.30607,20343,16.3,21055,1.65,illinois,2020-11-26T00:49:17.653490Z
17179,Tazewell,68358,0,104,109,Other,100,64441,>98%,>98% reported,edison,2,unknown,,12110,,,24486,42194,1149,335,0,143,51,0,0,0,0,0,0,0,2020-11-24T13:22:44Z,25.9048,R+26,Trump +26,republican,25.9048,64751,27.8,61048,17.85,illinois,2020-11-26T00:49:17.653490Z
17181,Union,8896,0,19,20,Merged into voters' home precincts and released with cumulative results,100,8896,>98%,>98% reported,edison,6,all,,2005,,,2575,6157,89,32,18,14,11,0,0,0,0,0,0,0,2020-11-24T13:22:44Z,40.26529,R+40,Trump +40,republican,40.26529,8616,39.3,8282,21.98,illinois,2020-11-26T00:49:17.653490Z
17183,Vermilion,31617,0,51,55,Merged into voters' home precincts and released with cumulative results,94,33748,94%,94% reported,edison,2,unknown,,4752,,,10313,20710,350,127,58,39,20,0,0,0,0,0,0,0,2020-11-24T13:22:45Z,32.88421,R+33,Trump +33,republican,32.88421,30818,29.4,30314,13.24,illinois,2020-11-26T00:49:17.653490Z
17185,Wabash,5592,0,15,16,None,93,5992,93%,93% reported,edison,4,unknown,,1834,,,1248,4228,77,14,14,6,5,0,0,0,0,0,0,0,2020-11-24T13:22:47Z,53.29041,R+53,Trump +53,republican,53.29041,5464,53,5134,36.77,illinois,2020-11-26T00:49:17.653490Z
17187,Warren,7916,0,27,29,None,100,7792,>98%,>98% reported,edison,4,some,,2038,,,3087,4671,99,34,15,5,5,0,0,0,0,0,0,0,2020-11-24T13:22:49Z,20.01011,R+20,Trump +20,republican,20.01011,7807,16.5,7793,-5.47,illinois,2020-11-26T00:49:17.653490Z
17189,Washington,7914,0,19,20,None,97,8163,97%,97% reported,edison,2,some,,987,,,1639,6110,92,42,19,9,3,0,0,0,0,0,0,0,2020-11-24T13:22:50Z,56.49482,R+56,Trump +56,republican,56.49482,7438,55.4,7405,31.63,illinois,2020-11-26T00:49:17.653490Z
17191,Wayne,8492,0,25,27,None,93,9125,93%,93% reported,edison,4,some,,1717,,,1185,7172,89,23,13,7,3,0,0,0,0,0,0,0,2020-11-24T13:22:51Z,70.50165,R+71,Trump +71,republican,70.50165,8301,71.3,7680,58.26,illinois,2020-11-26T00:49:17.653490Z
17193,White,7428,0,16,18,Merged into voters' home precincts and released with cumulative results,92,8055,92%,92% reported,edison,4,all,,1565,,,1517,5788,82,23,10,5,3,0,0,0,0,0,0,0,2020-11-24T13:22:52Z,57.49865,R+57,Trump +57,republican,57.49865,7335,57.6,7064,36,illinois,2020-11-26T00:49:17.653490Z
17195,Whiteside,27254,0,58,60,Merged into voters' home precincts and released with cumulative results,98,27910,98%,98% reported,edison,4,unknown,,8002,,,12195,14472,376,152,0,37,22,0,0,0,0,0,0,0,2020-11-24T13:22:52Z,8.35474,R+8,Trump +8,republican,8.35474,25582,6.2,25768,-17.02,illinois,2020-11-26T00:49:17.653490Z
17197,Will,346141,205605,304,304,Merged into voters' home precincts and released with cumulative results,100,328279,>98%,>98% reported,edison,6,some,,87251,,,183903,155004,3671,1614,1171,459,319,125750,77153,1549,795,0,217,141,2020-11-24T13:22:53Z,8.34891,D+8,Biden +8,democrat,-8.34891,304226,-6.3,277387,-5.5,illinois,2020-11-26T00:49:17.653490Z
17199,Williamson,33503,0,61,65,Merged into voters' home precincts and released with cumulative results,100,31875,>98%,>98% reported,edison,4,some,,7586,,,10107,22681,415,167,77,32,24,0,0,0,0,0,0,0,2020-11-24T13:22:54Z,37.53097,R+38,Trump +38,republican,37.53097,31852,40.8,29143,24.92,illinois,2020-11-26T00:49:17.653490Z
17201,Winnebago,127710,0,99,103,Merged into voters' home precincts and released with cumulative results,100,119319,>98%,>98% reported,edison,2,unknown,,21891,,,64056,60861,1719,645,1,255,173,0,0,0,0,0,0,0,2020-11-24T13:22:56Z,2.50176,D+3,Biden +3,democrat,-2.50176,120055,-0.1,118984,-5.54,illinois,2020-11-26T00:49:17.653490Z
17203,Woodford,21079,0,43,45,None,100,19789,>98%,>98% reported,edison,2,unknown,,3278,,,5976,14590,298,98,66,39,12,0,0,0,0,0,0,0,2020-11-24T13:22:57Z,40.86532,R+41,Trump +41,republican,40.86532,19864,40.9,18874,39.15,illinois,2020-11-26T00:49:17.653490Z
