fips,name,votes,absentee_votes,reporting,precincts,absentee_method,eevp,tot_exp_vote,eevp_value,eevp_display,eevp_source,turnout_stage,absentee_count_progress,absentee_outstanding,absentee_max_ballots,provisional_outstanding,provisional_count_progress,results_trumpd,results_bidenj,results_jorgensenj,results_pierceb,results_write_ins,results_absentee_trumpd,results_absentee_bidenj,results_absentee_jorgensenj,results_absentee_pierceb,results_absentee_write_ins,last_updated,leader_margin_value,leader_margin_display,leader_margin_name_display,leader_party_id,margin2020,votes2016,margin2016,votes2012,margin2012,state,retrieved_time
56001,Albany,18617,0,14,14,Released as a separate subtotal as first report of the night,100,18617,>98%,>98% reported,edison,10,unknown,,7554,,,8579,9092,595,178,173,0,0,0,0,0,2020-11-24T13:23:15Z,2.75555,D+3,Biden +3,democrat,-2.75555,17060,4.2,16300,2.5,wyoming,2020-11-26T00:50:29.267162Z
56003,Big Horn,5752,0,13,13,Merged into voters' home precincts and released with cumulative results,100,5752,>98%,>98% reported,edison,10,unknown,,1650,,,4806,788,74,46,38,0,0,0,0,0,2020-11-24T13:23:16Z,69.85396,R+70,Trump +70,republican,69.85396,5317,65.1,5324,64.18,wyoming,2020-11-26T00:50:29.267162Z
56005,Campbell,19566,19564,37,37,Merged into voters' home precincts and released with cumulative results,100,19566,>98%,>98% reported,edison,10,unknown,,8522,,,16975,1935,434,120,102,16973,1935,434,120,102,2020-11-24T13:23:17Z,76.86804,R+77,Trump +77,republican,76.86804,18199,79.4,17571,72.79,wyoming,2020-11-26T00:50:29.267162Z
56007,Carbon,6664,2865,19,19,Merged into voters' home precincts and released with cumulative results,100,6664,>98%,>98% reported,edison,10,unknown,,2373,,,5014,1427,142,49,32,1817,970,43,23,12,2020-11-24T13:23:18Z,53.82653,R+54,Trump +54,republican,53.82653,6374,49.1,6509,31.31,wyoming,2020-11-26T00:50:29.267162Z
56009,Converse,6970,0,19,19,Merged into voters' home precincts and released with cumulative results,100,6970,>98%,>98% reported,edison,10,unknown,,2742,,,5917,861,121,43,28,0,0,0,0,0,2020-11-24T13:23:18Z,72.53945,R+73,Trump +73,republican,72.53945,6654,72.9,6343,62.34,wyoming,2020-11-26T00:50:29.267162Z
56011,Crook,4119,0,17,17,Merged into voters' home precincts and released with cumulative results,100,4119,>98%,>98% reported,edison,10,unknown,,1090,,,3651,378,57,19,14,0,0,0,0,0,2020-11-24T13:23:19Z,79.46103,R+79,Trump +79,republican,79.46103,3826,80.4,3685,72.81,wyoming,2020-11-26T00:50:29.267162Z
56013,Fremont,18111,0,33,33,Merged into voters' home precincts and released with cumulative results,100,18111,>98%,>98% reported,edison,10,unknown,,5466,,,12007,5519,321,157,107,0,0,0,0,0,2020-11-24T13:23:20Z,35.82353,R+36,Trump +36,republican,35.82353,17023,40.9,16939,33.9,wyoming,2020-11-26T00:50:29.267162Z
56015,Goshen,6241,0,25,25,Merged into voters' home precincts and released with cumulative results,100,6241,>98%,>98% reported,edison,10,unknown,,1994,,,4878,1203,86,43,31,0,0,0,0,0,2020-11-24T13:23:21Z,58.88479,R+59,Trump +59,republican,58.88479,5796,60.3,5806,46.85,wyoming,2020-11-26T00:50:29.267162Z
56017,Hot Springs,2577,0,4,4,Merged into voters' home precincts and released with cumulative results,100,2577,>98%,>98% reported,edison,10,unknown,,862,,,1999,482,61,24,11,0,0,0,0,0,2020-11-24T13:23:22Z,58.8669,R+59,Trump +59,republican,58.8669,2586,59.5,2515,54.55,wyoming,2020-11-26T00:50:29.267162Z
56019,Johnson,4914,0,16,16,Merged into voters' home precincts and released with cumulative results,100,4914,>98%,>98% reported,edison,10,unknown,,1765,,,3881,897,86,27,23,0,0,0,0,0,2020-11-24T13:23:22Z,60.72446,R+61,Trump +61,republican,60.72446,4417,64.3,4259,61.38,wyoming,2020-11-26T00:50:29.267162Z
56021,Laramie,44982,0,61,61,Merged into voters' home precincts and released with cumulative results,100,44982,>98%,>98% reported,edison,10,unknown,,24234,,,27891,15217,1063,491,320,0,0,0,0,0,2020-11-24T13:21:44Z,28.17571,R+28,Trump +28,republican,28.17571,40969,32.4,39505,24.32,wyoming,2020-11-26T00:50:29.267162Z
56023,Lincoln,10468,0,15,15,Merged into voters' home precincts and released with cumulative results,100,10468,>98%,>98% reported,edison,10,unknown,,3246,,,8643,1509,167,71,78,0,0,0,0,0,2020-11-24T13:21:47Z,68.15055,R+68,Trump +68,republican,68.15055,8875,63.9,8618,67.96,wyoming,2020-11-26T00:50:29.267162Z
56025,Natrona,35202,17418,46,46,Released as a precinct as first report of the night,100,35202,>98%,>98% reported,edison,10,unknown,,11960,,,25271,8530,895,294,212,10730,6076,352,142,118,2020-11-24T13:21:50Z,47.55696,R+48,Trump +48,republican,47.55696,33348,50.9,32373,40.69,wyoming,2020-11-26T00:50:29.267162Z
56027,Niobrara,1308,380,6,6,None,100,1308,>98%,>98% reported,edison,10,unknown,,480,,,1118,155,21,11,3,286,85,6,2,1,2020-11-24T13:21:53Z,73.62385,R+74,Trump +74,republican,73.62385,1314,76.2,1276,64.42,wyoming,2020-11-26T00:50:29.267162Z
56029,Park,16717,0,30,30,Merged into voters' home precincts and released with cumulative results,100,16717,>98%,>98% reported,edison,10,all,,6325,,,12813,3410,282,97,115,0,0,0,0,0,2020-11-24T13:21:54Z,56.24813,R+56,Trump +56,republican,56.24813,15095,56.8,14608,56.87,wyoming,2020-11-26T00:50:29.267162Z
56031,Platte,4923,1979,13,13,Merged into voters' home precincts and released with cumulative results,100,4923,>98%,>98% reported,edison,10,unknown,,1712,,,3898,890,65,49,21,1322,597,23,24,13,2020-11-24T13:21:55Z,61.10095,R+61,Trump +61,republican,61.10095,4529,60,4531,42.22,wyoming,2020-11-26T00:50:29.267162Z
56033,Sheridan,16428,0,29,29,None,100,16428,>98%,>98% reported,edison,10,unknown,,5912,,,11843,4043,339,114,89,0,0,0,0,0,2020-11-24T13:21:56Z,47.47991,R+47,Trump +47,republican,47.47991,14510,50.6,14322,46.43,wyoming,2020-11-26T00:50:29.267162Z
56035,Sublette,4970,0,7,7,Merged into voters' home precincts and released with cumulative results,100,4970,>98%,>98% reported,edison,10,unknown,,1936,,,3957,882,71,37,23,0,0,0,0,0,2020-11-24T13:21:58Z,61.87123,R+62,Trump +62,republican,61.87123,4390,63,4376,61.81,wyoming,2020-11-26T00:50:29.267162Z
56037,Sweetwater,16603,0,37,37,Merged into voters' home precincts and released with cumulative results,100,16603,>98%,>98% reported,edison,10,unknown,,4187,,,12229,3823,350,118,83,0,0,0,0,0,2020-11-24T13:21:59Z,50.6294,R+51,Trump +51,republican,50.6294,17130,52.1,16895,39.38,wyoming,2020-11-26T00:50:29.267162Z
56039,Teton,14677,0,19,19,Released as a separate subtotal as first report of the night,100,14677,>98%,>98% reported,edison,10,unknown,,7958,,,4341,9848,255,89,144,0,0,0,0,0,2020-11-24T13:22:00Z,37.52129,D+38,Biden +38,democrat,-37.52129,12627,-26.9,11464,-11.82,wyoming,2020-11-26T00:50:29.267162Z
56041,Uinta,9402,3907,10,10,Merged into voters' home precincts and released with cumulative results,100,9402,>98%,>98% reported,edison,10,some,,3219,,,7496,1591,172,79,64,2743,1048,51,37,28,2020-11-24T13:22:01Z,62.80579,R+63,Trump +63,republican,62.80579,8470,58.5,8539,58.4,wyoming,2020-11-26T00:50:29.267162Z
56043,Washakie,4012,0,5,5,Merged into voters' home precincts and released with cumulative results,100,4012,>98%,>98% reported,edison,10,unknown,,1323,,,3245,651,65,32,19,0,0,0,0,0,2020-11-24T13:22:02Z,64.65603,R+65,Trump +65,republican,64.65603,3814,62.4,3944,56.29,wyoming,2020-11-26T00:50:29.267162Z
56045,Weston,3542,0,8,8,Merged into voters' home precincts and released with cumulative results,100,3542,>98%,>98% reported,edison,10,unknown,,1131,,,3107,360,46,20,9,0,0,0,0,0,2020-11-24T13:22:02Z,77.55505,R+78,Trump +78,republican,77.55505,3526,77.5,3359,71.42,wyoming,2020-11-26T00:50:29.267162Z
