fips,name,votes,absentee_votes,reporting,precincts,absentee_method,eevp,tot_exp_vote,eevp_value,eevp_display,eevp_source,turnout_stage,absentee_count_progress,absentee_outstanding,absentee_max_ballots,provisional_outstanding,provisional_count_progress,results_trumpd,results_bidenj,results_jorgensenj,results_write_ins,results_absentee_trumpd,results_absentee_bidenj,results_absentee_jorgensenj,results_absentee_write_ins,last_updated,leader_margin_value,leader_margin_display,leader_margin_name_display,leader_party_id,margin2020,votes2016,margin2016,votes2012,margin2012,state,retrieved_time
38001,Adams,1269,0,1,1,Released as a separate subtotal as first report of the night,100,1269,>98%,>98% reported,edison,10,some,,1677,,,981,258,30,0,0,0,0,0,2020-11-24T13:24:57Z,56.974,R+57,Trump +57,republican,56.974,1218,56.9,1286,45.88,north-dakota,2020-11-27T00:47:10.071304Z
38003,Barnes,5565,0,15,15,Merged into voters' home precincts and released with cumulative results,100,5565,>98%,>98% reported,edison,10,unknown,,3917,,,3568,1820,161,16,0,0,0,0,2020-11-24T13:24:58Z,31.4106,R+31,Trump +31,republican,31.4106,5344,29.2,5522,10.32,north-dakota,2020-11-27T00:47:10.071304Z
38005,Benson,1961,0,4,4,"As a subtotal in the FIRST cumulative report, along with regular precincts",100,1961,>98%,>98% reported,edison,10,unknown,,3273,,,1094,822,39,6,0,0,0,0,2020-11-24T13:24:58Z,13.87047,R+14,Trump +14,republican,13.87047,2011,4.3,2157,-17.01,north-dakota,2020-11-27T00:47:10.071304Z
38007,Billings,635,0,3,3,Merged into voters' home precincts and released with cumulative results,100,635,>98%,>98% reported,edison,10,unknown,,341,,,541,72,21,1,0,0,0,0,2020-11-24T13:24:58Z,73.85827,R+74,Trump +74,republican,73.85827,605,72.1,578,66.26,north-dakota,2020-11-27T00:47:10.071304Z
38009,Bottineau,3471,0,5,5,Merged into voters' home precincts and released with cumulative results,100,3471,>98%,>98% reported,edison,10,unknown,,4617,,,2575,821,65,10,0,0,0,0,2020-11-24T13:24:58Z,50.53299,R+51,Trump +51,republican,50.53299,3494,50.3,3555,30.86,north-dakota,2020-11-27T00:47:10.071304Z
38011,Bowman,1657,0,4,4,Merged into voters' home precincts and released with cumulative results,100,1657,>98%,>98% reported,edison,10,unknown,,764,,,1395,228,30,4,0,0,0,0,2020-11-24T13:24:58Z,70.42849,R+70,Trump +70,republican,70.42849,1787,68.2,1737,49.86,north-dakota,2020-11-27T00:47:10.071304Z
38013,Burke,1155,0,6,6,Merged into voters' home precincts and released with cumulative results,100,1155,>98%,>98% reported,edison,10,some,,1757,,,994,137,20,4,0,0,0,0,2020-11-24T13:24:58Z,74.19913,R+74,Trump +74,republican,74.19913,1052,73.8,1023,52.69,north-dakota,2020-11-27T00:47:10.071304Z
38015,Burleigh,50753,13955,36,36,Merged into voters' home precincts and released with cumulative results,100,50753,>98%,>98% reported,edison,10,unknown,,26229,,,34744,14348,1368,293,10581,2978,320,76,2020-11-24T13:24:59Z,40.18679,R+40,Trump +40,republican,40.18679,47979,45.1,43387,31.87,north-dakota,2020-11-27T00:47:10.071304Z
38017,Cass,86053,31659,38,38,Merged into voters' home precincts and released with cumulative results,100,86053,>98%,>98% reported,edison,10,unknown,,26127,,,42619,40311,2495,628,10639,19861,893,266,2020-11-24T13:24:38Z,2.68207,R+3,Trump +3,republican,2.68207,80821,10.5,73855,2.9,north-dakota,2020-11-27T00:47:10.071304Z
38019,Cavalier,2020,0,1,1,Merged into voters' home precincts and released with cumulative results,100,2020,>98%,>98% reported,edison,10,unknown,,3069,,,1499,474,40,7,0,0,0,0,2020-11-24T13:21:43Z,50.74257,R+51,Trump +51,republican,50.74257,2006,43.9,2069,18.22,north-dakota,2020-11-27T00:47:10.071304Z
38021,Dickey,2424,0,3,3,Merged into voters' home precincts and released with cumulative results,100,2424,>98%,>98% reported,edison,10,some,,1263,,,1742,608,63,11,0,0,0,0,2020-11-24T13:21:46Z,46.78218,R+47,Trump +47,republican,46.78218,2407,46.2,2535,29.86,north-dakota,2020-11-27T00:47:10.071304Z
38023,Divide,1202,0,4,4,Merged into voters' home precincts and released with cumulative results,100,1202,>98%,>98% reported,edison,10,unknown,,852,,,904,265,30,3,0,0,0,0,2020-11-24T13:21:48Z,53.1614,R+53,Trump +53,republican,53.1614,1219,51,1162,29.95,north-dakota,2020-11-27T00:47:10.071304Z
38025,Dunn,2338,0,12,12,Merged into voters' home precincts and released with cumulative results,100,2338,>98%,>98% reported,edison,10,unknown,,1484,,,1951,342,39,6,0,0,0,0,2020-11-24T13:21:50Z,68.8195,R+69,Trump +69,republican,68.8195,2243,63,2034,49.07,north-dakota,2020-11-27T00:47:10.071304Z
38027,Eddy,1261,0,2,2,None,100,1261,>98%,>98% reported,edison,10,some,,776,,,854,383,22,2,0,0,0,0,2020-11-24T13:21:51Z,37.35131,R+37,Trump +37,republican,37.35131,1231,35.4,1157,12.79,north-dakota,2020-11-27T00:47:10.071304Z
38029,Emmons,2009,0,5,5,Merged into voters' home precincts and released with cumulative results,100,2009,>98%,>98% reported,edison,10,unknown,,1980,,,1738,237,27,7,0,0,0,0,2020-11-24T13:21:52Z,74.71379,R+75,Trump +75,republican,74.71379,1981,73.8,1884,55.84,north-dakota,2020-11-27T00:47:10.071304Z
38031,Foster,1778,0,6,6,None,100,1778,>98%,>98% reported,edison,10,unknown,,1491,,,1362,373,33,10,0,0,0,0,2020-11-24T13:21:53Z,55.6243,R+56,Trump +56,republican,55.6243,1719,52,1682,25.15,north-dakota,2020-11-27T00:47:10.071304Z
38033,Golden Valley,1026,0,1,1,Other,100,1026,>98%,>98% reported,edison,10,unknown,,737,,,871,137,16,2,0,0,0,0,2020-11-24T13:21:53Z,71.53996,R+72,Trump +72,republican,71.53996,957,72.8,928,62.5,north-dakota,2020-11-27T00:47:10.071304Z
38035,Grand Forks,30970,26709,27,27,Released as a precinct at the end of tabulation,100,30970,>98%,>98% reported,edison,10,unknown,,12348,,,16987,12880,874,229,14279,11566,680,184,2020-11-24T13:21:54Z,13.26122,R+13,Trump +13,republican,13.26122,30365,18.1,30029,3.42,north-dakota,2020-11-27T00:47:10.071304Z
38037,Grant,1381,0,4,4,Merged into voters' home precincts and released with cumulative results,100,1381,>98%,>98% reported,edison,10,unknown,,2609,,,1145,207,28,1,0,0,0,0,2020-11-24T13:22:01Z,67.9218,R+68,Trump +68,republican,67.9218,1381,66.8,1413,48.9,north-dakota,2020-11-27T00:47:10.071304Z
38039,Griggs,1250,0,5,5,Merged into voters' home precincts AFTER election night,100,1250,>98%,>98% reported,edison,10,unknown,,2127,,,907,308,34,1,0,0,0,0,2020-11-24T13:22:02Z,47.92,R+48,Trump +48,republican,47.92,1265,43.4,1343,17.5,north-dakota,2020-11-27T00:47:10.071304Z
38041,Hettinger,1312,0,4,4,Merged into voters' home precincts AFTER election night,100,1312,>98%,>98% reported,edison,10,unknown,,588,,,1091,196,23,2,0,0,0,0,2020-11-24T13:22:03Z,68.21646,R+68,Trump +68,republican,68.21646,1296,68.1,1362,50.44,north-dakota,2020-11-27T00:47:10.071304Z
38043,Kidder,1460,0,6,6,Merged into voters' home precincts and released with cumulative results,100,1460,>98%,>98% reported,edison,10,unknown,,1937,,,1215,221,22,2,0,0,0,0,2020-11-24T13:22:04Z,68.08219,R+68,Trump +68,republican,68.08219,1376,67.7,1328,35.92,north-dakota,2020-11-27T00:47:10.071304Z
38045,LaMoure,2219,0,4,4,None,100,2219,>98%,>98% reported,edison,10,unknown,,3164,,,1645,527,44,3,0,0,0,0,2020-11-24T13:22:05Z,50.38306,R+50,Trump +50,republican,50.38306,2151,45.5,2194,29.03,north-dakota,2020-11-27T00:47:10.071304Z
38047,Logan,1076,0,5,5,Merged into voters' home precincts and released with cumulative results,100,1076,>98%,>98% reported,edison,10,unknown,,1856,,,930,128,14,4,0,0,0,0,2020-11-24T13:22:08Z,74.53532,R+75,Trump +75,republican,74.53532,1067,72.5,1073,53.87,north-dakota,2020-11-27T00:47:10.071304Z
38049,McHenry,3003,0,5,5,Merged into voters' home precincts and released with cumulative results,100,3003,>98%,>98% reported,edison,10,unknown,,5709,,,2364,564,68,7,0,0,0,0,2020-11-24T13:22:09Z,59.94006,R+60,Trump +60,republican,59.94006,2820,55.3,2712,27.1,north-dakota,2020-11-27T00:47:10.071304Z
38051,McIntosh,1455,0,6,6,Merged into voters' home precincts and released with cumulative results,100,1455,>98%,>98% reported,edison,10,unknown,,2307,,,1153,261,30,11,0,0,0,0,2020-11-24T13:22:10Z,61.30584,R+61,Trump +61,republican,61.30584,1446,59.8,1530,37.65,north-dakota,2020-11-27T00:47:10.071304Z
38053,McKenzie,5419,0,11,11,Merged into voters' home precincts and released with cumulative results,100,5419,>98%,>98% reported,edison,10,unknown,,1593,,,4482,814,110,13,0,0,0,0,2020-11-24T13:22:12Z,67.68777,R+68,Trump +68,republican,67.68777,4672,63.6,3451,44.36,north-dakota,2020-11-27T00:47:10.071304Z
38055,McLean,5536,0,3,3,Merged into voters' home precincts and released with cumulative results,100,5536,>98%,>98% reported,edison,10,unknown,,7064,,,4198,1230,96,12,0,0,0,0,2020-11-24T13:22:13Z,53.61272,R+54,Trump +54,republican,53.61272,5315,52.3,4938,29.79,north-dakota,2020-11-27T00:47:10.071304Z
38057,Mercer,4675,0,14,14,None,100,4675,>98%,>98% reported,edison,10,unknown,,8208,,,3856,704,102,13,0,0,0,0,2020-11-24T13:22:13Z,67.42246,R+67,Trump +67,republican,67.42246,4682,67,4455,44.58,north-dakota,2020-11-27T00:47:10.071304Z
38059,Morton,16619,0,18,18,Other,100,16619,>98%,>98% reported,edison,10,unknown,,7220,,,12243,3872,432,72,0,0,0,0,2020-11-24T13:22:14Z,50.37006,R+50,Trump +50,republican,50.37006,15832,52.1,13613,30.93,north-dakota,2020-11-27T00:47:10.071304Z
38061,Mountrail,4165,0,9,9,Merged into voters' home precincts and released with cumulative results,100,4165,>98%,>98% reported,edison,10,unknown,,1784,,,2824,1256,75,10,0,0,0,0,2020-11-24T13:22:14Z,37.64706,R+38,Trump +38,republican,37.64706,4106,33.2,3457,16.17,north-dakota,2020-11-27T00:47:10.071304Z
38063,Nelson,1777,0,1,1,Merged into voters' home precincts and released with cumulative results,100,1777,>98%,>98% reported,edison,10,some,,3279,,,1141,586,43,7,0,0,0,0,2020-11-24T13:22:15Z,31.23241,R+31,Trump +31,republican,31.23241,1717,28.5,1678,5.84,north-dakota,2020-11-27T00:47:10.071304Z
38065,Oliver,1066,0,7,7,Merged into voters' home precincts and released with cumulative results,100,1066,>98%,>98% reported,edison,10,unknown,,795,,,918,129,18,1,0,0,0,0,2020-11-24T13:22:16Z,74.01501,R+74,Trump +74,republican,74.01501,1017,69.9,1013,40.67,north-dakota,2020-11-27T00:47:10.071304Z
38067,Pembina,3331,0,6,6,None,100,3331,>98%,>98% reported,edison,10,unknown,,6545,,,2460,786,66,19,0,0,0,0,2020-11-24T13:22:16Z,50.25518,R+50,Trump +50,republican,50.25518,3153,48.4,3255,19.85,north-dakota,2020-11-27T00:47:10.071304Z
38069,Pierce,2128,0,8,8,Merged into voters' home precincts and released with cumulative results,100,2128,>98%,>98% reported,edison,10,some,,1553,,,1585,497,38,8,0,0,0,0,2020-11-24T13:22:18Z,51.12782,R+51,Trump +51,republican,51.12782,2071,48.6,2178,36.96,north-dakota,2020-11-27T00:47:10.071304Z
38071,Ramsey,5372,0,4,4,Merged into voters' home precincts and released with cumulative results,100,5372,>98%,>98% reported,edison,10,unknown,,7131,,,3577,1639,128,28,0,0,0,0,2020-11-24T13:22:19Z,36.07595,R+36,Trump +36,republican,36.07595,5305,32.3,4999,10.02,north-dakota,2020-11-27T00:47:10.071304Z
38073,Ransom,2454,0,4,4,Released as a separate subtotal at the end of tabulation,100,2454,>98%,>98% reported,edison,10,some,,3752,,,1418,945,86,5,0,0,0,0,2020-11-24T13:22:21Z,19.27465,R+19,Trump +19,republican,19.27465,2359,15.8,2425,-13.77,north-dakota,2020-11-27T00:47:10.071304Z
38075,Renville,1319,0,5,5,Merged into voters' home precincts and released with cumulative results,100,1319,>98%,>98% reported,edison,10,unknown,,1788,,,1065,220,32,2,0,0,0,0,2020-11-24T13:22:21Z,64.06368,R+64,Trump +64,republican,64.06368,1293,61.3,1278,35.45,north-dakota,2020-11-27T00:47:10.071304Z
38077,Richland,7812,0,15,15,Merged into voters' home precincts and released with cumulative results,100,7812,>98%,>98% reported,edison,10,unknown,,4052,,,5072,2510,191,39,0,0,0,0,2020-11-24T13:22:22Z,32.7957,R+33,Trump +33,republican,32.7957,7592,35.6,7613,13.54,north-dakota,2020-11-27T00:47:10.071304Z
38079,Rolette,3804,0,5,5,"As a precinct in the FIRST cumulative report, along with regular precincts",100,3804,>98%,>98% reported,edison,10,unknown,,1383,,,1257,2482,60,5,0,0,0,0,2020-11-24T13:22:23Z,32.20294,D+32,Biden +32,democrat,-32.20294,3755,-23.5,4552,-49.67,north-dakota,2020-11-27T00:47:10.071304Z
38081,Sargent,2070,0,5,5,Released separately AFTER election night,100,2070,>98%,>98% reported,edison,10,unknown,,3540,,,1266,738,62,4,0,0,0,0,2020-11-24T13:22:24Z,25.50725,R+26,Trump +26,republican,25.50725,1997,19.7,2007,-9.77,north-dakota,2020-11-27T00:47:10.071304Z
38083,Sheridan,812,0,1,1,Merged into voters' home precincts and released with cumulative results,100,812,>98%,>98% reported,edison,10,unknown,,1353,,,688,104,16,4,0,0,0,0,2020-11-24T13:22:25Z,71.92118,R+72,Trump +72,republican,71.92118,787,70.5,822,58.27,north-dakota,2020-11-27T00:47:10.071304Z
38085,Sioux,1186,0,6,6,Merged into voters' home precincts and released with cumulative results,100,1186,>98%,>98% reported,edison,10,unknown,,519,,,258,804,48,76,0,0,0,0,2020-11-24T13:22:27Z,46.0371,D+46,Biden +46,democrat,-46.0371,1232,-40.4,1144,-59,north-dakota,2020-11-27T00:47:10.071304Z
38087,Slope,427,0,3,3,Merged into voters' home precincts and released with cumulative results,100,427,>98%,>98% reported,edison,10,unknown,,336,,,380,44,2,1,0,0,0,0,2020-11-24T13:22:31Z,78.68852,R+79,Trump +79,republican,78.68852,430,74.2,437,59.04,north-dakota,2020-11-27T00:47:10.071304Z
38089,Stark,15050,6883,6,6,Merged into voters' home precincts and released with cumulative results,100,15050,>98%,>98% reported,edison,10,all,,6735,,,12110,2499,396,45,4973,1689,199,22,2020-11-24T13:22:34Z,63.86047,R+64,Trump +64,republican,63.86047,12322,64.9,11633,49.08,north-dakota,2020-11-27T00:47:10.071304Z
38091,Steele,1088,0,5,5,None,100,1088,>98%,>98% reported,edison,10,unknown,,1853,,,652,392,38,6,0,0,0,0,2020-11-24T13:22:35Z,23.89706,R+24,Trump +24,republican,23.89706,999,17.7,1042,-1.92,north-dakota,2020-11-27T00:47:10.071304Z
38093,Stutsman,9959,0,12,12,Merged into voters' home precincts and released with cumulative results,100,9959,>98%,>98% reported,edison,10,unknown,,4200,,,6994,2676,249,40,0,0,0,0,2020-11-24T13:22:36Z,43.35777,R+43,Trump +43,republican,43.35777,10155,41.6,9558,21.97,north-dakota,2020-11-27T00:47:10.071304Z
38095,Towner,1174,0,3,3,Merged into voters' home precincts and released with cumulative results,100,1174,>98%,>98% reported,edison,10,unknown,,1520,,,830,317,25,2,0,0,0,0,2020-11-24T13:22:37Z,43.69676,R+44,Trump +44,republican,43.69676,1157,37,1182,9.05,north-dakota,2020-11-27T00:47:10.071304Z
38097,Traill,4136,0,12,12,Merged into voters' home precincts and released with cumulative results,100,4136,>98%,>98% reported,edison,10,unknown,,4857,,,2522,1493,110,11,0,0,0,0,2020-11-24T13:22:39Z,24.87911,R+25,Trump +25,republican,24.87911,3933,26,3921,4.72,north-dakota,2020-11-27T00:47:10.071304Z
38099,Walsh,4783,0,2,2,Merged into voters' home precincts and released with cumulative results,100,4783,>98%,>98% reported,edison,10,some,,8924,,,3324,1333,95,31,0,0,0,0,2020-11-24T13:22:42Z,41.62659,R+42,Trump +42,republican,41.62659,4636,39.4,5096,13.52,north-dakota,2020-11-27T00:47:10.071304Z
38101,Ward,28246,0,18,18,Merged into voters' home precincts and released with cumulative results,100,28246,>98%,>98% reported,edison,10,unknown,,15399,,,19974,7293,845,134,0,0,0,0,2020-11-24T13:22:43Z,44.89485,R+45,Trump +45,republican,44.89485,27412,46.8,25463,30.59,north-dakota,2020-11-27T00:47:10.071304Z
38103,Wells,2374,0,6,6,Merged into voters' home precincts and released with cumulative results,100,2374,>98%,>98% reported,edison,10,unknown,,1575,,,1893,442,32,7,0,0,0,0,2020-11-24T13:22:44Z,61.12047,R+61,Trump +61,republican,61.12047,2383,57.8,2379,41.24,north-dakota,2020-11-27T00:47:10.071304Z
38105,Williams,14334,0,15,15,Merged into voters' home precincts and released with cumulative results,100,14334,>98%,>98% reported,edison,10,unknown,,8895,,,11739,2169,362,64,0,0,0,0,2020-11-24T13:22:44Z,66.76434,R+67,Trump +67,republican,66.76434,12807,65.1,9808,49.57,north-dakota,2020-11-27T00:47:10.071304Z
