fips,name,votes,absentee_votes,reporting,precincts,absentee_method,eevp,tot_exp_vote,eevp_value,eevp_display,eevp_source,turnout_stage,absentee_count_progress,absentee_outstanding,absentee_max_ballots,provisional_outstanding,provisional_count_progress,results_trumpd,results_bidenj,results_jorgensenj,results_westk,results_hawkinsh,results_blankenshipd,results_la_rivag,results_mchughj,results_pierceb,results_write_ins,results_absentee_trumpd,results_absentee_bidenj,results_absentee_jorgensenj,results_absentee_westk,results_absentee_hawkinsh,results_absentee_blankenshipd,results_absentee_la_rivag,results_absentee_mchughj,results_absentee_pierceb,results_absentee_write_ins,last_updated,leader_margin_value,leader_margin_display,leader_margin_name_display,leader_party_id,margin2020,votes2016,margin2016,votes2012,margin2012,state,retrieved_time
49001,Beaver,3100,0,9,9,"As a subtotal in the FIRST cumulative report, along with regular precincts",100,3100,>98%,>98% reported,edison,10,unknown,,2092,,,2695,357,23,7,6,4,4,3,1,,0,0,0,0,0,0,0,0,0,,2020-11-24T21:57:00Z,75.41935,R+75,Trump +75,republican,75.41935,2505,60.5,2560,71.41,utah,2020-11-27T00:48:23.187999Z
49003,Box Elder,27027,14719,53,53,Released as a separate subtotal as first report of the night,100,27023,>98%,>98% reported,edison,10,unknown,,21942,,,21548,4473,614,112,55,134,18,33,36,4,11361,2883,285,56,22,64,10,20,18,0,2020-11-24T21:40:27Z,63.17756,R+63,Trump +63,republican,63.17756,19878,40.1,19408,77.89,utah,2020-11-27T00:48:23.187999Z
49005,Cache,57571,0,91,91,Merged into voters' home precincts and released with cumulative results,100,57534,>98%,>98% reported,edison,10,all,,32212,,,38032,16650,1796,230,217,351,54,98,106,37,0,0,0,0,0,0,0,0,0,0,2020-11-24T21:40:38Z,37.14023,R+37,Trump +37,republican,37.14023,46718,15.9,42293,68.08,utah,2020-11-27T00:48:23.187999Z
49007,Carbon,9369,0,20,20,Released as a separate subtotal as first report of the night,100,9369,>98%,>98% reported,edison,10,unknown,,7692,,,6693,2392,151,44,18,22,5,19,25,0,0,0,0,0,0,0,0,0,0,0,2020-11-24T13:26:58Z,45.90671,R+46,Trump +46,republican,45.90671,7999,44.5,7567,37.2,utah,2020-11-27T00:48:23.187999Z
49009,Daggett,619,0,3,3,Released as a separate subtotal at the end of tabulation,100,619,>98%,>98% reported,edison,10,unknown,,562,,,496,111,7,2,0,2,0,0,1,,0,0,0,0,0,0,0,0,0,,2020-11-24T21:40:50Z,62.19709,R+62,Trump +62,republican,62.19709,477,53.2,520,60,utah,2020-11-27T00:48:23.187999Z
49011,Davis,169895,0,224,224,Merged into voters' home precincts and released with cumulative results,100,169814,>98%,>98% reported,edison,10,unknown,,123145,,,104135,57411,5004,1012,597,827,118,330,380,81,0,0,0,0,0,0,0,0,0,0,2020-11-24T21:57:58Z,27.50169,R+28,Trump +28,republican,27.50169,140288,16,121069,61.93,utah,2020-11-27T00:48:23.187999Z
49013,Duchesne,8524,0,34,34,Released with cumulative results periodically election night,100,8524,>98%,>98% reported,edison,10,unknown,,2795,,,7513,843,107,18,9,21,3,4,6,,0,0,0,0,0,0,0,0,0,,2020-11-24T21:41:44Z,78.24965,R+78,Trump +78,republican,78.24965,6988,68.4,6379,80.22,utah,2020-11-27T00:48:23.187999Z
49015,Emery,4865,0,12,12,Merged into voters' home precincts and released with cumulative results,100,4865,>98%,>98% reported,edison,10,unknown,,2072,,,4207,572,47,15,8,4,2,4,6,0,0,0,0,0,0,0,0,0,0,0,2020-11-24T21:41:57Z,74.71737,R+75,Trump +75,republican,74.71737,4315,70.6,4449,72.11,utah,2020-11-27T00:48:23.187999Z
49017,Garfield,2732,0,11,11,Merged into voters' home precincts and released with cumulative results,100,2732,>98%,>98% reported,edison,10,unknown,,1560,,,2158,514,37,2,11,3,1,3,3,,0,0,0,0,0,0,0,0,0,,2020-11-24T13:26:19Z,60.1757,R+60,Trump +60,republican,60.1757,2363,52.8,2182,69.84,utah,2020-11-27T00:48:23.187999Z
49019,Grand,5185,0,18,18,Merged into voters' home precincts and released with cumulative results,100,5185,>98%,>98% reported,edison,10,unknown,,3890,,,2248,2806,62,19,23,5,1,6,15,0,0,0,0,0,0,0,0,0,0,0,2020-11-24T21:42:09Z,10.76181,D+11,Biden +11,democrat,-10.76181,4601,0.3,3950,6.81,utah,2020-11-27T00:48:23.187999Z
49021,Iron,24890,0,41,41,Released as a separate subtotal as first report of the night,100,24890,>98%,>98% reported,edison,10,unknown,,15125,,,18989,4892,666,94,78,88,20,23,40,,0,0,0,0,0,0,0,0,0,,2020-11-24T21:42:34Z,56.6372,R+57,Trump +57,republican,56.6372,17831,49.4,16701,72.16,utah,2020-11-27T00:48:23.187999Z
49023,Juab,5866,0,10,10,Released as a separate subtotal as first report of the night,100,5865,>98%,>98% reported,edison,10,all,,3157,,,5087,645,91,13,5,16,1,4,3,1,0,0,0,0,0,0,0,0,0,0,2020-11-24T21:42:54Z,75.72451,R+76,Trump +76,republican,75.72451,4221,48.9,3972,75.45,utah,2020-11-27T00:48:23.187999Z
49025,Kane,4180,0,12,12,Merged into voters' home precincts and released with cumulative results,100,4180,>98%,>98% reported,edison,10,unknown,,2752,,,2998,1083,51,15,8,16,0,2,7,0,0,0,0,0,0,0,0,0,0,0,2020-11-24T21:43:07Z,45.8134,R+46,Trump +46,republican,45.8134,3538,43.1,3371,52.74,utah,2020-11-27T00:48:23.187999Z
49027,Millard,6160,0,17,17,"As a subtotal in the FIRST cumulative report, along with regular precincts",100,6160,>98%,>98% reported,edison,10,unknown,,2212,,,5404,624,64,16,5,26,1,6,14,0,0,0,0,0,0,0,0,0,0,0,2020-11-24T21:43:18Z,77.5974,R+78,Trump +78,republican,77.5974,5269,59.6,5026,80.52,utah,2020-11-27T00:48:23.187999Z
49029,Morgan,6512,0,15,15,Released as a separate subtotal as first report of the night,100,6512,>98%,>98% reported,edison,10,unknown,,4537,,,5181,1086,160,35,13,21,0,5,11,,0,0,0,0,0,0,0,0,0,,2020-11-24T21:43:27Z,62.88391,R+63,Trump +63,republican,62.88391,5222,38.1,4597,80.73,utah,2020-11-27T00:48:23.187999Z
49031,Piute,871,0,5,5,Merged into voters' home precincts and released with cumulative results,100,871,>98%,>98% reported,edison,10,unknown,,682,,,773,86,7,3,0,1,1,0,0,,0,0,0,0,0,0,0,0,0,,2020-11-24T21:43:42Z,78.87486,R+79,Trump +79,republican,78.87486,730,79.3,782,79.67,utah,2020-11-27T00:48:23.187999Z
49033,Rich,1363,0,5,5,Merged into voters' home precincts and released with cumulative results,100,1363,>98%,>98% reported,edison,10,unknown,,670,,,1157,180,14,4,2,3,0,2,1,,0,0,0,0,0,0,0,0,0,,2020-11-24T21:43:50Z,71.68012,R+72,Trump +72,republican,71.68012,1118,55.7,1007,82.62,utah,2020-11-27T00:48:23.187999Z
49035,Salt Lake,541175,507874,788,788,Released as a separate subtotal as first report of the night,100,540966,>98%,>98% reported,edison,10,all,,375002,,,230174,289906,12219,2590,2203,1570,579,778,947,209,210607,277846,11375,2358,2056,1511,521,710,890,0,2020-11-24T21:59:24Z,11.03746,D+11,Biden +11,democrat,-11.03746,423743,-8.9,381799,20.34,utah,2020-11-27T00:48:23.187999Z
49037,San Juan,6878,0,23,23,Merged into voters' home precincts and released with cumulative results,100,6877,>98%,>98% reported,edison,10,unknown,,3260,,,3535,3113,99,45,17,28,5,19,16,1,0,0,0,0,0,0,0,0,0,0,2020-11-24T21:44:30Z,6.1355,R+6,Trump +6,republican,6.1355,5534,10.9,5307,17.62,utah,2020-11-27T00:48:23.187999Z
49039,Sanpete,12631,0,29,29,Released as a separate subtotal as first report of the night,100,12625,>98%,>98% reported,edison,10,all,,4390,,,10459,1794,215,39,19,50,7,20,22,6,0,0,0,0,0,0,0,0,0,0,2020-11-24T21:44:52Z,68.60106,R+69,Trump +69,republican,68.60106,10247,45.2,9547,77.78,utah,2020-11-27T00:48:23.187999Z
49041,Sevier,10363,0,23,23,"As a subtotal in the FIRST cumulative report, along with regular precincts",100,10362,>98%,>98% reported,edison,10,unknown,,7135,,,9052,1084,133,28,14,31,3,4,13,1,0,0,0,0,0,0,0,0,0,0,2020-11-24T21:45:05Z,76.88893,R+77,Trump +77,republican,76.88893,8695,67,8069,80.17,utah,2020-11-27T00:48:23.187999Z
49043,Summit,26088,0,50,50,Released as a separate subtotal as first report of the night,100,26086,>98%,>98% reported,edison,10,unknown,,20812,,,10252,15244,367,86,65,25,12,18,17,2,0,0,0,0,0,0,0,0,0,0,2020-11-24T21:45:22Z,19.13523,D+19,Biden +19,democrat,-19.13523,20885,-15.2,17488,4.64,utah,2020-11-27T00:48:23.187999Z
49045,Tooele,31518,26903,62,62,Released as a separate subtotal as first report of the night,100,31506,>98%,>98% reported,edison,10,all,,22742,,,21014,8943,958,152,81,181,33,81,63,12,17594,8033,783,121,68,160,29,69,46,0,2020-11-24T21:45:50Z,38.29875,R+38,Trump +38,republican,38.29875,21992,29.1,19261,50.59,utah,2020-11-27T00:48:23.187999Z
49047,Uintah,15307,13064,26,26,Released as a separate subtotal as first report of the night,100,15303,>98%,>98% reported,edison,10,all,,8700,,,13261,1663,226,37,29,56,5,10,16,4,11290,1469,183,25,24,49,2,9,13,0,2020-11-24T21:46:26Z,75.76926,R+76,Trump +76,republican,75.76926,12864,64.6,11583,81.36,utah,2020-11-27T00:48:23.187999Z
49049,Utah,284480,0,294,294,Released as a separate subtotal as first report of the night,100,284286,>98%,>98% reported,edison,10,all,,95185,,,192812,76033,10377,1680,853,1375,169,466,521,194,0,0,0,0,0,0,0,0,0,0,2020-11-24T21:46:53Z,41.04999,R+41,Trump +41,republican,41.04999,203642,20.5,177713,78.59,utah,2020-11-27T00:48:23.187999Z
49051,Wasatch,17581,0,38,38,None,100,17579,>98%,>98% reported,edison,10,unknown,,8962,,,10795,6187,352,86,45,53,7,34,20,2,0,0,0,0,0,0,0,0,0,0,2020-11-24T21:47:38Z,26.21011,R+26,Trump +26,republican,26.21011,12266,24.9,9589,52.45,utah,2020-11-27T00:48:23.187999Z
49053,Washington,90476,75949,113,113,Merged into voters' home precincts and released with cumulative results,100,90457,>98%,>98% reported,edison,10,unknown,,53675,,,67294,20530,1742,298,187,220,33,72,81,19,55654,18332,1248,228,143,185,27,61,71,0,2020-11-24T21:48:03Z,51.68664,R+52,Trump +52,republican,51.68664,62371,51.9,54012,67.32,utah,2020-11-27T00:48:23.187999Z
49055,Wayne,1621,0,7,7,Merged into voters' home precincts and released with cumulative results,100,1621,>98%,>98% reported,edison,10,unknown,,902,,,1229,365,9,7,3,3,2,1,2,,0,0,0,0,0,0,0,0,0,,2020-11-24T22:00:45Z,53.30043,R+53,Trump +53,republican,53.30043,1426,48.7,1327,65.86,utah,2020-11-27T00:48:23.187999Z
49057,Weber,111442,0,154,154,"As a subtotal in the FIRST cumulative report, along with regular precincts",100,111403,>98%,>98% reported,edison,10,all,,74882,,,65949,40695,2849,524,482,415,55,184,250,39,0,0,0,0,0,0,0,0,0,0,2020-11-24T21:49:16Z,22.66112,R+23,Trump +23,republican,22.66112,86006,19.9,75912,45.29,utah,2020-11-27T00:48:23.187999Z
