fips,name,votes,absentee_votes,reporting,precincts,absentee_method,eevp,tot_exp_vote,eevp_value,eevp_display,eevp_source,turnout_stage,absentee_count_progress,absentee_outstanding,absentee_max_ballots,provisional_outstanding,provisional_count_progress,results_bidenj,results_trumpd,results_jorgensenj,results_hawkinsh,results_la_rivag,results_kennedya,results_write_ins,results_absentee_bidenj,results_absentee_trumpd,results_absentee_jorgensenj,results_absentee_hawkinsh,results_absentee_la_rivag,results_absentee_kennedya,results_absentee_write_ins,last_updated,leader_margin_value,leader_margin_display,leader_margin_name_display,leader_party_id,margin2020,votes2016,margin2016,votes2012,margin2012,state,retrieved_time
53001,Adams,5784,0,31,31,None,100,5512,>98%,>98% reported,edison,4,all,,,,,1789,3881,82,18,9,5,,0,0,0,0,0,0,,2020-11-16T15:47:54Z,36.16874,R+36,Trump +36,republican,36.16874,4782,37.3,4793,34.03,washington,2020-11-19T00:43:04.218774Z
53003,Asotin,11795,0,26,26,None,100,11386,>98%,>98% reported,edison,4,all,,,,,4233,7259,254,35,9,5,,0,0,0,0,0,0,,2020-11-16T15:47:54Z,25.65494,R+26,Trump +26,republican,25.65494,9974,26.1,9901,16.68,washington,2020-11-19T00:43:04.218774Z
53005,Benton,101965,0,245,245,None,100,92031,>98%,>98% reported,edison,4,unknown,,,,,38572,60177,2690,351,118,57,,0,0,0,0,0,0,,2020-11-17T00:35:47Z,21.18864,R+21,Trump +21,republican,21.18864,83592,24.9,79559,26.79,washington,2020-11-19T00:43:04.218774Z
53007,Chelan,42387,0,91,91,None,100,38387,>98%,>98% reported,edison,4,unknown,,,,,19005,22476,697,145,43,21,,0,0,0,0,0,0,,2020-11-16T15:47:56Z,8.18883,R+8,Trump +8,republican,8.18883,34433,14.8,32250,16.4,washington,2020-11-19T00:43:04.218774Z
53009,Clallam,48658,0,67,67,None,100,45376,>98%,>98% reported,edison,4,unknown,,,,,24532,22912,878,234,60,42,,0,0,0,0,0,0,,2020-11-16T15:47:57Z,3.32936,D+3,Biden +3,democrat,-3.32936,40533,2.8,38066,-0.38,washington,2020-11-19T00:43:04.218774Z
53011,Clark,272978,0,314,314,None,100,230184,>98%,>98% reported,edison,2,unknown,,,,,140095,126079,5307,1121,237,139,,0,0,0,0,0,0,,2020-11-18T00:10:50Z,5.13448,D+5,Biden +5,democrat,-5.13448,208485,-0.2,190805,-0.23,washington,2020-11-19T00:43:04.218774Z
53013,Columbia,2482,0,13,13,None,96,2598,96%,96% reported,edison,2,unknown,,,,,668,1754,51,5,1,3,,0,0,0,0,0,0,,2020-11-16T15:47:58Z,43.75504,R+44,Trump +44,republican,43.75504,2229,43.6,2259,40.86,washington,2020-11-19T00:43:04.218774Z
53015,Cowlitz,59805,0,78,78,None,100,52546,>98%,>98% reported,edison,2,unknown,,,,,23889,34314,1269,243,45,45,,0,0,0,0,0,0,,2020-11-16T23:54:46Z,17.43165,R+17,Trump +17,republican,17.43165,47142,13.3,44620,-4.44,washington,2020-11-19T00:43:04.218774Z
53017,Douglas,21110,0,47,47,None,100,18500,>98%,>98% reported,edison,2,unknown,,,,,7787,12908,334,56,13,12,,0,0,0,0,0,0,,2020-11-16T15:47:59Z,24.25865,R+24,Trump +24,republican,24.25865,15901,29.5,14942,28.5,washington,2020-11-19T00:43:04.218774Z
53019,Ferry,4292,0,19,19,None,100,4141,>98%,>98% reported,edison,4,some,,,,,1465,2735,74,10,5,3,,0,0,0,0,0,0,,2020-11-16T15:48:00Z,29.58993,R+30,Trump +30,republican,29.58993,3644,30.3,3440,20.38,washington,2020-11-19T00:43:04.218774Z
53021,Franklin,31833,0,105,105,None,100,27278,>98%,>98% reported,edison,4,some,,,,,13148,17849,673,109,32,22,,0,0,0,0,0,0,,2020-11-16T15:48:01Z,14.76769,R+15,Trump +15,republican,14.76769,24614,17.6,22643,23.63,washington,2020-11-19T00:43:04.218774Z
53023,Garfield,1470,0,12,12,None,100,1470,>98%,>98% reported,edison,4,all,,,,,362,1062,42,2,1,1,,0,0,0,0,0,0,,2020-11-16T15:48:01Z,47.61905,R+48,Trump +48,republican,47.61905,1266,45.2,1278,45.15,washington,2020-11-19T00:43:04.218774Z
53025,Grant,37340,0,75,75,None,100,32598,>98%,>98% reported,edison,4,unknown,,,,,11751,24703,708,110,43,25,,0,0,0,0,0,0,,2020-11-18T23:30:47Z,34.68666,R+35,Trump +35,republican,34.68666,29258,36.6,27558,32.3,washington,2020-11-19T00:43:04.218774Z
53027,Grays Harbor,37763,0,77,77,None,100,32987,>98%,>98% reported,edison,4,all,,,,,17172,19590,746,196,28,31,,0,0,0,0,0,0,,2020-11-16T15:48:03Z,6.40309,R+6,Trump +6,republican,6.40309,29301,7,28684,-14.11,washington,2020-11-19T00:43:04.218774Z
53029,Island,53444,0,48,48,None,100,49307,>98%,>98% reported,edison,2,unknown,,,,,29171,22698,1284,215,51,25,,0,0,0,0,0,0,,2020-11-16T19:05:49Z,12.11174,D+12,Biden +12,democrat,-12.11174,44273,-5.6,42099,-4.45,washington,2020-11-19T00:43:04.218774Z
53031,Jefferson,24633,0,39,39,None,100,23317,>98%,>98% reported,edison,2,unknown,,,,,17190,6921,329,146,34,13,,0,0,0,0,0,0,,2020-11-16T15:48:03Z,41.68798,D+42,Biden +42,democrat,-41.68798,20879,-31.7,19829,-31.94,washington,2020-11-19T00:43:04.218774Z
53033,King,1199885,0,2642,2642,None,100,1148274,>98%,>98% reported,edison,4,all,,,,,905714,268322,17990,5604,1595,660,,0,0,0,0,0,0,,2020-11-18T23:40:44Z,53.12109,D+53,Biden +53,democrat,-53.12109,1028450,-48.8,967154,-40.56,washington,2020-11-19T00:43:04.218774Z
53035,Kitsap,157420,0,215,215,None,100,142965,>98%,>98% reported,edison,4,some,,,,,90163,61489,4798,721,143,106,,0,0,0,0,0,0,,2020-11-19T00:10:48Z,18.21497,D+18,Biden +18,democrat,-18.21497,128770,-11,123367,-11.7,washington,2020-11-19T00:43:04.218774Z
53037,Kittitas,25579,0,62,62,None,100,21798,>98%,>98% reported,edison,4,all,,,,,11004,13778,512,95,19,9,162,0,0,0,0,0,0,0,2020-11-16T15:48:04Z,10.84483,R+11,Trump +11,republican,10.84483,19615,13.3,18171,10.09,washington,2020-11-19T00:43:04.218774Z
53039,Klickitat,13453,0,29,29,None,100,12384,>98%,>98% reported,edison,4,all,,,,,5947,7223,210,49,13,11,,0,0,0,0,0,0,,2020-11-16T15:48:05Z,9.48487,R+9,Trump +9,republican,9.48487,11074,14.4,10274,6.99,washington,2020-11-19T00:43:04.218774Z
53041,Lewis,44935,0,95,95,None,100,42800,>98%,>98% reported,edison,4,all,,,,,14462,29318,920,173,42,20,,0,0,0,0,0,0,,2020-11-16T15:48:05Z,33.06109,R+33,Trump +33,republican,33.06109,35199,35.1,34044,22.88,washington,2020-11-19T00:43:04.218774Z
53043,Lincoln,6974,0,46,46,None,100,6753,>98%,>98% reported,edison,4,unknown,,,,,1711,5134,110,15,3,1,,0,0,0,0,0,0,,2020-11-16T15:48:06Z,49.08231,R+49,Trump +49,republican,49.08231,5861,48.9,5872,40.7,washington,2020-11-19T00:43:04.218774Z
53045,Mason,37060,0,43,43,None,100,32470,>98%,>98% reported,edison,4,unknown,,,,,17253,18676,886,175,45,25,,0,0,0,0,0,0,,2020-11-16T15:48:07Z,3.83972,R+4,Trump +4,republican,3.83972,29003,5.8,28235,-7.09,washington,2020-11-19T00:43:04.218774Z
53047,Okanogan,20997,0,248,248,None,100,19655,>98%,>98% reported,edison,2,unknown,,,,,8833,11758,286,79,24,17,,0,0,0,0,0,0,,2020-11-18T22:00:53Z,13.93056,R+14,Trump +14,republican,13.93056,17556,18.9,16846,12.54,washington,2020-11-19T00:43:04.218774Z
53049,Pacific,13973,0,39,39,None,100,12323,>98%,>98% reported,edison,4,some,,,,,6776,6930,198,46,13,10,,0,0,0,0,0,0,,2020-11-16T15:48:09Z,1.10213,R+1.1,Trump +1.1,republican,1.10213,10972,6.7,10524,-11.52,washington,2020-11-19T00:43:04.218774Z
53051,Pend Oreille,8422,0,27,27,None,100,8400,>98%,>98% reported,edison,2,unknown,,,,,2578,5655,144,31,9,5,,0,0,0,0,0,0,,2020-11-16T15:48:09Z,36.53526,R+37,Trump +37,republican,36.53526,7016,34.8,6668,21.66,washington,2020-11-19T00:43:04.218774Z
53053,Pierce,460354,0,555,555,None,100,395000,>98%,>98% reported,edison,4,unknown,,,,,249316,197578,10481,2122,539,318,,0,0,0,0,0,0,,2020-11-17T22:50:55Z,11.23874,D+11,Biden +11,democrat,-11.23874,360017,-7.1,342910,-11.07,washington,2020-11-19T00:43:04.218774Z
53055,San Juan,12896,0,19,19,None,100,12390,>98%,>98% reported,edison,4,some,,,,,9606,2994,202,69,16,9,,0,0,0,0,0,0,,2020-11-16T15:48:11Z,51.27171,D+51,Biden +51,democrat,-51.27171,11134,-40.3,10594,-37.89,washington,2020-11-19T00:43:04.218774Z
53057,Skagit,71802,0,121,121,None,100,64363,>98%,>98% reported,edison,4,some,,,,,37668,32247,1462,285,88,52,,0,0,0,0,0,0,,2020-11-19T00:30:55Z,7.54993,D+8,Biden +8,democrat,-7.54993,58059,-3.4,55269,-6.54,washington,2020-11-19T00:43:04.218774Z
53059,Skamania,7066,0,23,23,None,100,6115,>98%,>98% reported,edison,6,all,,,,,3100,3783,148,27,4,4,,0,0,0,0,0,0,,2020-11-16T15:48:11Z,9.66601,R+10,Trump +10,republican,9.66601,5829,11.9,5466,1.08,washington,2020-11-19T00:43:04.218774Z
53061,Snohomish,434757,0,784,784,None,100,393499,>98%,>98% reported,edison,4,all,,,,,256277,166090,9661,1996,485,248,,0,0,0,0,0,0,,2020-11-18T01:10:45Z,20.74423,D+21,Biden +21,democrat,-20.74423,354734,-16.1,329817,-16.83,washington,2020-11-19T00:43:04.218774Z
53063,Spokane,292680,0,362,362,None,100,261333,>98%,>98% reported,edison,4,all,,,,,135511,148244,7126,1294,307,198,,0,0,0,0,0,0,,2020-11-17T00:21:47Z,4.35049,R+4,Trump +4,republican,4.35049,236050,8.3,223830,5.8,washington,2020-11-19T00:43:04.218774Z
53065,Stevens,27937,0,58,58,None,100,26079,>98%,>98% reported,edison,4,some,,,,,7721,19592,515,77,18,14,,0,0,0,0,0,0,,2020-11-17T21:00:49Z,42.49204,R+42,Trump +42,republican,42.49204,23395,40.2,22161,26.75,washington,2020-11-19T00:43:04.218774Z
53067,Thurston,166293,0,284,284,None,100,148822,>98%,>98% reported,edison,4,unknown,,,,,96255,64995,3682,971,280,110,,0,0,0,0,0,0,,2020-11-17T00:38:51Z,18.79815,D+19,Biden +19,democrat,-18.79815,134191,-15,127063,-19.48,washington,2020-11-19T00:43:04.218774Z
53069,Wahkiakum,2924,0,11,11,None,100,2712,>98%,>98% reported,edison,4,unknown,,,,,1150,1711,43,18,0,2,,0,0,0,0,0,0,,2020-11-16T15:48:14Z,19.18605,R+19,Trump +19,republican,19.18605,2429,21.1,2294,1.09,washington,2020-11-19T00:43:04.218774Z
53071,Walla Walla,29891,0,63,63,None,100,29232,>98%,>98% reported,edison,4,some,,,,,13211,15794,714,115,45,12,,0,0,0,0,0,0,,2020-11-17T23:20:49Z,8.6414,R+9,Trump +9,republican,8.6414,26228,15.1,25108,19.44,washington,2020-11-19T00:43:04.218774Z
53073,Whatcom,137464,0,181,181,None,100,126124,>98%,>98% reported,edison,4,some,,,,,83557,50407,2479,726,206,89,,0,0,0,0,0,0,,2020-11-17T00:01:47Z,24.1154,D+24,Biden +24,democrat,-24.1154,113339,-17.4,103029,-13.96,washington,2020-11-19T00:43:04.218774Z
53075,Whitman,19868,0,69,69,None,100,19901,>98%,>98% reported,edison,4,unknown,,,,,10570,8642,506,118,18,14,,0,0,0,0,0,0,,2020-11-16T15:48:15Z,9.70405,D+10,Biden +10,democrat,-9.70405,18028,-4.1,17121,2.75,washington,2020-11-19T00:43:04.218774Z
53077,Yakima,95670,0,173,173,None,100,89413,>98%,>98% reported,edison,4,unknown,,,,,43162,50531,1424,320,154,79,,0,0,0,0,0,0,,2020-11-16T23:59:46Z,7.70252,R+8,Trump +8,republican,7.70252,79741,13.1,76973,11.72,washington,2020-11-19T00:43:04.218774Z
