fips,name,votes,absentee_votes,reporting,precincts,absentee_method,eevp,tot_exp_vote,eevp_value,eevp_display,eevp_source,turnout_stage,absentee_count_progress,absentee_max_ballots,results_youngd,results_galvina,results_absentee_youngd,results_absentee_galvina,last_updated,leader_margin_value,leader_margin_display,leader_margin_name_display,leader_party_id,race_id_race,race_slug_race,url_race,state_page_url_race,ap_polls_page_race,race_type_race,election_type_race,election_date_race,runoff_race,race_name_race,office_race,officeid_race,nyt_race_description_race,race_rating_race,nyt_key_race_race,seat_race,seat_name_race,state_id_race,state_slug_race,state_name_race,state_nyt_abbrev_race,state_shape_race,state_aspect_ratio_race,party_id_race,uncontested_race,report_race,result_race,result_source_race,gain_race,lost_seat_race,votes_race,absentee_votes_race,absentee_counties_race,absentee_count_progress_race,poll_display_race,poll_countdown_display_race,poll_waiting_display_race,poll_time_race,poll_time_short_race,precincts_reporting_race,precincts_total_race,reporting_display_race,reporting_value_race,eevp_race,tot_exp_vote_race,eevp_source_race,eevp_value_race,eevp_display_race,county_data_source_race,incumbent_party_race,no_forecast_race,last_updated_race,has_incumbent_race,leader_margin_value_race,leader_margin_votes_race,leader_margin_display_race,leader_margin_name_display_race,leader_party_id_race,expectations_text_race,expectations_text_short_race,absentee_ballot_deadline_race,absentee_postmark_deadline_race,winner_called_timestamp_race
02901,ED 1,7155,3585,8,9,Released as a separate subtotal as first report of the night,97,7375,97%,97% reported,edison,2,unknown,4000,3474,3681,1433,2152,2020-11-19T13:16:43Z,2.89308,D+3,Galvin +3,democrat,AK-G-H-1-2020-11-03,ak-house-general-district-001-2020-11-03,https://www.nytimes.com/interactive/2020/11/03/us/elections/results-alaska-house-district-at-large.html,https://www.nytimes.com/interactive/2020/11/03/us/elections/results-alaska.html,https://www.nytimes.com/interactive/2020/11/03/us/elections/ap-polls-alaska.html,house,general,2020-11-03,FALSE,U.S. House At-Large,U.S. House,H,"For Alaska’s single House seat, Alyse Galvin is <a href=""https://www.nytimes.com/2020/09/12/us/politics/alaska-democrats-independent-challengers.html"">again challenging Representative Don Young</a>, the body’s longest-serving member. Running as an independent with Democratic backing, Ms. Galvin, an education activist, lost to Mr. Young two years ago, but her bid in 2020 has become increasingly competitive. ",lean-rep,TRUE,1,At-Large,AK,alaska,Alaska,Alaska,horizontal,1,"",FALSE,TRUE,winner,AP,FALSE,"",351333,172732,37,unknown,Polls close at 1 a.m. Eastern time.,Polls close in,Polls have closed.,2020-11-04T06:00:00.000Z,1 a.m.,396,441,90% reporting,90%,99,367000,edison,>98%,>98% reported,edison,republican,FALSE,2020-11-20T14:24:08Z,TRUE,9.0521,31803,R+9,Young +9,republican,"","",10,0,1605115341304
02910,ED 10,10980,5618,11,11,Released as a separate subtotal as first report of the night,100,10144,>98%,>98% reported,edison,2,unknown,4000,7869,3111,3592,2026,2020-11-19T13:16:49Z,43.33333,R+43,Young +43,republican,AK-G-H-1-2020-11-03,ak-house-general-district-001-2020-11-03,https://www.nytimes.com/interactive/2020/11/03/us/elections/results-alaska-house-district-at-large.html,https://www.nytimes.com/interactive/2020/11/03/us/elections/results-alaska.html,https://www.nytimes.com/interactive/2020/11/03/us/elections/ap-polls-alaska.html,house,general,2020-11-03,FALSE,U.S. House At-Large,U.S. House,H,"For Alaska’s single House seat, Alyse Galvin is <a href=""https://www.nytimes.com/2020/09/12/us/politics/alaska-democrats-independent-challengers.html"">again challenging Representative Don Young</a>, the body’s longest-serving member. Running as an independent with Democratic backing, Ms. Galvin, an education activist, lost to Mr. Young two years ago, but her bid in 2020 has become increasingly competitive. ",lean-rep,TRUE,1,At-Large,AK,alaska,Alaska,Alaska,horizontal,1,"",FALSE,TRUE,winner,AP,FALSE,"",351333,172732,37,unknown,Polls close at 1 a.m. Eastern time.,Polls close in,Polls have closed.,2020-11-04T06:00:00.000Z,1 a.m.,396,441,90% reporting,90%,99,367000,edison,>98%,>98% reported,edison,republican,FALSE,2020-11-20T14:24:08Z,TRUE,9.0521,31803,R+9,Young +9,republican,"","",10,0,1605115341304
02911,ED 11,10507,5891,8,9,Released as a separate subtotal as first report of the night,97,10805,97%,97% reported,edison,2,unknown,4000,6959,3548,3473,2418,2020-11-19T13:16:49Z,32.46407,R+32,Young +32,republican,AK-G-H-1-2020-11-03,ak-house-general-district-001-2020-11-03,https://www.nytimes.com/interactive/2020/11/03/us/elections/results-alaska-house-district-at-large.html,https://www.nytimes.com/interactive/2020/11/03/us/elections/results-alaska.html,https://www.nytimes.com/interactive/2020/11/03/us/elections/ap-polls-alaska.html,house,general,2020-11-03,FALSE,U.S. House At-Large,U.S. House,H,"For Alaska’s single House seat, Alyse Galvin is <a href=""https://www.nytimes.com/2020/09/12/us/politics/alaska-democrats-independent-challengers.html"">again challenging Representative Don Young</a>, the body’s longest-serving member. Running as an independent with Democratic backing, Ms. Galvin, an education activist, lost to Mr. Young two years ago, but her bid in 2020 has become increasingly competitive. ",lean-rep,TRUE,1,At-Large,AK,alaska,Alaska,Alaska,horizontal,1,"",FALSE,TRUE,winner,AP,FALSE,"",351333,172732,37,unknown,Polls close at 1 a.m. Eastern time.,Polls close in,Polls have closed.,2020-11-04T06:00:00.000Z,1 a.m.,396,441,90% reporting,90%,99,367000,edison,>98%,>98% reported,edison,republican,FALSE,2020-11-20T14:24:08Z,TRUE,9.0521,31803,R+9,Young +9,republican,"","",10,0,1605115341304
02912,ED 12,11051,5655,7,7,Released as a separate subtotal as first report of the night,100,10705,>98%,>98% reported,edison,2,unknown,4000,7821,3230,3445,2210,2020-11-19T13:16:48Z,41.54375,R+42,Young +42,republican,AK-G-H-1-2020-11-03,ak-house-general-district-001-2020-11-03,https://www.nytimes.com/interactive/2020/11/03/us/elections/results-alaska-house-district-at-large.html,https://www.nytimes.com/interactive/2020/11/03/us/elections/results-alaska.html,https://www.nytimes.com/interactive/2020/11/03/us/elections/ap-polls-alaska.html,house,general,2020-11-03,FALSE,U.S. House At-Large,U.S. House,H,"For Alaska’s single House seat, Alyse Galvin is <a href=""https://www.nytimes.com/2020/09/12/us/politics/alaska-democrats-independent-challengers.html"">again challenging Representative Don Young</a>, the body’s longest-serving member. Running as an independent with Democratic backing, Ms. Galvin, an education activist, lost to Mr. Young two years ago, but her bid in 2020 has become increasingly competitive. ",lean-rep,TRUE,1,At-Large,AK,alaska,Alaska,Alaska,horizontal,1,"",FALSE,TRUE,winner,AP,FALSE,"",351333,172732,37,unknown,Polls close at 1 a.m. Eastern time.,Polls close in,Polls have closed.,2020-11-04T06:00:00.000Z,1 a.m.,396,441,90% reporting,90%,99,367000,edison,>98%,>98% reported,edison,republican,FALSE,2020-11-20T14:24:08Z,TRUE,9.0521,31803,R+9,Young +9,republican,"","",10,0,1605115341304
02913,ED 13,7402,4331,5,6,Released as a separate subtotal as first report of the night,100,7290,>98%,>98% reported,edison,2,unknown,4000,4602,2800,2367,1964,2020-11-19T13:16:47Z,24.34477,R+24,Young +24,republican,AK-G-H-1-2020-11-03,ak-house-general-district-001-2020-11-03,https://www.nytimes.com/interactive/2020/11/03/us/elections/results-alaska-house-district-at-large.html,https://www.nytimes.com/interactive/2020/11/03/us/elections/results-alaska.html,https://www.nytimes.com/interactive/2020/11/03/us/elections/ap-polls-alaska.html,house,general,2020-11-03,FALSE,U.S. House At-Large,U.S. House,H,"For Alaska’s single House seat, Alyse Galvin is <a href=""https://www.nytimes.com/2020/09/12/us/politics/alaska-democrats-independent-challengers.html"">again challenging Representative Don Young</a>, the body’s longest-serving member. Running as an independent with Democratic backing, Ms. Galvin, an education activist, lost to Mr. Young two years ago, but her bid in 2020 has become increasingly competitive. ",lean-rep,TRUE,1,At-Large,AK,alaska,Alaska,Alaska,horizontal,1,"",FALSE,TRUE,winner,AP,FALSE,"",351333,172732,37,unknown,Polls close at 1 a.m. Eastern time.,Polls close in,Polls have closed.,2020-11-04T06:00:00.000Z,1 a.m.,396,441,90% reporting,90%,99,367000,edison,>98%,>98% reported,edison,republican,FALSE,2020-11-20T14:24:08Z,TRUE,9.0521,31803,R+9,Young +9,republican,"","",10,0,1605115341304
02914,ED 14,11346,7149,6,7,Released as a separate subtotal as first report of the night,98,11540,98%,98% reported,edison,2,unknown,4000,6886,4460,3827,3322,2020-11-19T13:16:47Z,21.38198,R+21,Young +21,republican,AK-G-H-1-2020-11-03,ak-house-general-district-001-2020-11-03,https://www.nytimes.com/interactive/2020/11/03/us/elections/results-alaska-house-district-at-large.html,https://www.nytimes.com/interactive/2020/11/03/us/elections/results-alaska.html,https://www.nytimes.com/interactive/2020/11/03/us/elections/ap-polls-alaska.html,house,general,2020-11-03,FALSE,U.S. House At-Large,U.S. House,H,"For Alaska’s single House seat, Alyse Galvin is <a href=""https://www.nytimes.com/2020/09/12/us/politics/alaska-democrats-independent-challengers.html"">again challenging Representative Don Young</a>, the body’s longest-serving member. Running as an independent with Democratic backing, Ms. Galvin, an education activist, lost to Mr. Young two years ago, but her bid in 2020 has become increasingly competitive. ",lean-rep,TRUE,1,At-Large,AK,alaska,Alaska,Alaska,horizontal,1,"",FALSE,TRUE,winner,AP,FALSE,"",351333,172732,37,unknown,Polls close at 1 a.m. Eastern time.,Polls close in,Polls have closed.,2020-11-04T06:00:00.000Z,1 a.m.,396,441,90% reporting,90%,99,367000,edison,>98%,>98% reported,edison,republican,FALSE,2020-11-20T14:24:08Z,TRUE,9.0521,31803,R+9,Young +9,republican,"","",10,0,1605115341304
02915,ED 15,5325,3115,4,5,Released as a separate subtotal as first report of the night,95,5576,95%,95% reported,edison,2,unknown,4000,2607,2718,1348,1767,2020-11-19T13:16:46Z,2.08451,D+2,Galvin +2,democrat,AK-G-H-1-2020-11-03,ak-house-general-district-001-2020-11-03,https://www.nytimes.com/interactive/2020/11/03/us/elections/results-alaska-house-district-at-large.html,https://www.nytimes.com/interactive/2020/11/03/us/elections/results-alaska.html,https://www.nytimes.com/interactive/2020/11/03/us/elections/ap-polls-alaska.html,house,general,2020-11-03,FALSE,U.S. House At-Large,U.S. House,H,"For Alaska’s single House seat, Alyse Galvin is <a href=""https://www.nytimes.com/2020/09/12/us/politics/alaska-democrats-independent-challengers.html"">again challenging Representative Don Young</a>, the body’s longest-serving member. Running as an independent with Democratic backing, Ms. Galvin, an education activist, lost to Mr. Young two years ago, but her bid in 2020 has become increasingly competitive. ",lean-rep,TRUE,1,At-Large,AK,alaska,Alaska,Alaska,horizontal,1,"",FALSE,TRUE,winner,AP,FALSE,"",351333,172732,37,unknown,Polls close at 1 a.m. Eastern time.,Polls close in,Polls have closed.,2020-11-04T06:00:00.000Z,1 a.m.,396,441,90% reporting,90%,99,367000,edison,>98%,>98% reported,edison,republican,FALSE,2020-11-20T14:24:08Z,TRUE,9.0521,31803,R+9,Young +9,republican,"","",10,0,1605115341304
02916,ED 16,8032,4585,6,7,Released as a separate subtotal as first report of the night,97,8294,97%,97% reported,edison,2,unknown,4000,3579,4453,1563,3022,2020-11-19T13:16:45Z,10.88147,D+11,Galvin +11,democrat,AK-G-H-1-2020-11-03,ak-house-general-district-001-2020-11-03,https://www.nytimes.com/interactive/2020/11/03/us/elections/results-alaska-house-district-at-large.html,https://www.nytimes.com/interactive/2020/11/03/us/elections/results-alaska.html,https://www.nytimes.com/interactive/2020/11/03/us/elections/ap-polls-alaska.html,house,general,2020-11-03,FALSE,U.S. House At-Large,U.S. House,H,"For Alaska’s single House seat, Alyse Galvin is <a href=""https://www.nytimes.com/2020/09/12/us/politics/alaska-democrats-independent-challengers.html"">again challenging Representative Don Young</a>, the body’s longest-serving member. Running as an independent with Democratic backing, Ms. Galvin, an education activist, lost to Mr. Young two years ago, but her bid in 2020 has become increasingly competitive. ",lean-rep,TRUE,1,At-Large,AK,alaska,Alaska,Alaska,horizontal,1,"",FALSE,TRUE,winner,AP,FALSE,"",351333,172732,37,unknown,Polls close at 1 a.m. Eastern time.,Polls close in,Polls have closed.,2020-11-04T06:00:00.000Z,1 a.m.,396,441,90% reporting,90%,99,367000,edison,>98%,>98% reported,edison,republican,FALSE,2020-11-20T14:24:08Z,TRUE,9.0521,31803,R+9,Young +9,republican,"","",10,0,1605115341304
02917,ED 17,7044,4389,6,7,Released as a separate subtotal as first report of the night,93,7564,93%,93% reported,edison,2,unknown,4000,2856,4188,1394,2995,2020-11-19T13:16:45Z,18.90971,D+19,Galvin +19,democrat,AK-G-H-1-2020-11-03,ak-house-general-district-001-2020-11-03,https://www.nytimes.com/interactive/2020/11/03/us/elections/results-alaska-house-district-at-large.html,https://www.nytimes.com/interactive/2020/11/03/us/elections/results-alaska.html,https://www.nytimes.com/interactive/2020/11/03/us/elections/ap-polls-alaska.html,house,general,2020-11-03,FALSE,U.S. House At-Large,U.S. House,H,"For Alaska’s single House seat, Alyse Galvin is <a href=""https://www.nytimes.com/2020/09/12/us/politics/alaska-democrats-independent-challengers.html"">again challenging Representative Don Young</a>, the body’s longest-serving member. Running as an independent with Democratic backing, Ms. Galvin, an education activist, lost to Mr. Young two years ago, but her bid in 2020 has become increasingly competitive. ",lean-rep,TRUE,1,At-Large,AK,alaska,Alaska,Alaska,horizontal,1,"",FALSE,TRUE,winner,AP,FALSE,"",351333,172732,37,unknown,Polls close at 1 a.m. Eastern time.,Polls close in,Polls have closed.,2020-11-04T06:00:00.000Z,1 a.m.,396,441,90% reporting,90%,99,367000,edison,>98%,>98% reported,edison,republican,FALSE,2020-11-20T14:24:08Z,TRUE,9.0521,31803,R+9,Young +9,republican,"","",10,0,1605115341304
02918,ED 18,7621,5069,8,10,Released as a separate subtotal as first report of the night,92,8298,92%,92% reported,edison,2,unknown,4000,2826,4795,1515,3554,2020-11-19T13:16:44Z,25.8365,D+26,Galvin +26,democrat,AK-G-H-1-2020-11-03,ak-house-general-district-001-2020-11-03,https://www.nytimes.com/interactive/2020/11/03/us/elections/results-alaska-house-district-at-large.html,https://www.nytimes.com/interactive/2020/11/03/us/elections/results-alaska.html,https://www.nytimes.com/interactive/2020/11/03/us/elections/ap-polls-alaska.html,house,general,2020-11-03,FALSE,U.S. House At-Large,U.S. House,H,"For Alaska’s single House seat, Alyse Galvin is <a href=""https://www.nytimes.com/2020/09/12/us/politics/alaska-democrats-independent-challengers.html"">again challenging Representative Don Young</a>, the body’s longest-serving member. Running as an independent with Democratic backing, Ms. Galvin, an education activist, lost to Mr. Young two years ago, but her bid in 2020 has become increasingly competitive. ",lean-rep,TRUE,1,At-Large,AK,alaska,Alaska,Alaska,horizontal,1,"",FALSE,TRUE,winner,AP,FALSE,"",351333,172732,37,unknown,Polls close at 1 a.m. Eastern time.,Polls close in,Polls have closed.,2020-11-04T06:00:00.000Z,1 a.m.,396,441,90% reporting,90%,99,367000,edison,>98%,>98% reported,edison,republican,FALSE,2020-11-20T14:24:08Z,TRUE,9.0521,31803,R+9,Young +9,republican,"","",10,0,1605115341304
02919,ED 19,5192,2863,5,6,Released as a separate subtotal as first report of the night,96,5406,96%,96% reported,edison,2,unknown,4000,2020,3172,834,2029,2020-11-19T13:16:43Z,22.18798,D+22,Galvin +22,democrat,AK-G-H-1-2020-11-03,ak-house-general-district-001-2020-11-03,https://www.nytimes.com/interactive/2020/11/03/us/elections/results-alaska-house-district-at-large.html,https://www.nytimes.com/interactive/2020/11/03/us/elections/results-alaska.html,https://www.nytimes.com/interactive/2020/11/03/us/elections/ap-polls-alaska.html,house,general,2020-11-03,FALSE,U.S. House At-Large,U.S. House,H,"For Alaska’s single House seat, Alyse Galvin is <a href=""https://www.nytimes.com/2020/09/12/us/politics/alaska-democrats-independent-challengers.html"">again challenging Representative Don Young</a>, the body’s longest-serving member. Running as an independent with Democratic backing, Ms. Galvin, an education activist, lost to Mr. Young two years ago, but her bid in 2020 has become increasingly competitive. ",lean-rep,TRUE,1,At-Large,AK,alaska,Alaska,Alaska,horizontal,1,"",FALSE,TRUE,winner,AP,FALSE,"",351333,172732,37,unknown,Polls close at 1 a.m. Eastern time.,Polls close in,Polls have closed.,2020-11-04T06:00:00.000Z,1 a.m.,396,441,90% reporting,90%,99,367000,edison,>98%,>98% reported,edison,republican,FALSE,2020-11-20T14:24:08Z,TRUE,9.0521,31803,R+9,Young +9,republican,"","",10,0,1605115341304
02902,ED 2,5595,2617,3,4,Released as a separate subtotal as first report of the night,92,6113,92%,92% reported,edison,2,unknown,4000,3367,2228,1297,1320,2020-11-19T13:16:42Z,20.35746,R+20,Young +20,republican,AK-G-H-1-2020-11-03,ak-house-general-district-001-2020-11-03,https://www.nytimes.com/interactive/2020/11/03/us/elections/results-alaska-house-district-at-large.html,https://www.nytimes.com/interactive/2020/11/03/us/elections/results-alaska.html,https://www.nytimes.com/interactive/2020/11/03/us/elections/ap-polls-alaska.html,house,general,2020-11-03,FALSE,U.S. House At-Large,U.S. House,H,"For Alaska’s single House seat, Alyse Galvin is <a href=""https://www.nytimes.com/2020/09/12/us/politics/alaska-democrats-independent-challengers.html"">again challenging Representative Don Young</a>, the body’s longest-serving member. Running as an independent with Democratic backing, Ms. Galvin, an education activist, lost to Mr. Young two years ago, but her bid in 2020 has become increasingly competitive. ",lean-rep,TRUE,1,At-Large,AK,alaska,Alaska,Alaska,horizontal,1,"",FALSE,TRUE,winner,AP,FALSE,"",351333,172732,37,unknown,Polls close at 1 a.m. Eastern time.,Polls close in,Polls have closed.,2020-11-04T06:00:00.000Z,1 a.m.,396,441,90% reporting,90%,99,367000,edison,>98%,>98% reported,edison,republican,FALSE,2020-11-20T14:24:08Z,TRUE,9.0521,31803,R+9,Young +9,republican,"","",10,0,1605115341304
02920,ED 20,7297,5153,7,9,Released as a separate subtotal as first report of the night,91,7980,91%,91% reported,edison,2,unknown,4000,2458,4839,1447,3706,2020-11-19T13:16:42Z,32.62985,D+33,Galvin +33,democrat,AK-G-H-1-2020-11-03,ak-house-general-district-001-2020-11-03,https://www.nytimes.com/interactive/2020/11/03/us/elections/results-alaska-house-district-at-large.html,https://www.nytimes.com/interactive/2020/11/03/us/elections/results-alaska.html,https://www.nytimes.com/interactive/2020/11/03/us/elections/ap-polls-alaska.html,house,general,2020-11-03,FALSE,U.S. House At-Large,U.S. House,H,"For Alaska’s single House seat, Alyse Galvin is <a href=""https://www.nytimes.com/2020/09/12/us/politics/alaska-democrats-independent-challengers.html"">again challenging Representative Don Young</a>, the body’s longest-serving member. Running as an independent with Democratic backing, Ms. Galvin, an education activist, lost to Mr. Young two years ago, but her bid in 2020 has become increasingly competitive. ",lean-rep,TRUE,1,At-Large,AK,alaska,Alaska,Alaska,horizontal,1,"",FALSE,TRUE,winner,AP,FALSE,"",351333,172732,37,unknown,Polls close at 1 a.m. Eastern time.,Polls close in,Polls have closed.,2020-11-04T06:00:00.000Z,1 a.m.,396,441,90% reporting,90%,99,367000,edison,>98%,>98% reported,edison,republican,FALSE,2020-11-20T14:24:08Z,TRUE,9.0521,31803,R+9,Young +9,republican,"","",10,0,1605115341304
02921,ED 21,9359,5759,7,8,Released as a separate subtotal as first report of the night,96,9700,96%,96% reported,edison,2,unknown,4000,3886,5473,1823,3936,2020-11-19T13:16:42Z,16.95694,D+17,Galvin +17,democrat,AK-G-H-1-2020-11-03,ak-house-general-district-001-2020-11-03,https://www.nytimes.com/interactive/2020/11/03/us/elections/results-alaska-house-district-at-large.html,https://www.nytimes.com/interactive/2020/11/03/us/elections/results-alaska.html,https://www.nytimes.com/interactive/2020/11/03/us/elections/ap-polls-alaska.html,house,general,2020-11-03,FALSE,U.S. House At-Large,U.S. House,H,"For Alaska’s single House seat, Alyse Galvin is <a href=""https://www.nytimes.com/2020/09/12/us/politics/alaska-democrats-independent-challengers.html"">again challenging Representative Don Young</a>, the body’s longest-serving member. Running as an independent with Democratic backing, Ms. Galvin, an education activist, lost to Mr. Young two years ago, but her bid in 2020 has become increasingly competitive. ",lean-rep,TRUE,1,At-Large,AK,alaska,Alaska,Alaska,horizontal,1,"",FALSE,TRUE,winner,AP,FALSE,"",351333,172732,37,unknown,Polls close at 1 a.m. Eastern time.,Polls close in,Polls have closed.,2020-11-04T06:00:00.000Z,1 a.m.,396,441,90% reporting,90%,99,367000,edison,>98%,>98% reported,edison,republican,FALSE,2020-11-20T14:24:08Z,TRUE,9.0521,31803,R+9,Young +9,republican,"","",10,0,1605115341304
02922,ED 22,9451,5293,6,7,Released as a separate subtotal as first report of the night,100,9346,>98%,>98% reported,edison,2,unknown,4000,4854,4597,2105,3188,2020-11-19T13:16:59Z,2.71929,R+3,Young +3,republican,AK-G-H-1-2020-11-03,ak-house-general-district-001-2020-11-03,https://www.nytimes.com/interactive/2020/11/03/us/elections/results-alaska-house-district-at-large.html,https://www.nytimes.com/interactive/2020/11/03/us/elections/results-alaska.html,https://www.nytimes.com/interactive/2020/11/03/us/elections/ap-polls-alaska.html,house,general,2020-11-03,FALSE,U.S. House At-Large,U.S. House,H,"For Alaska’s single House seat, Alyse Galvin is <a href=""https://www.nytimes.com/2020/09/12/us/politics/alaska-democrats-independent-challengers.html"">again challenging Representative Don Young</a>, the body’s longest-serving member. Running as an independent with Democratic backing, Ms. Galvin, an education activist, lost to Mr. Young two years ago, but her bid in 2020 has become increasingly competitive. ",lean-rep,TRUE,1,At-Large,AK,alaska,Alaska,Alaska,horizontal,1,"",FALSE,TRUE,winner,AP,FALSE,"",351333,172732,37,unknown,Polls close at 1 a.m. Eastern time.,Polls close in,Polls have closed.,2020-11-04T06:00:00.000Z,1 a.m.,396,441,90% reporting,90%,99,367000,edison,>98%,>98% reported,edison,republican,FALSE,2020-11-20T14:24:08Z,TRUE,9.0521,31803,R+9,Young +9,republican,"","",10,0,1605115341304
02923,ED 23,7629,4162,7,8,Released as a separate subtotal as first report of the night,98,7788,98%,98% reported,edison,2,unknown,4000,3688,3941,1573,2589,2020-11-19T13:16:59Z,3.31629,D+3,Galvin +3,democrat,AK-G-H-1-2020-11-03,ak-house-general-district-001-2020-11-03,https://www.nytimes.com/interactive/2020/11/03/us/elections/results-alaska-house-district-at-large.html,https://www.nytimes.com/interactive/2020/11/03/us/elections/results-alaska.html,https://www.nytimes.com/interactive/2020/11/03/us/elections/ap-polls-alaska.html,house,general,2020-11-03,FALSE,U.S. House At-Large,U.S. House,H,"For Alaska’s single House seat, Alyse Galvin is <a href=""https://www.nytimes.com/2020/09/12/us/politics/alaska-democrats-independent-challengers.html"">again challenging Representative Don Young</a>, the body’s longest-serving member. Running as an independent with Democratic backing, Ms. Galvin, an education activist, lost to Mr. Young two years ago, but her bid in 2020 has become increasingly competitive. ",lean-rep,TRUE,1,At-Large,AK,alaska,Alaska,Alaska,horizontal,1,"",FALSE,TRUE,winner,AP,FALSE,"",351333,172732,37,unknown,Polls close at 1 a.m. Eastern time.,Polls close in,Polls have closed.,2020-11-04T06:00:00.000Z,1 a.m.,396,441,90% reporting,90%,99,367000,edison,>98%,>98% reported,edison,republican,FALSE,2020-11-20T14:24:08Z,TRUE,9.0521,31803,R+9,Young +9,republican,"","",10,0,1605115341304
02924,ED 24,10398,6141,6,7,Released as a separate subtotal as first report of the night,100,10416,>98%,>98% reported,edison,2,unknown,4000,5661,4737,2690,3451,2020-11-19T13:16:58Z,8.88632,R+9,Young +9,republican,AK-G-H-1-2020-11-03,ak-house-general-district-001-2020-11-03,https://www.nytimes.com/interactive/2020/11/03/us/elections/results-alaska-house-district-at-large.html,https://www.nytimes.com/interactive/2020/11/03/us/elections/results-alaska.html,https://www.nytimes.com/interactive/2020/11/03/us/elections/ap-polls-alaska.html,house,general,2020-11-03,FALSE,U.S. House At-Large,U.S. House,H,"For Alaska’s single House seat, Alyse Galvin is <a href=""https://www.nytimes.com/2020/09/12/us/politics/alaska-democrats-independent-challengers.html"">again challenging Representative Don Young</a>, the body’s longest-serving member. Running as an independent with Democratic backing, Ms. Galvin, an education activist, lost to Mr. Young two years ago, but her bid in 2020 has become increasingly competitive. ",lean-rep,TRUE,1,At-Large,AK,alaska,Alaska,Alaska,horizontal,1,"",FALSE,TRUE,winner,AP,FALSE,"",351333,172732,37,unknown,Polls close at 1 a.m. Eastern time.,Polls close in,Polls have closed.,2020-11-04T06:00:00.000Z,1 a.m.,396,441,90% reporting,90%,99,367000,edison,>98%,>98% reported,edison,republican,FALSE,2020-11-20T14:24:08Z,TRUE,9.0521,31803,R+9,Young +9,republican,"","",10,0,1605115341304
02925,ED 25,9204,5308,6,7,Released as a separate subtotal as first report of the night,100,9124,>98%,>98% reported,edison,2,unknown,4000,4437,4767,1943,3365,2020-11-19T13:16:57Z,3.5854,D+4,Galvin +4,democrat,AK-G-H-1-2020-11-03,ak-house-general-district-001-2020-11-03,https://www.nytimes.com/interactive/2020/11/03/us/elections/results-alaska-house-district-at-large.html,https://www.nytimes.com/interactive/2020/11/03/us/elections/results-alaska.html,https://www.nytimes.com/interactive/2020/11/03/us/elections/ap-polls-alaska.html,house,general,2020-11-03,FALSE,U.S. House At-Large,U.S. House,H,"For Alaska’s single House seat, Alyse Galvin is <a href=""https://www.nytimes.com/2020/09/12/us/politics/alaska-democrats-independent-challengers.html"">again challenging Representative Don Young</a>, the body’s longest-serving member. Running as an independent with Democratic backing, Ms. Galvin, an education activist, lost to Mr. Young two years ago, but her bid in 2020 has become increasingly competitive. ",lean-rep,TRUE,1,At-Large,AK,alaska,Alaska,Alaska,horizontal,1,"",FALSE,TRUE,winner,AP,FALSE,"",351333,172732,37,unknown,Polls close at 1 a.m. Eastern time.,Polls close in,Polls have closed.,2020-11-04T06:00:00.000Z,1 a.m.,396,441,90% reporting,90%,99,367000,edison,>98%,>98% reported,edison,republican,FALSE,2020-11-20T14:24:08Z,TRUE,9.0521,31803,R+9,Young +9,republican,"","",10,0,1605115341304
02926,ED 26,10034,5976,7,8,Released as a separate subtotal as first report of the night,100,9956,>98%,>98% reported,edison,2,unknown,4000,5491,4543,2687,3289,2020-11-19T13:16:57Z,9.44788,R+9,Young +9,republican,AK-G-H-1-2020-11-03,ak-house-general-district-001-2020-11-03,https://www.nytimes.com/interactive/2020/11/03/us/elections/results-alaska-house-district-at-large.html,https://www.nytimes.com/interactive/2020/11/03/us/elections/results-alaska.html,https://www.nytimes.com/interactive/2020/11/03/us/elections/ap-polls-alaska.html,house,general,2020-11-03,FALSE,U.S. House At-Large,U.S. House,H,"For Alaska’s single House seat, Alyse Galvin is <a href=""https://www.nytimes.com/2020/09/12/us/politics/alaska-democrats-independent-challengers.html"">again challenging Representative Don Young</a>, the body’s longest-serving member. Running as an independent with Democratic backing, Ms. Galvin, an education activist, lost to Mr. Young two years ago, but her bid in 2020 has become increasingly competitive. ",lean-rep,TRUE,1,At-Large,AK,alaska,Alaska,Alaska,horizontal,1,"",FALSE,TRUE,winner,AP,FALSE,"",351333,172732,37,unknown,Polls close at 1 a.m. Eastern time.,Polls close in,Polls have closed.,2020-11-04T06:00:00.000Z,1 a.m.,396,441,90% reporting,90%,99,367000,edison,>98%,>98% reported,edison,republican,FALSE,2020-11-20T14:24:08Z,TRUE,9.0521,31803,R+9,Young +9,republican,"","",10,0,1605115341304
02927,ED 27,9437,5552,7,8,Released as a separate subtotal as first report of the night,96,9828,96%,96% reported,edison,2,unknown,4000,4455,4982,2058,3494,2020-11-19T13:16:56Z,5.5844,D+6,Galvin +6,democrat,AK-G-H-1-2020-11-03,ak-house-general-district-001-2020-11-03,https://www.nytimes.com/interactive/2020/11/03/us/elections/results-alaska-house-district-at-large.html,https://www.nytimes.com/interactive/2020/11/03/us/elections/results-alaska.html,https://www.nytimes.com/interactive/2020/11/03/us/elections/ap-polls-alaska.html,house,general,2020-11-03,FALSE,U.S. House At-Large,U.S. House,H,"For Alaska’s single House seat, Alyse Galvin is <a href=""https://www.nytimes.com/2020/09/12/us/politics/alaska-democrats-independent-challengers.html"">again challenging Representative Don Young</a>, the body’s longest-serving member. Running as an independent with Democratic backing, Ms. Galvin, an education activist, lost to Mr. Young two years ago, but her bid in 2020 has become increasingly competitive. ",lean-rep,TRUE,1,At-Large,AK,alaska,Alaska,Alaska,horizontal,1,"",FALSE,TRUE,winner,AP,FALSE,"",351333,172732,37,unknown,Polls close at 1 a.m. Eastern time.,Polls close in,Polls have closed.,2020-11-04T06:00:00.000Z,1 a.m.,396,441,90% reporting,90%,99,367000,edison,>98%,>98% reported,edison,republican,FALSE,2020-11-20T14:24:08Z,TRUE,9.0521,31803,R+9,Young +9,republican,"","",10,0,1605115341304
02928,ED 28,12718,7727,8,9,Released as a separate subtotal as first report of the night,100,12766,>98%,>98% reported,edison,2,unknown,4000,6493,6225,3198,4529,2020-11-19T13:16:55Z,2.10725,R+2,Young +2,republican,AK-G-H-1-2020-11-03,ak-house-general-district-001-2020-11-03,https://www.nytimes.com/interactive/2020/11/03/us/elections/results-alaska-house-district-at-large.html,https://www.nytimes.com/interactive/2020/11/03/us/elections/results-alaska.html,https://www.nytimes.com/interactive/2020/11/03/us/elections/ap-polls-alaska.html,house,general,2020-11-03,FALSE,U.S. House At-Large,U.S. House,H,"For Alaska’s single House seat, Alyse Galvin is <a href=""https://www.nytimes.com/2020/09/12/us/politics/alaska-democrats-independent-challengers.html"">again challenging Representative Don Young</a>, the body’s longest-serving member. Running as an independent with Democratic backing, Ms. Galvin, an education activist, lost to Mr. Young two years ago, but her bid in 2020 has become increasingly competitive. ",lean-rep,TRUE,1,At-Large,AK,alaska,Alaska,Alaska,horizontal,1,"",FALSE,TRUE,winner,AP,FALSE,"",351333,172732,37,unknown,Polls close at 1 a.m. Eastern time.,Polls close in,Polls have closed.,2020-11-04T06:00:00.000Z,1 a.m.,396,441,90% reporting,90%,99,367000,edison,>98%,>98% reported,edison,republican,FALSE,2020-11-20T14:24:08Z,TRUE,9.0521,31803,R+9,Young +9,republican,"","",10,0,1605115341304
02929,ED 29,10523,4725,11,11,Released as a separate subtotal as first report of the night,100,10541,>98%,>98% reported,edison,2,unknown,4000,7325,3198,2705,2020,2020-11-19T13:16:55Z,39.21885,R+39,Young +39,republican,AK-G-H-1-2020-11-03,ak-house-general-district-001-2020-11-03,https://www.nytimes.com/interactive/2020/11/03/us/elections/results-alaska-house-district-at-large.html,https://www.nytimes.com/interactive/2020/11/03/us/elections/results-alaska.html,https://www.nytimes.com/interactive/2020/11/03/us/elections/ap-polls-alaska.html,house,general,2020-11-03,FALSE,U.S. House At-Large,U.S. House,H,"For Alaska’s single House seat, Alyse Galvin is <a href=""https://www.nytimes.com/2020/09/12/us/politics/alaska-democrats-independent-challengers.html"">again challenging Representative Don Young</a>, the body’s longest-serving member. Running as an independent with Democratic backing, Ms. Galvin, an education activist, lost to Mr. Young two years ago, but her bid in 2020 has become increasingly competitive. ",lean-rep,TRUE,1,At-Large,AK,alaska,Alaska,Alaska,horizontal,1,"",FALSE,TRUE,winner,AP,FALSE,"",351333,172732,37,unknown,Polls close at 1 a.m. Eastern time.,Polls close in,Polls have closed.,2020-11-04T06:00:00.000Z,1 a.m.,396,441,90% reporting,90%,99,367000,edison,>98%,>98% reported,edison,republican,FALSE,2020-11-20T14:24:08Z,TRUE,9.0521,31803,R+9,Young +9,republican,"","",10,0,1605115341304
02903,ED 3,8197,3071,5,5,Released as a separate subtotal as first report of the night,96,8501,96%,96% reported,edison,2,unknown,4000,5940,2257,1831,1240,2020-11-19T13:16:54Z,44.93107,R+45,Young +45,republican,AK-G-H-1-2020-11-03,ak-house-general-district-001-2020-11-03,https://www.nytimes.com/interactive/2020/11/03/us/elections/results-alaska-house-district-at-large.html,https://www.nytimes.com/interactive/2020/11/03/us/elections/results-alaska.html,https://www.nytimes.com/interactive/2020/11/03/us/elections/ap-polls-alaska.html,house,general,2020-11-03,FALSE,U.S. House At-Large,U.S. House,H,"For Alaska’s single House seat, Alyse Galvin is <a href=""https://www.nytimes.com/2020/09/12/us/politics/alaska-democrats-independent-challengers.html"">again challenging Representative Don Young</a>, the body’s longest-serving member. Running as an independent with Democratic backing, Ms. Galvin, an education activist, lost to Mr. Young two years ago, but her bid in 2020 has become increasingly competitive. ",lean-rep,TRUE,1,At-Large,AK,alaska,Alaska,Alaska,horizontal,1,"",FALSE,TRUE,winner,AP,FALSE,"",351333,172732,37,unknown,Polls close at 1 a.m. Eastern time.,Polls close in,Polls have closed.,2020-11-04T06:00:00.000Z,1 a.m.,396,441,90% reporting,90%,99,367000,edison,>98%,>98% reported,edison,republican,FALSE,2020-11-20T14:24:08Z,TRUE,9.0521,31803,R+9,Young +9,republican,"","",10,0,1605115341304
02930,ED 30,9946,5036,6,6,Released as a separate subtotal as first report of the night,99,10068,>98%,>98% reported,edison,2,unknown,4000,7044,2902,3133,1903,2020-11-19T13:16:54Z,41.64488,R+42,Young +42,republican,AK-G-H-1-2020-11-03,ak-house-general-district-001-2020-11-03,https://www.nytimes.com/interactive/2020/11/03/us/elections/results-alaska-house-district-at-large.html,https://www.nytimes.com/interactive/2020/11/03/us/elections/results-alaska.html,https://www.nytimes.com/interactive/2020/11/03/us/elections/ap-polls-alaska.html,house,general,2020-11-03,FALSE,U.S. House At-Large,U.S. House,H,"For Alaska’s single House seat, Alyse Galvin is <a href=""https://www.nytimes.com/2020/09/12/us/politics/alaska-democrats-independent-challengers.html"">again challenging Representative Don Young</a>, the body’s longest-serving member. Running as an independent with Democratic backing, Ms. Galvin, an education activist, lost to Mr. Young two years ago, but her bid in 2020 has become increasingly competitive. ",lean-rep,TRUE,1,At-Large,AK,alaska,Alaska,Alaska,horizontal,1,"",FALSE,TRUE,winner,AP,FALSE,"",351333,172732,37,unknown,Polls close at 1 a.m. Eastern time.,Polls close in,Polls have closed.,2020-11-04T06:00:00.000Z,1 a.m.,396,441,90% reporting,90%,99,367000,edison,>98%,>98% reported,edison,republican,FALSE,2020-11-20T14:24:08Z,TRUE,9.0521,31803,R+9,Young +9,republican,"","",10,0,1605115341304
02931,ED 31,12217,6664,9,9,Released as a separate subtotal as first report of the night,100,11467,>98%,>98% reported,edison,2,unknown,4000,6852,5365,2802,3862,2020-11-16T15:48:01Z,12.17156,R+12,Young +12,republican,AK-G-H-1-2020-11-03,ak-house-general-district-001-2020-11-03,https://www.nytimes.com/interactive/2020/11/03/us/elections/results-alaska-house-district-at-large.html,https://www.nytimes.com/interactive/2020/11/03/us/elections/results-alaska.html,https://www.nytimes.com/interactive/2020/11/03/us/elections/ap-polls-alaska.html,house,general,2020-11-03,FALSE,U.S. House At-Large,U.S. House,H,"For Alaska’s single House seat, Alyse Galvin is <a href=""https://www.nytimes.com/2020/09/12/us/politics/alaska-democrats-independent-challengers.html"">again challenging Representative Don Young</a>, the body’s longest-serving member. Running as an independent with Democratic backing, Ms. Galvin, an education activist, lost to Mr. Young two years ago, but her bid in 2020 has become increasingly competitive. ",lean-rep,TRUE,1,At-Large,AK,alaska,Alaska,Alaska,horizontal,1,"",FALSE,TRUE,winner,AP,FALSE,"",351333,172732,37,unknown,Polls close at 1 a.m. Eastern time.,Polls close in,Polls have closed.,2020-11-04T06:00:00.000Z,1 a.m.,396,441,90% reporting,90%,99,367000,edison,>98%,>98% reported,edison,republican,FALSE,2020-11-20T14:24:08Z,TRUE,9.0521,31803,R+9,Young +9,republican,"","",10,0,1605115341304
02932,ED 32,8099,0,13,14,Released as a separate subtotal as first report of the night,97,8375,97%,97% reported,edison,2,unknown,4000,4226,3873,0,0,2020-11-19T13:16:53Z,4.35856,R+4,Young +4,republican,AK-G-H-1-2020-11-03,ak-house-general-district-001-2020-11-03,https://www.nytimes.com/interactive/2020/11/03/us/elections/results-alaska-house-district-at-large.html,https://www.nytimes.com/interactive/2020/11/03/us/elections/results-alaska.html,https://www.nytimes.com/interactive/2020/11/03/us/elections/ap-polls-alaska.html,house,general,2020-11-03,FALSE,U.S. House At-Large,U.S. House,H,"For Alaska’s single House seat, Alyse Galvin is <a href=""https://www.nytimes.com/2020/09/12/us/politics/alaska-democrats-independent-challengers.html"">again challenging Representative Don Young</a>, the body’s longest-serving member. Running as an independent with Democratic backing, Ms. Galvin, an education activist, lost to Mr. Young two years ago, but her bid in 2020 has become increasingly competitive. ",lean-rep,TRUE,1,At-Large,AK,alaska,Alaska,Alaska,horizontal,1,"",FALSE,TRUE,winner,AP,FALSE,"",351333,172732,37,unknown,Polls close at 1 a.m. Eastern time.,Polls close in,Polls have closed.,2020-11-04T06:00:00.000Z,1 a.m.,396,441,90% reporting,90%,99,367000,edison,>98%,>98% reported,edison,republican,FALSE,2020-11-20T14:24:08Z,TRUE,9.0521,31803,R+9,Young +9,republican,"","",10,0,1605115341304
02933,ED 33,10846,7735,10,11,Released as a separate subtotal as first report of the night,98,11109,98%,98% reported,edison,2,unknown,4000,3076,7770,1683,6052,2020-11-19T13:16:52Z,43.27863,D+43,Galvin +43,democrat,AK-G-H-1-2020-11-03,ak-house-general-district-001-2020-11-03,https://www.nytimes.com/interactive/2020/11/03/us/elections/results-alaska-house-district-at-large.html,https://www.nytimes.com/interactive/2020/11/03/us/elections/results-alaska.html,https://www.nytimes.com/interactive/2020/11/03/us/elections/ap-polls-alaska.html,house,general,2020-11-03,FALSE,U.S. House At-Large,U.S. House,H,"For Alaska’s single House seat, Alyse Galvin is <a href=""https://www.nytimes.com/2020/09/12/us/politics/alaska-democrats-independent-challengers.html"">again challenging Representative Don Young</a>, the body’s longest-serving member. Running as an independent with Democratic backing, Ms. Galvin, an education activist, lost to Mr. Young two years ago, but her bid in 2020 has become increasingly competitive. ",lean-rep,TRUE,1,At-Large,AK,alaska,Alaska,Alaska,horizontal,1,"",FALSE,TRUE,winner,AP,FALSE,"",351333,172732,37,unknown,Polls close at 1 a.m. Eastern time.,Polls close in,Polls have closed.,2020-11-04T06:00:00.000Z,1 a.m.,396,441,90% reporting,90%,99,367000,edison,>98%,>98% reported,edison,republican,FALSE,2020-11-20T14:24:08Z,TRUE,9.0521,31803,R+9,Young +9,republican,"","",10,0,1605115341304
02934,ED 34,10654,7947,7,7,Released as a separate subtotal as first report of the night,100,10532,>98%,>98% reported,edison,2,unknown,4000,4567,6087,2921,5026,2020-11-19T13:16:51Z,14.26694,D+14,Galvin +14,democrat,AK-G-H-1-2020-11-03,ak-house-general-district-001-2020-11-03,https://www.nytimes.com/interactive/2020/11/03/us/elections/results-alaska-house-district-at-large.html,https://www.nytimes.com/interactive/2020/11/03/us/elections/results-alaska.html,https://www.nytimes.com/interactive/2020/11/03/us/elections/ap-polls-alaska.html,house,general,2020-11-03,FALSE,U.S. House At-Large,U.S. House,H,"For Alaska’s single House seat, Alyse Galvin is <a href=""https://www.nytimes.com/2020/09/12/us/politics/alaska-democrats-independent-challengers.html"">again challenging Representative Don Young</a>, the body’s longest-serving member. Running as an independent with Democratic backing, Ms. Galvin, an education activist, lost to Mr. Young two years ago, but her bid in 2020 has become increasingly competitive. ",lean-rep,TRUE,1,At-Large,AK,alaska,Alaska,Alaska,horizontal,1,"",FALSE,TRUE,winner,AP,FALSE,"",351333,172732,37,unknown,Polls close at 1 a.m. Eastern time.,Polls close in,Polls have closed.,2020-11-04T06:00:00.000Z,1 a.m.,396,441,90% reporting,90%,99,367000,edison,>98%,>98% reported,edison,republican,FALSE,2020-11-20T14:24:08Z,TRUE,9.0521,31803,R+9,Young +9,republican,"","",10,0,1605115341304
02935,ED 35,9921,5772,13,14,Released as a separate subtotal as first report of the night,98,10112,98%,98% reported,edison,2,unknown,4000,4622,5299,2202,3570,2020-11-19T13:16:51Z,6.82391,D+7,Galvin +7,democrat,AK-G-H-1-2020-11-03,ak-house-general-district-001-2020-11-03,https://www.nytimes.com/interactive/2020/11/03/us/elections/results-alaska-house-district-at-large.html,https://www.nytimes.com/interactive/2020/11/03/us/elections/results-alaska.html,https://www.nytimes.com/interactive/2020/11/03/us/elections/ap-polls-alaska.html,house,general,2020-11-03,FALSE,U.S. House At-Large,U.S. House,H,"For Alaska’s single House seat, Alyse Galvin is <a href=""https://www.nytimes.com/2020/09/12/us/politics/alaska-democrats-independent-challengers.html"">again challenging Representative Don Young</a>, the body’s longest-serving member. Running as an independent with Democratic backing, Ms. Galvin, an education activist, lost to Mr. Young two years ago, but her bid in 2020 has become increasingly competitive. ",lean-rep,TRUE,1,At-Large,AK,alaska,Alaska,Alaska,horizontal,1,"",FALSE,TRUE,winner,AP,FALSE,"",351333,172732,37,unknown,Polls close at 1 a.m. Eastern time.,Polls close in,Polls have closed.,2020-11-04T06:00:00.000Z,1 a.m.,396,441,90% reporting,90%,99,367000,edison,>98%,>98% reported,edison,republican,FALSE,2020-11-20T14:24:08Z,TRUE,9.0521,31803,R+9,Young +9,republican,"","",10,0,1605115341304
02936,ED 36,9087,3670,10,10,Released as a separate subtotal as first report of the night,98,9267,98%,98% reported,edison,2,unknown,4000,5207,3880,1686,1984,2020-11-19T13:16:50Z,14.60328,R+15,Young +15,republican,AK-G-H-1-2020-11-03,ak-house-general-district-001-2020-11-03,https://www.nytimes.com/interactive/2020/11/03/us/elections/results-alaska-house-district-at-large.html,https://www.nytimes.com/interactive/2020/11/03/us/elections/results-alaska.html,https://www.nytimes.com/interactive/2020/11/03/us/elections/ap-polls-alaska.html,house,general,2020-11-03,FALSE,U.S. House At-Large,U.S. House,H,"For Alaska’s single House seat, Alyse Galvin is <a href=""https://www.nytimes.com/2020/09/12/us/politics/alaska-democrats-independent-challengers.html"">again challenging Representative Don Young</a>, the body’s longest-serving member. Running as an independent with Democratic backing, Ms. Galvin, an education activist, lost to Mr. Young two years ago, but her bid in 2020 has become increasingly competitive. ",lean-rep,TRUE,1,At-Large,AK,alaska,Alaska,Alaska,horizontal,1,"",FALSE,TRUE,winner,AP,FALSE,"",351333,172732,37,unknown,Polls close at 1 a.m. Eastern time.,Polls close in,Polls have closed.,2020-11-04T06:00:00.000Z,1 a.m.,396,441,90% reporting,90%,99,367000,edison,>98%,>98% reported,edison,republican,FALSE,2020-11-20T14:24:08Z,TRUE,9.0521,31803,R+9,Young +9,republican,"","",10,0,1605115341304
02937,ED 37,4983,0,29,35,Released as a separate subtotal as first report of the night,88,5641,88%,88% reported,edison,2,unknown,4000,2662,2321,0,0,2020-11-19T13:16:49Z,6.84327,R+7,Young +7,republican,AK-G-H-1-2020-11-03,ak-house-general-district-001-2020-11-03,https://www.nytimes.com/interactive/2020/11/03/us/elections/results-alaska-house-district-at-large.html,https://www.nytimes.com/interactive/2020/11/03/us/elections/results-alaska.html,https://www.nytimes.com/interactive/2020/11/03/us/elections/ap-polls-alaska.html,house,general,2020-11-03,FALSE,U.S. House At-Large,U.S. House,H,"For Alaska’s single House seat, Alyse Galvin is <a href=""https://www.nytimes.com/2020/09/12/us/politics/alaska-democrats-independent-challengers.html"">again challenging Representative Don Young</a>, the body’s longest-serving member. Running as an independent with Democratic backing, Ms. Galvin, an education activist, lost to Mr. Young two years ago, but her bid in 2020 has become increasingly competitive. ",lean-rep,TRUE,1,At-Large,AK,alaska,Alaska,Alaska,horizontal,1,"",FALSE,TRUE,winner,AP,FALSE,"",351333,172732,37,unknown,Polls close at 1 a.m. Eastern time.,Polls close in,Polls have closed.,2020-11-04T06:00:00.000Z,1 a.m.,396,441,90% reporting,90%,99,367000,edison,>98%,>98% reported,edison,republican,FALSE,2020-11-20T14:24:08Z,TRUE,9.0521,31803,R+9,Young +9,republican,"","",10,0,1605115341304
02938,ED 38,5271,1293,27,31,Released as a separate subtotal as first report of the night,96,5500,96%,96% reported,edison,2,unknown,4000,2207,3064,429,864,2020-11-19T13:16:49Z,16.25877,D+16,Galvin +16,democrat,AK-G-H-1-2020-11-03,ak-house-general-district-001-2020-11-03,https://www.nytimes.com/interactive/2020/11/03/us/elections/results-alaska-house-district-at-large.html,https://www.nytimes.com/interactive/2020/11/03/us/elections/results-alaska.html,https://www.nytimes.com/interactive/2020/11/03/us/elections/ap-polls-alaska.html,house,general,2020-11-03,FALSE,U.S. House At-Large,U.S. House,H,"For Alaska’s single House seat, Alyse Galvin is <a href=""https://www.nytimes.com/2020/09/12/us/politics/alaska-democrats-independent-challengers.html"">again challenging Representative Don Young</a>, the body’s longest-serving member. Running as an independent with Democratic backing, Ms. Galvin, an education activist, lost to Mr. Young two years ago, but her bid in 2020 has become increasingly competitive. ",lean-rep,TRUE,1,At-Large,AK,alaska,Alaska,Alaska,horizontal,1,"",FALSE,TRUE,winner,AP,FALSE,"",351333,172732,37,unknown,Polls close at 1 a.m. Eastern time.,Polls close in,Polls have closed.,2020-11-04T06:00:00.000Z,1 a.m.,396,441,90% reporting,90%,99,367000,edison,>98%,>98% reported,edison,republican,FALSE,2020-11-20T14:24:08Z,TRUE,9.0521,31803,R+9,Young +9,republican,"","",10,0,1605115341304
02939,ED 39,5787,280,29,33,Released as a separate subtotal as first report of the night,96,6055,96%,96% reported,edison,2,unknown,4000,2786,3001,101,179,2020-11-19T13:16:48Z,3.71522,D+4,Galvin +4,democrat,AK-G-H-1-2020-11-03,ak-house-general-district-001-2020-11-03,https://www.nytimes.com/interactive/2020/11/03/us/elections/results-alaska-house-district-at-large.html,https://www.nytimes.com/interactive/2020/11/03/us/elections/results-alaska.html,https://www.nytimes.com/interactive/2020/11/03/us/elections/ap-polls-alaska.html,house,general,2020-11-03,FALSE,U.S. House At-Large,U.S. House,H,"For Alaska’s single House seat, Alyse Galvin is <a href=""https://www.nytimes.com/2020/09/12/us/politics/alaska-democrats-independent-challengers.html"">again challenging Representative Don Young</a>, the body’s longest-serving member. Running as an independent with Democratic backing, Ms. Galvin, an education activist, lost to Mr. Young two years ago, but her bid in 2020 has become increasingly competitive. ",lean-rep,TRUE,1,At-Large,AK,alaska,Alaska,Alaska,horizontal,1,"",FALSE,TRUE,winner,AP,FALSE,"",351333,172732,37,unknown,Polls close at 1 a.m. Eastern time.,Polls close in,Polls have closed.,2020-11-04T06:00:00.000Z,1 a.m.,396,441,90% reporting,90%,99,367000,edison,>98%,>98% reported,edison,republican,FALSE,2020-11-20T14:24:08Z,TRUE,9.0521,31803,R+9,Young +9,republican,"","",10,0,1605115341304
02904,ED 4,10889,6215,7,7,Released as a separate subtotal as first report of the night,100,10554,>98%,>98% reported,edison,2,unknown,4000,4756,6133,1969,4246,2020-11-16T15:48:06Z,12.64579,D+13,Galvin +13,democrat,AK-G-H-1-2020-11-03,ak-house-general-district-001-2020-11-03,https://www.nytimes.com/interactive/2020/11/03/us/elections/results-alaska-house-district-at-large.html,https://www.nytimes.com/interactive/2020/11/03/us/elections/results-alaska.html,https://www.nytimes.com/interactive/2020/11/03/us/elections/ap-polls-alaska.html,house,general,2020-11-03,FALSE,U.S. House At-Large,U.S. House,H,"For Alaska’s single House seat, Alyse Galvin is <a href=""https://www.nytimes.com/2020/09/12/us/politics/alaska-democrats-independent-challengers.html"">again challenging Representative Don Young</a>, the body’s longest-serving member. Running as an independent with Democratic backing, Ms. Galvin, an education activist, lost to Mr. Young two years ago, but her bid in 2020 has become increasingly competitive. ",lean-rep,TRUE,1,At-Large,AK,alaska,Alaska,Alaska,horizontal,1,"",FALSE,TRUE,winner,AP,FALSE,"",351333,172732,37,unknown,Polls close at 1 a.m. Eastern time.,Polls close in,Polls have closed.,2020-11-04T06:00:00.000Z,1 a.m.,396,441,90% reporting,90%,99,367000,edison,>98%,>98% reported,edison,republican,FALSE,2020-11-20T14:24:08Z,TRUE,9.0521,31803,R+9,Young +9,republican,"","",10,0,1605115341304
02940,ED 40,4543,0,19,23,Released as a separate subtotal as first report of the night,91,4977,91%,91% reported,edison,2,unknown,4000,2486,2057,0,0,2020-11-19T13:16:47Z,9.4431,R+9,Young +9,republican,AK-G-H-1-2020-11-03,ak-house-general-district-001-2020-11-03,https://www.nytimes.com/interactive/2020/11/03/us/elections/results-alaska-house-district-at-large.html,https://www.nytimes.com/interactive/2020/11/03/us/elections/results-alaska.html,https://www.nytimes.com/interactive/2020/11/03/us/elections/ap-polls-alaska.html,house,general,2020-11-03,FALSE,U.S. House At-Large,U.S. House,H,"For Alaska’s single House seat, Alyse Galvin is <a href=""https://www.nytimes.com/2020/09/12/us/politics/alaska-democrats-independent-challengers.html"">again challenging Representative Don Young</a>, the body’s longest-serving member. Running as an independent with Democratic backing, Ms. Galvin, an education activist, lost to Mr. Young two years ago, but her bid in 2020 has become increasingly competitive. ",lean-rep,TRUE,1,At-Large,AK,alaska,Alaska,Alaska,horizontal,1,"",FALSE,TRUE,winner,AP,FALSE,"",351333,172732,37,unknown,Polls close at 1 a.m. Eastern time.,Polls close in,Polls have closed.,2020-11-04T06:00:00.000Z,1 a.m.,396,441,90% reporting,90%,99,367000,edison,>98%,>98% reported,edison,republican,FALSE,2020-11-20T14:24:08Z,TRUE,9.0521,31803,R+9,Young +9,republican,"","",10,0,1605115341304
02905,ED 5,8577,4489,8,9,Released as a separate subtotal as first report of the night,97,8799,97%,97% reported,edison,2,unknown,4000,4106,4471,1550,2939,2020-11-19T13:16:52Z,4.25557,D+4,Galvin +4,democrat,AK-G-H-1-2020-11-03,ak-house-general-district-001-2020-11-03,https://www.nytimes.com/interactive/2020/11/03/us/elections/results-alaska-house-district-at-large.html,https://www.nytimes.com/interactive/2020/11/03/us/elections/results-alaska.html,https://www.nytimes.com/interactive/2020/11/03/us/elections/ap-polls-alaska.html,house,general,2020-11-03,FALSE,U.S. House At-Large,U.S. House,H,"For Alaska’s single House seat, Alyse Galvin is <a href=""https://www.nytimes.com/2020/09/12/us/politics/alaska-democrats-independent-challengers.html"">again challenging Representative Don Young</a>, the body’s longest-serving member. Running as an independent with Democratic backing, Ms. Galvin, an education activist, lost to Mr. Young two years ago, but her bid in 2020 has become increasingly competitive. ",lean-rep,TRUE,1,At-Large,AK,alaska,Alaska,Alaska,horizontal,1,"",FALSE,TRUE,winner,AP,FALSE,"",351333,172732,37,unknown,Polls close at 1 a.m. Eastern time.,Polls close in,Polls have closed.,2020-11-04T06:00:00.000Z,1 a.m.,396,441,90% reporting,90%,99,367000,edison,>98%,>98% reported,edison,republican,FALSE,2020-11-20T14:24:08Z,TRUE,9.0521,31803,R+9,Young +9,republican,"","",10,0,1605115341304
02906,ED 6,9096,4,31,33,Released as a separate subtotal as first report of the night,96,9455,96%,96% reported,edison,2,unknown,4000,5719,3377,1,3,2020-11-19T13:16:52Z,25.74758,R+26,Young +26,republican,AK-G-H-1-2020-11-03,ak-house-general-district-001-2020-11-03,https://www.nytimes.com/interactive/2020/11/03/us/elections/results-alaska-house-district-at-large.html,https://www.nytimes.com/interactive/2020/11/03/us/elections/results-alaska.html,https://www.nytimes.com/interactive/2020/11/03/us/elections/ap-polls-alaska.html,house,general,2020-11-03,FALSE,U.S. House At-Large,U.S. House,H,"For Alaska’s single House seat, Alyse Galvin is <a href=""https://www.nytimes.com/2020/09/12/us/politics/alaska-democrats-independent-challengers.html"">again challenging Representative Don Young</a>, the body’s longest-serving member. Running as an independent with Democratic backing, Ms. Galvin, an education activist, lost to Mr. Young two years ago, but her bid in 2020 has become increasingly competitive. ",lean-rep,TRUE,1,At-Large,AK,alaska,Alaska,Alaska,horizontal,1,"",FALSE,TRUE,winner,AP,FALSE,"",351333,172732,37,unknown,Polls close at 1 a.m. Eastern time.,Polls close in,Polls have closed.,2020-11-04T06:00:00.000Z,1 a.m.,396,441,90% reporting,90%,99,367000,edison,>98%,>98% reported,edison,republican,FALSE,2020-11-20T14:24:08Z,TRUE,9.0521,31803,R+9,Young +9,republican,"","",10,0,1605115341304
02907,ED 7,9399,5516,7,7,Released as a separate subtotal as first report of the night,100,9317,>98%,>98% reported,edison,2,unknown,4000,6755,2644,3724,1792,2020-11-19T13:16:51Z,43.7387,R+44,Young +44,republican,AK-G-H-1-2020-11-03,ak-house-general-district-001-2020-11-03,https://www.nytimes.com/interactive/2020/11/03/us/elections/results-alaska-house-district-at-large.html,https://www.nytimes.com/interactive/2020/11/03/us/elections/results-alaska.html,https://www.nytimes.com/interactive/2020/11/03/us/elections/ap-polls-alaska.html,house,general,2020-11-03,FALSE,U.S. House At-Large,U.S. House,H,"For Alaska’s single House seat, Alyse Galvin is <a href=""https://www.nytimes.com/2020/09/12/us/politics/alaska-democrats-independent-challengers.html"">again challenging Representative Don Young</a>, the body’s longest-serving member. Running as an independent with Democratic backing, Ms. Galvin, an education activist, lost to Mr. Young two years ago, but her bid in 2020 has become increasingly competitive. ",lean-rep,TRUE,1,At-Large,AK,alaska,Alaska,Alaska,horizontal,1,"",FALSE,TRUE,winner,AP,FALSE,"",351333,172732,37,unknown,Polls close at 1 a.m. Eastern time.,Polls close in,Polls have closed.,2020-11-04T06:00:00.000Z,1 a.m.,396,441,90% reporting,90%,99,367000,edison,>98%,>98% reported,edison,republican,FALSE,2020-11-20T14:24:08Z,TRUE,9.0521,31803,R+9,Young +9,republican,"","",10,0,1605115341304
02908,ED 8,9717,4373,6,6,Released as a separate subtotal as first report of the night,100,9111,>98%,>98% reported,edison,2,unknown,4000,7398,2319,2957,1416,2020-11-19T13:16:51Z,52.26922,R+52,Young +52,republican,AK-G-H-1-2020-11-03,ak-house-general-district-001-2020-11-03,https://www.nytimes.com/interactive/2020/11/03/us/elections/results-alaska-house-district-at-large.html,https://www.nytimes.com/interactive/2020/11/03/us/elections/results-alaska.html,https://www.nytimes.com/interactive/2020/11/03/us/elections/ap-polls-alaska.html,house,general,2020-11-03,FALSE,U.S. House At-Large,U.S. House,H,"For Alaska’s single House seat, Alyse Galvin is <a href=""https://www.nytimes.com/2020/09/12/us/politics/alaska-democrats-independent-challengers.html"">again challenging Representative Don Young</a>, the body’s longest-serving member. Running as an independent with Democratic backing, Ms. Galvin, an education activist, lost to Mr. Young two years ago, but her bid in 2020 has become increasingly competitive. ",lean-rep,TRUE,1,At-Large,AK,alaska,Alaska,Alaska,horizontal,1,"",FALSE,TRUE,winner,AP,FALSE,"",351333,172732,37,unknown,Polls close at 1 a.m. Eastern time.,Polls close in,Polls have closed.,2020-11-04T06:00:00.000Z,1 a.m.,396,441,90% reporting,90%,99,367000,edison,>98%,>98% reported,edison,republican,FALSE,2020-11-20T14:24:08Z,TRUE,9.0521,31803,R+9,Young +9,republican,"","",10,0,1605115341304
02909,ED 9,10804,4,11,11,Released as a separate subtotal as first report of the night,100,10040,>98%,>98% reported,edison,2,unknown,4000,7545,3259,2,2,2020-11-19T13:16:50Z,39.67049,R+40,Young +40,republican,AK-G-H-1-2020-11-03,ak-house-general-district-001-2020-11-03,https://www.nytimes.com/interactive/2020/11/03/us/elections/results-alaska-house-district-at-large.html,https://www.nytimes.com/interactive/2020/11/03/us/elections/results-alaska.html,https://www.nytimes.com/interactive/2020/11/03/us/elections/ap-polls-alaska.html,house,general,2020-11-03,FALSE,U.S. House At-Large,U.S. House,H,"For Alaska’s single House seat, Alyse Galvin is <a href=""https://www.nytimes.com/2020/09/12/us/politics/alaska-democrats-independent-challengers.html"">again challenging Representative Don Young</a>, the body’s longest-serving member. Running as an independent with Democratic backing, Ms. Galvin, an education activist, lost to Mr. Young two years ago, but her bid in 2020 has become increasingly competitive. ",lean-rep,TRUE,1,At-Large,AK,alaska,Alaska,Alaska,horizontal,1,"",FALSE,TRUE,winner,AP,FALSE,"",351333,172732,37,unknown,Polls close at 1 a.m. Eastern time.,Polls close in,Polls have closed.,2020-11-04T06:00:00.000Z,1 a.m.,396,441,90% reporting,90%,99,367000,edison,>98%,>98% reported,edison,republican,FALSE,2020-11-20T14:24:08Z,TRUE,9.0521,31803,R+9,Young +9,republican,"","",10,0,1605115341304
