fips,name,votes,absentee_votes,reporting,precincts,absentee_method,eevp,tot_exp_vote,eevp_value,eevp_display,eevp_source,turnout_stage,absentee_count_progress,results_buckk,results_mccorklei,results_griffithb,results_irelandl,results_absentee_buckk,results_absentee_mccorklei,results_absentee_griffithb,results_absentee_irelandl,last_updated,leader_margin_value,leader_margin_display,leader_margin_name_display,leader_party_id,race_id_race,race_slug_race,url_race,state_page_url_race,ap_polls_page_race,edison_exit_polls_page_race,race_type_race,election_type_race,election_date_race,runoff_race,race_name_race,office_race,officeid_race,race_rating_race,seat_race,seat_name_race,state_id_race,state_slug_race,state_name_race,state_nyt_abbrev_race,state_shape_race,party_id_race,uncontested_race,report_race,result_race,result_source_race,gain_race,lost_seat_race,votes_race,absentee_votes_race,absentee_count_progress_race,poll_display_race,poll_countdown_display_race,poll_waiting_display_race,poll_time_race,poll_time_short_race,precincts_reporting_race,precincts_total_race,reporting_display_race,reporting_value_race,eevp_race,tot_exp_vote_race,eevp_source_race,eevp_value_race,eevp_display_race,county_data_source_race,incumbent_party_race,no_forecast_race,last_updated_race,has_incumbent_race,leader_margin_value_race,leader_margin_votes_race,leader_margin_display_race,leader_margin_name_display_race,leader_party_id_race,expectations_text_race,expectations_text_short_race,absentee_ballot_deadline_race,absentee_postmark_deadline_race,winner_called_timestamp_race
08001,Adams,4819,0,6,6,Other,99,4846,>98%,>98% reported,edison,4,all,3595,1021,132,71,0,0,0,0,2020-11-16T15:48:10Z,53.41357,R+53,Buck +53,republican,CO-G-H-4-2020-11-03,co-house-general-district-004-2020-11-03,https://www.nytimes.com/interactive/2020/11/03/us/elections/results-colorado-house-district-4.html,https://www.nytimes.com/interactive/2020/11/03/us/elections/results-colorado.html,https://www.nytimes.com/interactive/2020/11/03/us/elections/ap-polls-colorado.html,https://www.nytimes.com/interactive/2020/11/03/us/elections/exit-polls-colorado.html,house,general,2020-11-03,FALSE,U.S. House District 4,U.S. House,H,solid-rep,4,District 4,CO,colorado,Colorado,Colo.,horizontal,"",FALSE,TRUE,winner,AP,FALSE,"",475106,0,unknown,Polls close at 9 p.m. Eastern time.,Polls close in,Polls have closed.,2020-11-04T02:00:00.000Z,9 p.m.,511,528,97% reporting,97%,100,475000,edison,>98%,>98% reported,edison,republican,FALSE,2020-11-20T23:40:42Z,TRUE,23.50212,111660,R+24,Buck +24,republican,"","",0,0,1604459787450
08005,Arapahoe,5074,0,6,6,Other,100,5063,>98%,>98% reported,edison,4,some,3885,1007,144,38,0,0,0,0,2020-11-16T15:48:08Z,56.72054,R+57,Buck +57,republican,CO-G-H-4-2020-11-03,co-house-general-district-004-2020-11-03,https://www.nytimes.com/interactive/2020/11/03/us/elections/results-colorado-house-district-4.html,https://www.nytimes.com/interactive/2020/11/03/us/elections/results-colorado.html,https://www.nytimes.com/interactive/2020/11/03/us/elections/ap-polls-colorado.html,https://www.nytimes.com/interactive/2020/11/03/us/elections/exit-polls-colorado.html,house,general,2020-11-03,FALSE,U.S. House District 4,U.S. House,H,solid-rep,4,District 4,CO,colorado,Colorado,Colo.,horizontal,"",FALSE,TRUE,winner,AP,FALSE,"",475106,0,unknown,Polls close at 9 p.m. Eastern time.,Polls close in,Polls have closed.,2020-11-04T02:00:00.000Z,9 p.m.,511,528,97% reporting,97%,100,475000,edison,>98%,>98% reported,edison,republican,FALSE,2020-11-20T23:40:42Z,TRUE,23.50212,111660,R+24,Buck +24,republican,"","",0,0,1604459787450
08009,Baca,2165,0,8,9,Other,100,2134,>98%,>98% reported,edison,6,all,1823,276,41,25,0,0,0,0,2020-11-20T23:40:39Z,71.45497,R+71,Buck +71,republican,CO-G-H-4-2020-11-03,co-house-general-district-004-2020-11-03,https://www.nytimes.com/interactive/2020/11/03/us/elections/results-colorado-house-district-4.html,https://www.nytimes.com/interactive/2020/11/03/us/elections/results-colorado.html,https://www.nytimes.com/interactive/2020/11/03/us/elections/ap-polls-colorado.html,https://www.nytimes.com/interactive/2020/11/03/us/elections/exit-polls-colorado.html,house,general,2020-11-03,FALSE,U.S. House District 4,U.S. House,H,solid-rep,4,District 4,CO,colorado,Colorado,Colo.,horizontal,"",FALSE,TRUE,winner,AP,FALSE,"",475106,0,unknown,Polls close at 9 p.m. Eastern time.,Polls close in,Polls have closed.,2020-11-04T02:00:00.000Z,9 p.m.,511,528,97% reporting,97%,100,475000,edison,>98%,>98% reported,edison,republican,FALSE,2020-11-20T23:40:42Z,TRUE,23.50212,111660,R+24,Buck +24,republican,"","",0,0,1604459787450
08011,Bent,2225,0,5,5,Other,98,2274,98%,98% reported,edison,2,unknown,1500,639,47,39,0,0,0,0,2020-11-16T15:47:58Z,38.69663,R+39,Buck +39,republican,CO-G-H-4-2020-11-03,co-house-general-district-004-2020-11-03,https://www.nytimes.com/interactive/2020/11/03/us/elections/results-colorado-house-district-4.html,https://www.nytimes.com/interactive/2020/11/03/us/elections/results-colorado.html,https://www.nytimes.com/interactive/2020/11/03/us/elections/ap-polls-colorado.html,https://www.nytimes.com/interactive/2020/11/03/us/elections/exit-polls-colorado.html,house,general,2020-11-03,FALSE,U.S. House District 4,U.S. House,H,solid-rep,4,District 4,CO,colorado,Colorado,Colo.,horizontal,"",FALSE,TRUE,winner,AP,FALSE,"",475106,0,unknown,Polls close at 9 p.m. Eastern time.,Polls close in,Polls have closed.,2020-11-04T02:00:00.000Z,9 p.m.,511,528,97% reporting,97%,100,475000,edison,>98%,>98% reported,edison,republican,FALSE,2020-11-20T23:40:42Z,TRUE,23.50212,111660,R+24,Buck +24,republican,"","",0,0,1604459787450
08013,Boulder,56629,0,61,63,Other,97,58110,97%,97% reported,edison,2,some,19184,35540,1281,624,0,0,0,0,2020-11-16T15:47:58Z,28.88273,D+29,McCorkle +29,democrat,CO-G-H-4-2020-11-03,co-house-general-district-004-2020-11-03,https://www.nytimes.com/interactive/2020/11/03/us/elections/results-colorado-house-district-4.html,https://www.nytimes.com/interactive/2020/11/03/us/elections/results-colorado.html,https://www.nytimes.com/interactive/2020/11/03/us/elections/ap-polls-colorado.html,https://www.nytimes.com/interactive/2020/11/03/us/elections/exit-polls-colorado.html,house,general,2020-11-03,FALSE,U.S. House District 4,U.S. House,H,solid-rep,4,District 4,CO,colorado,Colorado,Colo.,horizontal,"",FALSE,TRUE,winner,AP,FALSE,"",475106,0,unknown,Polls close at 9 p.m. Eastern time.,Polls close in,Polls have closed.,2020-11-04T02:00:00.000Z,9 p.m.,511,528,97% reporting,97%,100,475000,edison,>98%,>98% reported,edison,republican,FALSE,2020-11-20T23:40:42Z,TRUE,23.50212,111660,R+24,Buck +24,republican,"","",0,0,1604459787450
08017,Cheyenne,1121,0,4,5,Other,86,1300,86%,86% reported,edison,4,some,989,100,18,14,0,0,0,0,2020-11-16T15:47:59Z,79.30419,R+79,Buck +79,republican,CO-G-H-4-2020-11-03,co-house-general-district-004-2020-11-03,https://www.nytimes.com/interactive/2020/11/03/us/elections/results-colorado-house-district-4.html,https://www.nytimes.com/interactive/2020/11/03/us/elections/results-colorado.html,https://www.nytimes.com/interactive/2020/11/03/us/elections/ap-polls-colorado.html,https://www.nytimes.com/interactive/2020/11/03/us/elections/exit-polls-colorado.html,house,general,2020-11-03,FALSE,U.S. House District 4,U.S. House,H,solid-rep,4,District 4,CO,colorado,Colorado,Colo.,horizontal,"",FALSE,TRUE,winner,AP,FALSE,"",475106,0,unknown,Polls close at 9 p.m. Eastern time.,Polls close in,Polls have closed.,2020-11-04T02:00:00.000Z,9 p.m.,511,528,97% reporting,97%,100,475000,edison,>98%,>98% reported,edison,republican,FALSE,2020-11-20T23:40:42Z,TRUE,23.50212,111660,R+24,Buck +24,republican,"","",0,0,1604459787450
08025,Crowley,1714,0,6,6,Other,95,1802,95%,95% reported,edison,4,all,1255,385,41,33,0,0,0,0,2020-11-16T15:47:59Z,50.75846,R+51,Buck +51,republican,CO-G-H-4-2020-11-03,co-house-general-district-004-2020-11-03,https://www.nytimes.com/interactive/2020/11/03/us/elections/results-colorado-house-district-4.html,https://www.nytimes.com/interactive/2020/11/03/us/elections/results-colorado.html,https://www.nytimes.com/interactive/2020/11/03/us/elections/ap-polls-colorado.html,https://www.nytimes.com/interactive/2020/11/03/us/elections/exit-polls-colorado.html,house,general,2020-11-03,FALSE,U.S. House District 4,U.S. House,H,solid-rep,4,District 4,CO,colorado,Colorado,Colo.,horizontal,"",FALSE,TRUE,winner,AP,FALSE,"",475106,0,unknown,Polls close at 9 p.m. Eastern time.,Polls close in,Polls have closed.,2020-11-04T02:00:00.000Z,9 p.m.,511,528,97% reporting,97%,100,475000,edison,>98%,>98% reported,edison,republican,FALSE,2020-11-20T23:40:42Z,TRUE,23.50212,111660,R+24,Buck +24,republican,"","",0,0,1604459787450
08035,Douglas,155228,0,114,114,Other,100,148803,>98%,>98% reported,edison,6,all,92469,57846,3717,1196,0,0,0,0,2020-11-16T15:48:10Z,22.30461,R+22,Buck +22,republican,CO-G-H-4-2020-11-03,co-house-general-district-004-2020-11-03,https://www.nytimes.com/interactive/2020/11/03/us/elections/results-colorado-house-district-4.html,https://www.nytimes.com/interactive/2020/11/03/us/elections/results-colorado.html,https://www.nytimes.com/interactive/2020/11/03/us/elections/ap-polls-colorado.html,https://www.nytimes.com/interactive/2020/11/03/us/elections/exit-polls-colorado.html,house,general,2020-11-03,FALSE,U.S. House District 4,U.S. House,H,solid-rep,4,District 4,CO,colorado,Colorado,Colo.,horizontal,"",FALSE,TRUE,winner,AP,FALSE,"",475106,0,unknown,Polls close at 9 p.m. Eastern time.,Polls close in,Polls have closed.,2020-11-04T02:00:00.000Z,9 p.m.,511,528,97% reporting,97%,100,475000,edison,>98%,>98% reported,edison,republican,FALSE,2020-11-20T23:40:42Z,TRUE,23.50212,111660,R+24,Buck +24,republican,"","",0,0,1604459787450
08039,Elbert,18522,0,15,15,Other,98,18854,98%,98% reported,edison,2,unknown,14144,3807,430,141,0,0,0,0,2020-11-16T15:48:07Z,55.80931,R+56,Buck +56,republican,CO-G-H-4-2020-11-03,co-house-general-district-004-2020-11-03,https://www.nytimes.com/interactive/2020/11/03/us/elections/results-colorado-house-district-4.html,https://www.nytimes.com/interactive/2020/11/03/us/elections/results-colorado.html,https://www.nytimes.com/interactive/2020/11/03/us/elections/ap-polls-colorado.html,https://www.nytimes.com/interactive/2020/11/03/us/elections/exit-polls-colorado.html,house,general,2020-11-03,FALSE,U.S. House District 4,U.S. House,H,solid-rep,4,District 4,CO,colorado,Colorado,Colo.,horizontal,"",FALSE,TRUE,winner,AP,FALSE,"",475106,0,unknown,Polls close at 9 p.m. Eastern time.,Polls close in,Polls have closed.,2020-11-04T02:00:00.000Z,9 p.m.,511,528,97% reporting,97%,100,475000,edison,>98%,>98% reported,edison,republican,FALSE,2020-11-20T23:40:42Z,TRUE,23.50212,111660,R+24,Buck +24,republican,"","",0,0,1604459787450
08061,Kiowa,881,0,3,4,Other,87,1009,87%,87% reported,edison,2,unknown,787,77,13,4,0,0,0,0,2020-11-16T15:48:00Z,80.59024,R+81,Buck +81,republican,CO-G-H-4-2020-11-03,co-house-general-district-004-2020-11-03,https://www.nytimes.com/interactive/2020/11/03/us/elections/results-colorado-house-district-4.html,https://www.nytimes.com/interactive/2020/11/03/us/elections/results-colorado.html,https://www.nytimes.com/interactive/2020/11/03/us/elections/ap-polls-colorado.html,https://www.nytimes.com/interactive/2020/11/03/us/elections/exit-polls-colorado.html,house,general,2020-11-03,FALSE,U.S. House District 4,U.S. House,H,solid-rep,4,District 4,CO,colorado,Colorado,Colo.,horizontal,"",FALSE,TRUE,winner,AP,FALSE,"",475106,0,unknown,Polls close at 9 p.m. Eastern time.,Polls close in,Polls have closed.,2020-11-04T02:00:00.000Z,9 p.m.,511,528,97% reporting,97%,100,475000,edison,>98%,>98% reported,edison,republican,FALSE,2020-11-20T23:40:42Z,TRUE,23.50212,111660,R+24,Buck +24,republican,"","",0,0,1604459787450
08063,Kit Carson,3765,0,11,13,Other,86,4368,86%,86% reported,edison,2,unknown,3147,525,59,34,0,0,0,0,2020-11-16T15:48:01Z,69.64143,R+70,Buck +70,republican,CO-G-H-4-2020-11-03,co-house-general-district-004-2020-11-03,https://www.nytimes.com/interactive/2020/11/03/us/elections/results-colorado-house-district-4.html,https://www.nytimes.com/interactive/2020/11/03/us/elections/results-colorado.html,https://www.nytimes.com/interactive/2020/11/03/us/elections/ap-polls-colorado.html,https://www.nytimes.com/interactive/2020/11/03/us/elections/exit-polls-colorado.html,house,general,2020-11-03,FALSE,U.S. House District 4,U.S. House,H,solid-rep,4,District 4,CO,colorado,Colorado,Colo.,horizontal,"",FALSE,TRUE,winner,AP,FALSE,"",475106,0,unknown,Polls close at 9 p.m. Eastern time.,Polls close in,Polls have closed.,2020-11-04T02:00:00.000Z,9 p.m.,511,528,97% reporting,97%,100,475000,edison,>98%,>98% reported,edison,republican,FALSE,2020-11-20T23:40:42Z,TRUE,23.50212,111660,R+24,Buck +24,republican,"","",0,0,1604459787450
08071,Las Animas,7853,0,16,16,Other,98,8016,98%,98% reported,edison,2,unknown,4254,3347,153,99,0,0,0,0,2020-11-16T15:48:09Z,11.54973,R+12,Buck +12,republican,CO-G-H-4-2020-11-03,co-house-general-district-004-2020-11-03,https://www.nytimes.com/interactive/2020/11/03/us/elections/results-colorado-house-district-4.html,https://www.nytimes.com/interactive/2020/11/03/us/elections/results-colorado.html,https://www.nytimes.com/interactive/2020/11/03/us/elections/ap-polls-colorado.html,https://www.nytimes.com/interactive/2020/11/03/us/elections/exit-polls-colorado.html,house,general,2020-11-03,FALSE,U.S. House District 4,U.S. House,H,solid-rep,4,District 4,CO,colorado,Colorado,Colo.,horizontal,"",FALSE,TRUE,winner,AP,FALSE,"",475106,0,unknown,Polls close at 9 p.m. Eastern time.,Polls close in,Polls have closed.,2020-11-04T02:00:00.000Z,9 p.m.,511,528,97% reporting,97%,100,475000,edison,>98%,>98% reported,edison,republican,FALSE,2020-11-20T23:40:42Z,TRUE,23.50212,111660,R+24,Buck +24,republican,"","",0,0,1604459787450
08073,Lincoln,2599,0,12,13,Other,90,2874,90%,90% reported,edison,2,unknown,2134,382,49,34,0,0,0,0,2020-11-16T15:48:01Z,67.41054,R+67,Buck +67,republican,CO-G-H-4-2020-11-03,co-house-general-district-004-2020-11-03,https://www.nytimes.com/interactive/2020/11/03/us/elections/results-colorado-house-district-4.html,https://www.nytimes.com/interactive/2020/11/03/us/elections/results-colorado.html,https://www.nytimes.com/interactive/2020/11/03/us/elections/ap-polls-colorado.html,https://www.nytimes.com/interactive/2020/11/03/us/elections/exit-polls-colorado.html,house,general,2020-11-03,FALSE,U.S. House District 4,U.S. House,H,solid-rep,4,District 4,CO,colorado,Colorado,Colo.,horizontal,"",FALSE,TRUE,winner,AP,FALSE,"",475106,0,unknown,Polls close at 9 p.m. Eastern time.,Polls close in,Polls have closed.,2020-11-04T02:00:00.000Z,9 p.m.,511,528,97% reporting,97%,100,475000,edison,>98%,>98% reported,edison,republican,FALSE,2020-11-20T23:40:42Z,TRUE,23.50212,111660,R+24,Buck +24,republican,"","",0,0,1604459787450
08075,Logan,10302,0,14,16,Other,90,11472,90%,90% reported,edison,2,unknown,8134,1849,202,117,0,0,0,0,2020-11-16T15:48:02Z,61.00757,R+61,Buck +61,republican,CO-G-H-4-2020-11-03,co-house-general-district-004-2020-11-03,https://www.nytimes.com/interactive/2020/11/03/us/elections/results-colorado-house-district-4.html,https://www.nytimes.com/interactive/2020/11/03/us/elections/results-colorado.html,https://www.nytimes.com/interactive/2020/11/03/us/elections/ap-polls-colorado.html,https://www.nytimes.com/interactive/2020/11/03/us/elections/exit-polls-colorado.html,house,general,2020-11-03,FALSE,U.S. House District 4,U.S. House,H,solid-rep,4,District 4,CO,colorado,Colorado,Colo.,horizontal,"",FALSE,TRUE,winner,AP,FALSE,"",475106,0,unknown,Polls close at 9 p.m. Eastern time.,Polls close in,Polls have closed.,2020-11-04T02:00:00.000Z,9 p.m.,511,528,97% reporting,97%,100,475000,edison,>98%,>98% reported,edison,republican,FALSE,2020-11-20T23:40:42Z,TRUE,23.50212,111660,R+24,Buck +24,republican,"","",0,0,1604459787450
08087,Morgan,13432,0,17,18,Other,95,14113,95%,95% reported,edison,2,unknown,9617,3347,285,183,0,0,0,0,2020-11-16T15:48:02Z,46.67957,R+47,Buck +47,republican,CO-G-H-4-2020-11-03,co-house-general-district-004-2020-11-03,https://www.nytimes.com/interactive/2020/11/03/us/elections/results-colorado-house-district-4.html,https://www.nytimes.com/interactive/2020/11/03/us/elections/results-colorado.html,https://www.nytimes.com/interactive/2020/11/03/us/elections/ap-polls-colorado.html,https://www.nytimes.com/interactive/2020/11/03/us/elections/exit-polls-colorado.html,house,general,2020-11-03,FALSE,U.S. House District 4,U.S. House,H,solid-rep,4,District 4,CO,colorado,Colorado,Colo.,horizontal,"",FALSE,TRUE,winner,AP,FALSE,"",475106,0,unknown,Polls close at 9 p.m. Eastern time.,Polls close in,Polls have closed.,2020-11-04T02:00:00.000Z,9 p.m.,511,528,97% reporting,97%,100,475000,edison,>98%,>98% reported,edison,republican,FALSE,2020-11-20T23:40:42Z,TRUE,23.50212,111660,R+24,Buck +24,republican,"","",0,0,1604459787450
08089,Otero,9430,0,16,17,Other,95,9973,95%,95% reported,edison,2,some,5946,3188,153,143,0,0,0,0,2020-11-16T15:48:02Z,29.24708,R+29,Buck +29,republican,CO-G-H-4-2020-11-03,co-house-general-district-004-2020-11-03,https://www.nytimes.com/interactive/2020/11/03/us/elections/results-colorado-house-district-4.html,https://www.nytimes.com/interactive/2020/11/03/us/elections/results-colorado.html,https://www.nytimes.com/interactive/2020/11/03/us/elections/ap-polls-colorado.html,https://www.nytimes.com/interactive/2020/11/03/us/elections/exit-polls-colorado.html,house,general,2020-11-03,FALSE,U.S. House District 4,U.S. House,H,solid-rep,4,District 4,CO,colorado,Colorado,Colo.,horizontal,"",FALSE,TRUE,winner,AP,FALSE,"",475106,0,unknown,Polls close at 9 p.m. Eastern time.,Polls close in,Polls have closed.,2020-11-04T02:00:00.000Z,9 p.m.,511,528,97% reporting,97%,100,475000,edison,>98%,>98% reported,edison,republican,FALSE,2020-11-20T23:40:42Z,TRUE,23.50212,111660,R+24,Buck +24,republican,"","",0,0,1604459787450
08095,Phillips,2425,0,7,8,Other,88,2752,88%,88% reported,edison,2,unknown,1965,402,46,12,0,0,0,0,2020-11-16T15:48:03Z,64.45361,R+64,Buck +64,republican,CO-G-H-4-2020-11-03,co-house-general-district-004-2020-11-03,https://www.nytimes.com/interactive/2020/11/03/us/elections/results-colorado-house-district-4.html,https://www.nytimes.com/interactive/2020/11/03/us/elections/results-colorado.html,https://www.nytimes.com/interactive/2020/11/03/us/elections/ap-polls-colorado.html,https://www.nytimes.com/interactive/2020/11/03/us/elections/exit-polls-colorado.html,house,general,2020-11-03,FALSE,U.S. House District 4,U.S. House,H,solid-rep,4,District 4,CO,colorado,Colorado,Colo.,horizontal,"",FALSE,TRUE,winner,AP,FALSE,"",475106,0,unknown,Polls close at 9 p.m. Eastern time.,Polls close in,Polls have closed.,2020-11-04T02:00:00.000Z,9 p.m.,511,528,97% reporting,97%,100,475000,edison,>98%,>98% reported,edison,republican,FALSE,2020-11-20T23:40:42Z,TRUE,23.50212,111660,R+24,Buck +24,republican,"","",0,0,1604459787450
08099,Prowers,5430,0,12,13,Other,92,5919,92%,92% reported,edison,2,unknown,4008,1286,77,59,0,0,0,0,2020-11-16T15:48:03Z,50.12891,R+50,Buck +50,republican,CO-G-H-4-2020-11-03,co-house-general-district-004-2020-11-03,https://www.nytimes.com/interactive/2020/11/03/us/elections/results-colorado-house-district-4.html,https://www.nytimes.com/interactive/2020/11/03/us/elections/results-colorado.html,https://www.nytimes.com/interactive/2020/11/03/us/elections/ap-polls-colorado.html,https://www.nytimes.com/interactive/2020/11/03/us/elections/exit-polls-colorado.html,house,general,2020-11-03,FALSE,U.S. House District 4,U.S. House,H,solid-rep,4,District 4,CO,colorado,Colorado,Colo.,horizontal,"",FALSE,TRUE,winner,AP,FALSE,"",475106,0,unknown,Polls close at 9 p.m. Eastern time.,Polls close in,Polls have closed.,2020-11-04T02:00:00.000Z,9 p.m.,511,528,97% reporting,97%,100,475000,edison,>98%,>98% reported,edison,republican,FALSE,2020-11-20T23:40:42Z,TRUE,23.50212,111660,R+24,Buck +24,republican,"","",0,0,1604459787450
08115,Sedgwick,1407,0,4,5,Other,87,1610,87%,87% reported,edison,2,unknown,1128,239,23,17,0,0,0,0,2020-11-16T15:48:04Z,63.18408,R+63,Buck +63,republican,CO-G-H-4-2020-11-03,co-house-general-district-004-2020-11-03,https://www.nytimes.com/interactive/2020/11/03/us/elections/results-colorado-house-district-4.html,https://www.nytimes.com/interactive/2020/11/03/us/elections/results-colorado.html,https://www.nytimes.com/interactive/2020/11/03/us/elections/ap-polls-colorado.html,https://www.nytimes.com/interactive/2020/11/03/us/elections/exit-polls-colorado.html,house,general,2020-11-03,FALSE,U.S. House District 4,U.S. House,H,solid-rep,4,District 4,CO,colorado,Colorado,Colo.,horizontal,"",FALSE,TRUE,winner,AP,FALSE,"",475106,0,unknown,Polls close at 9 p.m. Eastern time.,Polls close in,Polls have closed.,2020-11-04T02:00:00.000Z,9 p.m.,511,528,97% reporting,97%,100,475000,edison,>98%,>98% reported,edison,republican,FALSE,2020-11-20T23:40:42Z,TRUE,23.50212,111660,R+24,Buck +24,republican,"","",0,0,1604459787450
08121,Washington,2973,0,6,6,Other,92,3225,92%,92% reported,edison,2,unknown,2600,303,48,22,0,0,0,0,2020-11-16T15:48:04Z,77.26202,R+77,Buck +77,republican,CO-G-H-4-2020-11-03,co-house-general-district-004-2020-11-03,https://www.nytimes.com/interactive/2020/11/03/us/elections/results-colorado-house-district-4.html,https://www.nytimes.com/interactive/2020/11/03/us/elections/results-colorado.html,https://www.nytimes.com/interactive/2020/11/03/us/elections/ap-polls-colorado.html,https://www.nytimes.com/interactive/2020/11/03/us/elections/exit-polls-colorado.html,house,general,2020-11-03,FALSE,U.S. House District 4,U.S. House,H,solid-rep,4,District 4,CO,colorado,Colorado,Colo.,horizontal,"",FALSE,TRUE,winner,AP,FALSE,"",475106,0,unknown,Polls close at 9 p.m. Eastern time.,Polls close in,Polls have closed.,2020-11-04T02:00:00.000Z,9 p.m.,511,528,97% reporting,97%,100,475000,edison,>98%,>98% reported,edison,republican,FALSE,2020-11-20T23:40:42Z,TRUE,23.50212,111660,R+24,Buck +24,republican,"","",0,0,1604459787450
08123,Weld,162240,0,156,156,Other,100,159805,>98%,>98% reported,edison,4,all,98886,57762,4001,1591,0,0,0,0,2020-11-20T20:30:41Z,25.34763,R+25,Buck +25,republican,CO-G-H-4-2020-11-03,co-house-general-district-004-2020-11-03,https://www.nytimes.com/interactive/2020/11/03/us/elections/results-colorado-house-district-4.html,https://www.nytimes.com/interactive/2020/11/03/us/elections/results-colorado.html,https://www.nytimes.com/interactive/2020/11/03/us/elections/ap-polls-colorado.html,https://www.nytimes.com/interactive/2020/11/03/us/elections/exit-polls-colorado.html,house,general,2020-11-03,FALSE,U.S. House District 4,U.S. House,H,solid-rep,4,District 4,CO,colorado,Colorado,Colo.,horizontal,"",FALSE,TRUE,winner,AP,FALSE,"",475106,0,unknown,Polls close at 9 p.m. Eastern time.,Polls close in,Polls have closed.,2020-11-04T02:00:00.000Z,9 p.m.,511,528,97% reporting,97%,100,475000,edison,>98%,>98% reported,edison,republican,FALSE,2020-11-20T23:40:42Z,TRUE,23.50212,111660,R+24,Buck +24,republican,"","",0,0,1604459787450
08125,Yuma,4872,0,12,14,Other,86,5653,86%,86% reported,edison,2,unknown,4155,617,66,34,0,0,0,0,2020-11-16T15:48:06Z,72.61905,R+73,Buck +73,republican,CO-G-H-4-2020-11-03,co-house-general-district-004-2020-11-03,https://www.nytimes.com/interactive/2020/11/03/us/elections/results-colorado-house-district-4.html,https://www.nytimes.com/interactive/2020/11/03/us/elections/results-colorado.html,https://www.nytimes.com/interactive/2020/11/03/us/elections/ap-polls-colorado.html,https://www.nytimes.com/interactive/2020/11/03/us/elections/exit-polls-colorado.html,house,general,2020-11-03,FALSE,U.S. House District 4,U.S. House,H,solid-rep,4,District 4,CO,colorado,Colorado,Colo.,horizontal,"",FALSE,TRUE,winner,AP,FALSE,"",475106,0,unknown,Polls close at 9 p.m. Eastern time.,Polls close in,Polls have closed.,2020-11-04T02:00:00.000Z,9 p.m.,511,528,97% reporting,97%,100,475000,edison,>98%,>98% reported,edison,republican,FALSE,2020-11-20T23:40:42Z,TRUE,23.50212,111660,R+24,Buck +24,republican,"","",0,0,1604459787450
