fips,name,votes,absentee_votes,reporting,precincts,absentee_method,eevp,tot_exp_vote,eevp_value,eevp_display,eevp_source,turnout_stage,absentee_count_progress,absentee_max_ballots,results_franklins,results_cohna,results_absentee_franklins,results_absentee_cohna,last_updated,leader_margin_value,leader_margin_display,leader_margin_name_display,leader_party_id,race_id_race,race_slug_race,url_race,state_page_url_race,ap_polls_page_race,edison_exit_polls_page_race,race_type_race,election_type_race,election_date_race,runoff_race,race_name_race,office_race,officeid_race,race_rating_race,seat_race,seat_name_race,state_id_race,state_slug_race,state_name_race,state_nyt_abbrev_race,state_shape_race,state_aspect_ratio_race,party_id_race,uncontested_race,report_race,result_race,result_source_race,gain_race,lost_seat_race,votes_race,absentee_votes_race,absentee_counties_race,absentee_count_progress_race,poll_display_race,poll_countdown_display_race,poll_waiting_display_race,poll_time_race,poll_time_short_race,precincts_reporting_race,precincts_total_race,reporting_display_race,reporting_value_race,eevp_race,tot_exp_vote_race,eevp_source_race,eevp_value_race,eevp_display_race,county_data_source_race,incumbent_party_race,no_forecast_race,last_updated_race,has_incumbent_race,leader_margin_value_race,leader_margin_votes_race,leader_margin_display_race,leader_margin_name_display_race,leader_party_id_race,expectations_text_race,expectations_text_short_race,absentee_ballot_deadline_race,absentee_postmark_deadline_race,winner_called_timestamp_race
12057,Hillsborough,189654,0,109,109,Released as a precinct as first report of the night,100,189654,>98%,>98% reported,edison,10,unknown,541850,99886,89768,0,0,2020-11-17T17:29:06Z,5.33498,R+5,Franklin +5,republican,FL-G-H-15-2020-11-03,fl-house-general-district-015-2020-11-03,https://www.nytimes.com/interactive/2020/11/03/us/elections/results-florida-house-district-15.html,https://www.nytimes.com/interactive/2020/11/03/us/elections/results-florida.html,https://www.nytimes.com/interactive/2020/11/03/us/elections/ap-polls-florida.html,https://www.nytimes.com/interactive/2020/11/03/us/elections/exit-polls-florida.html,house,general,2020-11-03,FALSE,U.S. House District 15,U.S. House,H,lean-rep,15,District 15,FL,florida,Florida,Fla.,vertical,1,"",FALSE,TRUE,winner,AP,FALSE,"",390671,152961,2,unknown,First polls close at 7 p.m. Eastern time.,First polls close in,Most polls have closed.,2020-11-04T00:00:00.000Z,7 p.m.,210,210,100% reporting,100%,100,390671,edison,>98%,>98% reported,edison,republican,FALSE,2020-11-20T14:22:42Z,FALSE,10.77044,42077,R+11,Franklin +11,republican,"","",0,0,1604455230662
12069,Lake,63805,58500,31,31,Released as a precinct as first report of the night,100,63805,>98%,>98% reported,edison,10,all,141477,34194,29611,30794,27706,2020-11-17T17:27:58Z,7.18282,R+7,Franklin +7,republican,FL-G-H-15-2020-11-03,fl-house-general-district-015-2020-11-03,https://www.nytimes.com/interactive/2020/11/03/us/elections/results-florida-house-district-15.html,https://www.nytimes.com/interactive/2020/11/03/us/elections/results-florida.html,https://www.nytimes.com/interactive/2020/11/03/us/elections/ap-polls-florida.html,https://www.nytimes.com/interactive/2020/11/03/us/elections/exit-polls-florida.html,house,general,2020-11-03,FALSE,U.S. House District 15,U.S. House,H,lean-rep,15,District 15,FL,florida,Florida,Fla.,vertical,1,"",FALSE,TRUE,winner,AP,FALSE,"",390671,152961,2,unknown,First polls close at 7 p.m. Eastern time.,First polls close in,Most polls have closed.,2020-11-04T00:00:00.000Z,7 p.m.,210,210,100% reporting,100%,100,390671,edison,>98%,>98% reported,edison,republican,FALSE,2020-11-20T14:22:42Z,FALSE,10.77044,42077,R+11,Franklin +11,republican,"","",0,0,1604455230662
12105,Polk,137212,94461,70,70,Released as a separate subtotal as first report of the night,100,137212,>98%,>98% reported,edison,10,some,195002,82294,54918,51709,42752,2020-11-16T17:24:12Z,19.95161,R+20,Franklin +20,republican,FL-G-H-15-2020-11-03,fl-house-general-district-015-2020-11-03,https://www.nytimes.com/interactive/2020/11/03/us/elections/results-florida-house-district-15.html,https://www.nytimes.com/interactive/2020/11/03/us/elections/results-florida.html,https://www.nytimes.com/interactive/2020/11/03/us/elections/ap-polls-florida.html,https://www.nytimes.com/interactive/2020/11/03/us/elections/exit-polls-florida.html,house,general,2020-11-03,FALSE,U.S. House District 15,U.S. House,H,lean-rep,15,District 15,FL,florida,Florida,Fla.,vertical,1,"",FALSE,TRUE,winner,AP,FALSE,"",390671,152961,2,unknown,First polls close at 7 p.m. Eastern time.,First polls close in,Most polls have closed.,2020-11-04T00:00:00.000Z,7 p.m.,210,210,100% reporting,100%,100,390671,edison,>98%,>98% reported,edison,republican,FALSE,2020-11-20T14:22:42Z,FALSE,10.77044,42077,R+11,Franklin +11,republican,"","",0,0,1604455230662
