fips,name,votes,absentee_votes,reporting,precincts,absentee_method,eevp,tot_exp_vote,eevp_value,eevp_display,eevp_source,turnout_stage,absentee_count_progress,results_hinsona,results_finkenauera,results_absentee_hinsona,results_absentee_finkenauera,last_updated,leader_margin_value,leader_margin_display,leader_margin_name_display,leader_party_id,race_id_race,race_slug_race,url_race,state_page_url_race,ap_polls_page_race,edison_exit_polls_page_race,race_type_race,election_type_race,election_date_race,runoff_race,race_name_race,office_race,officeid_race,nyt_race_description_race,race_rating_race,nyt_key_race_race,seat_race,seat_name_race,state_id_race,state_slug_race,state_name_race,state_nyt_abbrev_race,state_shape_race,party_id_race,uncontested_race,report_race,result_race,result_source_race,gain_race,lost_seat_race,votes_race,absentee_votes_race,absentee_counties_race,absentee_count_progress_race,poll_display_race,poll_countdown_display_race,poll_waiting_display_race,poll_time_race,poll_time_short_race,precincts_reporting_race,precincts_total_race,reporting_display_race,reporting_value_race,eevp_race,tot_exp_vote_race,eevp_source_race,eevp_value_race,eevp_display_race,county_data_source_race,incumbent_party_race,no_forecast_race,last_updated_race,has_incumbent_race,leader_margin_value_race,leader_margin_votes_race,leader_margin_display_race,leader_margin_name_display_race,leader_party_id_race,expectations_text_race,expectations_text_short_race,absentee_ballot_deadline_race,absentee_postmark_deadline_race,winner_called_timestamp_race
19005,Allamakee,7292,4751,11,11,None,91,7974,91%,91% reported,edison,4,all,4595,2697,2632,2119,2020-11-16T15:48:31Z,26.02852,R+26,Hinson +26,republican,IA-G-H-1-2020-11-03,ia-house-general-district-001-2020-11-03,https://www.nytimes.com/interactive/2020/11/03/us/elections/results-iowa-house-district-1.html,https://www.nytimes.com/interactive/2020/11/03/us/elections/results-iowa.html,https://www.nytimes.com/interactive/2020/11/03/us/elections/ap-polls-iowa.html,https://www.nytimes.com/interactive/2020/11/03/us/elections/exit-polls-iowa.html,house,general,2020-11-03,FALSE,U.S. House District 1,U.S. House,H,"Representative Abby Finkenauer, a Democrat, flipped this northeast Iowa seat from red to blue in 2018. But Republicans hope to win it back with State Representative Ashley Hinson, a former television anchor who has outraised Ms. Finkenauer in the last two quarters.",tossup,TRUE,1,District 1,IA,iowa,Iowa,Iowa,horizontal,"",FALSE,TRUE,winner,AP,TRUE,democrat,413435,249441,20,unknown,Polls close at 10 p.m. Eastern time.,Polls close in,Polls have closed.,2020-11-04T03:00:00.000Z,10 p.m.,394,412,96% reporting,96%,91,454000,edison,91%,91% reported,edison,democrat,FALSE,2020-11-20T14:22:44Z,TRUE,2.59799,10741,R+3,Hinson +3,republican,"","",6,-1,1604504320534
19011,Benton,14472,6413,19,19,None,91,15898,91%,91% reported,edison,4,some,9165,5307,3213,3200,2020-11-16T15:48:32Z,26.65837,R+27,Hinson +27,republican,IA-G-H-1-2020-11-03,ia-house-general-district-001-2020-11-03,https://www.nytimes.com/interactive/2020/11/03/us/elections/results-iowa-house-district-1.html,https://www.nytimes.com/interactive/2020/11/03/us/elections/results-iowa.html,https://www.nytimes.com/interactive/2020/11/03/us/elections/ap-polls-iowa.html,https://www.nytimes.com/interactive/2020/11/03/us/elections/exit-polls-iowa.html,house,general,2020-11-03,FALSE,U.S. House District 1,U.S. House,H,"Representative Abby Finkenauer, a Democrat, flipped this northeast Iowa seat from red to blue in 2018. But Republicans hope to win it back with State Representative Ashley Hinson, a former television anchor who has outraised Ms. Finkenauer in the last two quarters.",tossup,TRUE,1,District 1,IA,iowa,Iowa,Iowa,horizontal,"",FALSE,TRUE,winner,AP,TRUE,democrat,413435,249441,20,unknown,Polls close at 10 p.m. Eastern time.,Polls close in,Polls have closed.,2020-11-04T03:00:00.000Z,10 p.m.,394,412,96% reporting,96%,91,454000,edison,91%,91% reported,edison,democrat,FALSE,2020-11-20T14:22:44Z,TRUE,2.59799,10741,R+3,Hinson +3,republican,"","",6,-1,1604504320534
19013,Black Hawk,65393,40432,62,63,None,89,73741,89%,89% reported,edison,4,unknown,29333,36060,14064,26368,2020-11-16T15:48:27Z,10.28703,D+10,Finkenauer +10,democrat,IA-G-H-1-2020-11-03,ia-house-general-district-001-2020-11-03,https://www.nytimes.com/interactive/2020/11/03/us/elections/results-iowa-house-district-1.html,https://www.nytimes.com/interactive/2020/11/03/us/elections/results-iowa.html,https://www.nytimes.com/interactive/2020/11/03/us/elections/ap-polls-iowa.html,https://www.nytimes.com/interactive/2020/11/03/us/elections/exit-polls-iowa.html,house,general,2020-11-03,FALSE,U.S. House District 1,U.S. House,H,"Representative Abby Finkenauer, a Democrat, flipped this northeast Iowa seat from red to blue in 2018. But Republicans hope to win it back with State Representative Ashley Hinson, a former television anchor who has outraised Ms. Finkenauer in the last two quarters.",tossup,TRUE,1,District 1,IA,iowa,Iowa,Iowa,horizontal,"",FALSE,TRUE,winner,AP,TRUE,democrat,413435,249441,20,unknown,Polls close at 10 p.m. Eastern time.,Polls close in,Polls have closed.,2020-11-04T03:00:00.000Z,10 p.m.,394,412,96% reporting,96%,91,454000,edison,91%,91% reported,edison,democrat,FALSE,2020-11-20T14:22:44Z,TRUE,2.59799,10741,R+3,Hinson +3,republican,"","",6,-1,1604504320534
19017,Bremer,14036,8113,14,14,None,91,15506,91%,91% reported,edison,4,unknown,8000,6036,3680,4433,2020-11-16T15:48:27Z,13.99259,R+14,Hinson +14,republican,IA-G-H-1-2020-11-03,ia-house-general-district-001-2020-11-03,https://www.nytimes.com/interactive/2020/11/03/us/elections/results-iowa-house-district-1.html,https://www.nytimes.com/interactive/2020/11/03/us/elections/results-iowa.html,https://www.nytimes.com/interactive/2020/11/03/us/elections/ap-polls-iowa.html,https://www.nytimes.com/interactive/2020/11/03/us/elections/exit-polls-iowa.html,house,general,2020-11-03,FALSE,U.S. House District 1,U.S. House,H,"Representative Abby Finkenauer, a Democrat, flipped this northeast Iowa seat from red to blue in 2018. But Republicans hope to win it back with State Representative Ashley Hinson, a former television anchor who has outraised Ms. Finkenauer in the last two quarters.",tossup,TRUE,1,District 1,IA,iowa,Iowa,Iowa,horizontal,"",FALSE,TRUE,winner,AP,TRUE,democrat,413435,249441,20,unknown,Polls close at 10 p.m. Eastern time.,Polls close in,Polls have closed.,2020-11-04T03:00:00.000Z,10 p.m.,394,412,96% reporting,96%,91,454000,edison,91%,91% reported,edison,democrat,FALSE,2020-11-20T14:22:44Z,TRUE,2.59799,10741,R+3,Hinson +3,republican,"","",6,-1,1604504320534
19019,Buchanan,10661,5496,11,11,None,91,11771,91%,91% reported,edison,4,all,6180,4481,2483,3013,2020-11-16T15:48:28Z,15.93659,R+16,Hinson +16,republican,IA-G-H-1-2020-11-03,ia-house-general-district-001-2020-11-03,https://www.nytimes.com/interactive/2020/11/03/us/elections/results-iowa-house-district-1.html,https://www.nytimes.com/interactive/2020/11/03/us/elections/results-iowa.html,https://www.nytimes.com/interactive/2020/11/03/us/elections/ap-polls-iowa.html,https://www.nytimes.com/interactive/2020/11/03/us/elections/exit-polls-iowa.html,house,general,2020-11-03,FALSE,U.S. House District 1,U.S. House,H,"Representative Abby Finkenauer, a Democrat, flipped this northeast Iowa seat from red to blue in 2018. But Republicans hope to win it back with State Representative Ashley Hinson, a former television anchor who has outraised Ms. Finkenauer in the last two quarters.",tossup,TRUE,1,District 1,IA,iowa,Iowa,Iowa,horizontal,"",FALSE,TRUE,winner,AP,TRUE,democrat,413435,249441,20,unknown,Polls close at 10 p.m. Eastern time.,Polls close in,Polls have closed.,2020-11-04T03:00:00.000Z,10 p.m.,394,412,96% reporting,96%,91,454000,edison,91%,91% reported,edison,democrat,FALSE,2020-11-20T14:22:44Z,TRUE,2.59799,10741,R+3,Hinson +3,republican,"","",6,-1,1604504320534
19043,Clayton,9485,4676,13,14,None,90,10508,90%,90% reported,edison,2,none,5895,3590,2233,2443,2020-11-16T15:48:28Z,24.30153,R+24,Hinson +24,republican,IA-G-H-1-2020-11-03,ia-house-general-district-001-2020-11-03,https://www.nytimes.com/interactive/2020/11/03/us/elections/results-iowa-house-district-1.html,https://www.nytimes.com/interactive/2020/11/03/us/elections/results-iowa.html,https://www.nytimes.com/interactive/2020/11/03/us/elections/ap-polls-iowa.html,https://www.nytimes.com/interactive/2020/11/03/us/elections/exit-polls-iowa.html,house,general,2020-11-03,FALSE,U.S. House District 1,U.S. House,H,"Representative Abby Finkenauer, a Democrat, flipped this northeast Iowa seat from red to blue in 2018. But Republicans hope to win it back with State Representative Ashley Hinson, a former television anchor who has outraised Ms. Finkenauer in the last two quarters.",tossup,TRUE,1,District 1,IA,iowa,Iowa,Iowa,horizontal,"",FALSE,TRUE,winner,AP,TRUE,democrat,413435,249441,20,unknown,Polls close at 10 p.m. Eastern time.,Polls close in,Polls have closed.,2020-11-04T03:00:00.000Z,10 p.m.,394,412,96% reporting,96%,91,454000,edison,91%,91% reported,edison,democrat,FALSE,2020-11-20T14:22:44Z,TRUE,2.59799,10741,R+3,Hinson +3,republican,"","",6,-1,1604504320534
19055,Delaware,9888,4761,11,12,None,93,10640,93%,93% reported,edison,2,unknown,6608,3280,2605,2156,2020-11-16T15:48:29Z,33.65696,R+34,Hinson +34,republican,IA-G-H-1-2020-11-03,ia-house-general-district-001-2020-11-03,https://www.nytimes.com/interactive/2020/11/03/us/elections/results-iowa-house-district-1.html,https://www.nytimes.com/interactive/2020/11/03/us/elections/results-iowa.html,https://www.nytimes.com/interactive/2020/11/03/us/elections/ap-polls-iowa.html,https://www.nytimes.com/interactive/2020/11/03/us/elections/exit-polls-iowa.html,house,general,2020-11-03,FALSE,U.S. House District 1,U.S. House,H,"Representative Abby Finkenauer, a Democrat, flipped this northeast Iowa seat from red to blue in 2018. But Republicans hope to win it back with State Representative Ashley Hinson, a former television anchor who has outraised Ms. Finkenauer in the last two quarters.",tossup,TRUE,1,District 1,IA,iowa,Iowa,Iowa,horizontal,"",FALSE,TRUE,winner,AP,TRUE,democrat,413435,249441,20,unknown,Polls close at 10 p.m. Eastern time.,Polls close in,Polls have closed.,2020-11-04T03:00:00.000Z,10 p.m.,394,412,96% reporting,96%,91,454000,edison,91%,91% reported,edison,democrat,FALSE,2020-11-20T14:22:44Z,TRUE,2.59799,10741,R+3,Hinson +3,republican,"","",6,-1,1604504320534
19061,Dubuque,52804,33727,35,36,None,92,57092,92%,92% reported,edison,4,unknown,26263,26541,12936,20791,2020-11-16T15:48:29Z,0.52648,D+0.53,Finkenauer +0.53,democrat,IA-G-H-1-2020-11-03,ia-house-general-district-001-2020-11-03,https://www.nytimes.com/interactive/2020/11/03/us/elections/results-iowa-house-district-1.html,https://www.nytimes.com/interactive/2020/11/03/us/elections/results-iowa.html,https://www.nytimes.com/interactive/2020/11/03/us/elections/ap-polls-iowa.html,https://www.nytimes.com/interactive/2020/11/03/us/elections/exit-polls-iowa.html,house,general,2020-11-03,FALSE,U.S. House District 1,U.S. House,H,"Representative Abby Finkenauer, a Democrat, flipped this northeast Iowa seat from red to blue in 2018. But Republicans hope to win it back with State Representative Ashley Hinson, a former television anchor who has outraised Ms. Finkenauer in the last two quarters.",tossup,TRUE,1,District 1,IA,iowa,Iowa,Iowa,horizontal,"",FALSE,TRUE,winner,AP,TRUE,democrat,413435,249441,20,unknown,Polls close at 10 p.m. Eastern time.,Polls close in,Polls have closed.,2020-11-04T03:00:00.000Z,10 p.m.,394,412,96% reporting,96%,91,454000,edison,91%,91% reported,edison,democrat,FALSE,2020-11-20T14:22:44Z,TRUE,2.59799,10741,R+3,Hinson +3,republican,"","",6,-1,1604504320534
19065,Fayette,10083,5367,25,26,None,100,10074,>98%,>98% reported,edison,6,all,5984,4099,2539,2828,2020-11-16T15:48:30Z,18.69483,R+19,Hinson +19,republican,IA-G-H-1-2020-11-03,ia-house-general-district-001-2020-11-03,https://www.nytimes.com/interactive/2020/11/03/us/elections/results-iowa-house-district-1.html,https://www.nytimes.com/interactive/2020/11/03/us/elections/results-iowa.html,https://www.nytimes.com/interactive/2020/11/03/us/elections/ap-polls-iowa.html,https://www.nytimes.com/interactive/2020/11/03/us/elections/exit-polls-iowa.html,house,general,2020-11-03,FALSE,U.S. House District 1,U.S. House,H,"Representative Abby Finkenauer, a Democrat, flipped this northeast Iowa seat from red to blue in 2018. But Republicans hope to win it back with State Representative Ashley Hinson, a former television anchor who has outraised Ms. Finkenauer in the last two quarters.",tossup,TRUE,1,District 1,IA,iowa,Iowa,Iowa,horizontal,"",FALSE,TRUE,winner,AP,TRUE,democrat,413435,249441,20,unknown,Polls close at 10 p.m. Eastern time.,Polls close in,Polls have closed.,2020-11-04T03:00:00.000Z,10 p.m.,394,412,96% reporting,96%,91,454000,edison,91%,91% reported,edison,democrat,FALSE,2020-11-20T14:22:44Z,TRUE,2.59799,10741,R+3,Hinson +3,republican,"","",6,-1,1604504320534
19089,Howard,4837,2474,8,9,None,100,4836,>98%,>98% reported,edison,6,all,2944,1893,1201,1273,2020-11-16T15:48:32Z,21.72834,R+22,Hinson +22,republican,IA-G-H-1-2020-11-03,ia-house-general-district-001-2020-11-03,https://www.nytimes.com/interactive/2020/11/03/us/elections/results-iowa-house-district-1.html,https://www.nytimes.com/interactive/2020/11/03/us/elections/results-iowa.html,https://www.nytimes.com/interactive/2020/11/03/us/elections/ap-polls-iowa.html,https://www.nytimes.com/interactive/2020/11/03/us/elections/exit-polls-iowa.html,house,general,2020-11-03,FALSE,U.S. House District 1,U.S. House,H,"Representative Abby Finkenauer, a Democrat, flipped this northeast Iowa seat from red to blue in 2018. But Republicans hope to win it back with State Representative Ashley Hinson, a former television anchor who has outraised Ms. Finkenauer in the last two quarters.",tossup,TRUE,1,District 1,IA,iowa,Iowa,Iowa,horizontal,"",FALSE,TRUE,winner,AP,TRUE,democrat,413435,249441,20,unknown,Polls close at 10 p.m. Eastern time.,Polls close in,Polls have closed.,2020-11-04T03:00:00.000Z,10 p.m.,394,412,96% reporting,96%,91,454000,edison,91%,91% reported,edison,democrat,FALSE,2020-11-20T14:22:44Z,TRUE,2.59799,10741,R+3,Hinson +3,republican,"","",6,-1,1604504320534
19095,Iowa,9584,5464,11,11,None,100,9547,>98%,>98% reported,edison,6,all,6041,3543,2910,2554,2020-11-16T15:48:33Z,26.06427,R+26,Hinson +26,republican,IA-G-H-1-2020-11-03,ia-house-general-district-001-2020-11-03,https://www.nytimes.com/interactive/2020/11/03/us/elections/results-iowa-house-district-1.html,https://www.nytimes.com/interactive/2020/11/03/us/elections/results-iowa.html,https://www.nytimes.com/interactive/2020/11/03/us/elections/ap-polls-iowa.html,https://www.nytimes.com/interactive/2020/11/03/us/elections/exit-polls-iowa.html,house,general,2020-11-03,FALSE,U.S. House District 1,U.S. House,H,"Representative Abby Finkenauer, a Democrat, flipped this northeast Iowa seat from red to blue in 2018. But Republicans hope to win it back with State Representative Ashley Hinson, a former television anchor who has outraised Ms. Finkenauer in the last two quarters.",tossup,TRUE,1,District 1,IA,iowa,Iowa,Iowa,horizontal,"",FALSE,TRUE,winner,AP,TRUE,democrat,413435,249441,20,unknown,Polls close at 10 p.m. Eastern time.,Polls close in,Polls have closed.,2020-11-04T03:00:00.000Z,10 p.m.,394,412,96% reporting,96%,91,454000,edison,91%,91% reported,edison,democrat,FALSE,2020-11-20T14:22:44Z,TRUE,2.59799,10741,R+3,Hinson +3,republican,"","",6,-1,1604504320534
19097,Jackson,10565,5951,15,17,None,89,11841,89%,89% reported,edison,2,unknown,6225,4340,2837,3114,2020-11-16T15:48:30Z,17.84193,R+18,Hinson +18,republican,IA-G-H-1-2020-11-03,ia-house-general-district-001-2020-11-03,https://www.nytimes.com/interactive/2020/11/03/us/elections/results-iowa-house-district-1.html,https://www.nytimes.com/interactive/2020/11/03/us/elections/results-iowa.html,https://www.nytimes.com/interactive/2020/11/03/us/elections/ap-polls-iowa.html,https://www.nytimes.com/interactive/2020/11/03/us/elections/exit-polls-iowa.html,house,general,2020-11-03,FALSE,U.S. House District 1,U.S. House,H,"Representative Abby Finkenauer, a Democrat, flipped this northeast Iowa seat from red to blue in 2018. But Republicans hope to win it back with State Representative Ashley Hinson, a former television anchor who has outraised Ms. Finkenauer in the last two quarters.",tossup,TRUE,1,District 1,IA,iowa,Iowa,Iowa,horizontal,"",FALSE,TRUE,winner,AP,TRUE,democrat,413435,249441,20,unknown,Polls close at 10 p.m. Eastern time.,Polls close in,Polls have closed.,2020-11-04T03:00:00.000Z,10 p.m.,394,412,96% reporting,96%,91,454000,edison,91%,91% reported,edison,democrat,FALSE,2020-11-20T14:22:44Z,TRUE,2.59799,10741,R+3,Hinson +3,republican,"","",6,-1,1604504320534
19105,Jones,10863,5961,13,14,None,93,11628,93%,93% reported,edison,2,unknown,6621,4242,2883,3078,2020-11-16T15:48:30Z,21.90003,R+22,Hinson +22,republican,IA-G-H-1-2020-11-03,ia-house-general-district-001-2020-11-03,https://www.nytimes.com/interactive/2020/11/03/us/elections/results-iowa-house-district-1.html,https://www.nytimes.com/interactive/2020/11/03/us/elections/results-iowa.html,https://www.nytimes.com/interactive/2020/11/03/us/elections/ap-polls-iowa.html,https://www.nytimes.com/interactive/2020/11/03/us/elections/exit-polls-iowa.html,house,general,2020-11-03,FALSE,U.S. House District 1,U.S. House,H,"Representative Abby Finkenauer, a Democrat, flipped this northeast Iowa seat from red to blue in 2018. But Republicans hope to win it back with State Representative Ashley Hinson, a former television anchor who has outraised Ms. Finkenauer in the last two quarters.",tossup,TRUE,1,District 1,IA,iowa,Iowa,Iowa,horizontal,"",FALSE,TRUE,winner,AP,TRUE,democrat,413435,249441,20,unknown,Polls close at 10 p.m. Eastern time.,Polls close in,Polls have closed.,2020-11-04T03:00:00.000Z,10 p.m.,394,412,96% reporting,96%,91,454000,edison,91%,91% reported,edison,democrat,FALSE,2020-11-20T14:22:44Z,TRUE,2.59799,10741,R+3,Hinson +3,republican,"","",6,-1,1604504320534
19113,Linn,125634,80982,80,86,None,94,133858,94%,94% reported,edison,4,unknown,56243,69391,27051,53931,2020-11-16T22:25:44Z,10.46532,D+10,Finkenauer +10,democrat,IA-G-H-1-2020-11-03,ia-house-general-district-001-2020-11-03,https://www.nytimes.com/interactive/2020/11/03/us/elections/results-iowa-house-district-1.html,https://www.nytimes.com/interactive/2020/11/03/us/elections/results-iowa.html,https://www.nytimes.com/interactive/2020/11/03/us/elections/ap-polls-iowa.html,https://www.nytimes.com/interactive/2020/11/03/us/elections/exit-polls-iowa.html,house,general,2020-11-03,FALSE,U.S. House District 1,U.S. House,H,"Representative Abby Finkenauer, a Democrat, flipped this northeast Iowa seat from red to blue in 2018. But Republicans hope to win it back with State Representative Ashley Hinson, a former television anchor who has outraised Ms. Finkenauer in the last two quarters.",tossup,TRUE,1,District 1,IA,iowa,Iowa,Iowa,horizontal,"",FALSE,TRUE,winner,AP,TRUE,democrat,413435,249441,20,unknown,Polls close at 10 p.m. Eastern time.,Polls close in,Polls have closed.,2020-11-04T03:00:00.000Z,10 p.m.,394,412,96% reporting,96%,91,454000,edison,91%,91% reported,edison,democrat,FALSE,2020-11-20T14:22:44Z,TRUE,2.59799,10741,R+3,Hinson +3,republican,"","",6,-1,1604504320534
19127,Marshall,17352,10999,19,19,None,84,20592,84%,84% reported,edison,4,some,9176,8176,4906,6093,2020-11-16T15:48:33Z,5.76302,R+6,Hinson +6,republican,IA-G-H-1-2020-11-03,ia-house-general-district-001-2020-11-03,https://www.nytimes.com/interactive/2020/11/03/us/elections/results-iowa-house-district-1.html,https://www.nytimes.com/interactive/2020/11/03/us/elections/results-iowa.html,https://www.nytimes.com/interactive/2020/11/03/us/elections/ap-polls-iowa.html,https://www.nytimes.com/interactive/2020/11/03/us/elections/exit-polls-iowa.html,house,general,2020-11-03,FALSE,U.S. House District 1,U.S. House,H,"Representative Abby Finkenauer, a Democrat, flipped this northeast Iowa seat from red to blue in 2018. But Republicans hope to win it back with State Representative Ashley Hinson, a former television anchor who has outraised Ms. Finkenauer in the last two quarters.",tossup,TRUE,1,District 1,IA,iowa,Iowa,Iowa,horizontal,"",FALSE,TRUE,winner,AP,TRUE,democrat,413435,249441,20,unknown,Polls close at 10 p.m. Eastern time.,Polls close in,Polls have closed.,2020-11-04T03:00:00.000Z,10 p.m.,394,412,96% reporting,96%,91,454000,edison,91%,91% reported,edison,democrat,FALSE,2020-11-20T14:22:44Z,TRUE,2.59799,10741,R+3,Hinson +3,republican,"","",6,-1,1604504320534
19131,Mitchell,5575,3322,10,11,None,89,6244,89%,89% reported,edison,2,unknown,3559,2016,1802,1520,2020-11-16T15:48:33Z,27.67713,R+28,Hinson +28,republican,IA-G-H-1-2020-11-03,ia-house-general-district-001-2020-11-03,https://www.nytimes.com/interactive/2020/11/03/us/elections/results-iowa-house-district-1.html,https://www.nytimes.com/interactive/2020/11/03/us/elections/results-iowa.html,https://www.nytimes.com/interactive/2020/11/03/us/elections/ap-polls-iowa.html,https://www.nytimes.com/interactive/2020/11/03/us/elections/exit-polls-iowa.html,house,general,2020-11-03,FALSE,U.S. House District 1,U.S. House,H,"Representative Abby Finkenauer, a Democrat, flipped this northeast Iowa seat from red to blue in 2018. But Republicans hope to win it back with State Representative Ashley Hinson, a former television anchor who has outraised Ms. Finkenauer in the last two quarters.",tossup,TRUE,1,District 1,IA,iowa,Iowa,Iowa,horizontal,"",FALSE,TRUE,winner,AP,TRUE,democrat,413435,249441,20,unknown,Polls close at 10 p.m. Eastern time.,Polls close in,Polls have closed.,2020-11-04T03:00:00.000Z,10 p.m.,394,412,96% reporting,96%,91,454000,edison,91%,91% reported,edison,democrat,FALSE,2020-11-20T14:22:44Z,TRUE,2.59799,10741,R+3,Hinson +3,republican,"","",6,-1,1604504320534
19157,Poweshiek,9861,6145,4,4,None,87,11296,87%,87% reported,edison,4,unknown,5432,4429,2661,3484,2020-11-16T15:48:34Z,10.17138,R+10,Hinson +10,republican,IA-G-H-1-2020-11-03,ia-house-general-district-001-2020-11-03,https://www.nytimes.com/interactive/2020/11/03/us/elections/results-iowa-house-district-1.html,https://www.nytimes.com/interactive/2020/11/03/us/elections/results-iowa.html,https://www.nytimes.com/interactive/2020/11/03/us/elections/ap-polls-iowa.html,https://www.nytimes.com/interactive/2020/11/03/us/elections/exit-polls-iowa.html,house,general,2020-11-03,FALSE,U.S. House District 1,U.S. House,H,"Representative Abby Finkenauer, a Democrat, flipped this northeast Iowa seat from red to blue in 2018. But Republicans hope to win it back with State Representative Ashley Hinson, a former television anchor who has outraised Ms. Finkenauer in the last two quarters.",tossup,TRUE,1,District 1,IA,iowa,Iowa,Iowa,horizontal,"",FALSE,TRUE,winner,AP,TRUE,democrat,413435,249441,20,unknown,Polls close at 10 p.m. Eastern time.,Polls close in,Polls have closed.,2020-11-04T03:00:00.000Z,10 p.m.,394,412,96% reporting,96%,91,454000,edison,91%,91% reported,edison,democrat,FALSE,2020-11-20T14:22:44Z,TRUE,2.59799,10741,R+3,Hinson +3,republican,"","",6,-1,1604504320534
19171,Tama,8900,3900,16,16,None,100,8891,>98%,>98% reported,edison,6,all,5150,3750,1783,2117,2020-11-16T15:47:42Z,15.73034,R+16,Hinson +16,republican,IA-G-H-1-2020-11-03,ia-house-general-district-001-2020-11-03,https://www.nytimes.com/interactive/2020/11/03/us/elections/results-iowa-house-district-1.html,https://www.nytimes.com/interactive/2020/11/03/us/elections/results-iowa.html,https://www.nytimes.com/interactive/2020/11/03/us/elections/ap-polls-iowa.html,https://www.nytimes.com/interactive/2020/11/03/us/elections/exit-polls-iowa.html,house,general,2020-11-03,FALSE,U.S. House District 1,U.S. House,H,"Representative Abby Finkenauer, a Democrat, flipped this northeast Iowa seat from red to blue in 2018. But Republicans hope to win it back with State Representative Ashley Hinson, a former television anchor who has outraised Ms. Finkenauer in the last two quarters.",tossup,TRUE,1,District 1,IA,iowa,Iowa,Iowa,horizontal,"",FALSE,TRUE,winner,AP,TRUE,democrat,413435,249441,20,unknown,Polls close at 10 p.m. Eastern time.,Polls close in,Polls have closed.,2020-11-04T03:00:00.000Z,10 p.m.,394,412,96% reporting,96%,91,454000,edison,91%,91% reported,edison,democrat,FALSE,2020-11-20T14:22:44Z,TRUE,2.59799,10741,R+3,Hinson +3,republican,"","",6,-1,1604504320534
19191,Winneshiek,11848,8625,10,11,None,91,13045,91%,91% reported,edison,2,unknown,6041,5807,3716,4909,2020-11-16T15:47:45Z,1.97502,R+2.0,Hinson +2.0,republican,IA-G-H-1-2020-11-03,ia-house-general-district-001-2020-11-03,https://www.nytimes.com/interactive/2020/11/03/us/elections/results-iowa-house-district-1.html,https://www.nytimes.com/interactive/2020/11/03/us/elections/results-iowa.html,https://www.nytimes.com/interactive/2020/11/03/us/elections/ap-polls-iowa.html,https://www.nytimes.com/interactive/2020/11/03/us/elections/exit-polls-iowa.html,house,general,2020-11-03,FALSE,U.S. House District 1,U.S. House,H,"Representative Abby Finkenauer, a Democrat, flipped this northeast Iowa seat from red to blue in 2018. But Republicans hope to win it back with State Representative Ashley Hinson, a former television anchor who has outraised Ms. Finkenauer in the last two quarters.",tossup,TRUE,1,District 1,IA,iowa,Iowa,Iowa,horizontal,"",FALSE,TRUE,winner,AP,TRUE,democrat,413435,249441,20,unknown,Polls close at 10 p.m. Eastern time.,Polls close in,Polls have closed.,2020-11-04T03:00:00.000Z,10 p.m.,394,412,96% reporting,96%,91,454000,edison,91%,91% reported,edison,democrat,FALSE,2020-11-20T14:22:44Z,TRUE,2.59799,10741,R+3,Hinson +3,republican,"","",6,-1,1604504320534
19195,Worth,4302,1882,7,8,None,88,4910,88%,88% reported,edison,2,unknown,2633,1669,895,987,2020-11-16T15:47:45Z,22.40818,R+22,Hinson +22,republican,IA-G-H-1-2020-11-03,ia-house-general-district-001-2020-11-03,https://www.nytimes.com/interactive/2020/11/03/us/elections/results-iowa-house-district-1.html,https://www.nytimes.com/interactive/2020/11/03/us/elections/results-iowa.html,https://www.nytimes.com/interactive/2020/11/03/us/elections/ap-polls-iowa.html,https://www.nytimes.com/interactive/2020/11/03/us/elections/exit-polls-iowa.html,house,general,2020-11-03,FALSE,U.S. House District 1,U.S. House,H,"Representative Abby Finkenauer, a Democrat, flipped this northeast Iowa seat from red to blue in 2018. But Republicans hope to win it back with State Representative Ashley Hinson, a former television anchor who has outraised Ms. Finkenauer in the last two quarters.",tossup,TRUE,1,District 1,IA,iowa,Iowa,Iowa,horizontal,"",FALSE,TRUE,winner,AP,TRUE,democrat,413435,249441,20,unknown,Polls close at 10 p.m. Eastern time.,Polls close in,Polls have closed.,2020-11-04T03:00:00.000Z,10 p.m.,394,412,96% reporting,96%,91,454000,edison,91%,91% reported,edison,democrat,FALSE,2020-11-20T14:22:44Z,TRUE,2.59799,10741,R+3,Hinson +3,republican,"","",6,-1,1604504320534
