fips,name,votes,absentee_votes,reporting,precincts,absentee_method,eevp,tot_exp_vote,eevp_value,eevp_display,eevp_source,turnout_stage,absentee_count_progress,results_axnec,results_youngd,results_holderb,results_absentee_axnec,results_absentee_youngd,results_absentee_holderb,last_updated,leader_margin_value,leader_margin_display,leader_margin_name_display,leader_party_id,race_id_race,race_slug_race,url_race,state_page_url_race,ap_polls_page_race,edison_exit_polls_page_race,race_type_race,election_type_race,election_date_race,runoff_race,race_name_race,office_race,officeid_race,race_rating_race,seat_race,seat_name_race,state_id_race,state_slug_race,state_name_race,state_nyt_abbrev_race,state_shape_race,party_id_race,uncontested_race,report_race,result_race,result_source_race,gain_race,lost_seat_race,votes_race,absentee_votes_race,absentee_counties_race,absentee_count_progress_race,poll_display_race,poll_countdown_display_race,poll_waiting_display_race,poll_time_race,poll_time_short_race,precincts_reporting_race,precincts_total_race,reporting_display_race,reporting_value_race,eevp_race,tot_exp_vote_race,eevp_source_race,eevp_value_race,eevp_display_race,county_data_source_race,incumbent_party_race,no_forecast_race,last_updated_race,has_incumbent_race,leader_margin_value_race,leader_margin_votes_race,leader_margin_display_race,leader_margin_name_display_race,leader_party_id_race,expectations_text_race,expectations_text_short_race,absentee_ballot_deadline_race,absentee_postmark_deadline_race,winner_called_timestamp_race
19001,Adair,4055,2076,5,5,None,100,4053,>98%,>98% reported,edison,6,some,1263,2655,137,911,1099,66,2020-11-16T15:48:12Z,34.32799,R+34,Young +34,republican,IA-G-H-3-2020-11-03,ia-house-general-district-003-2020-11-03,https://www.nytimes.com/interactive/2020/11/03/us/elections/results-iowa-house-district-3.html,https://www.nytimes.com/interactive/2020/11/03/us/elections/results-iowa.html,https://www.nytimes.com/interactive/2020/11/03/us/elections/ap-polls-iowa.html,https://www.nytimes.com/interactive/2020/11/03/us/elections/exit-polls-iowa.html,house,general,2020-11-03,FALSE,U.S. House District 3,U.S. House,H,lean-dem,3,District 3,IA,iowa,Iowa,Iowa,horizontal,"",FALSE,TRUE,winner,AP,FALSE,"",447563,252974,16,unknown,Polls close at 10 p.m. Eastern time.,Polls close in,Polls have closed.,2020-11-04T03:00:00.000Z,10 p.m.,348,360,97% reporting,97%,96,468000,edison,96%,96% reported,edison,democrat,FALSE,2020-11-20T14:22:45Z,TRUE,1.38707,6208,D+1.4,Axne +1.4,democrat,"","",6,-1,1604518081417
19003,Adams,2129,1223,5,5,None,100,2127,>98%,>98% reported,edison,6,unknown,634,1416,79,458,723,42,2020-11-16T15:48:05Z,36.73086,R+37,Young +37,republican,IA-G-H-3-2020-11-03,ia-house-general-district-003-2020-11-03,https://www.nytimes.com/interactive/2020/11/03/us/elections/results-iowa-house-district-3.html,https://www.nytimes.com/interactive/2020/11/03/us/elections/results-iowa.html,https://www.nytimes.com/interactive/2020/11/03/us/elections/ap-polls-iowa.html,https://www.nytimes.com/interactive/2020/11/03/us/elections/exit-polls-iowa.html,house,general,2020-11-03,FALSE,U.S. House District 3,U.S. House,H,lean-dem,3,District 3,IA,iowa,Iowa,Iowa,horizontal,"",FALSE,TRUE,winner,AP,FALSE,"",447563,252974,16,unknown,Polls close at 10 p.m. Eastern time.,Polls close in,Polls have closed.,2020-11-04T03:00:00.000Z,10 p.m.,348,360,97% reporting,97%,96,468000,edison,96%,96% reported,edison,democrat,FALSE,2020-11-20T14:22:45Z,TRUE,1.38707,6208,D+1.4,Axne +1.4,democrat,"","",6,-1,1604518081417
19029,Cass,7023,4089,10,10,None,100,7022,>98%,>98% reported,edison,6,some,2210,4626,187,1624,2380,85,2020-11-16T15:48:13Z,34.40125,R+34,Young +34,republican,IA-G-H-3-2020-11-03,ia-house-general-district-003-2020-11-03,https://www.nytimes.com/interactive/2020/11/03/us/elections/results-iowa-house-district-3.html,https://www.nytimes.com/interactive/2020/11/03/us/elections/results-iowa.html,https://www.nytimes.com/interactive/2020/11/03/us/elections/ap-polls-iowa.html,https://www.nytimes.com/interactive/2020/11/03/us/elections/exit-polls-iowa.html,house,general,2020-11-03,FALSE,U.S. House District 3,U.S. House,H,lean-dem,3,District 3,IA,iowa,Iowa,Iowa,horizontal,"",FALSE,TRUE,winner,AP,FALSE,"",447563,252974,16,unknown,Polls close at 10 p.m. Eastern time.,Polls close in,Polls have closed.,2020-11-04T03:00:00.000Z,10 p.m.,348,360,97% reporting,97%,96,468000,edison,96%,96% reported,edison,democrat,FALSE,2020-11-20T14:22:45Z,TRUE,1.38707,6208,D+1.4,Axne +1.4,democrat,"","",6,-1,1604518081417
19049,Dallas,54870,33700,34,34,None,100,43752,>98%,>98% reported,edison,4,unknown,25367,27907,1596,18977,13969,754,2020-11-16T15:48:14Z,4.62912,R+5,Young +5,republican,IA-G-H-3-2020-11-03,ia-house-general-district-003-2020-11-03,https://www.nytimes.com/interactive/2020/11/03/us/elections/results-iowa-house-district-3.html,https://www.nytimes.com/interactive/2020/11/03/us/elections/results-iowa.html,https://www.nytimes.com/interactive/2020/11/03/us/elections/ap-polls-iowa.html,https://www.nytimes.com/interactive/2020/11/03/us/elections/exit-polls-iowa.html,house,general,2020-11-03,FALSE,U.S. House District 3,U.S. House,H,lean-dem,3,District 3,IA,iowa,Iowa,Iowa,horizontal,"",FALSE,TRUE,winner,AP,FALSE,"",447563,252974,16,unknown,Polls close at 10 p.m. Eastern time.,Polls close in,Polls have closed.,2020-11-04T03:00:00.000Z,10 p.m.,348,360,97% reporting,97%,96,468000,edison,96%,96% reported,edison,democrat,FALSE,2020-11-20T14:22:45Z,TRUE,1.38707,6208,D+1.4,Axne +1.4,democrat,"","",6,-1,1604518081417
19071,Fremont,3750,2009,6,6,None,100,3748,>98%,>98% reported,edison,6,unknown,1297,2340,113,860,1099,50,2020-11-16T15:48:14Z,27.81333,R+28,Young +28,republican,IA-G-H-3-2020-11-03,ia-house-general-district-003-2020-11-03,https://www.nytimes.com/interactive/2020/11/03/us/elections/results-iowa-house-district-3.html,https://www.nytimes.com/interactive/2020/11/03/us/elections/results-iowa.html,https://www.nytimes.com/interactive/2020/11/03/us/elections/ap-polls-iowa.html,https://www.nytimes.com/interactive/2020/11/03/us/elections/exit-polls-iowa.html,house,general,2020-11-03,FALSE,U.S. House District 3,U.S. House,H,lean-dem,3,District 3,IA,iowa,Iowa,Iowa,horizontal,"",FALSE,TRUE,winner,AP,FALSE,"",447563,252974,16,unknown,Polls close at 10 p.m. Eastern time.,Polls close in,Polls have closed.,2020-11-04T03:00:00.000Z,10 p.m.,348,360,97% reporting,97%,96,468000,edison,96%,96% reported,edison,democrat,FALSE,2020-11-20T14:22:45Z,TRUE,1.38707,6208,D+1.4,Axne +1.4,democrat,"","",6,-1,1604518081417
19077,Guthrie,6255,3270,9,9,None,95,6609,95%,95% reported,edison,2,unknown,2095,3890,270,1489,1663,118,2020-11-16T15:48:15Z,28.69704,R+29,Young +29,republican,IA-G-H-3-2020-11-03,ia-house-general-district-003-2020-11-03,https://www.nytimes.com/interactive/2020/11/03/us/elections/results-iowa-house-district-3.html,https://www.nytimes.com/interactive/2020/11/03/us/elections/results-iowa.html,https://www.nytimes.com/interactive/2020/11/03/us/elections/ap-polls-iowa.html,https://www.nytimes.com/interactive/2020/11/03/us/elections/exit-polls-iowa.html,house,general,2020-11-03,FALSE,U.S. House District 3,U.S. House,H,lean-dem,3,District 3,IA,iowa,Iowa,Iowa,horizontal,"",FALSE,TRUE,winner,AP,FALSE,"",447563,252974,16,unknown,Polls close at 10 p.m. Eastern time.,Polls close in,Polls have closed.,2020-11-04T03:00:00.000Z,10 p.m.,348,360,97% reporting,97%,96,468000,edison,96%,96% reported,edison,democrat,FALSE,2020-11-20T14:22:45Z,TRUE,1.38707,6208,D+1.4,Axne +1.4,democrat,"","",6,-1,1604518081417
19121,Madison,9613,5224,10,10,None,100,9586,>98%,>98% reported,edison,6,all,3264,5995,354,2386,2696,142,2020-11-16T15:48:16Z,28.40945,R+28,Young +28,republican,IA-G-H-3-2020-11-03,ia-house-general-district-003-2020-11-03,https://www.nytimes.com/interactive/2020/11/03/us/elections/results-iowa-house-district-3.html,https://www.nytimes.com/interactive/2020/11/03/us/elections/results-iowa.html,https://www.nytimes.com/interactive/2020/11/03/us/elections/ap-polls-iowa.html,https://www.nytimes.com/interactive/2020/11/03/us/elections/exit-polls-iowa.html,house,general,2020-11-03,FALSE,U.S. House District 3,U.S. House,H,lean-dem,3,District 3,IA,iowa,Iowa,Iowa,horizontal,"",FALSE,TRUE,winner,AP,FALSE,"",447563,252974,16,unknown,Polls close at 10 p.m. Eastern time.,Polls close in,Polls have closed.,2020-11-04T03:00:00.000Z,10 p.m.,348,360,97% reporting,97%,96,468000,edison,96%,96% reported,edison,democrat,FALSE,2020-11-20T14:22:45Z,TRUE,1.38707,6208,D+1.4,Axne +1.4,democrat,"","",6,-1,1604518081417
19129,Mills,8049,4970,11,12,None,100,7917,>98%,>98% reported,edison,4,some,2617,5163,269,1902,2912,156,2020-11-16T15:48:17Z,31.63126,R+32,Young +32,republican,IA-G-H-3-2020-11-03,ia-house-general-district-003-2020-11-03,https://www.nytimes.com/interactive/2020/11/03/us/elections/results-iowa-house-district-3.html,https://www.nytimes.com/interactive/2020/11/03/us/elections/results-iowa.html,https://www.nytimes.com/interactive/2020/11/03/us/elections/ap-polls-iowa.html,https://www.nytimes.com/interactive/2020/11/03/us/elections/exit-polls-iowa.html,house,general,2020-11-03,FALSE,U.S. House District 3,U.S. House,H,lean-dem,3,District 3,IA,iowa,Iowa,Iowa,horizontal,"",FALSE,TRUE,winner,AP,FALSE,"",447563,252974,16,unknown,Polls close at 10 p.m. Eastern time.,Polls close in,Polls have closed.,2020-11-04T03:00:00.000Z,10 p.m.,348,360,97% reporting,97%,96,468000,edison,96%,96% reported,edison,democrat,FALSE,2020-11-20T14:22:45Z,TRUE,1.38707,6208,D+1.4,Axne +1.4,democrat,"","",6,-1,1604518081417
19137,Montgomery,5202,2850,3,3,None,100,5187,>98%,>98% reported,edison,2,unknown,1636,3428,138,1162,1623,65,2020-11-16T15:48:18Z,34.44829,R+34,Young +34,republican,IA-G-H-3-2020-11-03,ia-house-general-district-003-2020-11-03,https://www.nytimes.com/interactive/2020/11/03/us/elections/results-iowa-house-district-3.html,https://www.nytimes.com/interactive/2020/11/03/us/elections/results-iowa.html,https://www.nytimes.com/interactive/2020/11/03/us/elections/ap-polls-iowa.html,https://www.nytimes.com/interactive/2020/11/03/us/elections/exit-polls-iowa.html,house,general,2020-11-03,FALSE,U.S. House District 3,U.S. House,H,lean-dem,3,District 3,IA,iowa,Iowa,Iowa,horizontal,"",FALSE,TRUE,winner,AP,FALSE,"",447563,252974,16,unknown,Polls close at 10 p.m. Eastern time.,Polls close in,Polls have closed.,2020-11-04T03:00:00.000Z,10 p.m.,348,360,97% reporting,97%,96,468000,edison,96%,96% reported,edison,democrat,FALSE,2020-11-20T14:22:45Z,TRUE,1.38707,6208,D+1.4,Axne +1.4,democrat,"","",6,-1,1604518081417
19145,Page,7370,4201,8,9,None,100,7249,>98%,>98% reported,edison,2,unknown,2288,4889,193,1643,2465,93,2020-11-16T15:48:11Z,35.29172,R+35,Young +35,republican,IA-G-H-3-2020-11-03,ia-house-general-district-003-2020-11-03,https://www.nytimes.com/interactive/2020/11/03/us/elections/results-iowa-house-district-3.html,https://www.nytimes.com/interactive/2020/11/03/us/elections/results-iowa.html,https://www.nytimes.com/interactive/2020/11/03/us/elections/ap-polls-iowa.html,https://www.nytimes.com/interactive/2020/11/03/us/elections/exit-polls-iowa.html,house,general,2020-11-03,FALSE,U.S. House District 3,U.S. House,H,lean-dem,3,District 3,IA,iowa,Iowa,Iowa,horizontal,"",FALSE,TRUE,winner,AP,FALSE,"",447563,252974,16,unknown,Polls close at 10 p.m. Eastern time.,Polls close in,Polls have closed.,2020-11-04T03:00:00.000Z,10 p.m.,348,360,97% reporting,97%,96,468000,edison,96%,96% reported,edison,democrat,FALSE,2020-11-20T14:22:45Z,TRUE,1.38707,6208,D+1.4,Axne +1.4,democrat,"","",6,-1,1604518081417
19153,Polk,252248,138163,169,178,None,95,265244,95%,95% reported,edison,4,some,141567,102320,8361,97733,36945,3485,2020-11-16T15:48:04Z,15.55889,D+16,Axne +16,democrat,IA-G-H-3-2020-11-03,ia-house-general-district-003-2020-11-03,https://www.nytimes.com/interactive/2020/11/03/us/elections/results-iowa-house-district-3.html,https://www.nytimes.com/interactive/2020/11/03/us/elections/results-iowa.html,https://www.nytimes.com/interactive/2020/11/03/us/elections/ap-polls-iowa.html,https://www.nytimes.com/interactive/2020/11/03/us/elections/exit-polls-iowa.html,house,general,2020-11-03,FALSE,U.S. House District 3,U.S. House,H,lean-dem,3,District 3,IA,iowa,Iowa,Iowa,horizontal,"",FALSE,TRUE,winner,AP,FALSE,"",447563,252974,16,unknown,Polls close at 10 p.m. Eastern time.,Polls close in,Polls have closed.,2020-11-04T03:00:00.000Z,10 p.m.,348,360,97% reporting,97%,96,468000,edison,96%,96% reported,edison,democrat,FALSE,2020-11-20T14:22:45Z,TRUE,1.38707,6208,D+1.4,Axne +1.4,democrat,"","",6,-1,1604518081417
19155,Pottawattamie,44775,26966,26,26,None,100,43787,>98%,>98% reported,edison,4,some,18424,24256,2095,13834,11989,1143,2020-11-16T15:48:19Z,13.02513,R+13,Young +13,republican,IA-G-H-3-2020-11-03,ia-house-general-district-003-2020-11-03,https://www.nytimes.com/interactive/2020/11/03/us/elections/results-iowa-house-district-3.html,https://www.nytimes.com/interactive/2020/11/03/us/elections/results-iowa.html,https://www.nytimes.com/interactive/2020/11/03/us/elections/ap-polls-iowa.html,https://www.nytimes.com/interactive/2020/11/03/us/elections/exit-polls-iowa.html,house,general,2020-11-03,FALSE,U.S. House District 3,U.S. House,H,lean-dem,3,District 3,IA,iowa,Iowa,Iowa,horizontal,"",FALSE,TRUE,winner,AP,FALSE,"",447563,252974,16,unknown,Polls close at 10 p.m. Eastern time.,Polls close in,Polls have closed.,2020-11-04T03:00:00.000Z,10 p.m.,348,360,97% reporting,97%,96,468000,edison,96%,96% reported,edison,democrat,FALSE,2020-11-20T14:22:45Z,TRUE,1.38707,6208,D+1.4,Axne +1.4,democrat,"","",6,-1,1604518081417
19159,Ringgold,2675,1512,6,6,None,96,2786,96%,96% reported,edison,4,some,823,1789,63,621,857,34,2020-11-16T15:48:09Z,36.11215,R+36,Young +36,republican,IA-G-H-3-2020-11-03,ia-house-general-district-003-2020-11-03,https://www.nytimes.com/interactive/2020/11/03/us/elections/results-iowa-house-district-3.html,https://www.nytimes.com/interactive/2020/11/03/us/elections/results-iowa.html,https://www.nytimes.com/interactive/2020/11/03/us/elections/ap-polls-iowa.html,https://www.nytimes.com/interactive/2020/11/03/us/elections/exit-polls-iowa.html,house,general,2020-11-03,FALSE,U.S. House District 3,U.S. House,H,lean-dem,3,District 3,IA,iowa,Iowa,Iowa,horizontal,"",FALSE,TRUE,winner,AP,FALSE,"",447563,252974,16,unknown,Polls close at 10 p.m. Eastern time.,Polls close in,Polls have closed.,2020-11-04T03:00:00.000Z,10 p.m.,348,360,97% reporting,97%,96,468000,edison,96%,96% reported,edison,democrat,FALSE,2020-11-20T14:22:45Z,TRUE,1.38707,6208,D+1.4,Axne +1.4,democrat,"","",6,-1,1604518081417
19173,Taylor,3169,1929,7,7,None,100,3118,>98%,>98% reported,edison,4,some,821,2261,87,562,1315,52,2020-11-16T15:48:10Z,45.4402,R+45,Young +45,republican,IA-G-H-3-2020-11-03,ia-house-general-district-003-2020-11-03,https://www.nytimes.com/interactive/2020/11/03/us/elections/results-iowa-house-district-3.html,https://www.nytimes.com/interactive/2020/11/03/us/elections/results-iowa.html,https://www.nytimes.com/interactive/2020/11/03/us/elections/ap-polls-iowa.html,https://www.nytimes.com/interactive/2020/11/03/us/elections/exit-polls-iowa.html,house,general,2020-11-03,FALSE,U.S. House District 3,U.S. House,H,lean-dem,3,District 3,IA,iowa,Iowa,Iowa,horizontal,"",FALSE,TRUE,winner,AP,FALSE,"",447563,252974,16,unknown,Polls close at 10 p.m. Eastern time.,Polls close in,Polls have closed.,2020-11-04T03:00:00.000Z,10 p.m.,348,360,97% reporting,97%,96,468000,edison,96%,96% reported,edison,democrat,FALSE,2020-11-20T14:22:45Z,TRUE,1.38707,6208,D+1.4,Axne +1.4,democrat,"","",6,-1,1604518081417
19175,Union,6038,3582,8,9,None,100,6017,>98%,>98% reported,edison,6,unknown,2201,3589,248,1630,1802,150,2020-11-16T15:48:06Z,22.98774,R+23,Young +23,republican,IA-G-H-3-2020-11-03,ia-house-general-district-003-2020-11-03,https://www.nytimes.com/interactive/2020/11/03/us/elections/results-iowa-house-district-3.html,https://www.nytimes.com/interactive/2020/11/03/us/elections/results-iowa.html,https://www.nytimes.com/interactive/2020/11/03/us/elections/ap-polls-iowa.html,https://www.nytimes.com/interactive/2020/11/03/us/elections/exit-polls-iowa.html,house,general,2020-11-03,FALSE,U.S. House District 3,U.S. House,H,lean-dem,3,District 3,IA,iowa,Iowa,Iowa,horizontal,"",FALSE,TRUE,winner,AP,FALSE,"",447563,252974,16,unknown,Polls close at 10 p.m. Eastern time.,Polls close in,Polls have closed.,2020-11-04T03:00:00.000Z,10 p.m.,348,360,97% reporting,97%,96,468000,edison,96%,96% reported,edison,democrat,FALSE,2020-11-20T14:22:45Z,TRUE,1.38707,6208,D+1.4,Axne +1.4,democrat,"","",6,-1,1604518081417
19181,Warren,30342,17210,31,31,None,97,31326,97%,97% reported,edison,4,all,12698,16473,1171,9432,7255,523,2020-11-16T15:48:08Z,12.4415,R+12,Young +12,republican,IA-G-H-3-2020-11-03,ia-house-general-district-003-2020-11-03,https://www.nytimes.com/interactive/2020/11/03/us/elections/results-iowa-house-district-3.html,https://www.nytimes.com/interactive/2020/11/03/us/elections/results-iowa.html,https://www.nytimes.com/interactive/2020/11/03/us/elections/ap-polls-iowa.html,https://www.nytimes.com/interactive/2020/11/03/us/elections/exit-polls-iowa.html,house,general,2020-11-03,FALSE,U.S. House District 3,U.S. House,H,lean-dem,3,District 3,IA,iowa,Iowa,Iowa,horizontal,"",FALSE,TRUE,winner,AP,FALSE,"",447563,252974,16,unknown,Polls close at 10 p.m. Eastern time.,Polls close in,Polls have closed.,2020-11-04T03:00:00.000Z,10 p.m.,348,360,97% reporting,97%,96,468000,edison,96%,96% reported,edison,democrat,FALSE,2020-11-20T14:22:45Z,TRUE,1.38707,6208,D+1.4,Axne +1.4,democrat,"","",6,-1,1604518081417
