fips,name,votes,absentee_votes,reporting,precincts,absentee_method,eevp,tot_exp_vote,eevp_value,eevp_display,eevp_source,turnout_stage,absentee_count_progress,absentee_max_ballots,results_fulcherr,results_sotor,results_evansj,results_absentee_fulcherr,results_absentee_sotor,results_absentee_evansj,last_updated,leader_margin_value,leader_margin_display,leader_margin_name_display,leader_party_id,race_id_race,race_slug_race,url_race,state_page_url_race,ap_polls_page_race,race_type_race,election_type_race,election_date_race,runoff_race,race_name_race,office_race,officeid_race,race_rating_race,seat_race,seat_name_race,state_id_race,state_slug_race,state_name_race,state_nyt_abbrev_race,state_shape_race,state_aspect_ratio_race,party_id_race,uncontested_race,report_race,result_race,result_source_race,gain_race,lost_seat_race,votes_race,absentee_votes_race,absentee_counties_race,absentee_count_progress_race,poll_display_race,poll_countdown_display_race,poll_waiting_display_race,poll_time_race,poll_time_short_race,precincts_reporting_race,precincts_total_race,reporting_display_race,reporting_value_race,eevp_race,tot_exp_vote_race,eevp_source_race,eevp_value_race,eevp_display_race,county_data_source_race,incumbent_party_race,no_forecast_race,last_updated_race,has_incumbent_race,leader_margin_value_race,leader_margin_votes_race,leader_margin_display_race,leader_margin_name_display_race,leader_party_id_race,expectations_text_race,expectations_text_short_race,absentee_ballot_deadline_race,absentee_postmark_deadline_race,winner_called_timestamp_race
16001,Ada,137089,90737,79,79,Merged into voters' home precincts and released with cumulative results,100,115481,>98%,>98% reported,edison,6,all,80688,88402,43705,4982,52821,35156,2760,2020-11-20T23:55:55Z,32.60437,R+33,Fulcher +33,republican,ID-G-H-1-2020-11-03,id-house-general-district-001-2020-11-03,https://www.nytimes.com/interactive/2020/11/03/us/elections/results-idaho-house-district-1.html,https://www.nytimes.com/interactive/2020/11/03/us/elections/results-idaho.html,https://www.nytimes.com/interactive/2020/11/03/us/elections/ap-polls-idaho.html,house,general,2020-11-03,FALSE,U.S. House District 1,U.S. House,H,solid-rep,1,District 1,ID,idaho,Idaho,Idaho,vertical,1,"",FALSE,TRUE,winner,AP,FALSE,"",458569,230411,6,unknown,First polls close at 10 p.m. Eastern time.,First polls close in,Polls have closed.,2020-11-04T03:00:00.000Z,10 p.m.,459,464,99% reporting,99%,100,403000,edison,>98%,>98% reported,edison,republican,FALSE,2020-11-20T23:54:56Z,TRUE,39.11211,179356,R+39,Fulcher +39,republican,"","",0,0,1604469933058
16003,Adams,2523,0,7,7,"As a precinct in the FIRST cumulative report, along with regular precincts",100,1698,>98%,>98% reported,edison,2,none,936,1884,553,86,0,0,0,2020-11-16T15:48:34Z,52.75466,R+53,Fulcher +53,republican,ID-G-H-1-2020-11-03,id-house-general-district-001-2020-11-03,https://www.nytimes.com/interactive/2020/11/03/us/elections/results-idaho-house-district-1.html,https://www.nytimes.com/interactive/2020/11/03/us/elections/results-idaho.html,https://www.nytimes.com/interactive/2020/11/03/us/elections/ap-polls-idaho.html,house,general,2020-11-03,FALSE,U.S. House District 1,U.S. House,H,solid-rep,1,District 1,ID,idaho,Idaho,Idaho,vertical,1,"",FALSE,TRUE,winner,AP,FALSE,"",458569,230411,6,unknown,First polls close at 10 p.m. Eastern time.,First polls close in,Polls have closed.,2020-11-04T03:00:00.000Z,10 p.m.,459,464,99% reporting,99%,100,403000,edison,>98%,>98% reported,edison,republican,FALSE,2020-11-20T23:54:56Z,TRUE,39.11211,179356,R+39,Fulcher +39,republican,"","",0,0,1604469933058
16009,Benewah,4790,0,11,11,Merged into voters' home precincts and released with cumulative results,100,4686,>98%,>98% reported,edison,2,unknown,1083,3680,945,165,0,0,0,2020-11-16T15:48:34Z,57.09812,R+57,Fulcher +57,republican,ID-G-H-1-2020-11-03,id-house-general-district-001-2020-11-03,https://www.nytimes.com/interactive/2020/11/03/us/elections/results-idaho-house-district-1.html,https://www.nytimes.com/interactive/2020/11/03/us/elections/results-idaho.html,https://www.nytimes.com/interactive/2020/11/03/us/elections/ap-polls-idaho.html,house,general,2020-11-03,FALSE,U.S. House District 1,U.S. House,H,solid-rep,1,District 1,ID,idaho,Idaho,Idaho,vertical,1,"",FALSE,TRUE,winner,AP,FALSE,"",458569,230411,6,unknown,First polls close at 10 p.m. Eastern time.,First polls close in,Polls have closed.,2020-11-04T03:00:00.000Z,10 p.m.,459,464,99% reporting,99%,100,403000,edison,>98%,>98% reported,edison,republican,FALSE,2020-11-20T23:54:56Z,TRUE,39.11211,179356,R+39,Fulcher +39,republican,"","",0,0,1604469933058
16015,Boise,4747,0,6,6,Released as a precinct at the end of tabulation,100,2965,>98%,>98% reported,edison,2,unknown,1222,3444,1125,178,0,0,0,2020-11-20T23:50:58Z,48.85191,R+49,Fulcher +49,republican,ID-G-H-1-2020-11-03,id-house-general-district-001-2020-11-03,https://www.nytimes.com/interactive/2020/11/03/us/elections/results-idaho-house-district-1.html,https://www.nytimes.com/interactive/2020/11/03/us/elections/results-idaho.html,https://www.nytimes.com/interactive/2020/11/03/us/elections/ap-polls-idaho.html,house,general,2020-11-03,FALSE,U.S. House District 1,U.S. House,H,solid-rep,1,District 1,ID,idaho,Idaho,Idaho,vertical,1,"",FALSE,TRUE,winner,AP,FALSE,"",458569,230411,6,unknown,First polls close at 10 p.m. Eastern time.,First polls close in,Polls have closed.,2020-11-04T03:00:00.000Z,10 p.m.,459,464,99% reporting,99%,100,403000,edison,>98%,>98% reported,edison,republican,FALSE,2020-11-20T23:54:56Z,TRUE,39.11211,179356,R+39,Fulcher +39,republican,"","",0,0,1604469933058
16017,Bonner,26721,13640,32,32,Merged into voters' home precincts and released with cumulative results,100,21782,>98%,>98% reported,edison,6,all,7483,18213,7601,907,7414,5873,353,2020-11-16T15:48:35Z,39.71408,R+40,Fulcher +40,republican,ID-G-H-1-2020-11-03,id-house-general-district-001-2020-11-03,https://www.nytimes.com/interactive/2020/11/03/us/elections/results-idaho-house-district-1.html,https://www.nytimes.com/interactive/2020/11/03/us/elections/results-idaho.html,https://www.nytimes.com/interactive/2020/11/03/us/elections/ap-polls-idaho.html,house,general,2020-11-03,FALSE,U.S. House District 1,U.S. House,H,solid-rep,1,District 1,ID,idaho,Idaho,Idaho,vertical,1,"",FALSE,TRUE,winner,AP,FALSE,"",458569,230411,6,unknown,First polls close at 10 p.m. Eastern time.,First polls close in,Polls have closed.,2020-11-04T03:00:00.000Z,10 p.m.,459,464,99% reporting,99%,100,403000,edison,>98%,>98% reported,edison,republican,FALSE,2020-11-20T23:54:56Z,TRUE,39.11211,179356,R+39,Fulcher +39,republican,"","",0,0,1604469933058
16021,Boundary,6196,0,7,7,Released with cumulative results periodically election night,100,5781,>98%,>98% reported,edison,2,none,2026,4855,1175,166,0,0,0,2020-11-16T15:48:35Z,59.39316,R+59,Fulcher +59,republican,ID-G-H-1-2020-11-03,id-house-general-district-001-2020-11-03,https://www.nytimes.com/interactive/2020/11/03/us/elections/results-idaho-house-district-1.html,https://www.nytimes.com/interactive/2020/11/03/us/elections/results-idaho.html,https://www.nytimes.com/interactive/2020/11/03/us/elections/ap-polls-idaho.html,house,general,2020-11-03,FALSE,U.S. House District 1,U.S. House,H,solid-rep,1,District 1,ID,idaho,Idaho,Idaho,vertical,1,"",FALSE,TRUE,winner,AP,FALSE,"",458569,230411,6,unknown,First polls close at 10 p.m. Eastern time.,First polls close in,Polls have closed.,2020-11-04T03:00:00.000Z,10 p.m.,459,464,99% reporting,99%,100,403000,edison,>98%,>98% reported,edison,republican,FALSE,2020-11-20T23:54:56Z,TRUE,39.11211,179356,R+39,Fulcher +39,republican,"","",0,0,1604469933058
16027,Canyon,88843,60020,64,64,Merged into voters' home precincts and released with cumulative results,100,83068,>98%,>98% reported,edison,6,all,24616,60042,25367,3434,39986,18157,1877,2020-11-16T15:48:35Z,39.02952,R+39,Fulcher +39,republican,ID-G-H-1-2020-11-03,id-house-general-district-001-2020-11-03,https://www.nytimes.com/interactive/2020/11/03/us/elections/results-idaho-house-district-1.html,https://www.nytimes.com/interactive/2020/11/03/us/elections/results-idaho.html,https://www.nytimes.com/interactive/2020/11/03/us/elections/ap-polls-idaho.html,house,general,2020-11-03,FALSE,U.S. House District 1,U.S. House,H,solid-rep,1,District 1,ID,idaho,Idaho,Idaho,vertical,1,"",FALSE,TRUE,winner,AP,FALSE,"",458569,230411,6,unknown,First polls close at 10 p.m. Eastern time.,First polls close in,Polls have closed.,2020-11-04T03:00:00.000Z,10 p.m.,459,464,99% reporting,99%,100,403000,edison,>98%,>98% reported,edison,republican,FALSE,2020-11-20T23:54:56Z,TRUE,39.11211,179356,R+39,Fulcher +39,republican,"","",0,0,1604469933058
16035,Clearwater,4316,0,15,15,Released as a precinct in the middle of the night,100,2957,>98%,>98% reported,edison,2,unknown,1067,3364,847,105,0,0,0,2020-11-16T15:48:35Z,58.31789,R+58,Fulcher +58,republican,ID-G-H-1-2020-11-03,id-house-general-district-001-2020-11-03,https://www.nytimes.com/interactive/2020/11/03/us/elections/results-idaho-house-district-1.html,https://www.nytimes.com/interactive/2020/11/03/us/elections/results-idaho.html,https://www.nytimes.com/interactive/2020/11/03/us/elections/ap-polls-idaho.html,house,general,2020-11-03,FALSE,U.S. House District 1,U.S. House,H,solid-rep,1,District 1,ID,idaho,Idaho,Idaho,vertical,1,"",FALSE,TRUE,winner,AP,FALSE,"",458569,230411,6,unknown,First polls close at 10 p.m. Eastern time.,First polls close in,Polls have closed.,2020-11-04T03:00:00.000Z,10 p.m.,459,464,99% reporting,99%,100,403000,edison,>98%,>98% reported,edison,republican,FALSE,2020-11-20T23:54:56Z,TRUE,39.11211,179356,R+39,Fulcher +39,republican,"","",0,0,1604469933058
16045,Gem,9833,0,9,14,None,100,6185,>98%,>98% reported,edison,2,none,3437,7728,1818,287,0,0,0,2020-11-20T23:52:26Z,60.10373,R+60,Fulcher +60,republican,ID-G-H-1-2020-11-03,id-house-general-district-001-2020-11-03,https://www.nytimes.com/interactive/2020/11/03/us/elections/results-idaho-house-district-1.html,https://www.nytimes.com/interactive/2020/11/03/us/elections/results-idaho.html,https://www.nytimes.com/interactive/2020/11/03/us/elections/ap-polls-idaho.html,house,general,2020-11-03,FALSE,U.S. House District 1,U.S. House,H,solid-rep,1,District 1,ID,idaho,Idaho,Idaho,vertical,1,"",FALSE,TRUE,winner,AP,FALSE,"",458569,230411,6,unknown,First polls close at 10 p.m. Eastern time.,First polls close in,Polls have closed.,2020-11-04T03:00:00.000Z,10 p.m.,459,464,99% reporting,99%,100,403000,edison,>98%,>98% reported,edison,republican,FALSE,2020-11-20T23:54:56Z,TRUE,39.11211,179356,R+39,Fulcher +39,republican,"","",0,0,1604469933058
16049,Idaho County,9362,0,28,28,Released as a precinct in the middle of the night,100,6398,>98%,>98% reported,edison,2,none,3325,7604,1508,250,0,0,0,2020-11-16T15:48:35Z,65.11429,R+65,Fulcher +65,republican,ID-G-H-1-2020-11-03,id-house-general-district-001-2020-11-03,https://www.nytimes.com/interactive/2020/11/03/us/elections/results-idaho-house-district-1.html,https://www.nytimes.com/interactive/2020/11/03/us/elections/results-idaho.html,https://www.nytimes.com/interactive/2020/11/03/us/elections/ap-polls-idaho.html,house,general,2020-11-03,FALSE,U.S. House District 1,U.S. House,H,solid-rep,1,District 1,ID,idaho,Idaho,Idaho,vertical,1,"",FALSE,TRUE,winner,AP,FALSE,"",458569,230411,6,unknown,First polls close at 10 p.m. Eastern time.,First polls close in,Polls have closed.,2020-11-04T03:00:00.000Z,10 p.m.,459,464,99% reporting,99%,100,403000,edison,>98%,>98% reported,edison,republican,FALSE,2020-11-20T23:54:56Z,TRUE,39.11211,179356,R+39,Fulcher +39,republican,"","",0,0,1604469933058
16055,Kootenai,87456,49720,70,70,Merged into voters' home precincts and released with cumulative results,100,74240,>98%,>98% reported,edison,4,unknown,31000,62442,21913,3101,31197,17077,1446,2020-11-16T15:48:35Z,46.34216,R+46,Fulcher +46,republican,ID-G-H-1-2020-11-03,id-house-general-district-001-2020-11-03,https://www.nytimes.com/interactive/2020/11/03/us/elections/results-idaho-house-district-1.html,https://www.nytimes.com/interactive/2020/11/03/us/elections/results-idaho.html,https://www.nytimes.com/interactive/2020/11/03/us/elections/ap-polls-idaho.html,house,general,2020-11-03,FALSE,U.S. House District 1,U.S. House,H,solid-rep,1,District 1,ID,idaho,Idaho,Idaho,vertical,1,"",FALSE,TRUE,winner,AP,FALSE,"",458569,230411,6,unknown,First polls close at 10 p.m. Eastern time.,First polls close in,Polls have closed.,2020-11-04T03:00:00.000Z,10 p.m.,459,464,99% reporting,99%,100,403000,edison,>98%,>98% reported,edison,republican,FALSE,2020-11-20T23:54:56Z,TRUE,39.11211,179356,R+39,Fulcher +39,republican,"","",0,0,1604469933058
16057,Latah,20385,10724,35,35,"As a precinct in the FIRST cumulative report, along with regular precincts",100,20335,>98%,>98% reported,edison,6,all,5446,9704,9840,841,3478,6905,341,2020-11-16T15:47:43Z,0.66716,D+0.67,Soto +0.67,democrat,ID-G-H-1-2020-11-03,id-house-general-district-001-2020-11-03,https://www.nytimes.com/interactive/2020/11/03/us/elections/results-idaho-house-district-1.html,https://www.nytimes.com/interactive/2020/11/03/us/elections/results-idaho.html,https://www.nytimes.com/interactive/2020/11/03/us/elections/ap-polls-idaho.html,house,general,2020-11-03,FALSE,U.S. House District 1,U.S. House,H,solid-rep,1,District 1,ID,idaho,Idaho,Idaho,vertical,1,"",FALSE,TRUE,winner,AP,FALSE,"",458569,230411,6,unknown,First polls close at 10 p.m. Eastern time.,First polls close in,Polls have closed.,2020-11-04T03:00:00.000Z,10 p.m.,459,464,99% reporting,99%,100,403000,edison,>98%,>98% reported,edison,republican,FALSE,2020-11-20T23:54:56Z,TRUE,39.11211,179356,R+39,Fulcher +39,republican,"","",0,0,1604469933058
16061,Lewis,1835,0,8,8,Merged into voters' home precincts and released with cumulative results,100,1237,>98%,>98% reported,edison,2,unknown,416,1457,338,40,0,0,0,2020-11-16T15:47:46Z,60.98093,R+61,Fulcher +61,republican,ID-G-H-1-2020-11-03,id-house-general-district-001-2020-11-03,https://www.nytimes.com/interactive/2020/11/03/us/elections/results-idaho-house-district-1.html,https://www.nytimes.com/interactive/2020/11/03/us/elections/results-idaho.html,https://www.nytimes.com/interactive/2020/11/03/us/elections/ap-polls-idaho.html,house,general,2020-11-03,FALSE,U.S. House District 1,U.S. House,H,solid-rep,1,District 1,ID,idaho,Idaho,Idaho,vertical,1,"",FALSE,TRUE,winner,AP,FALSE,"",458569,230411,6,unknown,First polls close at 10 p.m. Eastern time.,First polls close in,Polls have closed.,2020-11-04T03:00:00.000Z,10 p.m.,459,464,99% reporting,99%,100,403000,edison,>98%,>98% reported,edison,republican,FALSE,2020-11-20T23:54:56Z,TRUE,39.11211,179356,R+39,Fulcher +39,republican,"","",0,0,1604469933058
16069,Nez Perce,20562,0,32,32,Released as a precinct as first report of the night,100,20562,>98%,>98% reported,edison,6,some,7026,13525,6177,860,0,0,0,2020-11-16T15:47:46Z,35.73582,R+36,Fulcher +36,republican,ID-G-H-1-2020-11-03,id-house-general-district-001-2020-11-03,https://www.nytimes.com/interactive/2020/11/03/us/elections/results-idaho-house-district-1.html,https://www.nytimes.com/interactive/2020/11/03/us/elections/results-idaho.html,https://www.nytimes.com/interactive/2020/11/03/us/elections/ap-polls-idaho.html,house,general,2020-11-03,FALSE,U.S. House District 1,U.S. House,H,solid-rep,1,District 1,ID,idaho,Idaho,Idaho,vertical,1,"",FALSE,TRUE,winner,AP,FALSE,"",458569,230411,6,unknown,First polls close at 10 p.m. Eastern time.,First polls close in,Polls have closed.,2020-11-04T03:00:00.000Z,10 p.m.,459,464,99% reporting,99%,100,403000,edison,>98%,>98% reported,edison,republican,FALSE,2020-11-20T23:54:56Z,TRUE,39.11211,179356,R+39,Fulcher +39,republican,"","",0,0,1604469933058
16073,Owyhee,4682,0,13,13,None,100,4395,>98%,>98% reported,edison,2,unknown,725,3703,838,141,0,0,0,2020-11-16T15:47:47Z,61.1918,R+61,Fulcher +61,republican,ID-G-H-1-2020-11-03,id-house-general-district-001-2020-11-03,https://www.nytimes.com/interactive/2020/11/03/us/elections/results-idaho-house-district-1.html,https://www.nytimes.com/interactive/2020/11/03/us/elections/results-idaho.html,https://www.nytimes.com/interactive/2020/11/03/us/elections/ap-polls-idaho.html,house,general,2020-11-03,FALSE,U.S. House District 1,U.S. House,H,solid-rep,1,District 1,ID,idaho,Idaho,Idaho,vertical,1,"",FALSE,TRUE,winner,AP,FALSE,"",458569,230411,6,unknown,First polls close at 10 p.m. Eastern time.,First polls close in,Polls have closed.,2020-11-04T03:00:00.000Z,10 p.m.,459,464,99% reporting,99%,100,403000,edison,>98%,>98% reported,edison,republican,FALSE,2020-11-20T23:54:56Z,TRUE,39.11211,179356,R+39,Fulcher +39,republican,"","",0,0,1604469933058
16075,Payette,11138,5570,10,10,Released as a precinct as first report of the night,100,154,>98%,>98% reported,edison,6,all,3622,8678,2140,320,4038,1392,140,2020-11-16T15:47:48Z,58.69995,R+59,Fulcher +59,republican,ID-G-H-1-2020-11-03,id-house-general-district-001-2020-11-03,https://www.nytimes.com/interactive/2020/11/03/us/elections/results-idaho-house-district-1.html,https://www.nytimes.com/interactive/2020/11/03/us/elections/results-idaho.html,https://www.nytimes.com/interactive/2020/11/03/us/elections/ap-polls-idaho.html,house,general,2020-11-03,FALSE,U.S. House District 1,U.S. House,H,solid-rep,1,District 1,ID,idaho,Idaho,Idaho,vertical,1,"",FALSE,TRUE,winner,AP,FALSE,"",458569,230411,6,unknown,First polls close at 10 p.m. Eastern time.,First polls close in,Polls have closed.,2020-11-04T03:00:00.000Z,10 p.m.,459,464,99% reporting,99%,100,403000,edison,>98%,>98% reported,edison,republican,FALSE,2020-11-20T23:54:56Z,TRUE,39.11211,179356,R+39,Fulcher +39,republican,"","",0,0,1604469933058
16079,Shoshone,5862,0,14,14,Released as a precinct as first report of the night,100,5734,>98%,>98% reported,edison,2,unknown,1195,3991,1653,218,0,0,0,2020-11-16T15:47:48Z,39.884,R+40,Fulcher +40,republican,ID-G-H-1-2020-11-03,id-house-general-district-001-2020-11-03,https://www.nytimes.com/interactive/2020/11/03/us/elections/results-idaho-house-district-1.html,https://www.nytimes.com/interactive/2020/11/03/us/elections/results-idaho.html,https://www.nytimes.com/interactive/2020/11/03/us/elections/ap-polls-idaho.html,house,general,2020-11-03,FALSE,U.S. House District 1,U.S. House,H,solid-rep,1,District 1,ID,idaho,Idaho,Idaho,vertical,1,"",FALSE,TRUE,winner,AP,FALSE,"",458569,230411,6,unknown,First polls close at 10 p.m. Eastern time.,First polls close in,Polls have closed.,2020-11-04T03:00:00.000Z,10 p.m.,459,464,99% reporting,99%,100,403000,edison,>98%,>98% reported,edison,republican,FALSE,2020-11-20T23:54:56Z,TRUE,39.11211,179356,R+39,Fulcher +39,republican,"","",0,0,1604469933058
16085,Valley,6928,0,8,8,Released as a precinct as first report of the night,100,4161,>98%,>98% reported,edison,2,unknown,2674,3934,2777,217,0,0,0,2020-11-20T23:53:20Z,16.70035,R+17,Fulcher +17,republican,ID-G-H-1-2020-11-03,id-house-general-district-001-2020-11-03,https://www.nytimes.com/interactive/2020/11/03/us/elections/results-idaho-house-district-1.html,https://www.nytimes.com/interactive/2020/11/03/us/elections/results-idaho.html,https://www.nytimes.com/interactive/2020/11/03/us/elections/ap-polls-idaho.html,house,general,2020-11-03,FALSE,U.S. House District 1,U.S. House,H,solid-rep,1,District 1,ID,idaho,Idaho,Idaho,vertical,1,"",FALSE,TRUE,winner,AP,FALSE,"",458569,230411,6,unknown,First polls close at 10 p.m. Eastern time.,First polls close in,Polls have closed.,2020-11-04T03:00:00.000Z,10 p.m.,459,464,99% reporting,99%,100,403000,edison,>98%,>98% reported,edison,republican,FALSE,2020-11-20T23:54:56Z,TRUE,39.11211,179356,R+39,Fulcher +39,republican,"","",0,0,1604469933058
16087,Washington,5301,0,11,11,Merged into voters' home precincts and released with cumulative results,100,3464,>98%,>98% reported,edison,2,none,1909,4086,1060,155,0,0,0,2020-11-16T15:47:49Z,57.08357,R+57,Fulcher +57,republican,ID-G-H-1-2020-11-03,id-house-general-district-001-2020-11-03,https://www.nytimes.com/interactive/2020/11/03/us/elections/results-idaho-house-district-1.html,https://www.nytimes.com/interactive/2020/11/03/us/elections/results-idaho.html,https://www.nytimes.com/interactive/2020/11/03/us/elections/ap-polls-idaho.html,house,general,2020-11-03,FALSE,U.S. House District 1,U.S. House,H,solid-rep,1,District 1,ID,idaho,Idaho,Idaho,vertical,1,"",FALSE,TRUE,winner,AP,FALSE,"",458569,230411,6,unknown,First polls close at 10 p.m. Eastern time.,First polls close in,Polls have closed.,2020-11-04T03:00:00.000Z,10 p.m.,459,464,99% reporting,99%,100,403000,edison,>98%,>98% reported,edison,republican,FALSE,2020-11-20T23:54:56Z,TRUE,39.11211,179356,R+39,Fulcher +39,republican,"","",0,0,1604469933058
