fips,name,votes,absentee_votes,reporting,precincts,absentee_method,eevp,tot_exp_vote,eevp_value,eevp_display,eevp_source,turnout_stage,absentee_count_progress,absentee_max_ballots,results_laturnerj,results_de_la_islam,results_garrardr,results_absentee_laturnerj,results_absentee_de_la_islam,results_absentee_garrardr,last_updated,leader_margin_value,leader_margin_display,leader_margin_name_display,leader_party_id,race_id_race,race_slug_race,url_race,state_page_url_race,ap_polls_page_race,race_type_race,election_type_race,election_date_race,runoff_race,race_name_race,office_race,officeid_race,race_rating_race,seat_race,seat_name_race,state_id_race,state_slug_race,state_name_race,state_nyt_abbrev_race,state_shape_race,party_id_race,uncontested_race,report_race,result_race,result_source_race,gain_race,lost_seat_race,votes_race,absentee_votes_race,absentee_counties_race,absentee_count_progress_race,poll_display_race,poll_countdown_display_race,poll_waiting_display_race,poll_time_race,poll_time_short_race,precincts_reporting_race,precincts_total_race,reporting_display_race,reporting_value_race,eevp_race,tot_exp_vote_race,eevp_source_race,eevp_value_race,eevp_display_race,county_data_source_race,incumbent_party_race,no_forecast_race,last_updated_race,has_incumbent_race,leader_margin_value_race,leader_margin_votes_race,leader_margin_display_race,leader_margin_name_display_race,leader_party_id_race,expectations_text_race,expectations_text_short_race,absentee_ballot_deadline_race,absentee_postmark_deadline_race,winner_called_timestamp_race
20001,Allen,5779,2740,21,22,Other,100,4406,>98%,>98% reported,edison,6,all,2827,4058,1483,238,1677,975,88,2020-11-16T15:48:26Z,44.55788,R+45,LaTurner +45,republican,KS-G-H-2-2020-11-03,ks-house-general-district-002-2020-11-03,https://www.nytimes.com/interactive/2020/11/03/us/elections/results-kansas-house-district-2.html,https://www.nytimes.com/interactive/2020/11/03/us/elections/results-kansas.html,https://www.nytimes.com/interactive/2020/11/03/us/elections/ap-polls-kansas.html,house,general,2020-11-03,FALSE,U.S. House District 2,U.S. House,H,likely-rep,2,District 2,KS,kansas,Kansas,Kan.,horizontal,"",FALSE,TRUE,winner,AP,FALSE,"",329253,88071,11,unknown,First polls close at 8 p.m. Eastern time.,First polls close in,Most polls have closed.,2020-11-04T01:00:00.000Z,8 p.m.,893,917,97% reporting,97%,99,334000,edison,>98%,>98% reported,edison,republican,FALSE,2020-11-20T14:22:06Z,FALSE,14.8187,48791,R+15,LaTurner +15,republican,"","",3,0,1604462644104
20003,Anderson,3646,0,18,19,Merged into voters' home precincts and released with cumulative results,100,3590,>98%,>98% reported,edison,6,all,1459,2699,762,185,0,0,0,2020-11-16T15:48:27Z,53.12671,R+53,LaTurner +53,republican,KS-G-H-2-2020-11-03,ks-house-general-district-002-2020-11-03,https://www.nytimes.com/interactive/2020/11/03/us/elections/results-kansas-house-district-2.html,https://www.nytimes.com/interactive/2020/11/03/us/elections/results-kansas.html,https://www.nytimes.com/interactive/2020/11/03/us/elections/ap-polls-kansas.html,house,general,2020-11-03,FALSE,U.S. House District 2,U.S. House,H,likely-rep,2,District 2,KS,kansas,Kansas,Kan.,horizontal,"",FALSE,TRUE,winner,AP,FALSE,"",329253,88071,11,unknown,First polls close at 8 p.m. Eastern time.,First polls close in,Most polls have closed.,2020-11-04T01:00:00.000Z,8 p.m.,893,917,97% reporting,97%,99,334000,edison,>98%,>98% reported,edison,republican,FALSE,2020-11-20T14:22:06Z,FALSE,14.8187,48791,R+15,LaTurner +15,republican,"","",3,0,1604462644104
20005,Atchison,7210,0,11,11,"As a precinct in the FIRST cumulative report, along with regular precincts",100,353,>98%,>98% reported,edison,6,unknown,4051,4623,2323,264,0,0,0,2020-11-16T15:48:27Z,31.90014,R+32,LaTurner +32,republican,KS-G-H-2-2020-11-03,ks-house-general-district-002-2020-11-03,https://www.nytimes.com/interactive/2020/11/03/us/elections/results-kansas-house-district-2.html,https://www.nytimes.com/interactive/2020/11/03/us/elections/results-kansas.html,https://www.nytimes.com/interactive/2020/11/03/us/elections/ap-polls-kansas.html,house,general,2020-11-03,FALSE,U.S. House District 2,U.S. House,H,likely-rep,2,District 2,KS,kansas,Kansas,Kan.,horizontal,"",FALSE,TRUE,winner,AP,FALSE,"",329253,88071,11,unknown,First polls close at 8 p.m. Eastern time.,First polls close in,Most polls have closed.,2020-11-04T01:00:00.000Z,8 p.m.,893,917,97% reporting,97%,99,334000,edison,>98%,>98% reported,edison,republican,FALSE,2020-11-20T14:22:06Z,FALSE,14.8187,48791,R+15,LaTurner +15,republican,"","",3,0,1604462644104
20011,Bourbon,6464,3015,19,20,Released separately AFTER election night,100,6355,>98%,>98% reported,edison,2,some,4810,4727,1456,281,1988,933,94,2020-11-16T15:48:27Z,50.60334,R+51,LaTurner +51,republican,KS-G-H-2-2020-11-03,ks-house-general-district-002-2020-11-03,https://www.nytimes.com/interactive/2020/11/03/us/elections/results-kansas-house-district-2.html,https://www.nytimes.com/interactive/2020/11/03/us/elections/results-kansas.html,https://www.nytimes.com/interactive/2020/11/03/us/elections/ap-polls-kansas.html,house,general,2020-11-03,FALSE,U.S. House District 2,U.S. House,H,likely-rep,2,District 2,KS,kansas,Kansas,Kan.,horizontal,"",FALSE,TRUE,winner,AP,FALSE,"",329253,88071,11,unknown,First polls close at 8 p.m. Eastern time.,First polls close in,Most polls have closed.,2020-11-04T01:00:00.000Z,8 p.m.,893,917,97% reporting,97%,99,334000,edison,>98%,>98% reported,edison,republican,FALSE,2020-11-20T14:22:06Z,FALSE,14.8187,48791,R+15,LaTurner +15,republican,"","",3,0,1604462644104
20013,Brown,4342,0,17,18,Released as a separate subtotal as first report of the night,100,3623,>98%,>98% reported,edison,2,unknown,2133,3018,1149,175,0,0,0,2020-11-16T15:48:28Z,43.04468,R+43,LaTurner +43,republican,KS-G-H-2-2020-11-03,ks-house-general-district-002-2020-11-03,https://www.nytimes.com/interactive/2020/11/03/us/elections/results-kansas-house-district-2.html,https://www.nytimes.com/interactive/2020/11/03/us/elections/results-kansas.html,https://www.nytimes.com/interactive/2020/11/03/us/elections/ap-polls-kansas.html,house,general,2020-11-03,FALSE,U.S. House District 2,U.S. House,H,likely-rep,2,District 2,KS,kansas,Kansas,Kan.,horizontal,"",FALSE,TRUE,winner,AP,FALSE,"",329253,88071,11,unknown,First polls close at 8 p.m. Eastern time.,First polls close in,Most polls have closed.,2020-11-04T01:00:00.000Z,8 p.m.,893,917,97% reporting,97%,99,334000,edison,>98%,>98% reported,edison,republican,FALSE,2020-11-20T14:22:06Z,FALSE,14.8187,48791,R+15,LaTurner +15,republican,"","",3,0,1604462644104
20021,Cherokee,8899,0,35,38,Released as a separate subtotal as first report of the night,100,8879,>98%,>98% reported,edison,6,all,2829,6492,2007,400,0,0,0,2020-11-16T15:47:43Z,50.39892,R+50,LaTurner +50,republican,KS-G-H-2-2020-11-03,ks-house-general-district-002-2020-11-03,https://www.nytimes.com/interactive/2020/11/03/us/elections/results-kansas-house-district-2.html,https://www.nytimes.com/interactive/2020/11/03/us/elections/results-kansas.html,https://www.nytimes.com/interactive/2020/11/03/us/elections/ap-polls-kansas.html,house,general,2020-11-03,FALSE,U.S. House District 2,U.S. House,H,likely-rep,2,District 2,KS,kansas,Kansas,Kan.,horizontal,"",FALSE,TRUE,winner,AP,FALSE,"",329253,88071,11,unknown,First polls close at 8 p.m. Eastern time.,First polls close in,Most polls have closed.,2020-11-04T01:00:00.000Z,8 p.m.,893,917,97% reporting,97%,99,334000,edison,>98%,>98% reported,edison,republican,FALSE,2020-11-20T14:22:06Z,FALSE,14.8187,48791,R+15,LaTurner +15,republican,"","",3,0,1604462644104
20031,Coffey,4387,1298,21,22,"As a precinct in the FIRST cumulative report, along with regular precincts",100,4381,>98%,>98% reported,edison,6,all,2402,3260,921,206,998,263,37,2020-11-16T15:47:46Z,53.31662,R+53,LaTurner +53,republican,KS-G-H-2-2020-11-03,ks-house-general-district-002-2020-11-03,https://www.nytimes.com/interactive/2020/11/03/us/elections/results-kansas-house-district-2.html,https://www.nytimes.com/interactive/2020/11/03/us/elections/results-kansas.html,https://www.nytimes.com/interactive/2020/11/03/us/elections/ap-polls-kansas.html,house,general,2020-11-03,FALSE,U.S. House District 2,U.S. House,H,likely-rep,2,District 2,KS,kansas,Kansas,Kan.,horizontal,"",FALSE,TRUE,winner,AP,FALSE,"",329253,88071,11,unknown,First polls close at 8 p.m. Eastern time.,First polls close in,Most polls have closed.,2020-11-04T01:00:00.000Z,8 p.m.,893,917,97% reporting,97%,99,334000,edison,>98%,>98% reported,edison,republican,FALSE,2020-11-20T14:22:06Z,FALSE,14.8187,48791,R+15,LaTurner +15,republican,"","",3,0,1604462644104
20037,Crawford,15991,0,62,62,Merged into voters' home precincts and released with cumulative results,85,18745,85%,85% reported,edison,6,unknown,8136,9382,5799,810,0,0,0,2020-11-16T15:47:46Z,22.40635,R+22,LaTurner +22,republican,KS-G-H-2-2020-11-03,ks-house-general-district-002-2020-11-03,https://www.nytimes.com/interactive/2020/11/03/us/elections/results-kansas-house-district-2.html,https://www.nytimes.com/interactive/2020/11/03/us/elections/results-kansas.html,https://www.nytimes.com/interactive/2020/11/03/us/elections/ap-polls-kansas.html,house,general,2020-11-03,FALSE,U.S. House District 2,U.S. House,H,likely-rep,2,District 2,KS,kansas,Kansas,Kan.,horizontal,"",FALSE,TRUE,winner,AP,FALSE,"",329253,88071,11,unknown,First polls close at 8 p.m. Eastern time.,First polls close in,Most polls have closed.,2020-11-04T01:00:00.000Z,8 p.m.,893,917,97% reporting,97%,99,334000,edison,>98%,>98% reported,edison,republican,FALSE,2020-11-20T14:22:06Z,FALSE,14.8187,48791,R+15,LaTurner +15,republican,"","",3,0,1604462644104
20043,Doniphan,3562,1106,13,14,"As a precinct in the FIRST cumulative report, along with regular precincts",100,3038,>98%,>98% reported,edison,4,all,744,2785,642,135,757,306,43,2020-11-16T15:47:47Z,60.16283,R+60,LaTurner +60,republican,KS-G-H-2-2020-11-03,ks-house-general-district-002-2020-11-03,https://www.nytimes.com/interactive/2020/11/03/us/elections/results-kansas-house-district-2.html,https://www.nytimes.com/interactive/2020/11/03/us/elections/results-kansas.html,https://www.nytimes.com/interactive/2020/11/03/us/elections/ap-polls-kansas.html,house,general,2020-11-03,FALSE,U.S. House District 2,U.S. House,H,likely-rep,2,District 2,KS,kansas,Kansas,Kan.,horizontal,"",FALSE,TRUE,winner,AP,FALSE,"",329253,88071,11,unknown,First polls close at 8 p.m. Eastern time.,First polls close in,Most polls have closed.,2020-11-04T01:00:00.000Z,8 p.m.,893,917,97% reporting,97%,99,334000,edison,>98%,>98% reported,edison,republican,FALSE,2020-11-20T14:22:06Z,FALSE,14.8187,48791,R+15,LaTurner +15,republican,"","",3,0,1604462644104
20045,Douglas,56995,0,100,100,Merged into voters' home precincts and released with cumulative results,100,56350,>98%,>98% reported,edison,2,unknown,36512,17471,37136,2388,0,0,0,2020-11-16T15:47:48Z,34.50303,D+35,De La Isla +35,democrat,KS-G-H-2-2020-11-03,ks-house-general-district-002-2020-11-03,https://www.nytimes.com/interactive/2020/11/03/us/elections/results-kansas-house-district-2.html,https://www.nytimes.com/interactive/2020/11/03/us/elections/results-kansas.html,https://www.nytimes.com/interactive/2020/11/03/us/elections/ap-polls-kansas.html,house,general,2020-11-03,FALSE,U.S. House District 2,U.S. House,H,likely-rep,2,District 2,KS,kansas,Kansas,Kan.,horizontal,"",FALSE,TRUE,winner,AP,FALSE,"",329253,88071,11,unknown,First polls close at 8 p.m. Eastern time.,First polls close in,Most polls have closed.,2020-11-04T01:00:00.000Z,8 p.m.,893,917,97% reporting,97%,99,334000,edison,>98%,>98% reported,edison,republican,FALSE,2020-11-20T14:22:06Z,FALSE,14.8187,48791,R+15,LaTurner +15,republican,"","",3,0,1604462644104
20059,Franklin,12061,5318,23,24,Released as a precinct as first report of the night,100,11416,>98%,>98% reported,edison,4,all,4554,8052,3240,769,2982,2063,273,2020-11-16T15:47:49Z,39.89719,R+40,LaTurner +40,republican,KS-G-H-2-2020-11-03,ks-house-general-district-002-2020-11-03,https://www.nytimes.com/interactive/2020/11/03/us/elections/results-kansas-house-district-2.html,https://www.nytimes.com/interactive/2020/11/03/us/elections/results-kansas.html,https://www.nytimes.com/interactive/2020/11/03/us/elections/ap-polls-kansas.html,house,general,2020-11-03,FALSE,U.S. House District 2,U.S. House,H,likely-rep,2,District 2,KS,kansas,Kansas,Kan.,horizontal,"",FALSE,TRUE,winner,AP,FALSE,"",329253,88071,11,unknown,First polls close at 8 p.m. Eastern time.,First polls close in,Most polls have closed.,2020-11-04T01:00:00.000Z,8 p.m.,893,917,97% reporting,97%,99,334000,edison,>98%,>98% reported,edison,republican,FALSE,2020-11-20T14:22:06Z,FALSE,14.8187,48791,R+15,LaTurner +15,republican,"","",3,0,1604462644104
20085,Jackson,6429,0,19,19,"As a precinct in the FIRST cumulative report, along with regular precincts",100,6383,>98%,>98% reported,edison,6,unknown,1650,4122,2010,297,0,0,0,2020-11-16T15:47:50Z,32.85114,R+33,LaTurner +33,republican,KS-G-H-2-2020-11-03,ks-house-general-district-002-2020-11-03,https://www.nytimes.com/interactive/2020/11/03/us/elections/results-kansas-house-district-2.html,https://www.nytimes.com/interactive/2020/11/03/us/elections/results-kansas.html,https://www.nytimes.com/interactive/2020/11/03/us/elections/ap-polls-kansas.html,house,general,2020-11-03,FALSE,U.S. House District 2,U.S. House,H,likely-rep,2,District 2,KS,kansas,Kansas,Kan.,horizontal,"",FALSE,TRUE,winner,AP,FALSE,"",329253,88071,11,unknown,First polls close at 8 p.m. Eastern time.,First polls close in,Most polls have closed.,2020-11-04T01:00:00.000Z,8 p.m.,893,917,97% reporting,97%,99,334000,edison,>98%,>98% reported,edison,republican,FALSE,2020-11-20T14:22:06Z,FALSE,14.8187,48791,R+15,LaTurner +15,republican,"","",3,0,1604462644104
20087,Jefferson,9506,0,14,14,Released as a precinct at the end of tabulation,100,9470,>98%,>98% reported,edison,6,all,2168,5925,3151,430,0,0,0,2020-11-16T15:47:50Z,29.18157,R+29,LaTurner +29,republican,KS-G-H-2-2020-11-03,ks-house-general-district-002-2020-11-03,https://www.nytimes.com/interactive/2020/11/03/us/elections/results-kansas-house-district-2.html,https://www.nytimes.com/interactive/2020/11/03/us/elections/results-kansas.html,https://www.nytimes.com/interactive/2020/11/03/us/elections/ap-polls-kansas.html,house,general,2020-11-03,FALSE,U.S. House District 2,U.S. House,H,likely-rep,2,District 2,KS,kansas,Kansas,Kan.,horizontal,"",FALSE,TRUE,winner,AP,FALSE,"",329253,88071,11,unknown,First polls close at 8 p.m. Eastern time.,First polls close in,Most polls have closed.,2020-11-04T01:00:00.000Z,8 p.m.,893,917,97% reporting,97%,99,334000,edison,>98%,>98% reported,edison,republican,FALSE,2020-11-20T14:22:06Z,FALSE,14.8187,48791,R+15,LaTurner +15,republican,"","",3,0,1604462644104
20099,Labette,8334,0,34,37,Merged into voters' home precincts and released with cumulative results,98,8466,98%,98% reported,edison,4,some,1555,5384,2538,412,0,0,0,2020-11-16T15:47:51Z,34.14927,R+34,LaTurner +34,republican,KS-G-H-2-2020-11-03,ks-house-general-district-002-2020-11-03,https://www.nytimes.com/interactive/2020/11/03/us/elections/results-kansas-house-district-2.html,https://www.nytimes.com/interactive/2020/11/03/us/elections/results-kansas.html,https://www.nytimes.com/interactive/2020/11/03/us/elections/ap-polls-kansas.html,house,general,2020-11-03,FALSE,U.S. House District 2,U.S. House,H,likely-rep,2,District 2,KS,kansas,Kansas,Kan.,horizontal,"",FALSE,TRUE,winner,AP,FALSE,"",329253,88071,11,unknown,First polls close at 8 p.m. Eastern time.,First polls close in,Most polls have closed.,2020-11-04T01:00:00.000Z,8 p.m.,893,917,97% reporting,97%,99,334000,edison,>98%,>98% reported,edison,republican,FALSE,2020-11-20T14:22:06Z,FALSE,14.8187,48791,R+15,LaTurner +15,republican,"","",3,0,1604462644104
20103,Leavenworth,35658,22386,43,43,Merged into voters' home precincts and released with cumulative results,100,27120,>98%,>98% reported,edison,4,all,24109,20970,12927,1761,11543,9928,915,2020-11-16T15:47:52Z,22.55595,R+23,LaTurner +23,republican,KS-G-H-2-2020-11-03,ks-house-general-district-002-2020-11-03,https://www.nytimes.com/interactive/2020/11/03/us/elections/results-kansas-house-district-2.html,https://www.nytimes.com/interactive/2020/11/03/us/elections/results-kansas.html,https://www.nytimes.com/interactive/2020/11/03/us/elections/ap-polls-kansas.html,house,general,2020-11-03,FALSE,U.S. House District 2,U.S. House,H,likely-rep,2,District 2,KS,kansas,Kansas,Kan.,horizontal,"",FALSE,TRUE,winner,AP,FALSE,"",329253,88071,11,unknown,First polls close at 8 p.m. Eastern time.,First polls close in,Most polls have closed.,2020-11-04T01:00:00.000Z,8 p.m.,893,917,97% reporting,97%,99,334000,edison,>98%,>98% reported,edison,republican,FALSE,2020-11-20T14:22:06Z,FALSE,14.8187,48791,R+15,LaTurner +15,republican,"","",3,0,1604462644104
20107,Linn,4842,0,14,14,Released as a separate subtotal as first report of the night,100,4336,>98%,>98% reported,edison,6,unknown,2166,3720,844,278,0,0,0,2020-11-16T15:47:52Z,59.39694,R+59,LaTurner +59,republican,KS-G-H-2-2020-11-03,ks-house-general-district-002-2020-11-03,https://www.nytimes.com/interactive/2020/11/03/us/elections/results-kansas-house-district-2.html,https://www.nytimes.com/interactive/2020/11/03/us/elections/results-kansas.html,https://www.nytimes.com/interactive/2020/11/03/us/elections/ap-polls-kansas.html,house,general,2020-11-03,FALSE,U.S. House District 2,U.S. House,H,likely-rep,2,District 2,KS,kansas,Kansas,Kan.,horizontal,"",FALSE,TRUE,winner,AP,FALSE,"",329253,88071,11,unknown,First polls close at 8 p.m. Eastern time.,First polls close in,Most polls have closed.,2020-11-04T01:00:00.000Z,8 p.m.,893,917,97% reporting,97%,99,334000,edison,>98%,>98% reported,edison,republican,FALSE,2020-11-20T14:22:06Z,FALSE,14.8187,48791,R+15,LaTurner +15,republican,"","",3,0,1604462644104
20117,Marshall,2630,0,16,17,Released separately AFTER election night,100,2622,>98%,>98% reported,edison,6,all,3797,1851,651,128,0,0,0,2020-11-16T15:47:58Z,45.62738,R+46,LaTurner +46,republican,KS-G-H-2-2020-11-03,ks-house-general-district-002-2020-11-03,https://www.nytimes.com/interactive/2020/11/03/us/elections/results-kansas-house-district-2.html,https://www.nytimes.com/interactive/2020/11/03/us/elections/results-kansas.html,https://www.nytimes.com/interactive/2020/11/03/us/elections/ap-polls-kansas.html,house,general,2020-11-03,FALSE,U.S. House District 2,U.S. House,H,likely-rep,2,District 2,KS,kansas,Kansas,Kan.,horizontal,"",FALSE,TRUE,winner,AP,FALSE,"",329253,88071,11,unknown,First polls close at 8 p.m. Eastern time.,First polls close in,Most polls have closed.,2020-11-04T01:00:00.000Z,8 p.m.,893,917,97% reporting,97%,99,334000,edison,>98%,>98% reported,edison,republican,FALSE,2020-11-20T14:22:06Z,FALSE,14.8187,48791,R+15,LaTurner +15,republican,"","",3,0,1604462644104
20121,Miami,10374,0,27,27,Other,100,9537,>98%,>98% reported,edison,4,unknown,12187,6933,2989,452,0,0,0,2020-11-16T15:47:53Z,38.01812,R+38,LaTurner +38,republican,KS-G-H-2-2020-11-03,ks-house-general-district-002-2020-11-03,https://www.nytimes.com/interactive/2020/11/03/us/elections/results-kansas-house-district-2.html,https://www.nytimes.com/interactive/2020/11/03/us/elections/results-kansas.html,https://www.nytimes.com/interactive/2020/11/03/us/elections/ap-polls-kansas.html,house,general,2020-11-03,FALSE,U.S. House District 2,U.S. House,H,likely-rep,2,District 2,KS,kansas,Kansas,Kan.,horizontal,"",FALSE,TRUE,winner,AP,FALSE,"",329253,88071,11,unknown,First polls close at 8 p.m. Eastern time.,First polls close in,Most polls have closed.,2020-11-04T01:00:00.000Z,8 p.m.,893,917,97% reporting,97%,99,334000,edison,>98%,>98% reported,edison,republican,FALSE,2020-11-20T14:22:06Z,FALSE,14.8187,48791,R+15,LaTurner +15,republican,"","",3,0,1604462644104
20125,Montgomery,13030,6508,57,59,Other,100,12487,>98%,>98% reported,edison,2,some,3789,9623,2984,423,4315,2010,183,2020-11-16T15:47:59Z,50.95165,R+51,LaTurner +51,republican,KS-G-H-2-2020-11-03,ks-house-general-district-002-2020-11-03,https://www.nytimes.com/interactive/2020/11/03/us/elections/results-kansas-house-district-2.html,https://www.nytimes.com/interactive/2020/11/03/us/elections/results-kansas.html,https://www.nytimes.com/interactive/2020/11/03/us/elections/ap-polls-kansas.html,house,general,2020-11-03,FALSE,U.S. House District 2,U.S. House,H,likely-rep,2,District 2,KS,kansas,Kansas,Kan.,horizontal,"",FALSE,TRUE,winner,AP,FALSE,"",329253,88071,11,unknown,First polls close at 8 p.m. Eastern time.,First polls close in,Most polls have closed.,2020-11-04T01:00:00.000Z,8 p.m.,893,917,97% reporting,97%,99,334000,edison,>98%,>98% reported,edison,republican,FALSE,2020-11-20T14:22:06Z,FALSE,14.8187,48791,R+15,LaTurner +15,republican,"","",3,0,1604462644104
20131,Nemaha,5575,1425,29,30,Other,100,5517,>98%,>98% reported,edison,6,all,1677,4402,1025,148,942,446,37,2020-11-16T15:47:53Z,60.57399,R+61,LaTurner +61,republican,KS-G-H-2-2020-11-03,ks-house-general-district-002-2020-11-03,https://www.nytimes.com/interactive/2020/11/03/us/elections/results-kansas-house-district-2.html,https://www.nytimes.com/interactive/2020/11/03/us/elections/results-kansas.html,https://www.nytimes.com/interactive/2020/11/03/us/elections/ap-polls-kansas.html,house,general,2020-11-03,FALSE,U.S. House District 2,U.S. House,H,likely-rep,2,District 2,KS,kansas,Kansas,Kan.,horizontal,"",FALSE,TRUE,winner,AP,FALSE,"",329253,88071,11,unknown,First polls close at 8 p.m. Eastern time.,First polls close in,Most polls have closed.,2020-11-04T01:00:00.000Z,8 p.m.,893,917,97% reporting,97%,99,334000,edison,>98%,>98% reported,edison,republican,FALSE,2020-11-20T14:22:06Z,FALSE,14.8187,48791,R+15,LaTurner +15,republican,"","",3,0,1604462644104
20133,Neosho,6556,0,23,25,Other,100,6584,>98%,>98% reported,edison,4,none,1330,4689,1594,273,0,0,0,2020-11-16T15:47:54Z,47.20866,R+47,LaTurner +47,republican,KS-G-H-2-2020-11-03,ks-house-general-district-002-2020-11-03,https://www.nytimes.com/interactive/2020/11/03/us/elections/results-kansas-house-district-2.html,https://www.nytimes.com/interactive/2020/11/03/us/elections/results-kansas.html,https://www.nytimes.com/interactive/2020/11/03/us/elections/ap-polls-kansas.html,house,general,2020-11-03,FALSE,U.S. House District 2,U.S. House,H,likely-rep,2,District 2,KS,kansas,Kansas,Kan.,horizontal,"",FALSE,TRUE,winner,AP,FALSE,"",329253,88071,11,unknown,First polls close at 8 p.m. Eastern time.,First polls close in,Most polls have closed.,2020-11-04T01:00:00.000Z,8 p.m.,893,917,97% reporting,97%,99,334000,edison,>98%,>98% reported,edison,republican,FALSE,2020-11-20T14:22:06Z,FALSE,14.8187,48791,R+15,LaTurner +15,republican,"","",3,0,1604462644104
20139,Osage,7789,0,23,24,"As a subtotal in the FIRST cumulative report, along with regular precincts",100,7779,>98%,>98% reported,edison,6,all,2317,5138,2255,396,0,0,0,2020-11-16T15:47:55Z,37.01374,R+37,LaTurner +37,republican,KS-G-H-2-2020-11-03,ks-house-general-district-002-2020-11-03,https://www.nytimes.com/interactive/2020/11/03/us/elections/results-kansas-house-district-2.html,https://www.nytimes.com/interactive/2020/11/03/us/elections/results-kansas.html,https://www.nytimes.com/interactive/2020/11/03/us/elections/ap-polls-kansas.html,house,general,2020-11-03,FALSE,U.S. House District 2,U.S. House,H,likely-rep,2,District 2,KS,kansas,Kansas,Kan.,horizontal,"",FALSE,TRUE,winner,AP,FALSE,"",329253,88071,11,unknown,First polls close at 8 p.m. Eastern time.,First polls close in,Most polls have closed.,2020-11-04T01:00:00.000Z,8 p.m.,893,917,97% reporting,97%,99,334000,edison,>98%,>98% reported,edison,republican,FALSE,2020-11-20T14:22:06Z,FALSE,14.8187,48791,R+15,LaTurner +15,republican,"","",3,0,1604462644104
20177,Shawnee,83862,41846,221,223,Released as a precinct as first report of the night,99,84777,>98%,>98% reported,edison,4,all,36528,38707,42501,2654,14327,26588,931,2020-11-16T15:47:56Z,4.5241,D+5,De La Isla +5,democrat,KS-G-H-2-2020-11-03,ks-house-general-district-002-2020-11-03,https://www.nytimes.com/interactive/2020/11/03/us/elections/results-kansas-house-district-2.html,https://www.nytimes.com/interactive/2020/11/03/us/elections/results-kansas.html,https://www.nytimes.com/interactive/2020/11/03/us/elections/ap-polls-kansas.html,house,general,2020-11-03,FALSE,U.S. House District 2,U.S. House,H,likely-rep,2,District 2,KS,kansas,Kansas,Kan.,horizontal,"",FALSE,TRUE,winner,AP,FALSE,"",329253,88071,11,unknown,First polls close at 8 p.m. Eastern time.,First polls close in,Most polls have closed.,2020-11-04T01:00:00.000Z,8 p.m.,893,917,97% reporting,97%,99,334000,edison,>98%,>98% reported,edison,republican,FALSE,2020-11-20T14:22:06Z,FALSE,14.8187,48791,R+15,LaTurner +15,republican,"","",3,0,1604462644104
20205,Wilson,3863,1914,23,24,Released as a separate subtotal as first report of the night,100,3743,>98%,>98% reported,edison,4,all,2334,2994,685,184,1370,459,85,2020-11-16T15:47:57Z,59.7722,R+60,LaTurner +60,republican,KS-G-H-2-2020-11-03,ks-house-general-district-002-2020-11-03,https://www.nytimes.com/interactive/2020/11/03/us/elections/results-kansas-house-district-2.html,https://www.nytimes.com/interactive/2020/11/03/us/elections/results-kansas.html,https://www.nytimes.com/interactive/2020/11/03/us/elections/ap-polls-kansas.html,house,general,2020-11-03,FALSE,U.S. House District 2,U.S. House,H,likely-rep,2,District 2,KS,kansas,Kansas,Kan.,horizontal,"",FALSE,TRUE,winner,AP,FALSE,"",329253,88071,11,unknown,First polls close at 8 p.m. Eastern time.,First polls close in,Most polls have closed.,2020-11-04T01:00:00.000Z,8 p.m.,893,917,97% reporting,97%,99,334000,edison,>98%,>98% reported,edison,republican,FALSE,2020-11-20T14:22:06Z,FALSE,14.8187,48791,R+15,LaTurner +15,republican,"","",3,0,1604462644104
20207,Woodson,1469,515,10,11,Released as a separate subtotal as first report of the night,100,1465,>98%,>98% reported,edison,6,all,810,1120,282,67,348,150,17,2020-11-16T15:47:58Z,57.04561,R+57,LaTurner +57,republican,KS-G-H-2-2020-11-03,ks-house-general-district-002-2020-11-03,https://www.nytimes.com/interactive/2020/11/03/us/elections/results-kansas-house-district-2.html,https://www.nytimes.com/interactive/2020/11/03/us/elections/results-kansas.html,https://www.nytimes.com/interactive/2020/11/03/us/elections/ap-polls-kansas.html,house,general,2020-11-03,FALSE,U.S. House District 2,U.S. House,H,likely-rep,2,District 2,KS,kansas,Kansas,Kan.,horizontal,"",FALSE,TRUE,winner,AP,FALSE,"",329253,88071,11,unknown,First polls close at 8 p.m. Eastern time.,First polls close in,Most polls have closed.,2020-11-04T01:00:00.000Z,8 p.m.,893,917,97% reporting,97%,99,334000,edison,>98%,>98% reported,edison,republican,FALSE,2020-11-20T14:22:06Z,FALSE,14.8187,48791,R+15,LaTurner +15,republican,"","",3,0,1604462644104
