fips,name,votes,absentee_votes,reporting,precincts,absentee_method,eevp,tot_exp_vote,eevp_value,eevp_display,eevp_source,turnout_stage,absentee_count_progress,absentee_max_ballots,results_guestm,results_benfordd,results_absentee_guestm,results_absentee_benfordd,last_updated,leader_margin_value,leader_margin_display,leader_margin_name_display,leader_party_id,race_id_race,race_slug_race,url_race,state_page_url_race,ap_polls_page_race,race_type_race,election_type_race,election_date_race,runoff_race,race_name_race,office_race,officeid_race,race_rating_race,seat_race,seat_name_race,state_id_race,state_slug_race,state_name_race,state_nyt_abbrev_race,state_shape_race,state_aspect_ratio_race,party_id_race,uncontested_race,report_race,result_race,result_source_race,gain_race,lost_seat_race,votes_race,absentee_votes_race,absentee_counties_race,absentee_count_progress_race,poll_display_race,poll_countdown_display_race,poll_waiting_display_race,poll_time_race,poll_time_short_race,precincts_reporting_race,precincts_total_race,reporting_display_race,reporting_value_race,eevp_race,tot_exp_vote_race,eevp_source_race,eevp_value_race,eevp_display_race,county_data_source_race,incumbent_party_race,no_forecast_race,last_updated_race,has_incumbent_race,leader_margin_value_race,leader_margin_votes_race,leader_margin_display_race,leader_margin_name_display_race,leader_party_id_race,expectations_text_race,expectations_text_short_race,absentee_ballot_deadline_race,absentee_postmark_deadline_race,winner_called_timestamp_race
28001,Adams,11373,0,19,19,None,100,11373,>98%,>98% reported,edison,6,all,1098,5285,6088,0,0,2020-11-16T15:47:59Z,7.06058,D+7,Benford +7,democrat,MS-G-H-3-2020-11-03,ms-house-general-district-003-2020-11-03,https://www.nytimes.com/interactive/2020/11/03/us/elections/results-mississippi-house-district-3.html,https://www.nytimes.com/interactive/2020/11/03/us/elections/results-mississippi.html,https://www.nytimes.com/interactive/2020/11/03/us/elections/ap-polls-mississippi.html,house,general,2020-11-03,FALSE,U.S. House District 3,U.S. House,H,solid-rep,3,District 3,MS,mississippi,Mississippi,Miss.,vertical,0.9,"",FALSE,TRUE,winner,AP,FALSE,"",340427,3270,3,unknown,Polls close at 8 p.m. Eastern time.,Polls close in,Polls have closed.,2020-11-04T01:00:00.000Z,8 p.m.,514,514,100% reporting,100%,95,357000,edison,95%,95% reported,edison,republican,FALSE,2020-11-20T14:21:28Z,TRUE,29.5708,100667,R+30,Guest +30,republican,"","",7,0,1604459372270
28005,Amite,6938,0,21,21,Merged into voters' home precincts and released with cumulative results,100,6938,>98%,>98% reported,edison,10,all,466,4417,2521,0,0,2020-11-16T15:47:59Z,27.32776,R+27,Guest +27,republican,MS-G-H-3-2020-11-03,ms-house-general-district-003-2020-11-03,https://www.nytimes.com/interactive/2020/11/03/us/elections/results-mississippi-house-district-3.html,https://www.nytimes.com/interactive/2020/11/03/us/elections/results-mississippi.html,https://www.nytimes.com/interactive/2020/11/03/us/elections/ap-polls-mississippi.html,house,general,2020-11-03,FALSE,U.S. House District 3,U.S. House,H,solid-rep,3,District 3,MS,mississippi,Mississippi,Miss.,vertical,0.9,"",FALSE,TRUE,winner,AP,FALSE,"",340427,3270,3,unknown,Polls close at 8 p.m. Eastern time.,Polls close in,Polls have closed.,2020-11-04T01:00:00.000Z,8 p.m.,514,514,100% reporting,100%,95,357000,edison,95%,95% reported,edison,republican,FALSE,2020-11-20T14:21:28Z,TRUE,29.5708,100667,R+30,Guest +30,republican,"","",7,0,1604459372270
28023,Clarke,7077,1102,20,20,None,100,7077,>98%,>98% reported,edison,10,some,708,5033,2044,705,397,2020-11-16T17:34:58Z,42.23541,R+42,Guest +42,republican,MS-G-H-3-2020-11-03,ms-house-general-district-003-2020-11-03,https://www.nytimes.com/interactive/2020/11/03/us/elections/results-mississippi-house-district-3.html,https://www.nytimes.com/interactive/2020/11/03/us/elections/results-mississippi.html,https://www.nytimes.com/interactive/2020/11/03/us/elections/ap-polls-mississippi.html,house,general,2020-11-03,FALSE,U.S. House District 3,U.S. House,H,solid-rep,3,District 3,MS,mississippi,Mississippi,Miss.,vertical,0.9,"",FALSE,TRUE,winner,AP,FALSE,"",340427,3270,3,unknown,Polls close at 8 p.m. Eastern time.,Polls close in,Polls have closed.,2020-11-04T01:00:00.000Z,8 p.m.,514,514,100% reporting,100%,95,357000,edison,95%,95% reported,edison,republican,FALSE,2020-11-20T14:21:28Z,TRUE,29.5708,100667,R+30,Guest +30,republican,"","",7,0,1604459372270
28031,Covington,8966,0,15,15,Merged into voters' home precincts and released with cumulative results,100,8966,>98%,>98% reported,edison,10,unknown,806,5836,3130,0,0,2020-11-16T17:37:01Z,30.18068,R+30,Guest +30,republican,MS-G-H-3-2020-11-03,ms-house-general-district-003-2020-11-03,https://www.nytimes.com/interactive/2020/11/03/us/elections/results-mississippi-house-district-3.html,https://www.nytimes.com/interactive/2020/11/03/us/elections/results-mississippi.html,https://www.nytimes.com/interactive/2020/11/03/us/elections/ap-polls-mississippi.html,house,general,2020-11-03,FALSE,U.S. House District 3,U.S. House,H,solid-rep,3,District 3,MS,mississippi,Mississippi,Miss.,vertical,0.9,"",FALSE,TRUE,winner,AP,FALSE,"",340427,3270,3,unknown,Polls close at 8 p.m. Eastern time.,Polls close in,Polls have closed.,2020-11-04T01:00:00.000Z,8 p.m.,514,514,100% reporting,100%,95,357000,edison,95%,95% reported,edison,republican,FALSE,2020-11-20T14:21:28Z,TRUE,29.5708,100667,R+30,Guest +30,republican,"","",7,0,1604459372270
28037,Franklin,4267,0,14,14,None,100,4267,>98%,>98% reported,edison,10,unknown,530,2876,1391,0,0,2020-11-16T15:48:00Z,34.80197,R+35,Guest +35,republican,MS-G-H-3-2020-11-03,ms-house-general-district-003-2020-11-03,https://www.nytimes.com/interactive/2020/11/03/us/elections/results-mississippi-house-district-3.html,https://www.nytimes.com/interactive/2020/11/03/us/elections/results-mississippi.html,https://www.nytimes.com/interactive/2020/11/03/us/elections/ap-polls-mississippi.html,house,general,2020-11-03,FALSE,U.S. House District 3,U.S. House,H,solid-rep,3,District 3,MS,mississippi,Mississippi,Miss.,vertical,0.9,"",FALSE,TRUE,winner,AP,FALSE,"",340427,3270,3,unknown,Polls close at 8 p.m. Eastern time.,Polls close in,Polls have closed.,2020-11-04T01:00:00.000Z,8 p.m.,514,514,100% reporting,100%,95,357000,edison,95%,95% reported,edison,republican,FALSE,2020-11-20T14:21:28Z,TRUE,29.5708,100667,R+30,Guest +30,republican,"","",7,0,1604459372270
28049,Hinds,14306,0,15,15,Merged into voters' home precincts and released with cumulative results,100,14201,>98%,>98% reported,edison,2,none,2988,7566,6740,0,0,2020-11-18T23:45:36Z,5.7738,R+6,Guest +6,republican,MS-G-H-3-2020-11-03,ms-house-general-district-003-2020-11-03,https://www.nytimes.com/interactive/2020/11/03/us/elections/results-mississippi-house-district-3.html,https://www.nytimes.com/interactive/2020/11/03/us/elections/results-mississippi.html,https://www.nytimes.com/interactive/2020/11/03/us/elections/ap-polls-mississippi.html,house,general,2020-11-03,FALSE,U.S. House District 3,U.S. House,H,solid-rep,3,District 3,MS,mississippi,Mississippi,Miss.,vertical,0.9,"",FALSE,TRUE,winner,AP,FALSE,"",340427,3270,3,unknown,Polls close at 8 p.m. Eastern time.,Polls close in,Polls have closed.,2020-11-04T01:00:00.000Z,8 p.m.,514,514,100% reporting,100%,95,357000,edison,95%,95% reported,edison,republican,FALSE,2020-11-20T14:21:28Z,TRUE,29.5708,100667,R+30,Guest +30,republican,"","",7,0,1604459372270
28061,Jasper,8328,0,17,17,Merged into voters' home precincts and released with cumulative results,100,8328,>98%,>98% reported,edison,10,unknown,592,4344,3984,0,0,2020-11-16T15:48:01Z,4.32277,R+4,Guest +4,republican,MS-G-H-3-2020-11-03,ms-house-general-district-003-2020-11-03,https://www.nytimes.com/interactive/2020/11/03/us/elections/results-mississippi-house-district-3.html,https://www.nytimes.com/interactive/2020/11/03/us/elections/results-mississippi.html,https://www.nytimes.com/interactive/2020/11/03/us/elections/ap-polls-mississippi.html,house,general,2020-11-03,FALSE,U.S. House District 3,U.S. House,H,solid-rep,3,District 3,MS,mississippi,Mississippi,Miss.,vertical,0.9,"",FALSE,TRUE,winner,AP,FALSE,"",340427,3270,3,unknown,Polls close at 8 p.m. Eastern time.,Polls close in,Polls have closed.,2020-11-04T01:00:00.000Z,8 p.m.,514,514,100% reporting,100%,95,357000,edison,95%,95% reported,edison,republican,FALSE,2020-11-20T14:21:28Z,TRUE,29.5708,100667,R+30,Guest +30,republican,"","",7,0,1604459372270
28065,Jeff Davis,5923,0,17,17,None,100,5923,>98%,>98% reported,edison,10,unknown,578,2566,3357,0,0,2020-11-16T15:48:01Z,13.35472,D+13,Benford +13,democrat,MS-G-H-3-2020-11-03,ms-house-general-district-003-2020-11-03,https://www.nytimes.com/interactive/2020/11/03/us/elections/results-mississippi-house-district-3.html,https://www.nytimes.com/interactive/2020/11/03/us/elections/results-mississippi.html,https://www.nytimes.com/interactive/2020/11/03/us/elections/ap-polls-mississippi.html,house,general,2020-11-03,FALSE,U.S. House District 3,U.S. House,H,solid-rep,3,District 3,MS,mississippi,Mississippi,Miss.,vertical,0.9,"",FALSE,TRUE,winner,AP,FALSE,"",340427,3270,3,unknown,Polls close at 8 p.m. Eastern time.,Polls close in,Polls have closed.,2020-11-04T01:00:00.000Z,8 p.m.,514,514,100% reporting,100%,95,357000,edison,95%,95% reported,edison,republican,FALSE,2020-11-20T14:21:28Z,TRUE,29.5708,100667,R+30,Guest +30,republican,"","",7,0,1604459372270
28069,Kemper,4525,0,14,14,None,100,4525,>98%,>98% reported,edison,10,unknown,966,1928,2597,0,0,2020-11-16T15:48:01Z,14.78453,D+15,Benford +15,democrat,MS-G-H-3-2020-11-03,ms-house-general-district-003-2020-11-03,https://www.nytimes.com/interactive/2020/11/03/us/elections/results-mississippi-house-district-3.html,https://www.nytimes.com/interactive/2020/11/03/us/elections/results-mississippi.html,https://www.nytimes.com/interactive/2020/11/03/us/elections/ap-polls-mississippi.html,house,general,2020-11-03,FALSE,U.S. House District 3,U.S. House,H,solid-rep,3,District 3,MS,mississippi,Mississippi,Miss.,vertical,0.9,"",FALSE,TRUE,winner,AP,FALSE,"",340427,3270,3,unknown,Polls close at 8 p.m. Eastern time.,Polls close in,Polls have closed.,2020-11-04T01:00:00.000Z,8 p.m.,514,514,100% reporting,100%,95,357000,edison,95%,95% reported,edison,republican,FALSE,2020-11-20T14:21:28Z,TRUE,29.5708,100667,R+30,Guest +30,republican,"","",7,0,1604459372270
28075,Lauderdale,30814,0,40,40,Merged into voters' home precincts and released with cumulative results,100,30814,>98%,>98% reported,edison,10,unknown,2082,18711,12103,0,0,2020-11-16T15:48:02Z,21.4448,R+21,Guest +21,republican,MS-G-H-3-2020-11-03,ms-house-general-district-003-2020-11-03,https://www.nytimes.com/interactive/2020/11/03/us/elections/results-mississippi-house-district-3.html,https://www.nytimes.com/interactive/2020/11/03/us/elections/results-mississippi.html,https://www.nytimes.com/interactive/2020/11/03/us/elections/ap-polls-mississippi.html,house,general,2020-11-03,FALSE,U.S. House District 3,U.S. House,H,solid-rep,3,District 3,MS,mississippi,Mississippi,Miss.,vertical,0.9,"",FALSE,TRUE,winner,AP,FALSE,"",340427,3270,3,unknown,Polls close at 8 p.m. Eastern time.,Polls close in,Polls have closed.,2020-11-04T01:00:00.000Z,8 p.m.,514,514,100% reporting,100%,95,357000,edison,95%,95% reported,edison,republican,FALSE,2020-11-20T14:21:28Z,TRUE,29.5708,100667,R+30,Guest +30,republican,"","",7,0,1604459372270
28077,Lawrence,6332,953,24,24,None,100,6332,>98%,>98% reported,edison,10,unknown,602,4299,2033,566,387,2020-11-17T19:07:54Z,35.78648,R+36,Guest +36,republican,MS-G-H-3-2020-11-03,ms-house-general-district-003-2020-11-03,https://www.nytimes.com/interactive/2020/11/03/us/elections/results-mississippi-house-district-3.html,https://www.nytimes.com/interactive/2020/11/03/us/elections/results-mississippi.html,https://www.nytimes.com/interactive/2020/11/03/us/elections/ap-polls-mississippi.html,house,general,2020-11-03,FALSE,U.S. House District 3,U.S. House,H,solid-rep,3,District 3,MS,mississippi,Mississippi,Miss.,vertical,0.9,"",FALSE,TRUE,winner,AP,FALSE,"",340427,3270,3,unknown,Polls close at 8 p.m. Eastern time.,Polls close in,Polls have closed.,2020-11-04T01:00:00.000Z,8 p.m.,514,514,100% reporting,100%,95,357000,edison,95%,95% reported,edison,republican,FALSE,2020-11-20T14:21:28Z,TRUE,29.5708,100667,R+30,Guest +30,republican,"","",7,0,1604459372270
28085,Lincoln,16287,0,30,30,None,100,16287,>98%,>98% reported,edison,10,unknown,1042,11751,4536,0,0,2020-11-16T15:48:03Z,44.29913,R+44,Guest +44,republican,MS-G-H-3-2020-11-03,ms-house-general-district-003-2020-11-03,https://www.nytimes.com/interactive/2020/11/03/us/elections/results-mississippi-house-district-3.html,https://www.nytimes.com/interactive/2020/11/03/us/elections/results-mississippi.html,https://www.nytimes.com/interactive/2020/11/03/us/elections/ap-polls-mississippi.html,house,general,2020-11-03,FALSE,U.S. House District 3,U.S. House,H,solid-rep,3,District 3,MS,mississippi,Mississippi,Miss.,vertical,0.9,"",FALSE,TRUE,winner,AP,FALSE,"",340427,3270,3,unknown,Polls close at 8 p.m. Eastern time.,Polls close in,Polls have closed.,2020-11-04T01:00:00.000Z,8 p.m.,514,514,100% reporting,100%,95,357000,edison,95%,95% reported,edison,republican,FALSE,2020-11-20T14:21:28Z,TRUE,29.5708,100667,R+30,Guest +30,republican,"","",7,0,1604459372270
28089,Madison,43996,0,33,33,None,100,43996,>98%,>98% reported,edison,10,unknown,2144,31172,12824,0,0,2020-11-17T19:12:49Z,41.70379,R+42,Guest +42,republican,MS-G-H-3-2020-11-03,ms-house-general-district-003-2020-11-03,https://www.nytimes.com/interactive/2020/11/03/us/elections/results-mississippi-house-district-3.html,https://www.nytimes.com/interactive/2020/11/03/us/elections/results-mississippi.html,https://www.nytimes.com/interactive/2020/11/03/us/elections/ap-polls-mississippi.html,house,general,2020-11-03,FALSE,U.S. House District 3,U.S. House,H,solid-rep,3,District 3,MS,mississippi,Mississippi,Miss.,vertical,0.9,"",FALSE,TRUE,winner,AP,FALSE,"",340427,3270,3,unknown,Polls close at 8 p.m. Eastern time.,Polls close in,Polls have closed.,2020-11-04T01:00:00.000Z,8 p.m.,514,514,100% reporting,100%,95,357000,edison,95%,95% reported,edison,republican,FALSE,2020-11-20T14:21:28Z,TRUE,29.5708,100667,R+30,Guest +30,republican,"","",7,0,1604459372270
28099,Neshoba,11587,0,27,27,None,100,11587,>98%,>98% reported,edison,10,unknown,468,8592,2995,0,0,2020-11-16T17:50:13Z,48.30413,R+48,Guest +48,republican,MS-G-H-3-2020-11-03,ms-house-general-district-003-2020-11-03,https://www.nytimes.com/interactive/2020/11/03/us/elections/results-mississippi-house-district-3.html,https://www.nytimes.com/interactive/2020/11/03/us/elections/results-mississippi.html,https://www.nytimes.com/interactive/2020/11/03/us/elections/ap-polls-mississippi.html,house,general,2020-11-03,FALSE,U.S. House District 3,U.S. House,H,solid-rep,3,District 3,MS,mississippi,Mississippi,Miss.,vertical,0.9,"",FALSE,TRUE,winner,AP,FALSE,"",340427,3270,3,unknown,Polls close at 8 p.m. Eastern time.,Polls close in,Polls have closed.,2020-11-04T01:00:00.000Z,8 p.m.,514,514,100% reporting,100%,95,357000,edison,95%,95% reported,edison,republican,FALSE,2020-11-20T14:21:28Z,TRUE,29.5708,100667,R+30,Guest +30,republican,"","",7,0,1604459372270
28101,Newton,10119,0,16,16,Merged into voters' home precincts and released with cumulative results,100,10119,>98%,>98% reported,edison,10,unknown,568,7201,2918,0,0,2020-11-16T15:48:03Z,42.32632,R+42,Guest +42,republican,MS-G-H-3-2020-11-03,ms-house-general-district-003-2020-11-03,https://www.nytimes.com/interactive/2020/11/03/us/elections/results-mississippi-house-district-3.html,https://www.nytimes.com/interactive/2020/11/03/us/elections/results-mississippi.html,https://www.nytimes.com/interactive/2020/11/03/us/elections/ap-polls-mississippi.html,house,general,2020-11-03,FALSE,U.S. House District 3,U.S. House,H,solid-rep,3,District 3,MS,mississippi,Mississippi,Miss.,vertical,0.9,"",FALSE,TRUE,winner,AP,FALSE,"",340427,3270,3,unknown,Polls close at 8 p.m. Eastern time.,Polls close in,Polls have closed.,2020-11-04T01:00:00.000Z,8 p.m.,514,514,100% reporting,100%,95,357000,edison,95%,95% reported,edison,republican,FALSE,2020-11-20T14:21:28Z,TRUE,29.5708,100667,R+30,Guest +30,republican,"","",7,0,1604459372270
28103,Noxubee,4854,1215,8,8,Merged into voters' home precincts and released with cumulative results,100,4854,>98%,>98% reported,edison,10,unknown,382,1282,3572,196,1019,2020-11-16T15:48:04Z,47.17759,D+47,Benford +47,democrat,MS-G-H-3-2020-11-03,ms-house-general-district-003-2020-11-03,https://www.nytimes.com/interactive/2020/11/03/us/elections/results-mississippi-house-district-3.html,https://www.nytimes.com/interactive/2020/11/03/us/elections/results-mississippi.html,https://www.nytimes.com/interactive/2020/11/03/us/elections/ap-polls-mississippi.html,house,general,2020-11-03,FALSE,U.S. House District 3,U.S. House,H,solid-rep,3,District 3,MS,mississippi,Mississippi,Miss.,vertical,0.9,"",FALSE,TRUE,winner,AP,FALSE,"",340427,3270,3,unknown,Polls close at 8 p.m. Eastern time.,Polls close in,Polls have closed.,2020-11-04T01:00:00.000Z,8 p.m.,514,514,100% reporting,100%,95,357000,edison,95%,95% reported,edison,republican,FALSE,2020-11-20T14:21:28Z,TRUE,29.5708,100667,R+30,Guest +30,republican,"","",7,0,1604459372270
28105,Oktibbeha,17225,0,18,18,Released as a separate subtotal at the end of tabulation,100,17225,>98%,>98% reported,edison,10,some,1134,8932,8293,0,0,2020-11-16T17:45:27Z,3.70972,R+4,Guest +4,republican,MS-G-H-3-2020-11-03,ms-house-general-district-003-2020-11-03,https://www.nytimes.com/interactive/2020/11/03/us/elections/results-mississippi-house-district-3.html,https://www.nytimes.com/interactive/2020/11/03/us/elections/results-mississippi.html,https://www.nytimes.com/interactive/2020/11/03/us/elections/ap-polls-mississippi.html,house,general,2020-11-03,FALSE,U.S. House District 3,U.S. House,H,solid-rep,3,District 3,MS,mississippi,Mississippi,Miss.,vertical,0.9,"",FALSE,TRUE,winner,AP,FALSE,"",340427,3270,3,unknown,Polls close at 8 p.m. Eastern time.,Polls close in,Polls have closed.,2020-11-04T01:00:00.000Z,8 p.m.,514,514,100% reporting,100%,95,357000,edison,95%,95% reported,edison,republican,FALSE,2020-11-20T14:21:28Z,TRUE,29.5708,100667,R+30,Guest +30,republican,"","",7,0,1604459372270
28113,Pike,16638,0,25,25,None,100,16638,>98%,>98% reported,edison,10,some,1376,8674,7964,0,0,2020-11-16T15:48:05Z,4.26734,R+4,Guest +4,republican,MS-G-H-3-2020-11-03,ms-house-general-district-003-2020-11-03,https://www.nytimes.com/interactive/2020/11/03/us/elections/results-mississippi-house-district-3.html,https://www.nytimes.com/interactive/2020/11/03/us/elections/results-mississippi.html,https://www.nytimes.com/interactive/2020/11/03/us/elections/ap-polls-mississippi.html,house,general,2020-11-03,FALSE,U.S. House District 3,U.S. House,H,solid-rep,3,District 3,MS,mississippi,Mississippi,Miss.,vertical,0.9,"",FALSE,TRUE,winner,AP,FALSE,"",340427,3270,3,unknown,Polls close at 8 p.m. Eastern time.,Polls close in,Polls have closed.,2020-11-04T01:00:00.000Z,8 p.m.,514,514,100% reporting,100%,95,357000,edison,95%,95% reported,edison,republican,FALSE,2020-11-20T14:21:28Z,TRUE,29.5708,100667,R+30,Guest +30,republican,"","",7,0,1604459372270
28121,Rankin,70369,0,48,48,None,100,70369,>98%,>98% reported,edison,10,some,3512,54043,16326,0,0,2020-11-16T15:48:05Z,53.59889,R+54,Guest +54,republican,MS-G-H-3-2020-11-03,ms-house-general-district-003-2020-11-03,https://www.nytimes.com/interactive/2020/11/03/us/elections/results-mississippi-house-district-3.html,https://www.nytimes.com/interactive/2020/11/03/us/elections/results-mississippi.html,https://www.nytimes.com/interactive/2020/11/03/us/elections/ap-polls-mississippi.html,house,general,2020-11-03,FALSE,U.S. House District 3,U.S. House,H,solid-rep,3,District 3,MS,mississippi,Mississippi,Miss.,vertical,0.9,"",FALSE,TRUE,winner,AP,FALSE,"",340427,3270,3,unknown,Polls close at 8 p.m. Eastern time.,Polls close in,Polls have closed.,2020-11-04T01:00:00.000Z,8 p.m.,514,514,100% reporting,100%,95,357000,edison,95%,95% reported,edison,republican,FALSE,2020-11-20T14:21:28Z,TRUE,29.5708,100667,R+30,Guest +30,republican,"","",7,0,1604459372270
28123,Scott,10404,0,23,23,None,100,10404,>98%,>98% reported,edison,10,unknown,356,6341,4063,0,0,2020-11-16T15:48:06Z,21.89542,R+22,Guest +22,republican,MS-G-H-3-2020-11-03,ms-house-general-district-003-2020-11-03,https://www.nytimes.com/interactive/2020/11/03/us/elections/results-mississippi-house-district-3.html,https://www.nytimes.com/interactive/2020/11/03/us/elections/results-mississippi.html,https://www.nytimes.com/interactive/2020/11/03/us/elections/ap-polls-mississippi.html,house,general,2020-11-03,FALSE,U.S. House District 3,U.S. House,H,solid-rep,3,District 3,MS,mississippi,Mississippi,Miss.,vertical,0.9,"",FALSE,TRUE,winner,AP,FALSE,"",340427,3270,3,unknown,Polls close at 8 p.m. Eastern time.,Polls close in,Polls have closed.,2020-11-04T01:00:00.000Z,8 p.m.,514,514,100% reporting,100%,95,357000,edison,95%,95% reported,edison,republican,FALSE,2020-11-20T14:21:28Z,TRUE,29.5708,100667,R+30,Guest +30,republican,"","",7,0,1604459372270
28127,Simpson,11431,0,23,23,None,100,11431,>98%,>98% reported,edison,10,unknown,558,7798,3633,0,0,2020-11-16T15:48:06Z,36.43601,R+36,Guest +36,republican,MS-G-H-3-2020-11-03,ms-house-general-district-003-2020-11-03,https://www.nytimes.com/interactive/2020/11/03/us/elections/results-mississippi-house-district-3.html,https://www.nytimes.com/interactive/2020/11/03/us/elections/results-mississippi.html,https://www.nytimes.com/interactive/2020/11/03/us/elections/ap-polls-mississippi.html,house,general,2020-11-03,FALSE,U.S. House District 3,U.S. House,H,solid-rep,3,District 3,MS,mississippi,Mississippi,Miss.,vertical,0.9,"",FALSE,TRUE,winner,AP,FALSE,"",340427,3270,3,unknown,Polls close at 8 p.m. Eastern time.,Polls close in,Polls have closed.,2020-11-04T01:00:00.000Z,8 p.m.,514,514,100% reporting,100%,95,357000,edison,95%,95% reported,edison,republican,FALSE,2020-11-20T14:21:28Z,TRUE,29.5708,100667,R+30,Guest +30,republican,"","",7,0,1604459372270
28129,Smith,8069,0,18,18,Merged into voters' home precincts and released with cumulative results,100,8069,>98%,>98% reported,edison,10,unknown,678,6417,1652,0,0,2020-11-16T15:48:07Z,59.05317,R+59,Guest +59,republican,MS-G-H-3-2020-11-03,ms-house-general-district-003-2020-11-03,https://www.nytimes.com/interactive/2020/11/03/us/elections/results-mississippi-house-district-3.html,https://www.nytimes.com/interactive/2020/11/03/us/elections/results-mississippi.html,https://www.nytimes.com/interactive/2020/11/03/us/elections/ap-polls-mississippi.html,house,general,2020-11-03,FALSE,U.S. House District 3,U.S. House,H,solid-rep,3,District 3,MS,mississippi,Mississippi,Miss.,vertical,0.9,"",FALSE,TRUE,winner,AP,FALSE,"",340427,3270,3,unknown,Polls close at 8 p.m. Eastern time.,Polls close in,Polls have closed.,2020-11-04T01:00:00.000Z,8 p.m.,514,514,100% reporting,100%,95,357000,edison,95%,95% reported,edison,republican,FALSE,2020-11-20T14:21:28Z,TRUE,29.5708,100667,R+30,Guest +30,republican,"","",7,0,1604459372270
28147,Walthall,6736,0,20,20,None,100,6743,>98%,>98% reported,edison,2,unknown,466,4136,2600,0,0,2020-11-19T15:39:46Z,22.80285,R+23,Guest +23,republican,MS-G-H-3-2020-11-03,ms-house-general-district-003-2020-11-03,https://www.nytimes.com/interactive/2020/11/03/us/elections/results-mississippi-house-district-3.html,https://www.nytimes.com/interactive/2020/11/03/us/elections/results-mississippi.html,https://www.nytimes.com/interactive/2020/11/03/us/elections/ap-polls-mississippi.html,house,general,2020-11-03,FALSE,U.S. House District 3,U.S. House,H,solid-rep,3,District 3,MS,mississippi,Mississippi,Miss.,vertical,0.9,"",FALSE,TRUE,winner,AP,FALSE,"",340427,3270,3,unknown,Polls close at 8 p.m. Eastern time.,Polls close in,Polls have closed.,2020-11-04T01:00:00.000Z,8 p.m.,514,514,100% reporting,100%,95,357000,edison,95%,95% reported,edison,republican,FALSE,2020-11-20T14:21:28Z,TRUE,29.5708,100667,R+30,Guest +30,republican,"","",7,0,1604459372270
28157,Wilkinson,3863,0,9,9,None,100,3863,>98%,>98% reported,edison,10,none,326,1347,2516,0,0,2020-11-17T17:14:04Z,30.26145,D+30,Benford +30,democrat,MS-G-H-3-2020-11-03,ms-house-general-district-003-2020-11-03,https://www.nytimes.com/interactive/2020/11/03/us/elections/results-mississippi-house-district-3.html,https://www.nytimes.com/interactive/2020/11/03/us/elections/results-mississippi.html,https://www.nytimes.com/interactive/2020/11/03/us/elections/ap-polls-mississippi.html,house,general,2020-11-03,FALSE,U.S. House District 3,U.S. House,H,solid-rep,3,District 3,MS,mississippi,Mississippi,Miss.,vertical,0.9,"",FALSE,TRUE,winner,AP,FALSE,"",340427,3270,3,unknown,Polls close at 8 p.m. Eastern time.,Polls close in,Polls have closed.,2020-11-04T01:00:00.000Z,8 p.m.,514,514,100% reporting,100%,95,357000,edison,95%,95% reported,edison,republican,FALSE,2020-11-20T14:21:28Z,TRUE,29.5708,100667,R+30,Guest +30,republican,"","",7,0,1604459372270
