fips,name,votes,absentee_votes,reporting,precincts,absentee_method,eevp,tot_exp_vote,eevp_value,eevp_display,eevp_source,turnout_stage,absentee_count_progress,results_jayapalp,results_kellerc,results_absentee_jayapalp,results_absentee_kellerc,last_updated,leader_margin_value,leader_margin_display,leader_margin_name_display,leader_party_id,race_id_race,race_slug_race,url_race,state_page_url_race,ap_polls_page_race,edison_exit_polls_page_race,race_type_race,election_type_race,election_date_race,runoff_race,race_name_race,office_race,officeid_race,race_rating_race,seat_race,seat_name_race,state_id_race,state_slug_race,state_name_race,state_nyt_abbrev_race,state_shape_race,party_id_race,uncontested_race,report_race,result_race,result_source_race,gain_race,lost_seat_race,votes_race,absentee_votes_race,absentee_count_progress_race,poll_display_race,poll_countdown_display_race,poll_waiting_display_race,poll_time_race,poll_time_short_race,precincts_reporting_race,precincts_total_race,reporting_display_race,reporting_value_race,eevp_race,tot_exp_vote_race,eevp_source_race,eevp_value_race,eevp_display_race,county_data_source_race,incumbent_party_race,no_forecast_race,last_updated_race,has_incumbent_race,leader_margin_value_race,leader_margin_votes_race,leader_margin_display_race,leader_margin_name_display_race,leader_party_id_race,expectations_text_race,expectations_text_short_race,absentee_ballot_deadline_race,absentee_postmark_deadline_race,winner_called_timestamp_race
53033,King,433739,0,1006,1027,None,98,442433,98%,98% reported,edison,4,all,365867,67872,0,0,2020-11-21T23:40:50Z,68.70376,D+69,Jayapal +69,democrat,WA-G-H-7-2020-11-03,wa-house-general-district-007-2020-11-03,https://www.nytimes.com/interactive/2020/11/03/us/elections/results-washington-house-district-7.html,https://www.nytimes.com/interactive/2020/11/03/us/elections/results-washington.html,https://www.nytimes.com/interactive/2020/11/03/us/elections/ap-polls-washington.html,https://www.nytimes.com/interactive/2020/11/03/us/elections/exit-polls-washington.html,house,general,2020-11-03,FALSE,U.S. House District 7,U.S. House,H,solid-dem,7,District 7,WA,washington,Washington,Wash.,horizontal,"",FALSE,TRUE,winner,AP,FALSE,"",465043,0,unknown,Polls close at 11 p.m. Eastern time.,Polls close in,Polls have closed.,2020-11-04T04:00:00.000Z,11 p.m.,1068,1090,98% reporting,98%,98,474000,edison,98%,98% reported,edison,democrat,FALSE,2020-11-21T23:40:59Z,TRUE,66.38117,308701,D+66,Jayapal +66,democrat,Postmarked ballots have until Nov. 23 to arrive.,Postmarked ballots have until Nov. 23 to arrive.,20,0,1604465211617
53061,Snohomish,31304,0,62,63,None,100,31457,>98%,>98% reported,edison,4,all,21005,10299,0,0,2020-11-20T00:50:52Z,34.2001,D+34,Jayapal +34,democrat,WA-G-H-7-2020-11-03,wa-house-general-district-007-2020-11-03,https://www.nytimes.com/interactive/2020/11/03/us/elections/results-washington-house-district-7.html,https://www.nytimes.com/interactive/2020/11/03/us/elections/results-washington.html,https://www.nytimes.com/interactive/2020/11/03/us/elections/ap-polls-washington.html,https://www.nytimes.com/interactive/2020/11/03/us/elections/exit-polls-washington.html,house,general,2020-11-03,FALSE,U.S. House District 7,U.S. House,H,solid-dem,7,District 7,WA,washington,Washington,Wash.,horizontal,"",FALSE,TRUE,winner,AP,FALSE,"",465043,0,unknown,Polls close at 11 p.m. Eastern time.,Polls close in,Polls have closed.,2020-11-04T04:00:00.000Z,11 p.m.,1068,1090,98% reporting,98%,98,474000,edison,98%,98% reported,edison,democrat,FALSE,2020-11-21T23:40:59Z,TRUE,66.38117,308701,D+66,Jayapal +66,democrat,Postmarked ballots have until Nov. 23 to arrive.,Postmarked ballots have until Nov. 23 to arrive.,20,0,1604465211617
