fips,name,votes,absentee_votes,reporting,precincts,absentee_method,eevp,tot_exp_vote,eevp_value,eevp_display,eevp_source,turnout_stage,absentee_count_progress,results_larsenr,results_hazelot,results_absentee_larsenr,results_absentee_hazelot,last_updated,leader_margin_value,leader_margin_display,leader_margin_name_display,leader_party_id,race_id_race,race_slug_race,url_race,state_page_url_race,ap_polls_page_race,edison_exit_polls_page_race,race_type_race,election_type_race,election_date_race,runoff_race,race_name_race,office_race,officeid_race,race_rating_race,seat_race,seat_name_race,state_id_race,state_slug_race,state_name_race,state_nyt_abbrev_race,state_shape_race,party_id_race,uncontested_race,report_race,result_race,result_source_race,gain_race,lost_seat_race,votes_race,absentee_votes_race,absentee_count_progress_race,poll_display_race,poll_countdown_display_race,poll_waiting_display_race,poll_time_race,poll_time_short_race,precincts_reporting_race,precincts_total_race,reporting_display_race,reporting_value_race,eevp_race,tot_exp_vote_race,eevp_source_race,eevp_value_race,eevp_display_race,county_data_source_race,incumbent_party_race,no_forecast_race,last_updated_race,has_incumbent_race,leader_margin_value_race,leader_margin_votes_race,leader_margin_display_race,leader_margin_name_display_race,leader_party_id_race,expectations_text_race,expectations_text_short_race,absentee_ballot_deadline_race,absentee_postmark_deadline_race,winner_called_timestamp_race
53029,Island,52393,0,48,48,None,100,49736,>98%,>98% reported,edison,2,unknown,29091,23302,0,0,2020-11-16T19:05:49Z,11.04919,D+11,Larsen +11,democrat,WA-G-H-2-2020-11-03,wa-house-general-district-002-2020-11-03,https://www.nytimes.com/interactive/2020/11/03/us/elections/results-washington-house-district-2.html,https://www.nytimes.com/interactive/2020/11/03/us/elections/results-washington.html,https://www.nytimes.com/interactive/2020/11/03/us/elections/ap-polls-washington.html,https://www.nytimes.com/interactive/2020/11/03/us/elections/exit-polls-washington.html,house,general,2020-11-03,FALSE,U.S. House District 2,U.S. House,H,solid-dem,2,District 2,WA,washington,Washington,Wash.,horizontal,"",FALSE,TRUE,winner,AP,FALSE,"",402902,0,unknown,Polls close at 11 p.m. Eastern time.,Polls close in,Polls have closed.,2020-11-04T04:00:00.000Z,11 p.m.,653,653,100% reporting,100%,100,379000,edison,>98%,>98% reported,edison,democrat,FALSE,2020-11-21T00:30:49Z,TRUE,26.49974,106768,D+26,Larsen +26,democrat,Postmarked ballots have until Nov. 23 to arrive.,Postmarked ballots have until Nov. 23 to arrive.,20,0,1604466573335
53055,San Juan,12637,0,19,19,None,100,12498,>98%,>98% reported,edison,4,some,9482,3155,0,0,2020-11-16T15:48:15Z,50.06726,D+50,Larsen +50,democrat,WA-G-H-2-2020-11-03,wa-house-general-district-002-2020-11-03,https://www.nytimes.com/interactive/2020/11/03/us/elections/results-washington-house-district-2.html,https://www.nytimes.com/interactive/2020/11/03/us/elections/results-washington.html,https://www.nytimes.com/interactive/2020/11/03/us/elections/ap-polls-washington.html,https://www.nytimes.com/interactive/2020/11/03/us/elections/exit-polls-washington.html,house,general,2020-11-03,FALSE,U.S. House District 2,U.S. House,H,solid-dem,2,District 2,WA,washington,Washington,Wash.,horizontal,"",FALSE,TRUE,winner,AP,FALSE,"",402902,0,unknown,Polls close at 11 p.m. Eastern time.,Polls close in,Polls have closed.,2020-11-04T04:00:00.000Z,11 p.m.,653,653,100% reporting,100%,100,379000,edison,>98%,>98% reported,edison,democrat,FALSE,2020-11-21T00:30:49Z,TRUE,26.49974,106768,D+26,Larsen +26,democrat,Postmarked ballots have until Nov. 23 to arrive.,Postmarked ballots have until Nov. 23 to arrive.,20,0,1604466573335
53057,Skagit,43488,0,75,75,None,100,40344,>98%,>98% reported,edison,4,some,23915,19573,0,0,2020-11-21T00:30:47Z,9.98436,D+10,Larsen +10,democrat,WA-G-H-2-2020-11-03,wa-house-general-district-002-2020-11-03,https://www.nytimes.com/interactive/2020/11/03/us/elections/results-washington-house-district-2.html,https://www.nytimes.com/interactive/2020/11/03/us/elections/results-washington.html,https://www.nytimes.com/interactive/2020/11/03/us/elections/ap-polls-washington.html,https://www.nytimes.com/interactive/2020/11/03/us/elections/exit-polls-washington.html,house,general,2020-11-03,FALSE,U.S. House District 2,U.S. House,H,solid-dem,2,District 2,WA,washington,Washington,Wash.,horizontal,"",FALSE,TRUE,winner,AP,FALSE,"",402902,0,unknown,Polls close at 11 p.m. Eastern time.,Polls close in,Polls have closed.,2020-11-04T04:00:00.000Z,11 p.m.,653,653,100% reporting,100%,100,379000,edison,>98%,>98% reported,edison,democrat,FALSE,2020-11-21T00:30:49Z,TRUE,26.49974,106768,D+26,Larsen +26,democrat,Postmarked ballots have until Nov. 23 to arrive.,Postmarked ballots have until Nov. 23 to arrive.,20,0,1604466573335
53061,Snohomish,229148,0,421,421,None,100,213169,>98%,>98% reported,edison,4,all,141372,87776,0,0,2020-11-20T00:50:52Z,23.38925,D+23,Larsen +23,democrat,WA-G-H-2-2020-11-03,wa-house-general-district-002-2020-11-03,https://www.nytimes.com/interactive/2020/11/03/us/elections/results-washington-house-district-2.html,https://www.nytimes.com/interactive/2020/11/03/us/elections/results-washington.html,https://www.nytimes.com/interactive/2020/11/03/us/elections/ap-polls-washington.html,https://www.nytimes.com/interactive/2020/11/03/us/elections/exit-polls-washington.html,house,general,2020-11-03,FALSE,U.S. House District 2,U.S. House,H,solid-dem,2,District 2,WA,washington,Washington,Wash.,horizontal,"",FALSE,TRUE,winner,AP,FALSE,"",402902,0,unknown,Polls close at 11 p.m. Eastern time.,Polls close in,Polls have closed.,2020-11-04T04:00:00.000Z,11 p.m.,653,653,100% reporting,100%,100,379000,edison,>98%,>98% reported,edison,democrat,FALSE,2020-11-21T00:30:49Z,TRUE,26.49974,106768,D+26,Larsen +26,democrat,Postmarked ballots have until Nov. 23 to arrive.,Postmarked ballots have until Nov. 23 to arrive.,20,0,1604466573335
53073,Whatcom,65236,0,90,90,None,100,62950,>98%,>98% reported,edison,4,some,50975,14261,0,0,2020-11-17T00:01:47Z,56.27874,D+56,Larsen +56,democrat,WA-G-H-2-2020-11-03,wa-house-general-district-002-2020-11-03,https://www.nytimes.com/interactive/2020/11/03/us/elections/results-washington-house-district-2.html,https://www.nytimes.com/interactive/2020/11/03/us/elections/results-washington.html,https://www.nytimes.com/interactive/2020/11/03/us/elections/ap-polls-washington.html,https://www.nytimes.com/interactive/2020/11/03/us/elections/exit-polls-washington.html,house,general,2020-11-03,FALSE,U.S. House District 2,U.S. House,H,solid-dem,2,District 2,WA,washington,Washington,Wash.,horizontal,"",FALSE,TRUE,winner,AP,FALSE,"",402902,0,unknown,Polls close at 11 p.m. Eastern time.,Polls close in,Polls have closed.,2020-11-04T04:00:00.000Z,11 p.m.,653,653,100% reporting,100%,100,379000,edison,>98%,>98% reported,edison,democrat,FALSE,2020-11-21T00:30:49Z,TRUE,26.49974,106768,D+26,Larsen +26,democrat,Postmarked ballots have until Nov. 23 to arrive.,Postmarked ballots have until Nov. 23 to arrive.,20,0,1604466573335
