fips,name,votes,absentee_votes,reporting,precincts,absentee_method,eevp,tot_exp_vote,eevp_value,eevp_display,eevp_source,turnout_stage,absentee_count_progress,absentee_outstanding,absentee_max_ballots,provisional_outstanding,provisional_count_progress,results_bidenj,results_trumpd,results_jorgensenj,results_hawkinsh,results_la_rivag,results_de_la_fuenter,results_write_ins,results_absentee_bidenj,results_absentee_trumpd,results_absentee_jorgensenj,results_absentee_hawkinsh,results_absentee_la_rivag,results_absentee_de_la_fuenter,results_absentee_write_ins,last_updated,leader_margin_value,leader_margin_display,leader_margin_name_display,leader_party_id,margin2020,votes2016,margin2016,votes2012,margin2012,state,retrieved_time
06001,Alameda,767961,292999,521,521,"Released as first report, then NOT included in cumulative results",100,745863,>98%,>98% reported,edison,2,some,,533518,,,616180,135925,6276,4655,2531,2394,0,250884,37712,1745,1383,704,571,0,2020-11-16T15:48:35Z,62.53638,D+63,Biden +63,democrat,-62.53638,659543,-63.5,595642,-60.69,california,2020-11-20T00:42:48.671019Z
06003,Alpine,736,736,0,5,Other,100,738,>98%,>98% reported,edison,4,unknown,,1050,,,473,238,14,4,2,0,5,473,238,14,4,2,0,5,2020-11-16T15:47:36Z,31.92935,D+32,Biden +32,democrat,-31.92935,602,-19.4,653,-23.43,california,2020-11-20T00:42:48.671019Z
06005,Amador,22302,17773,30,30,Released as a separate subtotal as first report of the night,100,20217,>98%,>98% reported,edison,4,none,,17509,,,8153,13585,349,110,41,64,,7294,10068,248,84,29,50,,2020-11-19T20:40:47Z,24.35656,R+24,Trump +24,republican,24.35656,17963,24.9,17649,19.55,california,2020-11-20T00:42:48.671019Z
06007,Butte,99780,0,144,157,Released as a separate subtotal as first report of the night,92,108943,92%,92% reported,edison,2,unknown,,90845,,,49402,47568,1728,495,275,312,,0,0,0,0,0,0,,2020-11-16T15:47:41Z,1.83804,D+1.8,Biden +1.8,democrat,-1.83804,97002,3.7,90752,1.99,california,2020-11-20T00:42:48.671019Z
06009,Calaveras,26717,18851,29,29,Merged into voters' home precincts and released with cumulative results,100,26375,>98%,>98% reported,edison,4,some,,23685,,,9845,16287,352,120,44,69,,8168,10318,208,82,28,47,,2020-11-16T15:47:41Z,24.11199,R+24,Trump +24,republican,24.11199,23531,23.7,21786,16.96,california,2020-11-20T00:42:48.671019Z
06011,Colusa,7919,0,18,18,None,100,4235,>98%,>98% reported,edison,4,all,,5440,,,3218,4539,81,25,27,29,,0,0,0,0,0,0,,2020-11-19T02:40:43Z,16.6814,R+17,Trump +17,republican,16.6814,6697,13.3,6034,21.33,california,2020-11-20T00:42:48.671019Z
06013,Contra Costa,567882,313531,957,957,Released as a separate subtotal as first report of the night,100,531440,>98%,>98% reported,edison,4,all,,393525,,,407639,148623,5970,2551,1231,1868,,244659,63738,2639,1137,556,802,,2020-11-16T15:47:42Z,45.61088,D+46,Biden +46,democrat,-45.61088,473014,-43,438226,-35.21,california,2020-11-20T00:42:48.671019Z
06015,Del Norte,11403,0,18,18,Released as a separate subtotal as first report of the night,100,10896,>98%,>98% reported,edison,2,unknown,,8414,,,4656,6434,149,78,33,53,,0,0,0,0,0,0,,2020-11-16T15:47:42Z,15.59239,R+16,Trump +16,republican,15.59239,9558,17.3,8770,9.38,california,2020-11-20T00:42:48.671019Z
06017,El Dorado,116101,82522,202,202,Released as a separate subtotal as first report of the night,100,106694,>98%,>98% reported,edison,4,unknown,,102390,,,51606,61820,1869,458,108,240,,41456,39485,1075,296,68,142,,2020-11-19T02:40:43Z,8.79751,R+9,Trump +9,republican,8.79751,95149,13.5,88774,17.81,california,2020-11-20T00:42:48.671019Z
06019,Fresno,363271,231308,384,384,Merged into voters' home precincts and released with cumulative results,100,321844,>98%,>98% reported,edison,4,all,,227374,,,192118,163880,4012,1463,662,1136,,130464,96873,2133,903,375,560,,2020-11-18T23:40:40Z,7.77326,D+8,Biden +8,democrat,-7.77326,287062,-6,258827,-1.79,california,2020-11-20T00:42:48.671019Z
06021,Glenn,11170,5134,74,74,Released as a separate subtotal as first report of the night,100,10796,>98%,>98% reported,edison,4,unknown,,11067,,,3939,7000,126,34,33,38,,1963,3069,52,14,18,18,,2020-11-18T23:40:40Z,27.40376,R+27,Trump +27,republican,27.40376,9470,28.8,9211,25.31,california,2020-11-20T00:42:48.671019Z
06023,Humboldt,56448,37861,55,66,Released as a separate subtotal as first report of the night,84,67540,84%,84% reported,edison,2,some,,48283,,,37367,17474,774,443,211,179,,26616,10319,428,257,134,107,,2020-11-16T15:47:44Z,35.24128,D+35,Biden +35,democrat,-35.24128,60014,-24.7,57470,-27.2,california,2020-11-20T00:42:48.671019Z
06025,Imperial,50868,27661,218,218,Released separately AFTER election night,93,54824,93%,93% reported,edison,4,some,,31600,,,31612,18201,340,219,244,252,,18837,8298,161,99,130,136,,2020-11-19T02:40:43Z,26.36432,D+26,Biden +26,democrat,-26.36432,48091,-41.5,38565,-32.05,california,2020-11-20T00:42:48.671019Z
06027,Inyo,9460,5305,21,21,Merged into voters' home precincts and released with cumulative results,100,9218,>98%,>98% reported,edison,4,all,,8286,,,4623,4611,128,45,22,31,,3091,2097,67,26,7,17,,2020-11-16T15:47:45Z,0.12685,D+0.13,Biden +0.13,democrat,-0.12685,8179,13.4,8036,11.42,california,2020-11-20T00:42:48.671019Z
06029,Kern,284587,126942,694,694,Released as a separate subtotal as first report of the night,100,278346,>98%,>98% reported,edison,4,unknown,,202125,,,124973,152778,3698,1021,982,1135,,66392,57804,1418,465,429,434,,2020-11-18T05:40:48Z,9.7703,R+10,Trump +10,republican,9.7703,244163,12.7,221472,16.76,california,2020-11-20T00:42:48.671019Z
06031,Kings,41933,32998,96,96,Released as a separate subtotal as first report of the night,100,38663,>98%,>98% reported,edison,4,unknown,,38870,,,17729,23169,575,120,165,175,,14079,18218,390,77,120,114,,2020-11-16T15:47:47Z,12.97308,R+13,Trump +13,republican,12.97308,34310,13,31418,14.93,california,2020-11-20T00:42:48.671019Z
06033,Lake,11038,0,28,70,Released as a separate subtotal as first report of the night,40,27936,40%,40% reported,edison,2,unknown,,23517,,,6874,3955,94,71,18,26,,0,0,0,0,0,0,,2020-11-16T15:47:47Z,26.44501,D+26,Biden +26,democrat,-26.44501,24684,-3.6,23391,-16.94,california,2020-11-20T00:42:48.671019Z
06035,Lassen,11800,0,56,57,Released as a separate subtotal as first report of the night,97,12138,97%,97% reported,edison,2,unknown,,12965,,,2775,8814,139,31,16,25,,0,0,0,0,0,0,,2020-11-19T23:40:48Z,51.17797,R+51,Trump +51,republican,51.17797,10699,50,10683,39.72,california,2020-11-20T00:42:48.671019Z
06037,Los Angeles,4222318,2857809,3383,3383,Released as a separate subtotal as first report of the night,100,3915111,>98%,>98% reported,edison,4,all,,1561325,,,3001862,1132647,35080,21400,15663,15666,,2090279,720484,19435,12001,8012,7598,,2020-11-17T22:30:57Z,44.26988,D+44,Biden +44,democrat,-44.26988,3434308,-49.3,3181067,-41.86,california,2020-11-20T00:42:48.671019Z
06039,Madera,53522,35718,72,72,Released as a separate subtotal as first report of the night,100,49148,>98%,>98% reported,edison,4,all,,39467,,,23086,29265,618,217,164,172,,16495,18520,372,131,86,114,,2020-11-18T20:40:40Z,11.54479,R+12,Trump +12,republican,11.54479,43507,14.5,39866,17.14,california,2020-11-20T00:42:48.671019Z
06041,Marin,155117,0,109,112,Other,98,158771,98%,98% reported,edison,2,unknown,,140974,,,127757,24489,1516,719,258,378,,0,0,0,0,0,0,,2020-11-19T02:40:42Z,66.57426,D+67,Biden +67,democrat,-66.57426,140683,-61.8,134516,-51.31,california,2020-11-20T00:42:48.671019Z
06043,Mariposa,10280,8259,25,25,Other,100,10229,>98%,>98% reported,edison,4,all,,8458,,,4088,5950,155,39,22,26,,3610,4480,109,28,13,19,,2020-11-16T15:47:52Z,18.11284,R+18,Trump +18,republican,18.11284,8877,23.2,9000,18.24,california,2020-11-20T00:42:48.671019Z
06045,Mendocino,25171,0,147,250,Released as a separate subtotal as first report of the night,59,42724,59%,59% reported,edison,2,unknown,,46454,,,18303,6312,248,179,90,39,,0,0,0,0,0,0,,2020-11-16T15:47:52Z,47.63816,D+48,Biden +48,democrat,-47.63816,37915,-29.5,35017,-38.65,california,2020-11-20T00:42:48.671019Z
06047,Merced,88533,0,268,268,Released as a separate subtotal as first report of the night,100,80699,>98%,>98% reported,edison,2,unknown,,52923,,,47861,38568,926,382,419,377,,0,0,0,0,0,0,,2020-11-16T15:47:52Z,10.49665,D+10,Biden +10,democrat,-10.49665,71127,-12.1,62057,-8.74,california,2020-11-20T00:42:48.671019Z
06049,Modoc,3805,0,19,22,Released as a separate subtotal as first report of the night,84,4539,84%,84% reported,edison,2,unknown,,4538,,,1063,2675,31,14,10,12,,0,0,0,0,0,0,,2020-11-16T15:47:53Z,42.36531,R+42,Trump +42,republican,42.36531,3843,47.3,3986,41.8,california,2020-11-20T00:42:48.671019Z
06051,Mono,6713,4958,12,12,Merged into voters' home precincts AFTER election night,100,6015,>98%,>98% reported,edison,4,unknown,,5003,,,3998,2504,126,42,18,25,,3215,1590,92,32,9,20,,2020-11-16T15:47:54Z,22.25533,D+22,Biden +22,democrat,-22.25533,5281,-12.5,5181,-8.65,california,2020-11-20T00:42:48.671019Z
06053,Monterey,163797,112564,188,188,Released as a separate subtotal as first report of the night,100,152085,>98%,>98% reported,edison,4,some,,140518,,,113893,46274,1819,749,496,566,,81854,28604,1063,453,274,316,,2020-11-18T02:40:42Z,41.2822,D+41,Biden +41,democrat,-41.2822,133408,-40.6,123518,-36.86,california,2020-11-20T00:42:48.671019Z
06055,Napa,67847,42386,185,191,Other,97,69964,97%,97% reported,edison,4,all,,82274,,,46962,19388,844,292,144,217,,31270,10392,383,166,71,104,,2020-11-16T15:47:58Z,40.64144,D+41,Biden +41,democrat,-40.64144,61372,-35.5,56968,-28.69,california,2020-11-20T00:42:48.671019Z
06057,Nevada,63645,26010,111,111,Other,100,62626,>98%,>98% reported,edison,4,all,,61400,,,35773,26316,902,331,138,185,,16019,9588,211,87,52,53,,2020-11-18T02:40:42Z,14.85898,D+15,Biden +15,democrat,-14.85898,54935,-4.9,51676,0.63,california,2020-11-20T00:42:48.671019Z
06059,Orange,1520369,1086838,1795,1795,Released as a separate subtotal as first report of the night,100,1365174,>98%,>98% reported,edison,4,all,,929898,,,813255,675924,17308,5813,3430,4639,,643287,422926,11619,3986,2116,2904,,2020-11-19T17:50:51Z,9.03274,D+9,Biden +9,democrat,-9.03274,1197521,-8.6,1122664,6.23,california,2020-11-20T00:42:48.671019Z
06061,Placer,225909,0,127,127,Released as a separate subtotal as first report of the night,100,208436,>98%,>98% reported,edison,4,all,,184938,,,103108,117426,3752,743,321,559,,0,0,0,0,0,0,,2020-11-18T02:40:41Z,6.33795,R+6,Trump +6,republican,6.33795,186024,11.6,171322,19.32,california,2020-11-20T00:42:48.671019Z
06063,Plumas,10950,0,29,29,Other,96,11409,96%,96% reported,edison,4,unknown,,11534,,,4465,6247,142,38,25,30,3,0,0,0,0,0,0,0,2020-11-16T15:48:00Z,16.27397,R+16,Trump +16,republican,16.27397,9850,19.9,10047,16.87,california,2020-11-20T00:42:48.671019Z
06065,Riverside,971891,391521,864,864,Released as a separate subtotal as first report of the night,100,856586,>98%,>98% reported,edison,4,unknown,,594424,,,516026,436905,9737,3290,2678,3255,,222328,163191,3094,1068,834,1006,,2020-11-19T02:40:42Z,8.14093,D+8,Biden +8,democrat,-8.14093,751391,-5.4,661907,-1.65,california,2020-11-20T00:42:48.671019Z
06067,Sacramento,706201,0,677,677,Released as a separate subtotal as first report of the night,100,324230,>98%,>98% reported,edison,4,all,,489638,,,434512,253959,9620,3207,2345,2558,,0,0,0,0,0,0,,2020-11-17T23:40:47Z,25.5668,D+26,Biden +26,democrat,-25.5668,562285,-24.2,516809,-18.96,california,2020-11-20T00:42:48.671019Z
06069,San Benito,28317,21132,54,54,Released as a separate subtotal as first report of the night,100,24993,>98%,>98% reported,edison,4,unknown,,19926,,,17315,10412,337,89,81,83,,13404,7323,238,58,60,49,,2020-11-16T15:48:02Z,24.37758,D+24,Biden +24,democrat,-24.37758,22122,-21.2,19044,-20.65,california,2020-11-20T00:42:48.671019Z
06071,San Bernardino,816439,342615,2327,2327,Released as a separate subtotal as first report of the night,100,745541,>98%,>98% reported,edison,2,some,,453259,,,442718,355576,8518,3489,2918,3220,,218798,117385,2992,1329,1033,1078,,2020-11-19T02:40:41Z,10.67342,D+11,Biden +11,democrat,-10.67342,653983,-10.6,581517,-7.35,california,2020-11-20T00:42:48.671019Z
06073,San Diego,1599693,1399950,1414,1414,Released as a separate subtotal as first report of the night,100,1489296,>98%,>98% reported,edison,2,some,,1080011,,,963516,599264,21348,7408,2861,5296,,881463,486575,18490,6566,2409,4447,,2020-11-19T02:40:41Z,22.77012,D+23,Biden +23,democrat,-22.77012,1311618,-19.6,1192282,-7.57,california,2020-11-20T00:42:48.671019Z
06075,San Francisco,442969,318178,583,609,Released as a separate subtotal as first report of the night,96,462603,96%,96% reported,edison,4,all,,309114,,,377772,56329,3293,2780,1537,1258,,278413,34477,1911,1721,974,682,,2020-11-18T02:40:40Z,72.56557,D+73,Biden +73,democrat,-72.56557,408541,-75.2,361209,-70.5,california,2020-11-20T00:42:48.671019Z
06077,San Joaquin,271747,0,207,207,None,100,255549,>98%,>98% reported,edison,2,unknown,,212698,,,152236,113758,2756,1008,872,1117,,0,0,0,0,0,0,,2020-11-19T05:40:46Z,14.15949,D+14,Biden +14,democrat,-14.15949,227002,-14.2,204697,-13.7,california,2020-11-20T00:42:48.671019Z
06079,San Luis Obispo,156562,111693,112,112,Released as a separate subtotal as first report of the night,100,116049,>98%,>98% reported,edison,4,all,,128384,,,86829,65907,2352,769,268,437,,67651,41853,1290,477,152,270,,2020-11-16T15:48:06Z,13.3634,D+13,Biden +13,democrat,-13.3634,137202,-8,125638,-1.03,california,2020-11-20T00:42:48.671019Z
06081,San Mateo,373374,227577,403,403,Released as a separate subtotal as first report of the night,100,358398,>98%,>98% reported,edison,4,all,,271008,,,290901,75404,3540,1595,794,1140,,187578,36584,1715,806,378,516,,2020-11-19T02:40:41Z,57.71612,D+58,Biden +58,democrat,-57.71612,314384,-57.2,285720,-46.66,california,2020-11-20T00:42:48.671019Z
06083,Santa Barbara,194378,0,218,226,Released as a separate subtotal as first report of the night,96,201536,96%,96% reported,edison,4,unknown,,155496,,,126419,63583,2317,889,489,681,,0,0,0,0,0,0,,2020-11-16T15:48:09Z,32.3267,D+32,Biden +32,democrat,-32.3267,178878,-28.4,163320,-18.08,california,2020-11-20T00:42:48.671019Z
06085,Santa Clara,848958,0,596,596,Released as a separate subtotal as first report of the night,100,802228,>98%,>98% reported,edison,4,some,,732616,,,616897,214161,9107,4036,2142,2615,,0,0,0,0,0,0,,2020-11-19T02:40:40Z,47.43886,D+47,Biden +47,democrat,-47.43886,703709,-52.1,643091,-42.91,california,2020-11-20T00:42:48.671019Z
06087,Santa Cruz,143757,0,164,168,Released as a separate subtotal as first report of the night,98,146856,98%,98% reported,edison,4,some,,102995,,,113487,26688,1688,1055,410,429,,0,0,0,0,0,0,,2020-11-16T23:35:43Z,60.37897,D+60,Biden +60,democrat,-60.37897,130012,-56,120095,-55.59,california,2020-11-20T00:42:48.671019Z
06089,Shasta,90225,0,96,97,Released as a separate subtotal as first report of the night,99,91260,>98%,>98% reported,edison,2,unknown,,77694,,,29312,58886,1222,360,181,264,,0,0,0,0,0,0,,2020-11-16T15:48:10Z,32.77805,R+33,Trump +33,republican,32.77805,81024,36.4,76335,29.15,california,2020-11-20T00:42:48.671019Z
06091,Sierra,1930,0,21,23,Other,93,2086,93%,93% reported,edison,2,unknown,,2915,,,730,1142,27,13,6,12,,0,0,0,0,0,0,,2020-11-16T15:48:11Z,21.34715,R+21,Trump +21,republican,21.34715,1858,24.1,1795,22.45,california,2020-11-20T00:42:48.671019Z
06093,Siskiyou,23446,0,64,64,Released as a separate subtotal as first report of the night,100,23361,>98%,>98% reported,edison,2,unknown,,21928,,,9591,13288,318,116,54,79,,0,0,0,0,0,0,,2020-11-17T23:40:47Z,15.76815,R+16,Trump +16,republican,15.76815,20493,20,19910,15.22,california,2020-11-20T00:42:48.671019Z
06095,Solano,205667,0,348,348,Released as a separate subtotal as first report of the night,100,189369,>98%,>98% reported,edison,2,unknown,,140931,,,131538,69247,2475,958,626,823,,0,0,0,0,0,0,,2020-11-19T02:40:40Z,30.28731,D+30,Biden +30,democrat,-30.28731,168150,-30,152444,-29.32,california,2020-11-20T00:42:48.671019Z
06097,Sonoma,263691,0,668,668,Released as a separate subtotal as first report of the night,100,263628,>98%,>98% reported,edison,4,all,,248885,,,197010,60355,3348,1461,714,803,,0,0,0,0,0,0,,2020-11-16T15:48:12Z,51.82392,D+52,Biden +52,democrat,-51.82392,233303,-46.7,216508,-45.8,california,2020-11-20T00:42:48.671019Z
06099,Stanislaus,211701,137525,192,192,Released as a precinct as first report of the night,100,196246,>98%,>98% reported,edison,4,some,,171363,,,104323,102568,2457,733,710,910,,72651,62194,1341,440,392,507,,2020-11-18T02:40:40Z,0.829,D+0.83,Biden +0.83,democrat,-0.829,174406,-1.8,155369,-2.75,california,2020-11-20T00:42:48.671019Z
06101,Sutter,42634,0,45,45,"Released as first report, then NOT included in cumulative results",100,38216,>98%,>98% reported,edison,4,all,,34061,,,17364,24372,521,136,115,126,,0,0,0,0,0,0,,2020-11-18T23:40:41Z,16.43759,R+16,Trump +16,republican,16.43759,33824,15.1,31026,19.11,california,2020-11-20T00:42:48.671019Z
06103,Tehama,28319,0,46,46,Released as a separate subtotal as first report of the night,100,27255,>98%,>98% reported,edison,2,unknown,,24366,,,8802,18865,396,88,64,104,,0,0,0,0,0,0,,2020-11-19T02:40:44Z,35.53445,R+36,Trump +36,republican,35.53445,23908,36.3,22977,27.42,california,2020-11-20T00:42:48.671019Z
06105,Trinity,6252,5048,24,25,None,96,6482,96%,96% reported,edison,4,unknown,,6488,,,2848,3185,117,50,25,27,,2383,2513,86,30,13,23,,2020-11-16T23:35:43Z,5.39028,R+5,Trump +5,republican,5.39028,5784,10.3,5674,0.74,california,2020-11-20T00:42:48.671019Z
06107,Tulare,144448,81532,271,271,Released as a separate subtotal as first report of the night,100,128061,>98%,>98% reported,edison,4,unknown,,98048,,,65056,76315,1474,464,527,612,0,39863,40156,676,264,268,305,0,2020-11-16T15:48:16Z,7.7945,R+8,Trump +8,republican,7.7945,114102,9.4,101100,15.04,california,2020-11-20T00:42:48.671019Z
06109,Tuolumne,29820,0,73,73,Other,100,29103,>98%,>98% reported,edison,2,unknown,,30744,,,11808,17302,426,139,58,87,,0,0,0,0,0,0,,2020-11-16T15:48:16Z,18.42388,R+18,Trump +18,republican,18.42388,25893,21,24687,15.72,california,2020-11-20T00:42:48.671019Z
06111,Ventura,421079,0,695,695,Released as a separate subtotal as first report of the night,100,400968,>98%,>98% reported,edison,2,some,,263890,,,250535,161510,5038,1756,974,1266,,0,0,0,0,0,0,,2020-11-17T23:40:48Z,21.14211,D+21,Biden +21,democrat,-21.14211,356107,-17.4,326974,-7.03,california,2020-11-20T00:42:48.671019Z
06113,Yolo,75023,0,46,58,Released as a separate subtotal as first report of the night,80,93583,80%,80% reported,edison,4,some,,66098,,,53621,19825,790,363,220,204,,0,0,0,0,0,0,,2020-11-16T15:48:17Z,45.04752,D+45,Biden +45,democrat,-45.04752,82090,-41.4,74475,-34.03,california,2020-11-20T00:42:48.671019Z
06115,Yuba,27329,15496,34,34,None,100,26218,>98%,>98% reported,edison,4,unknown,,18752,,,10343,16210,446,115,82,133,,7157,7960,199,71,40,69,,2020-11-16T15:48:18Z,21.46804,R+21,Trump +21,republican,21.46804,22998,22.9,19700,18.09,california,2020-11-20T00:42:48.671019Z
