fips,name,votes,absentee_votes,reporting,precincts,absentee_method,eevp,tot_exp_vote,eevp_value,eevp_display,eevp_source,turnout_stage,absentee_count_progress,absentee_outstanding,absentee_max_ballots,provisional_outstanding,provisional_count_progress,results_trumpd,results_bidenj,results_jorgensenj,results_westk,results_pierceb,results_write_ins,results_absentee_trumpd,results_absentee_bidenj,results_absentee_jorgensenj,results_absentee_westk,results_absentee_pierceb,results_absentee_write_ins,last_updated,leader_margin_value,leader_margin_display,leader_margin_name_display,leader_party_id,margin2020,votes2016,margin2016,votes2012,margin2012,state,retrieved_time
21001,Adair,8766,0,14,16,Merged into voters' home precincts and released with cumulative results,98,8924,98%,98% reported,edison,4,all,,904,,,7275,1391,60,25,10,5,0,0,0,0,0,0,2020-11-16T15:48:21Z,67.12298,R+67,Trump +67,republican,67.12298,8233,64.5,7600,55.01,kentucky,2020-11-20T00:42:36.146877Z
21003,Allen,9363,6557,13,13,"As a subtotal in the FIRST cumulative report, along with regular precincts",100,8775,>98%,>98% reported,edison,4,unknown,,661,,,7586,1642,99,22,14,0,5135,1345,56,15,6,0,2020-11-16T15:48:21Z,63.48393,R+63,Trump +63,republican,63.48393,8096,63.2,7100,47.55,kentucky,2020-11-20T00:42:36.146877Z
21005,Anderson,13261,2508,13,14,Released as a precinct as first report of the night,100,13261,>98%,>98% reported,edison,6,unknown,,690,,,9651,3339,183,34,19,35,978,1463,45,6,4,12,2020-11-16T15:48:22Z,47.59822,R+48,Trump +48,republican,47.59822,11422,49.1,10320,33.98,kentucky,2020-11-20T00:42:36.146877Z
21007,Ballard,4225,0,11,13,Released as a separate subtotal as first report of the night,95,4445,95%,95% reported,edison,2,unknown,,208,,,3356,825,32,10,2,,0,0,0,0,0,,2020-11-16T15:48:23Z,59.90533,R+60,Trump +60,republican,59.90533,4101,57.2,3895,37.43,kentucky,2020-11-20T00:42:36.146877Z
21009,Barren,20079,16056,22,25,Merged into voters' home precincts and released with cumulative results,100,20039,>98%,>98% reported,edison,4,all,,1384,,,14646,5115,201,51,51,15,11420,4431,139,35,16,15,2020-11-16T15:48:23Z,47.4675,R+47,Trump +47,republican,47.4675,18488,49.8,16568,33.33,kentucky,2020-11-20T00:42:36.146877Z
21011,Bath,5627,0,12,12,Released as a precinct as first report of the night,100,4972,>98%,>98% reported,edison,2,unknown,,570,,,3986,1573,44,12,12,0,0,0,0,0,0,0,2020-11-16T15:48:24Z,42.88253,R+43,Trump +43,republican,42.88253,4587,37.5,4122,12.25,kentucky,2020-11-20T00:42:36.146877Z
21013,Bell,10044,0,26,30,Merged into voters' home precincts and released with cumulative results,100,10042,>98%,>98% reported,edison,6,all,,963,,,8140,1789,78,30,7,,0,0,0,0,0,,2020-11-16T15:48:25Z,63.23178,R+63,Trump +63,republican,63.23178,9718,62.2,9482,51.71,kentucky,2020-11-20T00:42:36.146877Z
21015,Boone,66953,39444,61,63,"As a precinct in the FIRST cumulative report, along with regular precincts",100,39444,>98%,>98% reported,edison,6,all,,5563,,,44811,20897,981,171,93,,24136,14760,412,83,53,,2020-11-16T15:48:25Z,35.71759,R+36,Trump +36,republican,35.71759,57618,41.8,52511,38.65,kentucky,2020-11-20T00:42:36.146877Z
21017,Bourbon,9643,0,14,16,Merged into voters' home precincts and released with cumulative results,100,9590,>98%,>98% reported,edison,4,some,,674,,,6190,3296,106,31,20,,0,0,0,0,0,,2020-11-16T15:48:26Z,30.01141,R+30,Trump +30,republican,30.01141,8803,31.6,7923,20.41,kentucky,2020-11-20T00:42:36.146877Z
21019,Boyd,21741,0,42,48,Merged into voters' home precincts and released with cumulative results,98,22281,98%,98% reported,edison,4,all,,1979,,,14295,7083,287,55,21,,0,0,0,0,0,,2020-11-16T15:48:26Z,33.17235,R+33,Trump +33,republican,33.17235,20454,37,19049,16.32,kentucky,2020-11-20T00:42:36.146877Z
21021,Boyle,14467,10585,23,25,Merged into voters' home precincts and released with cumulative results,100,14103,>98%,>98% reported,edison,4,some,,1078,,,8872,5298,210,63,24,,6185,4228,122,34,16,,2020-11-16T15:48:26Z,24.7045,R+25,Trump +25,republican,24.7045,12946,29,12373,26.12,kentucky,2020-11-20T00:42:36.146877Z
21023,Bracken,4244,1976,8,8,"As a precinct in the FIRST cumulative report, along with regular precincts",100,4244,>98%,>98% reported,edison,6,some,,493,,,3397,799,27,11,8,2,1423,533,11,4,5,0,2020-11-16T15:48:27Z,61.21583,R+61,Trump +61,republican,61.21583,3527,56.9,3232,27.29,kentucky,2020-11-20T00:42:36.146877Z
21025,Breathitt,5667,1451,17,21,Released as a separate subtotal as first report of the night,100,5667,>98%,>98% reported,edison,6,some,,454,,,4265,1301,52,31,12,6,713,688,29,15,3,3,2020-11-16T15:48:27Z,52.30281,R+52,Trump +52,republican,52.30281,5738,42.8,5008,35.06,kentucky,2020-11-20T00:42:36.146877Z
21027,Breckinridge,10197,7209,15,16,None,100,9511,>98%,>98% reported,edison,4,unknown,,874,,,7701,2350,103,24,19,,5148,1977,53,16,15,,2020-11-16T15:48:28Z,52.47622,R+52,Trump +52,republican,52.47622,8774,51.6,7969,27.61,kentucky,2020-11-20T00:42:36.146877Z
21029,Bullitt,41964,0,45,47,Released as a precinct as first report of the night,100,39096,>98%,>98% reported,edison,2,unknown,,1784,,,30708,10551,563,87,55,,0,0,0,0,0,,2020-11-16T15:48:28Z,48.03403,R+48,Trump +48,republican,48.03403,36069,49.8,31779,35.67,kentucky,2020-11-20T00:42:36.146877Z
21031,Butler,6125,1017,11,12,Merged into voters' home precincts and released with cumulative results,100,6044,>98%,>98% reported,edison,4,unknown,,483,,,4960,1078,63,8,12,4,525,471,12,2,3,4,2020-11-16T15:48:28Z,63.37959,R+63,Trump +63,republican,63.37959,5576,62.4,5060,47.89,kentucky,2020-11-20T00:42:36.146877Z
21033,Caldwell,6436,0,12,13,None,99,6477,>98%,>98% reported,edison,4,all,,518,,,4905,1432,58,22,8,11,0,0,0,0,0,0,2020-11-16T15:48:29Z,53.96209,R+54,Trump +54,republican,53.96209,5975,54.3,5860,35.02,kentucky,2020-11-20T00:42:36.146877Z
21035,Calloway,17443,0,21,23,Merged into voters' home precincts and released with cumulative results,100,17462,>98%,>98% reported,edison,6,none,,1198,,,11351,5794,227,44,27,,0,0,0,0,0,,2020-11-16T15:48:29Z,31.85805,R+32,Trump +32,republican,31.85805,16049,35,15072,27.36,kentucky,2020-11-20T00:42:36.146877Z
21037,Campbell,48833,0,64,67,Released as a precinct as first report of the night,95,51437,95%,95% reported,edison,4,all,,3285,,,28482,19373,763,133,82,,0,0,0,0,0,,2020-11-16T15:48:29Z,18.65337,R+19,Trump +19,republican,18.65337,42510,24.4,40177,22.8,kentucky,2020-11-20T00:42:36.146877Z
21039,Carlisle,2638,0,5,6,Released as a precinct as first report of the night,94,2819,94%,94% reported,edison,2,unknown,,274,,,2159,463,15,1,0,,0,0,0,0,0,,2020-11-16T15:48:29Z,64.29113,R+64,Trump +64,republican,64.29113,2601,63.9,2619,41.43,kentucky,2020-11-20T00:42:36.146877Z
21041,Carroll,4135,1271,11,11,Merged into voters' home precincts and released with cumulative results,99,4179,>98%,>98% reported,edison,2,unknown,,261,,,2954,1116,44,13,8,0,501,754,10,4,2,0,2020-11-16T15:48:30Z,44.44982,R+44,Trump +44,republican,44.44982,3855,38.4,3680,10.05,kentucky,2020-11-20T00:42:36.146877Z
21043,Carter,11585,0,24,26,Released as a separate subtotal as first report of the night,100,11140,>98%,>98% reported,edison,4,all,,899,,,8775,2642,107,45,16,,0,0,0,0,0,,2020-11-16T15:47:42Z,52.93915,R+53,Trump +53,republican,52.93915,10278,51.7,8908,21.28,kentucky,2020-11-20T00:42:36.146877Z
21045,Casey,7180,0,14,15,Released as a precinct as first report of the night,98,7295,98%,98% reported,edison,6,some,,677,,,6179,918,53,12,9,9,0,0,0,0,0,0,2020-11-16T15:47:45Z,73.27298,R+73,Trump +73,republican,73.27298,6439,73.2,6091,62.68,kentucky,2020-11-20T00:42:36.146877Z
21047,Christian,23863,0,37,41,Released as a precinct as first report of the night,99,24055,>98%,>98% reported,edison,2,unknown,,1462,,,15080,8296,348,95,44,,0,0,0,0,0,,2020-11-16T15:47:46Z,28.42895,R+28,Trump +28,republican,28.42895,22083,31.3,21955,23.79,kentucky,2020-11-20T00:42:36.146877Z
21049,Clark,18128,0,26,26,Released as a precinct as first report of the night,100,17652,>98%,>98% reported,edison,2,unknown,,1064,,,11811,6004,226,53,34,0,0,0,0,0,0,0,2020-11-16T15:47:46Z,32.03332,R+32,Trump +32,republican,32.03332,16205,37.1,15416,30.51,kentucky,2020-11-20T00:42:36.146877Z
21051,Clay,7590,0,19,20,Merged into voters' home precincts and released with cumulative results,96,7898,96%,96% reported,edison,2,unknown,,659,,,6677,831,40,23,19,,0,0,0,0,0,,2020-11-16T15:47:47Z,77.0224,R+77,Trump +77,republican,77.0224,6767,75.5,7383,68.6,kentucky,2020-11-20T00:42:36.146877Z
21053,Clinton,4932,0,12,13,Other,100,4837,>98%,>98% reported,edison,2,unknown,,808,,,4280,603,30,10,9,0,0,0,0,0,0,0,2020-11-16T15:47:48Z,74.55393,R+75,Trump +75,republican,74.55393,4462,73.1,4393,64.12,kentucky,2020-11-20T00:42:36.146877Z
21055,Crittenden,4242,3458,10,12,Released as a precinct as first report of the night,100,4239,>98%,>98% reported,edison,6,all,,362,,,3451,731,47,7,6,,2780,642,27,4,5,,2020-11-16T15:47:49Z,64.1207,R+64,Trump +64,republican,64.1207,4037,66.2,3854,48.75,kentucky,2020-11-20T00:42:36.146877Z
21057,Cumberland,3309,0,9,10,Merged into voters' home precincts and released with cumulative results,100,3323,>98%,>98% reported,edison,4,unknown,,507,,,2769,508,21,7,4,,0,0,0,0,0,,2020-11-16T15:47:50Z,68.3288,R+68,Trump +68,republican,68.3288,3066,66.6,2854,56.66,kentucky,2020-11-20T00:42:36.146877Z
21059,Daviess,49240,0,51,57,Released as a separate subtotal as first report of the night,99,49898,>98%,>98% reported,edison,4,unknown,,3053,,,31023,17283,670,168,96,,0,0,0,0,0,,2020-11-16T15:47:50Z,27.90414,R+28,Trump +28,republican,27.90414,45807,32.2,42087,21.11,kentucky,2020-11-20T00:42:36.146877Z
21061,Edmonson,6131,0,8,8,Merged into voters' home precincts and released with cumulative results,100,5684,>98%,>98% reported,edison,4,unknown,,496,,,4828,1227,60,10,6,,0,0,0,0,0,,2020-11-16T15:47:51Z,58.7343,R+59,Trump +59,republican,58.7343,5244,60.2,4668,39.8,kentucky,2020-11-20T00:42:36.146877Z
21063,Elliott,2995,594,6,7,None,97,3095,97%,97% reported,edison,4,some,,344,,,2246,712,18,9,10,,272,313,3,3,3,,2020-11-16T15:47:52Z,51.2187,R+51,Trump +51,republican,51.2187,2855,44.1,2399,-2.5,kentucky,2020-11-20T00:42:36.146877Z
21065,Estill,6538,0,15,15,Merged into voters' home precincts and released with cumulative results,100,6010,>98%,>98% reported,edison,4,some,,485,,,5100,1355,64,16,3,,0,0,0,0,0,,2020-11-16T15:47:53Z,57.28051,R+57,Trump +57,republican,57.28051,5545,56.4,5184,46.16,kentucky,2020-11-20T00:42:36.146877Z
21067,Fayette,152664,83354,265,286,Released as a precinct as first report of the night,93,164941,93%,93% reported,edison,4,some,,8515,,,58845,90566,2382,562,309,,20622,61260,1089,217,166,,2020-11-16T15:47:54Z,20.77831,D+21,Biden +21,democrat,-20.77831,136315,-9.5,125866,-1.02,kentucky,2020-11-20T00:42:36.146877Z
21069,Fleming,7066,0,17,18,None,100,7002,>98%,>98% reported,edison,6,all,,496,,,5534,1474,37,16,5,,0,0,0,0,0,,2020-11-16T15:47:55Z,57.45825,R+57,Trump +57,republican,57.45825,6260,53.9,5782,32.32,kentucky,2020-11-20T00:42:36.146877Z
21071,Floyd,16381,3907,34,42,Released as a precinct as first report of the night,100,16381,>98%,>98% reported,edison,6,all,,981,,,12211,3855,108,148,37,22,1659,2168,38,21,10,11,2020-11-16T15:47:57Z,51.01032,R+51,Trump +51,republican,51.01032,16540,48.2,14890,33.92,kentucky,2020-11-20T00:42:36.146877Z
21073,Franklin,26059,0,40,44,Other,90,28877,90%,90% reported,edison,4,some,,1779,,,12900,12650,365,89,55,,0,0,0,0,0,,2020-11-16T15:47:57Z,0.95936,R+0.96,Trump +0.96,republican,0.95936,23865,4.6,23337,-0.81,kentucky,2020-11-20T00:42:36.146877Z
21075,Fulton,2421,383,9,11,Released as a separate subtotal as first report of the night,91,2653,91%,91% reported,edison,4,unknown,,237,,,1605,791,18,2,5,,158,222,3,0,0,,2020-11-16T15:47:58Z,33.62247,R+34,Trump +34,republican,33.62247,2382,32.5,2481,16.24,kentucky,2020-11-20T00:42:36.146877Z
21077,Gallatin,3849,0,8,8,Merged into voters' home precincts and released with cumulative results,100,3618,>98%,>98% reported,edison,4,all,,299,,,2955,822,58,3,11,,0,0,0,0,0,,2020-11-16T15:47:59Z,55.41699,R+55,Trump +55,republican,55.41699,3338,50.7,3061,16.99,kentucky,2020-11-20T00:42:36.146877Z
21079,Garrard,8703,0,13,14,Other,100,8304,>98%,>98% reported,edison,2,unknown,,571,,,6754,1830,86,25,8,,0,0,0,0,0,,2020-11-16T15:47:59Z,56.57819,R+57,Trump +57,republican,56.57819,7623,58.4,7077,51.56,kentucky,2020-11-20T00:42:36.146877Z
21081,Grant,11106,0,21,22,"As a precinct in the FIRST cumulative report, along with regular precincts",100,10361,>98%,>98% reported,edison,2,unknown,,739,,,8725,2205,139,20,17,,0,0,0,0,0,,2020-11-16T15:48:00Z,58.70701,R+59,Trump +59,republican,58.70701,9559,56.1,8608,33.16,kentucky,2020-11-20T00:42:36.146877Z
21083,Graves,17018,0,25,30,"As a precinct in the FIRST cumulative report, along with regular precincts",100,16920,>98%,>98% reported,edison,6,all,,998,,,13206,3559,187,36,30,,0,0,0,0,0,,2020-11-16T15:48:01Z,56.68704,R+57,Trump +57,republican,56.68704,16606,56.4,15503,39.68,kentucky,2020-11-20T00:42:36.146877Z
21085,Grayson,11983,3459,21,22,Released as a separate subtotal as first report of the night,100,11464,>98%,>98% reported,edison,2,unknown,,773,,,9453,2400,85,33,12,,1958,1466,21,11,3,,2020-11-16T15:48:02Z,58.85838,R+59,Trump +59,republican,58.85838,10576,59.2,9271,39.48,kentucky,2020-11-20T00:42:36.146877Z
21087,Green,5812,0,9,10,Released as a precinct as first report of the night,100,5781,>98%,>98% reported,edison,4,all,,848,,,4838,920,29,18,7,,0,0,0,0,0,,2020-11-16T15:48:02Z,67.41225,R+67,Trump +67,republican,67.41225,5333,66.4,4856,50.84,kentucky,2020-11-20T00:42:36.146877Z
21089,Greenup,18176,13103,27,29,Released as a precinct as first report of the night,100,17731,>98%,>98% reported,edison,4,some,,1344,,,13064,4873,178,28,33,,8888,4076,102,13,24,,2020-11-16T15:48:03Z,45.06492,R+45,Trump +45,republican,45.06492,16277,45.5,15168,18.64,kentucky,2020-11-20T00:42:36.146877Z
21091,Hancock,4587,0,9,10,Released as a separate subtotal as first report of the night,99,4656,>98%,>98% reported,edison,2,unknown,,474,,,3145,1351,67,14,10,,0,0,0,0,0,,2020-11-16T15:48:04Z,39.11053,R+39,Trump +39,republican,39.11053,4295,35.9,4134,9.17,kentucky,2020-11-20T00:42:36.146877Z
21093,Hardin,48941,0,55,59,Released as a separate subtotal as first report of the night,98,50000,98%,98% reported,edison,2,unknown,,2776,,,29832,18101,753,151,104,,0,0,0,0,0,,2020-11-16T15:48:04Z,23.96968,R+24,Trump +24,republican,23.96968,43156,30.2,39218,20.76,kentucky,2020-11-20T00:42:36.146877Z
21095,Harlan,10971,0,27,32,None,94,11660,94%,94% reported,edison,4,unknown,,586,,,9367,1494,81,16,13,,0,0,0,0,0,,2020-11-16T15:48:05Z,71.76192,R+72,Trump +72,republican,71.76192,10757,72.1,10657,64.01,kentucky,2020-11-20T00:42:36.146877Z
21097,Harrison,8853,0,18,19,Merged into voters' home precincts and released with cumulative results,100,8434,>98%,>98% reported,edison,2,some,,542,,,6334,2400,85,14,20,,0,0,0,0,0,,2020-11-16T15:48:06Z,44.43691,R+44,Trump +44,republican,44.43691,7781,43.7,7163,29.11,kentucky,2020-11-20T00:42:36.146877Z
21099,Hart,8369,0,18,19,Other,100,7873,>98%,>98% reported,edison,2,unknown,,614,,,6345,1908,76,22,18,,0,0,0,0,0,,2020-11-16T15:48:07Z,53.01709,R+53,Trump +53,republican,53.01709,7264,49.4,6622,29.81,kentucky,2020-11-20T00:42:36.146877Z
21101,Henderson,20688,0,39,45,Released as a precinct as first report of the night,96,21470,96%,96% reported,edison,4,unknown,,1430,,,12730,7639,244,50,25,,0,0,0,0,0,,2020-11-16T15:48:08Z,24.60847,R+25,Trump +25,republican,24.60847,19710,27.7,18622,11.84,kentucky,2020-11-20T00:42:36.146877Z
21103,Henry,8107,0,19,20,Merged into voters' home precincts and released with cumulative results,100,7749,>98%,>98% reported,edison,2,unknown,,421,,,5843,2142,86,19,17,,0,0,0,0,0,,2020-11-16T15:48:09Z,45.65191,R+46,Trump +46,republican,45.65191,7149,43.6,6590,21.4,kentucky,2020-11-20T00:42:36.146877Z
21105,Hickman,2199,1562,5,6,None,94,2350,94%,94% reported,edison,4,unknown,,141,,,1714,458,21,2,4,,1190,355,11,2,4,,2020-11-16T15:48:10Z,57.11687,R+57,Trump +57,republican,57.11687,2157,56,2139,34.83,kentucky,2020-11-20T00:42:36.146877Z
21107,Hopkins,21509,16242,44,50,Merged into voters' home precincts and released with cumulative results,98,22052,98%,98% reported,edison,4,all,,1408,,,15757,5439,226,63,24,,11473,4575,141,34,19,,2020-11-16T15:48:11Z,47.97062,R+48,Trump +48,republican,47.97062,20345,53.9,19767,39.93,kentucky,2020-11-20T00:42:36.146877Z
21109,Jackson,6116,1190,13,14,Released as a separate subtotal as first report of the night,100,6116,>98%,>98% reported,edison,6,all,,666,,,5450,605,33,15,7,6,829,349,7,2,3,0,2020-11-16T15:48:12Z,79.21844,R+79,Trump +79,republican,79.21844,5501,80.1,5061,74.16,kentucky,2020-11-20T00:42:36.146877Z
21111,Jefferson,386093,0,563,623,Merged into voters' home precincts and released with cumulative results,90,427250,90%,90% reported,edison,2,unknown,,21806,,,150619,228288,4779,1658,749,,0,0,0,0,0,,2020-11-16T15:48:12Z,20.11666,D+20,Biden +20,democrat,-20.11666,353100,-13.3,339579,-11.12,kentucky,2020-11-20T00:42:36.146877Z
21113,Jessamine,26251,0,33,36,Merged into voters' home precincts and released with cumulative results,93,28224,93%,93% reported,edison,4,some,,1824,,,17096,8567,447,92,49,,0,0,0,0,0,,2020-11-16T15:48:13Z,32.49019,R+32,Trump +32,republican,32.49019,23326,40,20633,39.9,kentucky,2020-11-20T00:42:36.146877Z
21115,Johnson,10193,2266,27,31,Released as a separate subtotal as first report of the night,98,10375,98%,98% reported,edison,4,some,,992,,,8446,1607,77,31,25,7,1336,893,19,9,9,0,2020-11-16T15:48:14Z,67.09507,R+67,Trump +67,republican,67.09507,9572,71,9035,59.46,kentucky,2020-11-20T00:42:36.146877Z
21117,Kenton,82184,0,100,106,Released as a precinct as first report of the night,94,87118,94%,94% reported,edison,4,some,,4501,,,48123,32265,1360,225,135,76,0,0,0,0,0,0,2020-11-16T15:48:14Z,19.29573,R+19,Trump +19,republican,19.29573,71998,26,67704,24.33,kentucky,2020-11-20T00:42:36.146877Z
21119,Knott,6251,0,27,30,Other,100,6247,>98%,>98% reported,edison,4,some,,376,,,4779,1412,28,15,17,,0,0,0,0,0,,2020-11-16T15:48:15Z,53.86338,R+54,Trump +54,republican,53.86338,5763,54,5693,47.6,kentucky,2020-11-20T00:42:36.146877Z
21121,Knox,13279,2471,27,30,"Released as first report, then NOT included in cumulative results",100,13021,>98%,>98% reported,edison,4,unknown,,1179,,,11010,2111,107,32,6,13,1378,1039,29,8,4,13,2020-11-16T15:48:16Z,67.01559,R+67,Trump +67,republican,67.01559,12012,67.6,11100,53.9,kentucky,2020-11-20T00:42:36.146877Z
21123,LaRue,7301,4656,11,12,None,100,6901,>98%,>98% reported,edison,4,all,,507,,,5685,1504,86,19,7,,3878,710,55,10,3,,2020-11-16T15:48:17Z,57.26613,R+57,Trump +57,republican,57.26613,6367,55.3,5764,37.79,kentucky,2020-11-20T00:42:36.146877Z
21125,Laurel,28097,0,42,45,Released as a precinct as first report of the night,100,26918,>98%,>98% reported,edison,2,unknown,,2752,,,23234,4474,282,55,52,,0,0,0,0,0,,2020-11-16T15:48:17Z,66.76869,R+67,Trump +67,republican,66.76869,24833,69.1,22408,63.58,kentucky,2020-11-20T00:42:36.146877Z
21127,Lawrence,6955,0,17,18,None,100,6549,>98%,>98% reported,edison,2,unknown,,506,,,5633,1238,50,20,14,,0,0,0,0,0,,2020-11-16T15:48:18Z,63.19195,R+63,Trump +63,republican,63.19195,6042,62.4,5592,44.26,kentucky,2020-11-20T00:42:36.146877Z
21129,Lee,2659,0,8,10,Merged into voters' home precincts and released with cumulative results,92,2891,92%,92% reported,edison,2,unknown,,299,,,2159,459,25,5,11,,0,0,0,0,0,,2020-11-16T15:48:18Z,63.93381,R+64,Trump +64,republican,63.93381,2667,64,2623,52.69,kentucky,2020-11-20T00:42:36.146877Z
21131,Leslie,4814,779,15,17,Released as a separate subtotal as first report of the night,91,5281,91%,91% reported,edison,4,all,,445,,,4318,446,23,12,9,6,587,182,4,2,3,1,2020-11-16T15:48:19Z,80.43207,R+80,Trump +80,republican,80.43207,4492,80.5,4950,80.93,kentucky,2020-11-20T00:42:36.146877Z
21133,Letcher,9135,5886,25,30,Merged into voters' home precincts and released with cumulative results,92,9901,92%,92% reported,edison,4,all,,618,,,7226,1799,69,28,13,,4392,1435,34,20,5,,2020-11-16T15:48:20Z,59.40887,R+59,Trump +59,republican,59.40887,9134,63,8758,58.34,kentucky,2020-11-20T00:42:36.146877Z
21135,Lewis,5883,5877,13,14,Merged into voters' home precincts and released with cumulative results,100,5743,>98%,>98% reported,edison,4,some,,400,,,4986,823,61,6,7,,4983,821,60,6,7,,2020-11-16T15:48:21Z,70.76322,R+71,Trump +71,republican,70.76322,5298,67.5,4769,41.6,kentucky,2020-11-20T00:42:36.146877Z
21137,Lincoln,10913,2438,16,17,Other,100,10364,>98%,>98% reported,edison,4,some,,846,,,8489,2254,129,23,18,,1134,1243,47,6,8,,2020-11-16T15:48:22Z,57.13369,R+57,Trump +57,republican,57.13369,9561,57.2,9152,41.89,kentucky,2020-11-20T00:42:36.146877Z
21139,Livingston,5003,0,9,10,Released as a precinct as first report of the night,99,5035,>98%,>98% reported,edison,2,unknown,,274,,,4010,939,44,6,4,,0,0,0,0,0,,2020-11-16T15:48:22Z,61.38317,R+61,Trump +61,republican,61.38317,4645,57.8,4511,38.64,kentucky,2020-11-20T00:42:36.146877Z
21141,Logan,12346,0,19,20,None,100,11814,>98%,>98% reported,edison,4,unknown,,738,,,9067,3094,145,22,18,,0,0,0,0,0,,2020-11-16T15:48:23Z,48.38004,R+48,Trump +48,republican,48.38004,10899,46.1,10510,32.64,kentucky,2020-11-20T00:42:36.146877Z
21143,Lyon,4228,3588,5,6,Released as a precinct as first report of the night,98,4295,98%,98% reported,edison,4,some,,624,,,3100,1092,25,7,4,,2566,995,16,7,4,,2020-11-16T15:48:24Z,47.4929,R+47,Trump +47,republican,47.4929,3962,44,3839,27.06,kentucky,2020-11-20T00:42:36.146877Z
21151,Madison,43903,0,46,47,Released as a precinct as first report of the night,97,45219,97%,97% reported,edison,4,some,,2725,,,27353,15580,726,140,104,,0,0,0,0,0,,2020-11-16T15:48:25Z,26.81594,R+27,Trump +27,republican,26.81594,37371,31.1,33322,28.86,kentucky,2020-11-20T00:42:36.146877Z
21153,Magoffin,5446,1527,12,14,Merged into voters' home precincts and released with cumulative results,98,5545,98%,98% reported,edison,4,all,,1374,,,4174,1213,40,10,9,,722,785,15,3,2,,2020-11-16T15:48:26Z,54.37018,R+54,Trump +54,republican,54.37018,5116,51.8,4906,39.91,kentucky,2020-11-20T00:42:36.146877Z
21155,Marion,8928,0,15,17,Released as a separate subtotal as first report of the night,100,8792,>98%,>98% reported,edison,2,unknown,,666,,,6113,2722,55,24,14,,0,0,0,0,0,,2020-11-16T15:48:26Z,37.98163,R+38,Trump +38,republican,37.98163,8111,30.1,7318,5.22,kentucky,2020-11-20T00:42:36.146877Z
21157,Marshall,17601,0,22,25,Released as a precinct as first report of the night,97,18190,97%,97% reported,edison,4,all,,1222,,,13297,4071,165,44,24,,0,0,0,0,0,,2020-11-16T15:48:26Z,52.41748,R+52,Trump +52,republican,52.41748,16698,51.8,15719,34.23,kentucky,2020-11-20T00:42:36.146877Z
21159,Martin,3930,0,12,14,Merged into voters' home precincts AFTER election night,92,4285,92%,92% reported,edison,2,unknown,,578,,,3496,403,17,8,6,,0,0,0,0,0,,2020-11-16T15:48:27Z,78.70229,R+79,Trump +79,republican,78.70229,3953,79.4,3824,68.15,kentucky,2020-11-20T00:42:36.146877Z
21161,Mason,7958,1776,13,13,Merged into voters' home precincts and released with cumulative results,100,7864,>98%,>98% reported,edison,4,unknown,,669,,,5477,2362,85,19,15,0,692,1055,17,6,6,0,2020-11-16T15:48:27Z,39.143,R+39,Trump +39,republican,39.143,7219,41.2,6881,23.33,kentucky,2020-11-20T00:42:36.146877Z
21145,McCracken,33521,7782,48,54,Released as a precinct as first report of the night,98,34103,98%,98% reported,edison,4,unknown,,2509,,,21820,11190,376,92,43,,4707,2940,100,22,13,,2020-11-16T15:48:24Z,31.71146,R+32,Trump +32,republican,31.71146,31307,37.2,30551,32.46,kentucky,2020-11-20T00:42:36.146877Z
21147,McCreary,6435,0,17,18,None,100,6261,>98%,>98% reported,edison,4,some,,715,,,5664,725,34,8,4,,0,0,0,0,0,,2020-11-16T15:48:25Z,76.75214,R+77,Trump +77,republican,76.75214,5776,75.3,5707,61.24,kentucky,2020-11-20T00:42:36.146877Z
21149,McLean,4782,0,7,8,Merged into voters' home precincts AFTER election night,97,4949,97%,97% reported,edison,4,unknown,,374,,,3633,1074,56,11,8,,0,0,0,0,0,,2020-11-16T15:48:25Z,53.51317,R+54,Trump +54,republican,53.51317,4566,52.4,4200,30.31,kentucky,2020-11-20T00:42:36.146877Z
21163,Meade,14110,0,18,19,Released as a separate subtotal as first report of the night,100,13324,>98%,>98% reported,edison,2,unknown,,904,,,10184,3632,235,33,26,,0,0,0,0,0,,2020-11-16T15:48:27Z,46.43515,R+46,Trump +46,republican,46.43515,12231,46.1,10916,22.76,kentucky,2020-11-20T00:42:36.146877Z
21165,Menifee,3102,2211,6,6,None,100,3013,>98%,>98% reported,edison,4,some,,560,,,2311,750,24,12,5,,1545,638,17,9,2,,2020-11-16T15:48:28Z,50.32237,R+50,Trump +50,republican,50.32237,2779,47.1,2598,16.78,kentucky,2020-11-20T00:42:36.146877Z
21167,Mercer,11735,0,16,17,Merged into voters' home precincts and released with cumulative results,100,11531,>98%,>98% reported,edison,4,all,,813,,,8506,3033,140,40,16,,0,0,0,0,0,,2020-11-16T15:48:28Z,46.63826,R+47,Trump +47,republican,46.63826,10585,50.5,9939,38.78,kentucky,2020-11-20T00:42:36.146877Z
21169,Metcalfe,5014,784,11,12,Other,100,5008,>98%,>98% reported,edison,4,some,,362,,,3957,973,56,12,10,6,384,382,10,3,2,3,2020-11-16T15:48:29Z,59.51336,R+60,Trump +60,republican,59.51336,4620,54.4,4184,29.9,kentucky,2020-11-20T00:42:36.146877Z
21171,Monroe,5330,0,11,12,Merged into voters' home precincts and released with cumulative results,99,5410,>98%,>98% reported,edison,2,unknown,,517,,,4628,657,30,10,5,,0,0,0,0,0,,2020-11-16T15:48:29Z,74.50281,R+75,Trump +75,republican,74.50281,4991,73.7,4746,59.54,kentucky,2020-11-20T00:42:36.146877Z
21173,Montgomery,12837,0,17,18,Released as a precinct as first report of the night,100,12475,>98%,>98% reported,edison,4,all,,776,,,8993,3630,154,41,19,,0,0,0,0,0,,2020-11-16T15:48:29Z,41.77767,R+42,Trump +42,republican,41.77767,11452,41,10248,26.32,kentucky,2020-11-20T00:42:36.146877Z
21175,Morgan,5535,0,11,12,Merged into voters' home precincts and released with cumulative results,100,5176,>98%,>98% reported,edison,2,unknown,,523,,,4297,1172,27,21,18,,0,0,0,0,0,,2020-11-16T15:48:29Z,56.4589,R+56,Trump +56,republican,56.4589,4775,54.9,4472,36.94,kentucky,2020-11-20T00:42:36.146877Z
21177,Muhlenberg,14229,0,23,25,Released as a separate subtotal as first report of the night,100,14157,>98%,>98% reported,edison,2,unknown,,1022,,,10496,3544,138,34,17,,0,0,0,0,0,,2020-11-16T15:48:30Z,48.85797,R+49,Trump +49,republican,48.85797,13060,46.9,12739,23.48,kentucky,2020-11-20T00:42:36.146877Z
21179,Nelson,23245,0,22,24,Merged into voters' home precincts and released with cumulative results,100,22660,>98%,>98% reported,edison,4,some,,1342,,,15703,7188,268,45,41,,0,0,0,0,0,,2020-11-16T15:48:30Z,36.63153,R+37,Trump +37,republican,36.63153,20802,33.6,18533,16.52,kentucky,2020-11-20T00:42:36.146877Z
21181,Nicholas,3396,2656,5,5,Other,100,3080,>98%,>98% reported,edison,4,all,,296,,,2407,954,27,3,3,2,1749,884,18,1,2,2,2020-11-16T15:48:30Z,42.78563,R+43,Trump +43,republican,42.78563,2841,41.2,2581,24.6,kentucky,2020-11-20T00:42:36.146877Z
21183,Ohio,11127,0,17,19,None,100,11120,>98%,>98% reported,edison,6,unknown,,790,,,8582,2404,99,29,13,,0,0,0,0,0,,2020-11-16T15:48:30Z,55.5226,R+56,Trump +56,republican,55.5226,10398,56.4,9646,36.11,kentucky,2020-11-20T00:42:36.146877Z
21185,Oldham,37936,0,36,38,Released as a precinct as first report of the night,95,39752,95%,95% reported,edison,4,some,,2488,,,22651,14504,601,113,67,,0,0,0,0,0,,2020-11-16T15:48:31Z,21.47564,R+21,Trump +21,republican,21.47564,32853,31.1,29884,36.6,kentucky,2020-11-20T00:42:36.146877Z
21187,Owen,5456,0,11,12,Merged into voters' home precincts and released with cumulative results,100,5421,>98%,>98% reported,edison,2,unknown,,485,,,4292,1098,46,10,10,,0,0,0,0,0,,2020-11-16T15:48:31Z,58.54106,R+59,Trump +59,republican,58.54106,5001,53.6,4557,32.26,kentucky,2020-11-20T00:42:36.146877Z
21189,Owsley,1895,0,7,8,Released as a precinct as first report of the night,99,1906,>98%,>98% reported,edison,2,unknown,,350,,,1670,216,6,3,0,,0,0,0,0,0,,2020-11-16T15:48:31Z,76.72823,R+77,Trump +77,republican,76.72823,1759,69.2,1580,63.04,kentucky,2020-11-20T00:42:36.146877Z
21191,Pendleton,6925,4469,11,12,Merged into voters' home precincts and released with cumulative results,100,6511,>98%,>98% reported,edison,4,some,,635,,,5515,1322,56,18,14,,3374,1042,31,10,12,,2020-11-16T15:48:31Z,60.54874,R+61,Trump +61,republican,60.54874,6007,57.3,5534,30.66,kentucky,2020-11-20T00:42:36.146877Z
21193,Perry,10606,0,31,37,Released as a separate subtotal as first report of the night,93,11459,93%,93% reported,edison,4,all,,659,,,8118,2350,98,28,12,,0,0,0,0,0,,2020-11-16T15:47:42Z,54.38431,R+54,Trump +54,republican,54.38431,10572,57,10241,58.52,kentucky,2020-11-20T00:42:36.146877Z
21195,Pike,25368,11223,48,57,Released as a precinct as first report of the night,95,26736,95%,95% reported,edison,4,all,,1274,,,20279,4862,154,47,26,,9630,1499,65,20,9,,2020-11-16T15:47:46Z,60.77342,R+61,Trump +61,republican,60.77342,24665,62.7,23636,50.53,kentucky,2020-11-20T00:42:36.146877Z
21197,Powell,5505,0,10,11,Merged into voters' home precincts and released with cumulative results,100,5373,>98%,>98% reported,edison,2,unknown,,602,,,4041,1367,67,16,14,0,0,0,0,0,0,0,2020-11-16T15:47:46Z,48.57402,R+49,Trump +49,republican,48.57402,4957,45.2,4481,25.57,kentucky,2020-11-20T00:42:36.146877Z
21199,Pulaski,31537,0,52,56,Merged into voters' home precincts and released with cumulative results,100,30395,>98%,>98% reported,edison,2,unknown,,2258,,,25441,5664,323,78,31,,0,0,0,0,0,,2020-11-16T15:47:47Z,62.71047,R+63,Trump +63,republican,62.71047,28041,66.7,26003,60.52,kentucky,2020-11-20T00:42:36.146877Z
21201,Robertson,1146,0,5,5,Merged into voters' home precincts and released with cumulative results,100,1098,>98%,>98% reported,edison,4,none,,150,,,884,253,6,2,1,,0,0,0,0,0,,2020-11-16T15:47:48Z,55.06108,R+55,Trump +55,republican,55.06108,1013,53,935,25.56,kentucky,2020-11-20T00:42:36.146877Z
21203,Rockcastle,7783,0,14,15,Merged into voters' home precincts and released with cumulative results,100,7253,>98%,>98% reported,edison,4,some,,541,,,6577,1134,56,13,3,,0,0,0,0,0,,2020-11-16T15:47:49Z,69.93447,R+70,Trump +70,republican,69.93447,6691,70.2,6216,63.24,kentucky,2020-11-20T00:42:36.146877Z
21205,Rowan,10058,0,17,18,Merged into voters' home precincts and released with cumulative results,100,9638,>98%,>98% reported,edison,4,unknown,,749,,,5994,3880,137,31,16,,0,0,0,0,0,,2020-11-16T15:47:49Z,21.0181,R+21,Trump +21,republican,21.0181,8848,21.2,7665,7.79,kentucky,2020-11-20T00:42:36.146877Z
21207,Russell,8939,0,14,16,Released as a separate subtotal as first report of the night,100,8861,>98%,>98% reported,edison,2,unknown,,904,,,7506,1329,84,11,9,,0,0,0,0,0,,2020-11-16T15:47:50Z,69.10169,R+69,Trump +69,republican,69.10169,8174,70.6,7909,61.97,kentucky,2020-11-20T00:42:36.146877Z
21209,Scott,28950,0,45,46,Released as a precinct as first report of the night,100,26361,>98%,>98% reported,edison,4,none,,1632,,,17764,10564,480,90,52,,0,0,0,0,0,,2020-11-16T15:47:50Z,24.87047,R+25,Trump +25,republican,24.87047,24200,30.3,20573,25.02,kentucky,2020-11-20T00:42:36.146877Z
21211,Shelby,23542,0,32,34,Merged into voters' home precincts and released with cumulative results,100,22418,>98%,>98% reported,edison,2,unknown,,1437,,,15054,8076,301,73,38,,0,0,0,0,0,,2020-11-16T15:47:51Z,29.64064,R+30,Trump +30,republican,29.64064,20580,33.6,18663,27.63,kentucky,2020-11-20T00:42:36.146877Z
21213,Simpson,8732,0,12,13,Released as a precinct as first report of the night,100,8164,>98%,>98% reported,edison,4,some,,538,,,5888,2681,128,17,18,,0,0,0,0,0,,2020-11-16T15:47:51Z,36.72698,R+37,Trump +37,republican,36.72698,7531,38.9,7093,24.04,kentucky,2020-11-20T00:42:36.146877Z
21215,Spencer,11429,0,14,14,Merged into voters' home precincts and released with cumulative results,100,10365,>98%,>98% reported,edison,2,unknown,,654,,,8737,2530,124,21,17,,0,0,0,0,0,,2020-11-16T15:47:52Z,54.30921,R+54,Trump +54,republican,54.30921,9515,55.4,8431,37.68,kentucky,2020-11-20T00:42:36.146877Z
21217,Taylor,12510,0,18,20,Released as a precinct as first report of the night,100,12316,>98%,>98% reported,edison,4,some,,1142,,,9376,2961,119,35,19,,0,0,0,0,0,,2020-11-16T15:47:53Z,51.27898,R+51,Trump +51,republican,51.27898,11306,51,10950,38.96,kentucky,2020-11-20T00:42:36.146877Z
21219,Todd,5351,0,12,13,Released as a separate subtotal as first report of the night,100,5181,>98%,>98% reported,edison,2,unknown,,282,,,4060,1202,58,19,12,,0,0,0,0,0,,2020-11-16T15:47:53Z,53.41058,R+53,Trump +53,republican,53.41058,4779,53.8,4718,39.08,kentucky,2020-11-20T00:42:36.146877Z
21221,Trigg,7375,6239,14,15,Merged into voters' home precincts and released with cumulative results,100,7354,>98%,>98% reported,edison,4,some,,707,,,5487,1791,75,8,14,,4560,1614,51,5,9,,2020-11-16T15:47:55Z,50.11525,R+50,Trump +50,republican,50.11525,6751,49.5,6742,35.67,kentucky,2020-11-20T00:42:36.146877Z
21223,Trimble,4319,682,11,12,None,100,4117,>98%,>98% reported,edison,4,some,,312,,,3227,1012,60,10,10,,291,375,11,2,3,,2020-11-16T15:47:57Z,51.28502,R+51,Trump +51,republican,51.28502,3798,49.8,3543,21.96,kentucky,2020-11-20T00:42:36.146877Z
21225,Union,6576,0,14,16,Merged into voters' home precincts and released with cumulative results,98,6732,98%,98% reported,edison,2,unknown,,426,,,4965,1529,67,9,6,,0,0,0,0,0,,2020-11-16T15:47:58Z,52.25061,R+52,Trump +52,republican,52.25061,6211,54.3,5979,33.67,kentucky,2020-11-20T00:42:36.146877Z
21227,Warren,55351,45143,114,121,Other,100,54079,>98%,>98% reported,edison,6,all,,3734,,,31790,22477,823,184,77,,25472,18930,564,118,59,,2020-11-16T15:47:59Z,16.82535,R+17,Trump +17,republican,16.82535,48454,24.2,43903,21.82,kentucky,2020-11-20T00:42:36.146877Z
21229,Washington,6223,0,13,14,None,100,6140,>98%,>98% reported,edison,4,all,,418,,,4482,1644,72,11,14,,0,0,0,0,0,,2020-11-16T15:47:59Z,45.60501,R+46,Trump +46,republican,45.60501,5636,46,5219,34.99,kentucky,2020-11-20T00:42:36.146877Z
21231,Wayne,9240,0,18,19,Other,100,8663,>98%,>98% reported,edison,2,unknown,,1027,,,7430,1700,69,29,12,,0,0,0,0,0,,2020-11-16T15:48:00Z,62.01299,R+62,Trump +62,republican,62.01299,7992,61.8,7210,47.63,kentucky,2020-11-20T00:42:36.146877Z
21233,Webster,5991,0,12,14,Released as a precinct as first report of the night,95,6292,95%,95% reported,edison,2,unknown,,325,,,4506,1412,54,16,3,,0,0,0,0,0,,2020-11-16T15:48:01Z,51.64413,R+52,Trump +52,republican,51.64413,5805,54.4,5470,33.67,kentucky,2020-11-20T00:42:36.146877Z
21235,Whitley,15347,0,33,36,Merged into voters' home precincts and released with cumulative results,100,15005,>98%,>98% reported,edison,2,unknown,,1038,,,12567,2552,177,34,17,,0,0,0,0,0,,2020-11-16T15:48:01Z,65.25705,R+65,Trump +65,republican,65.25705,13774,67.1,13072,57.75,kentucky,2020-11-20T00:42:36.146877Z
21237,Wolfe,2981,1959,7,8,None,100,2981,>98%,>98% reported,edison,6,all,,195,,,2097,837,21,9,13,4,1248,682,15,5,8,1,2020-11-16T15:48:02Z,42.2677,R+42,Trump +42,republican,42.2677,2635,39.9,2559,22.12,kentucky,2020-11-20T00:42:36.146877Z
21239,Woodford,15211,0,18,19,Released separately AFTER election night,100,15187,>98%,>98% reported,edison,6,all,,949,,,8362,6530,237,50,32,,0,0,0,0,0,,2020-11-16T15:48:03Z,12.04392,R+12,Trump +12,republican,12.04392,13563,20.2,12332,18.94,kentucky,2020-11-20T00:42:36.146877Z
