fips,name,votes,absentee_votes,reporting,precincts,absentee_method,eevp,tot_exp_vote,eevp_value,eevp_display,eevp_source,turnout_stage,absentee_count_progress,absentee_outstanding,absentee_max_ballots,provisional_outstanding,provisional_count_progress,results_trumpd,results_bidenj,results_jorgensenj,results_write_ins,results_absentee_trumpd,results_absentee_bidenj,results_absentee_jorgensenj,results_absentee_write_ins,last_updated,leader_margin_value,leader_margin_display,leader_margin_name_display,leader_party_id,margin2020,votes2016,margin2016,votes2012,margin2012,state,retrieved_time
30001,Beaverhead,5661,0,16,16,Merged into voters' home precincts AFTER election night,100,5665,>98%,>98% reported,edison,8,all,,4174,,,3923,1608,130,0,0,0,0,0,2020-11-19T21:03:18Z,40.89384,R+41,Trump +41,republican,40.89384,4849,45.6,4812,39.86,montana,2020-11-20T00:43:42.816734Z
30003,Big Horn,4784,0,19,19,Released as a separate subtotal as first report of the night,100,4794,>98%,>98% reported,edison,8,some,,2040,,,2207,2491,86,0,0,0,0,0,2020-11-19T21:42:49Z,5.93645,D+6,Biden +6,democrat,-5.93645,4237,-5.7,4626,-26.26,montana,2020-11-20T00:43:42.816734Z
30005,Blaine,3117,0,8,8,Merged into voters' home precincts AFTER election night,99,3135,>98%,>98% reported,edison,6,all,,1576,,,1469,1589,59,0,0,0,0,0,2020-11-19T18:37:23Z,3.84986,D+4,Biden +4,democrat,-3.84986,2684,2.5,2859,-15.32,montana,2020-11-20T00:43:42.816734Z
30007,Broadwater,4097,0,5,5,Merged into voters' home precincts and released with cumulative results,100,4110,>98%,>98% reported,edison,6,all,,2206,,,3173,835,89,0,0,0,0,0,2020-11-19T21:43:05Z,57.06615,R+57,Trump +57,republican,57.06615,3133,56.7,3011,46.1,montana,2020-11-20T00:43:42.816734Z
30009,Carbon,7101,0,13,13,Merged into voters' home precincts and released with cumulative results,100,7101,>98%,>98% reported,edison,8,all,,4579,,,4468,2421,163,49,0,0,0,0,2020-11-19T21:43:26Z,28.82693,R+29,Trump +29,republican,28.82693,5991,32,5847,23.72,montana,2020-11-20T00:43:42.816734Z
30011,Carter,864,0,4,4,Merged into voters' home precincts and released with cumulative results,100,864,>98%,>98% reported,edison,8,unknown,,414,,,775,74,15,0,0,0,0,0,2020-11-16T15:48:04Z,81.13426,R+81,Trump +81,republican,81.13426,786,77.4,796,73.12,montana,2020-11-20T00:43:42.816734Z
30013,Cascade,39885,0,23,23,Merged into voters' home precincts and released with cumulative results,100,40039,>98%,>98% reported,edison,8,all,,42859,,,23315,15456,1114,0,0,0,0,0,2020-11-19T21:57:36Z,19.70415,R+20,Trump +20,republican,19.70415,34571,21.6,34576,9,montana,2020-11-20T00:43:42.816734Z
30015,Chouteau,2974,0,9,9,Merged into voters' home precincts and released with cumulative results,99,2992,>98%,>98% reported,edison,8,all,,2205,,,1891,991,83,9,0,0,0,0,2020-11-19T21:44:00Z,30.26227,R+30,Trump +30,republican,30.26227,2603,36.4,2821,27.65,montana,2020-11-20T00:43:42.816734Z
30017,Custer,5883,0,14,14,Merged into voters' home precincts AFTER election night,100,5883,>98%,>98% reported,edison,8,unknown,,3874,,,4205,1514,141,23,0,0,0,0,2020-11-19T21:44:16Z,45.74197,R+46,Trump +46,republican,45.74197,5185,47.8,5365,28.7,montana,2020-11-20T00:43:42.816734Z
30019,Daniels,1014,0,4,4,Merged into voters' home precincts and released with cumulative results,98,1030,98%,98% reported,edison,8,unknown,,595,,,799,195,20,0,0,0,0,0,2020-11-16T15:48:06Z,59.56607,R+60,Trump +60,republican,59.56607,962,58.4,1007,49.95,montana,2020-11-20T00:43:42.816734Z
30021,Dawson,4837,0,7,7,Merged into voters' home precincts and released with cumulative results,100,4837,>98%,>98% reported,edison,8,all,,4322,,,3758,962,105,12,0,0,0,0,2020-11-16T15:48:06Z,57.80442,R+58,Trump +58,republican,57.80442,4409,57.5,4423,40.92,montana,2020-11-20T00:43:42.816734Z
30023,Deer Lodge,4891,0,14,14,Merged into voters' home precincts and released with cumulative results,100,4891,>98%,>98% reported,edison,8,some,,3414,,,2186,2562,143,0,0,0,0,0,2020-11-19T21:44:36Z,7.68759,D+8,Biden +8,democrat,-7.68759,4206,-7,4460,-31.66,montana,2020-11-20T00:43:42.816734Z
30025,Fallon,1575,0,1,1,Merged into voters' home precincts and released with cumulative results,100,1576,>98%,>98% reported,edison,8,unknown,,899,,,1375,172,28,0,0,0,0,0,2020-11-16T15:48:07Z,76.38095,R+76,Trump +76,republican,76.38095,1484,75.8,1406,63.37,montana,2020-11-20T00:43:42.816734Z
30027,Fergus,6531,0,16,16,None,100,6534,>98%,>98% reported,edison,8,unknown,,5078,,,4869,1496,142,24,0,0,0,0,2020-11-19T21:44:57Z,51.646,R+52,Trump +52,republican,51.646,5840,52.5,6071,43.11,montana,2020-11-20T00:43:42.816734Z
30029,Flathead,60258,0,42,42,Merged into voters' home precincts and released with cumulative results,100,60258,>98%,>98% reported,edison,8,some,,38453,,,38321,20274,1341,322,0,0,0,0,2020-11-19T21:45:14Z,29.94955,R+30,Trump +30,republican,29.94955,47496,35.7,43476,33.16,montana,2020-11-20T00:43:42.816734Z
30031,Gallatin,71507,0,32,32,Merged into voters' home precincts and released with cumulative results,100,71507,>98%,>98% reported,edison,8,unknown,,51851,,,31696,37044,2239,528,0,0,0,0,2020-11-19T21:45:31Z,7.47899,D+7,Biden +7,democrat,-7.47899,53819,-0.8,47908,5,montana,2020-11-20T00:43:42.816734Z
30033,Garfield,813,0,4,4,Merged into voters' home precincts and released with cumulative results,100,813,>98%,>98% reported,edison,8,unknown,,432,,,764,41,8,0,0,0,0,0,2020-11-16T15:48:10Z,88.92989,R+89,Trump +89,republican,88.92989,718,86.2,701,79.32,montana,2020-11-20T00:43:42.816734Z
30035,Glacier,5639,0,16,16,Merged into voters' home precincts and released with cumulative results,99,5719,>98%,>98% reported,edison,8,unknown,,3322,,,1884,3610,123,22,0,0,0,0,2020-11-19T21:46:04Z,30.60826,D+31,Biden +31,democrat,-30.60826,5075,-29.6,4452,-33.89,montana,2020-11-20T00:43:42.816734Z
30037,Golden Valley,503,0,2,2,Merged into voters' home precincts and released with cumulative results,100,504,>98%,>98% reported,edison,8,unknown,,422,,,414,78,11,0,0,0,0,0,2020-11-16T15:48:11Z,66.7992,R+67,Trump +67,republican,66.7992,474,62,479,50.31,montana,2020-11-20T00:43:42.816734Z
30039,Granite,2102,0,4,4,Merged into voters' home precincts and released with cumulative results,100,2102,>98%,>98% reported,edison,8,unknown,,1243,,,1419,638,45,0,0,0,0,0,2020-11-16T15:48:11Z,37.15509,R+37,Trump +37,republican,37.15509,1777,40.5,1705,33.67,montana,2020-11-20T00:43:42.816734Z
30041,Hill,7182,0,17,17,Other,99,7223,>98%,>98% reported,edison,8,unknown,,5547,,,3957,2981,244,0,0,0,0,0,2020-11-19T21:46:31Z,13.58953,R+14,Trump +14,republican,13.58953,6445,17.2,6825,-3.5,montana,2020-11-20T00:43:42.816734Z
30043,Jefferson,8191,0,10,10,Released as a separate subtotal as first report of the night,100,8191,>98%,>98% reported,edison,8,all,,4742,,,5345,2625,181,40,0,0,0,0,2020-11-16T15:48:12Z,33.20718,R+33,Trump +33,republican,33.20718,6714,32.5,6521,27.34,montana,2020-11-20T00:43:42.816734Z
30045,Judith Basin,1344,0,4,4,Merged into voters' home precincts and released with cumulative results,100,1348,>98%,>98% reported,edison,8,unknown,,837,,,1040,275,29,0,0,0,0,0,2020-11-19T21:10:13Z,56.91964,R+57,Trump +57,republican,56.91964,1208,52.7,1215,42.55,montana,2020-11-20T00:43:42.816734Z
30047,Lake,16626,0,22,22,Merged into voters' home precincts and released with cumulative results,100,16628,>98%,>98% reported,edison,8,unknown,,10643,,,9322,6916,388,0,0,0,0,0,2020-11-19T21:55:52Z,14.47131,R+14,Trump +14,republican,14.47131,13181,20.9,13304,10,montana,2020-11-20T00:43:42.816734Z
30049,Lewis and Clark,42485,0,33,33,Released as a separate subtotal as first report of the night,100,42509,>98%,>98% reported,edison,8,unknown,,29778,,,21409,19743,1113,220,0,0,0,0,2020-11-19T21:47:11Z,3.92138,R+4,Trump +4,republican,3.92138,35296,6.8,33318,3.55,montana,2020-11-20T00:43:42.816734Z
30051,Liberty,1083,0,4,4,Merged into voters' home precincts and released with cumulative results,100,1088,>98%,>98% reported,edison,8,unknown,,763,,,821,249,13,0,0,0,0,0,2020-11-16T15:48:14Z,52.81625,R+53,Trump +53,republican,52.81625,961,51.2,998,44.59,montana,2020-11-20T00:43:42.816734Z
30053,Lincoln,11747,0,14,14,Merged into voters' home precincts and released with cumulative results,100,11747,>98%,>98% reported,edison,8,unknown,,6806,,,8672,2835,240,0,0,0,0,0,2020-11-19T21:47:30Z,49.68928,R+50,Trump +50,republican,49.68928,9330,50.2,8890,39.43,montana,2020-11-20T00:43:42.816734Z
30057,Madison,6113,0,8,8,Merged into voters' home precincts and released with cumulative results,100,6118,>98%,>98% reported,edison,8,unknown,,2922,,,4191,1771,125,26,0,0,0,0,2020-11-19T21:53:10Z,39.58776,R+40,Trump +40,republican,39.58776,4743,44.6,4532,40.62,montana,2020-11-20T00:43:42.816734Z
30055,McCone,1128,0,3,3,Merged into voters' home precincts and released with cumulative results,100,1128,>98%,>98% reported,edison,8,unknown,,688,,,956,155,17,,0,0,0,,2020-11-16T15:48:14Z,71.01064,R+71,Trump +71,republican,71.01064,1095,64.7,993,52.57,montana,2020-11-20T00:43:42.816734Z
30059,Meagher,1110,0,1,1,Other,99,1118,>98%,>98% reported,edison,8,unknown,,978,,,833,258,19,0,0,0,0,0,2020-11-16T15:48:16Z,51.8018,R+52,Trump +52,republican,51.8018,977,54.9,972,41.26,montana,2020-11-20T00:43:42.816734Z
30061,Mineral,2563,0,6,6,Released as a separate subtotal as first report of the night,100,2563,>98%,>98% reported,edison,8,unknown,,1507,,,1828,686,49,0,0,0,0,0,2020-11-19T21:47:59Z,44.55716,R+45,Trump +45,republican,44.55716,2012,40.3,2021,25.53,montana,2020-11-20T00:43:42.816734Z
30063,Missoula,71986,0,52,52,Merged into voters' home precincts and released with cumulative results,100,71986,>98%,>98% reported,edison,8,unknown,,59576,,,26347,43357,1791,491,0,0,0,0,2020-11-19T21:48:16Z,23.62959,D+24,Biden +24,democrat,-23.62959,60722,-15.3,57232,-17.77,montana,2020-11-20T00:43:42.816734Z
30065,Musselshell,2881,0,6,6,Merged into voters' home precincts and released with cumulative results,100,2881,>98%,>98% reported,edison,8,some,,1734,,,2423,413,45,0,0,0,0,0,2020-11-16T15:48:17Z,69.76744,R+70,Trump +70,republican,69.76744,2441,67,2407,55.71,montana,2020-11-20T00:43:42.816734Z
30067,Park,11618,0,11,11,None,100,11618,>98%,>98% reported,edison,8,unknown,,6699,,,6025,5280,261,52,0,0,0,0,2020-11-19T21:48:34Z,6.41246,R+6,Trump +6,republican,6.41246,9359,14.8,8768,10.56,montana,2020-11-20T00:43:42.816734Z
30069,Petroleum,351,0,1,1,None,100,351,>98%,>98% reported,edison,8,all,,189,,,298,39,11,3,0,0,0,0,2020-11-16T15:48:18Z,73.78917,R+74,Trump +74,republican,73.78917,322,77,298,64.09,montana,2020-11-20T00:43:42.816734Z
30071,Phillips,2386,0,2,2,Merged into voters' home precincts and released with cumulative results,100,2386,>98%,>98% reported,edison,8,unknown,,2000,,,1936,416,30,4,0,0,0,0,2020-11-19T21:48:48Z,63.70495,R+64,Trump +64,republican,63.70495,2171,64.7,2228,54.62,montana,2020-11-20T00:43:42.816734Z
30073,Pondera,2995,0,8,8,Released as a separate subtotal at the end of tabulation,100,3005,>98%,>98% reported,edison,8,unknown,,2141,,,2031,903,61,0,0,0,0,0,2020-11-19T21:57:13Z,37.66277,R+38,Trump +38,republican,37.66277,2723,39,2719,25.67,montana,2020-11-20T00:43:42.816734Z
30075,Powder River,1136,0,7,7,Merged into voters' home precincts and released with cumulative results,100,1137,>98%,>98% reported,edison,8,unknown,,638,,,970,154,12,0,0,0,0,0,2020-11-19T18:44:14Z,71.83099,R+72,Trump +72,republican,71.83099,1053,71.9,1027,64.56,montana,2020-11-20T00:43:42.816734Z
30077,Powell,3195,0,13,13,Merged into voters' home precincts and released with cumulative results,100,3195,>98%,>98% reported,edison,8,unknown,,1578,,,2355,752,72,16,0,0,0,0,2020-11-19T21:49:19Z,50.17214,R+50,Trump +50,republican,50.17214,2794,52.9,2777,33.06,montana,2020-11-20T00:43:42.816734Z
30079,Prairie,744,0,4,4,Merged into voters' home precincts and released with cumulative results,100,747,>98%,>98% reported,edison,8,unknown,,480,,,603,126,15,0,0,0,0,0,2020-11-16T15:48:21Z,64.1129,R+64,Trump +64,republican,64.1129,689,66.2,703,50.21,montana,2020-11-20T00:43:42.816734Z
30081,Ravalli,28507,0,24,24,Released as a separate subtotal as first report of the night,100,28574,>98%,>98% reported,edison,8,unknown,,16965,,,19114,8763,630,0,0,0,0,0,2020-11-19T21:49:39Z,36.31038,R+36,Trump +36,republican,36.31038,22556,38.1,22212,31.61,montana,2020-11-20T00:43:42.816734Z
30083,Richland,5798,0,13,13,Other,100,5798,>98%,>98% reported,edison,8,all,,2582,,,4800,875,123,0,0,0,0,0,2020-11-19T21:49:55Z,67.69576,R+68,Trump +68,republican,67.69576,4871,66.5,4648,53.96,montana,2020-11-20T00:43:42.816734Z
30085,Roosevelt,4028,0,12,12,Merged into voters' home precincts and released with cumulative results,100,4033,>98%,>98% reported,edison,8,unknown,,2086,,,1996,1910,111,11,0,0,0,0,2020-11-19T21:50:11Z,2.13505,R+2,Trump +2,republican,2.13505,3652,6.5,3672,-15.58,montana,2020-11-20T00:43:42.816734Z
30087,Rosebud,3784,0,12,12,Merged into voters' home precincts AFTER election night,100,3784,>98%,>98% reported,edison,8,unknown,,2216,,,2486,1199,88,11,0,0,0,0,2020-11-19T21:50:25Z,34.01163,R+34,Trump +34,republican,34.01163,3453,36.7,3523,16.52,montana,2020-11-20T00:43:42.816734Z
30089,Sanders,7652,0,9,9,Merged into voters' home precincts and released with cumulative results,100,7652,>98%,>98% reported,edison,8,all,,5891,,,5660,1820,142,30,0,0,0,0,2020-11-19T21:50:47Z,50.18296,R+50,Trump +50,republican,50.18296,5953,51.5,5901,38.3,montana,2020-11-20T00:43:42.816734Z
30091,Sheridan,2030,0,6,6,Merged into voters' home precincts and released with cumulative results,100,2030,>98%,>98% reported,edison,8,unknown,,1792,,,1403,574,53,0,0,0,0,0,2020-11-19T21:50:56Z,40.83744,R+41,Trump +41,republican,40.83744,1835,41.6,1928,28.11,montana,2020-11-20T00:43:42.816734Z
30093,Silver Bow,18827,0,31,31,Merged into voters' home precincts AFTER election night,100,18827,>98%,>98% reported,edison,8,unknown,,14293,,,7745,10392,521,169,0,0,0,0,2020-11-19T21:51:18Z,14.0596,D+14,Biden +14,democrat,-14.0596,16452,-13.6,16756,-32.39,montana,2020-11-20T00:43:42.816734Z
30095,Stillwater,5741,0,8,8,Released as a separate subtotal at the end of tabulation,100,5744,>98%,>98% reported,edison,8,some,,3435,,,4462,1156,106,17,0,0,0,0,2020-11-19T21:51:33Z,57.58579,R+58,Trump +58,republican,57.58579,4873,56.5,4702,44.43,montana,2020-11-20T00:43:42.816734Z
30097,Sweet Grass,2446,0,5,5,Released as a separate subtotal as first report of the night,99,2459,>98%,>98% reported,edison,8,some,,1573,,,1840,549,57,0,0,0,0,0,2020-11-16T15:48:25Z,52.78005,R+53,Trump +53,republican,52.78005,2107,56.6,2117,52.86,montana,2020-11-20T00:43:42.816734Z
30099,Teton,3695,0,5,5,Merged into voters' home precincts and released with cumulative results,100,3706,>98%,>98% reported,edison,8,all,,2734,,,2608,1007,64,16,0,0,0,0,2020-11-16T15:48:25Z,43.32882,R+43,Trump +43,republican,43.32882,3188,42.7,3281,31.42,montana,2020-11-20T00:43:42.816734Z
30101,Toole,2123,0,5,5,Merged into voters' home precincts and released with cumulative results,100,2123,>98%,>98% reported,edison,8,unknown,,1491,,,1596,467,56,4,0,0,0,0,2020-11-19T18:44:03Z,53.17946,R+53,Trump +53,republican,53.17946,2037,53.8,2102,40.82,montana,2020-11-20T00:43:42.816734Z
30103,Treasure,460,0,1,1,Merged into voters' home precincts and released with cumulative results,99,464,>98%,>98% reported,edison,8,unknown,,267,,,373,78,9,,0,0,0,,2020-11-19T21:17:12Z,64.13043,R+64,Trump +64,republican,64.13043,443,65.9,455,45.05,montana,2020-11-20T00:43:42.816734Z
30105,Valley,4272,0,3,3,Released as a separate subtotal as first report of the night,100,4272,>98%,>98% reported,edison,8,all,,3726,,,3135,1030,96,11,0,0,0,0,2020-11-16T15:47:43Z,49.27434,R+49,Trump +49,republican,49.27434,3894,46.5,3859,24.67,montana,2020-11-20T00:43:42.816734Z
30107,Wheatland,1068,0,5,5,Merged into voters' home precincts and released with cumulative results,100,1068,>98%,>98% reported,edison,8,some,,667,,,823,225,20,0,0,0,0,0,2020-11-19T21:17:43Z,55.99251,R+56,Trump +56,republican,55.99251,946,55.3,992,42.44,montana,2020-11-20T00:43:42.816734Z
30109,Wibaux,598,0,1,1,Merged into voters' home precincts and released with cumulative results,100,598,>98%,>98% reported,edison,8,unknown,,240,,,516,77,5,0,0,0,0,0,2020-11-16T15:47:44Z,73.41137,R+73,Trump +73,republican,73.41137,541,75.4,544,59.38,montana,2020-11-20T00:43:42.816734Z
30111,Yellowstone,83821,0,44,44,Merged into voters' home precincts and released with cumulative results,100,84109,>98%,>98% reported,edison,8,unknown,,89706,,,50772,30679,2370,0,0,0,0,0,2020-11-19T21:52:15Z,23.97132,R+24,Trump +24,republican,23.97132,70486,26.6,68807,20.49,montana,2020-11-20T00:43:42.816734Z
