fips,name,votes,absentee_votes,reporting,precincts,absentee_method,eevp,tot_exp_vote,eevp_value,eevp_display,eevp_source,turnout_stage,absentee_count_progress,absentee_outstanding,absentee_max_ballots,provisional_outstanding,provisional_count_progress,results_tillist,results_cunninghamc,results_brays,results_hayesk,results_absentee_tillist,results_absentee_cunninghamc,results_absentee_brays,results_absentee_hayesk,last_updated,leader_margin_value,leader_margin_display,leader_margin_name_display,leader_party_id,state,retrieved_time
37001,Alamance,85508,67794,38,38,Released as a separate subtotal as first report of the night,99,86091,>98%,>98% reported,edison,10,none,,62360,,,44246,38038,2302,922,33367,32168,1632,627,2020-11-24T13:25:23Z,7.26014,R+7,Tillis +7,republican,north-carolina,2020-11-28T00:49:40.047387Z
37003,Alexander,20044,16684,10,10,Released as a separate subtotal as first report of the night,99,20236,>98%,>98% reported,edison,10,all,,15384,,,14739,4287,563,455,12206,3673,430,375,2020-11-24T13:25:23Z,52.14528,R+52,Tillis +52,republican,north-carolina,2020-11-28T00:49:40.047387Z
37005,Alleghany,6007,4963,4,4,Released as a separate subtotal as first report of the night,99,6076,>98%,>98% reported,edison,10,all,,5206,,,4082,1587,192,146,3310,1386,145,122,2020-11-24T13:25:23Z,41.53488,R+42,Tillis +42,republican,north-carolina,2020-11-28T00:49:40.047387Z
37007,Anson,11108,7865,8,9,Released as a precinct as first report of the night,99,11205,>98%,>98% reported,edison,10,unknown,,10515,,,4981,5756,204,167,3026,4595,145,99,2020-11-24T13:25:24Z,6.97695,D+7,Cunningham +7,democrat,north-carolina,2020-11-28T00:49:40.047387Z
37009,Ashe,15636,11132,17,17,"As a precinct in the FIRST cumulative report, along with regular precincts",99,15814,>98%,>98% reported,edison,10,unknown,,9733,,,10619,4279,457,281,7163,3488,308,173,2020-11-24T13:25:24Z,40.54745,R+41,Tillis +41,republican,north-carolina,2020-11-28T00:49:40.047387Z
37011,Avery,9321,5895,19,19,Released as a separate subtotal as first report of the night,99,9458,>98%,>98% reported,edison,10,unknown,,4091,,,6865,2079,246,131,4080,1581,157,77,2020-11-24T13:25:24Z,51.34642,R+51,Tillis +51,republican,north-carolina,2020-11-28T00:49:40.047387Z
37013,Beaufort,26046,20174,21,21,Released as a precinct as first report of the night,99,26315,>98%,>98% reported,edison,10,all,,22376,,,15448,9439,706,453,11305,8010,537,322,2020-11-24T13:25:24Z,23.07072,R+23,Tillis +23,republican,north-carolina,2020-11-28T00:49:40.047387Z
37015,Bertie,9694,7680,12,12,Merged into voters' home precincts and released with cumulative results,99,9815,>98%,>98% reported,edison,10,all,,9773,,,3597,5825,158,114,2588,4877,122,93,2020-11-24T13:25:24Z,22.98329,D+23,Cunningham +23,democrat,north-carolina,2020-11-28T00:49:40.047387Z
37017,Bladen,16881,13595,17,17,Released as a precinct as first report of the night,99,17125,>98%,>98% reported,edison,10,unknown,,16846,,,8967,7280,399,235,6973,6145,303,174,2020-11-24T13:25:24Z,9.99348,R+10,Tillis +10,republican,north-carolina,2020-11-28T00:49:40.047387Z
37019,Brunswick,89202,78235,25,25,Released as a separate subtotal as first report of the night,99,90175,>98%,>98% reported,edison,10,unknown,,65557,,,52971,32180,2881,1170,45373,29588,2288,986,2020-11-24T13:25:25Z,23.30777,R+23,Tillis +23,republican,north-carolina,2020-11-28T00:49:40.047387Z
37021,Buncombe,160042,140498,80,80,Released as a precinct as first report of the night,99,161569,>98%,>98% reported,edison,10,some,,142646,,,60688,92664,5054,1636,49463,85859,3926,1250,2020-11-24T13:25:25Z,19.97976,D+20,Cunningham +20,democrat,north-carolina,2020-11-28T00:49:40.047387Z
37023,Burke,44170,36243,33,33,Released as a separate subtotal as first report of the night,99,44602,>98%,>98% reported,edison,10,unknown,,37205,,,28934,13108,1309,819,23461,11200,979,603,2020-11-24T13:25:40Z,35.82975,R+36,Tillis +36,republican,north-carolina,2020-11-28T00:49:40.047387Z
37025,Cabarrus,116102,96419,39,39,Released as a precinct as first report of the night,99,117227,>98%,>98% reported,edison,10,all,,66450,,,61231,48886,4261,1724,48859,43005,3253,1302,2020-11-24T13:24:57Z,10.63289,R+11,Tillis +11,republican,north-carolina,2020-11-28T00:49:40.047387Z
37027,Caldwell,42357,35254,20,20,Released as a precinct as first report of the night,99,42829,>98%,>98% reported,edison,10,unknown,,37674,,,29971,10288,1299,799,24794,8807,1018,635,2020-11-24T13:24:57Z,46.4693,R+46,Tillis +46,republican,north-carolina,2020-11-28T00:49:40.047387Z
37029,Camden,5838,4393,3,3,Released as a precinct as first report of the night,98,5953,98%,98% reported,edison,10,all,,4042,,,4181,1403,183,71,3021,1209,109,54,2020-11-24T13:24:57Z,47.58479,R+48,Tillis +48,republican,north-carolina,2020-11-28T00:49:40.047387Z
37031,Carteret,42228,34217,26,26,Released as a separate subtotal as first report of the night,99,42695,>98%,>98% reported,edison,10,all,,34930,,,28492,11823,1312,601,22435,10361,967,454,2020-11-24T13:24:58Z,39.47381,R+39,Tillis +39,republican,north-carolina,2020-11-28T00:49:40.047387Z
37033,Caswell,11961,8306,9,9,Released as a precinct as first report of the night,99,12051,>98%,>98% reported,edison,10,all,,9422,,,6643,4916,278,124,4145,3920,173,68,2020-11-24T13:25:09Z,14.43859,R+14,Tillis +14,republican,north-carolina,2020-11-28T00:49:40.047387Z
37035,Catawba,82883,67601,40,40,"As a precinct in the FIRST cumulative report, along with regular precincts",99,83425,>98%,>98% reported,edison,10,unknown,,67210,,,54004,24845,2550,1484,43473,21107,1896,1125,2020-11-24T13:25:10Z,35.18092,R+35,Tillis +35,republican,north-carolina,2020-11-28T00:49:40.047387Z
37037,Chatham,48338,43376,18,18,Released as a precinct as first report of the night,99,48599,>98%,>98% reported,edison,10,some,,39498,,,21039,25697,1171,431,17700,24352,977,347,2020-11-24T13:25:10Z,9.63631,D+10,Cunningham +10,democrat,north-carolina,2020-11-28T00:49:40.047387Z
37039,Cherokee,16286,11326,16,16,Released as a precinct as first report of the night,99,16423,>98%,>98% reported,edison,10,unknown,,10581,,,12048,3589,408,241,8063,2871,235,157,2020-11-24T13:24:59Z,51.94032,R+52,Tillis +52,republican,north-carolina,2020-11-28T00:49:40.047387Z
37041,Chowan,7689,6562,6,6,Released as a precinct as first report of the night,99,7784,>98%,>98% reported,edison,10,unknown,,8195,,,4353,3124,139,73,3636,2768,98,60,2020-11-24T13:24:59Z,15.98387,R+16,Tillis +16,republican,north-carolina,2020-11-28T00:49:40.047387Z
37043,Clay,6811,5170,9,9,Released as a precinct as first report of the night,99,6893,>98%,>98% reported,edison,10,all,,5792,,,4897,1676,140,98,3591,1426,90,63,2020-11-24T13:25:00Z,47.29115,R+47,Tillis +47,republican,north-carolina,2020-11-28T00:49:40.047387Z
37045,Cleveland,50777,41162,21,21,Released as a precinct as first report of the night,99,51308,>98%,>98% reported,edison,10,all,,35936,,,32022,16752,1235,768,25347,14311,924,580,2020-11-24T13:24:04Z,30.07267,R+30,Tillis +30,republican,north-carolina,2020-11-28T00:49:40.047387Z
37047,Columbus,26102,18863,26,26,Released as a precinct as first report of the night,99,26446,>98%,>98% reported,edison,10,unknown,,20755,,,15563,9599,516,424,10542,7683,351,287,2020-11-24T13:24:06Z,22.84882,R+23,Tillis +23,republican,north-carolina,2020-11-28T00:49:40.047387Z
37049,Craven,52521,44404,21,21,Released as a precinct as first report of the night,99,53065,>98%,>98% reported,edison,10,unknown,,49498,,,29542,20416,1772,791,24405,18041,1353,605,2020-11-24T13:24:07Z,17.37591,R+17,Tillis +17,republican,north-carolina,2020-11-28T00:49:40.047387Z
37051,Cumberland,145719,121466,75,75,Released as a separate subtotal as first report of the night,99,147150,>98%,>98% reported,edison,10,unknown,,132574,,,57121,81001,5379,2218,44986,70715,4073,1692,2020-11-24T13:24:09Z,16.38771,D+16,Cunningham +16,democrat,north-carolina,2020-11-28T00:49:40.047387Z
37053,Currituck,15946,10079,11,11,Released as a precinct as first report of the night,99,16147,>98%,>98% reported,edison,10,some,,6061,,,11368,3849,554,175,6788,2909,295,87,2020-11-24T13:24:12Z,47.15289,R+47,Tillis +47,republican,north-carolina,2020-11-28T00:49:40.047387Z
37055,Dare,23835,18762,16,16,Released as a separate subtotal as first report of the night,98,24232,98%,98% reported,edison,10,unknown,,12962,,,13581,9284,766,204,10013,8102,517,130,2020-11-24T13:24:13Z,18.02811,R+18,Tillis +18,republican,north-carolina,2020-11-28T00:49:40.047387Z
37057,Davidson,88188,66468,43,43,Released as a precinct as first report of the night,100,88514,>98%,>98% reported,edison,10,unknown,,62552,,,60686,23660,2496,1346,45679,18195,1671,923,2020-11-24T13:24:14Z,41.9853,R+42,Tillis +42,republican,north-carolina,2020-11-28T00:49:40.047387Z
37059,Davie,25162,20100,14,14,Released as a precinct as first report of the night,99,25311,>98%,>98% reported,edison,10,some,,19566,,,17415,6570,781,396,13583,5645,589,283,2020-11-24T13:24:16Z,43.10071,R+43,Tillis +43,republican,north-carolina,2020-11-28T00:49:40.047387Z
37061,Duplin,22432,16628,19,19,Released as a precinct as first report of the night,99,22715,>98%,>98% reported,edison,10,all,,15685,,,12954,8689,477,312,9013,7066,329,220,2020-11-24T13:24:19Z,19.01302,R+19,Tillis +19,republican,north-carolina,2020-11-28T00:49:40.047387Z
37063,Durham,178846,161996,57,57,Released as a separate subtotal as first report of the night,99,179914,>98%,>98% reported,edison,10,unknown,,171389,,,34152,138429,5041,1224,28738,128133,4122,1003,2020-11-24T13:24:20Z,58.30547,D+58,Cunningham +58,democrat,north-carolina,2020-11-28T00:49:40.047387Z
37065,Edgecombe,25318,20224,21,21,Released as a precinct as first report of the night,99,25477,>98%,>98% reported,edison,10,unknown,,28931,,,8582,15952,506,278,6166,13475,381,202,2020-11-24T13:24:21Z,29.10972,D+29,Cunningham +29,democrat,north-carolina,2020-11-28T00:49:40.047387Z
37067,Forsyth,199509,167563,101,101,Released as a precinct as first report of the night,99,201262,>98%,>98% reported,edison,10,all,,181062,,,83228,107277,6533,2471,66194,94577,4952,1840,2020-11-27T16:18:13Z,12.05409,D+12,Cunningham +12,democrat,north-carolina,2020-11-28T00:49:40.047387Z
37069,Franklin,37124,30055,18,18,Released as a separate subtotal as first report of the night,99,37357,>98%,>98% reported,edison,10,all,,25408,,,19654,15659,1246,565,15014,13686,948,407,2020-11-27T16:13:26Z,10.76123,R+11,Tillis +11,republican,north-carolina,2020-11-28T00:49:40.047387Z
37071,Gaston,114201,94917,46,46,Released as a precinct as first report of the night,99,115498,>98%,>98% reported,edison,10,some,,96085,,,69398,39595,3548,1660,56903,34105,2650,1259,2020-11-24T13:24:24Z,26.09697,R+26,Tillis +26,republican,north-carolina,2020-11-28T00:49:40.047387Z
37073,Gates,5885,4332,6,6,Released as a precinct as first report of the night,99,5971,>98%,>98% reported,edison,10,unknown,,3654,,,3205,2474,132,74,2118,2083,82,49,2020-11-24T13:24:25Z,12.42141,R+12,Tillis +12,republican,north-carolina,2020-11-28T00:49:40.047387Z
37075,Graham,4549,3400,4,4,Released as a precinct as first report of the night,98,4665,98%,98% reported,edison,10,some,,3416,,,3355,1013,94,87,2460,808,72,60,2020-11-24T13:24:27Z,51.48384,R+51,Tillis +51,republican,north-carolina,2020-11-28T00:49:40.047387Z
37077,Granville,31359,26560,15,15,Released as a separate subtotal as first report of the night,99,31598,>98%,>98% reported,edison,10,unknown,,28165,,,15687,14368,908,396,12934,12604,713,309,2020-11-24T13:24:28Z,4.20613,R+4,Tillis +4,republican,north-carolina,2020-11-28T00:49:40.047387Z
37079,Greene,8699,6638,10,10,Released as a precinct as first report of the night,99,8753,>98%,>98% reported,edison,10,all,,7894,,,4591,3842,189,77,3228,3227,124,59,2020-11-24T13:24:29Z,8.61019,R+9,Tillis +9,republican,north-carolina,2020-11-28T00:49:40.047387Z
37081,Guilford,282137,236604,165,165,Released as a precinct as first report of the night,99,284486,>98%,>98% reported,edison,10,unknown,,278304,,,104908,165823,8587,2819,83409,144500,6579,2116,2020-11-24T13:24:30Z,21.59057,D+22,Cunningham +22,democrat,north-carolina,2020-11-28T00:49:40.047387Z
37083,Halifax,25577,20165,19,19,"As a precinct in the FIRST cumulative report, along with regular precincts",99,25759,>98%,>98% reported,edison,10,some,,24816,,,9446,15438,456,237,7055,12619,320,171,2020-11-24T13:24:30Z,23.4273,D+23,Cunningham +23,democrat,north-carolina,2020-11-28T00:49:40.047387Z
37085,Harnett,57883,48570,13,13,Released as a precinct as first report of the night,99,58293,>98%,>98% reported,edison,10,unknown,,39147,,,33321,21523,2128,911,27585,18614,1650,721,2020-11-24T13:24:31Z,20.3825,R+20,Tillis +20,republican,north-carolina,2020-11-28T00:49:40.047387Z
37087,Haywood,36283,29050,29,29,Released as a separate subtotal as first report of the night,99,36542,>98%,>98% reported,edison,10,unknown,,25560,,,21502,13113,1081,587,16366,11474,784,426,2020-11-24T13:24:32Z,23.12102,R+23,Tillis +23,republican,north-carolina,2020-11-28T00:49:40.047387Z
37089,Henderson,67873,56299,35,35,Released as a separate subtotal as first report of the night,99,68371,>98%,>98% reported,edison,10,unknown,,53818,,,39359,25782,1964,768,31233,23090,1413,563,2020-11-24T13:24:33Z,20.00354,R+20,Tillis +20,republican,north-carolina,2020-11-28T00:49:40.047387Z
37091,Hertford,10392,8361,13,13,Released as a precinct as first report of the night,98,10634,98%,98% reported,edison,10,all,,10362,,,3305,6815,154,118,2377,5775,120,89,2020-11-24T13:24:34Z,33.77598,D+34,Cunningham +34,democrat,north-carolina,2020-11-28T00:49:40.047387Z
37093,Hoke,21383,17505,15,15,Released as a precinct as first report of the night,97,22016,97%,97% reported,edison,10,unknown,,17363,,,8638,11466,909,370,6642,9899,670,294,2020-11-24T13:24:35Z,13.22546,D+13,Cunningham +13,democrat,north-carolina,2020-11-28T00:49:40.047387Z
37095,Hyde,2469,1228,7,7,"As a subtotal in the FIRST cumulative report, along with regular precincts",99,2492,>98%,>98% reported,edison,10,all,,1194,,,1315,1075,53,26,527,663,23,15,2020-11-24T13:24:36Z,9.72053,R+10,Tillis +10,republican,north-carolina,2020-11-28T00:49:40.047387Z
37097,Iredell,101386,82029,29,29,Released as a precinct as first report of the night,99,102371,>98%,>98% reported,edison,10,unknown,,70424,,,64319,31893,3487,1687,50704,27493,2594,1238,2020-11-24T13:24:37Z,31.98272,R+32,Tillis +32,republican,north-carolina,2020-11-28T00:49:40.047387Z
37099,Jackson,21239,17389,13,13,Released as a precinct as first report of the night,99,21428,>98%,>98% reported,edison,10,all,,15877,,,10763,9382,788,306,8237,8326,600,226,2020-11-24T13:24:37Z,6.50219,R+7,Tillis +7,republican,north-carolina,2020-11-28T00:49:40.047387Z
37101,Johnston,110213,90936,36,36,Released as a precinct as first report of the night,99,111362,>98%,>98% reported,edison,10,all,,69318,,,64822,39771,3953,1667,51819,34792,3071,1254,2020-11-27T15:40:47Z,22.72962,R+23,Tillis +23,republican,north-carolina,2020-11-28T00:49:40.047387Z
37103,Jones,5454,3759,7,7,Released as a separate subtotal as first report of the night,99,5525,>98%,>98% reported,edison,10,all,,3869,,,3046,2124,182,102,1980,1599,125,55,2020-11-24T13:24:38Z,16.90502,R+17,Tillis +17,republican,north-carolina,2020-11-28T00:49:40.047387Z
37105,Lee,28714,28560,10,10,Released as a precinct as first report of the night,99,29008,>98%,>98% reported,edison,10,unknown,,27472,,,15419,11851,979,465,15345,11792,961,462,2020-11-24T13:24:39Z,12.42599,R+12,Tillis +12,republican,north-carolina,2020-11-28T00:49:40.047387Z
37107,Lenoir,28119,23512,22,22,Released as a separate subtotal as first report of the night,99,28409,>98%,>98% reported,edison,10,unknown,,31206,,,13898,13284,591,346,11237,11545,463,267,2020-11-24T13:24:39Z,2.18358,R+2,Tillis +2,republican,north-carolina,2020-11-28T00:49:40.047387Z
37109,Lincoln,49776,41330,23,23,Released as a precinct as first report of the night,99,50217,>98%,>98% reported,edison,10,unknown,,32125,,,34673,12858,1482,763,28331,11323,1106,570,2020-11-24T13:24:40Z,43.82634,R+44,Tillis +44,republican,north-carolina,2020-11-28T00:49:40.047387Z
37113,Macon,20517,16497,15,15,Released as a separate subtotal as first report of the night,99,20743,>98%,>98% reported,edison,10,unknown,,16526,,,13408,6248,521,340,10428,5420,395,254,2020-11-24T13:24:41Z,34.89789,R+35,Tillis +35,republican,north-carolina,2020-11-28T00:49:40.047387Z
37115,Madison,12943,10333,12,12,Released as a separate subtotal as first report of the night,99,13076,>98%,>98% reported,edison,10,unknown,,9320,,,7399,4987,362,195,5583,4360,254,136,2020-11-24T13:24:42Z,18.63556,R+19,Tillis +19,republican,north-carolina,2020-11-28T00:49:40.047387Z
37117,Martin,12424,8819,13,13,Released as a precinct as first report of the night,99,12540,>98%,>98% reported,edison,10,all,,9738,,,6034,5973,257,160,3738,4825,157,99,2020-11-24T13:24:43Z,0.49099,R+0.49,Tillis +0.49,republican,north-carolina,2020-11-28T00:49:40.047387Z
37111,McDowell,22747,16998,17,17,Released as a precinct as first report of the night,99,23003,>98%,>98% reported,edison,10,all,,16757,,,15894,5934,565,354,11564,4831,397,206,2020-11-27T16:20:11Z,43.78599,R+44,Tillis +44,republican,north-carolina,2020-11-28T00:49:40.047387Z
37119,Mecklenburg,562672,494605,195,195,Released as a precinct as first report of the night,99,567053,>98%,>98% reported,edison,10,unknown,,448198,,,186693,350775,19764,5440,155772,318433,16042,4358,2020-11-24T13:24:43Z,29.16122,D+29,Cunningham +29,democrat,north-carolina,2020-11-28T00:49:40.047387Z
37121,Mitchell,8942,7289,9,9,Merged into voters' home precincts and released with cumulative results,99,9041,>98%,>98% reported,edison,10,some,,7526,,,6735,1919,181,107,5357,1698,148,86,2020-11-24T13:24:44Z,53.8582,R+54,Tillis +54,republican,north-carolina,2020-11-28T00:49:40.047387Z
37123,Montgomery,12700,8944,14,14,Released as a separate subtotal as first report of the night,99,12849,>98%,>98% reported,edison,10,unknown,,7418,,,7741,4379,324,256,5226,3313,228,177,2020-11-24T13:24:50Z,26.47244,R+26,Tillis +26,republican,north-carolina,2020-11-28T00:49:40.047387Z
37125,Moore,57823,47885,26,26,Released as a precinct as first report of the night,99,58339,>98%,>98% reported,edison,10,unknown,,44755,,,35682,19633,1760,748,28723,17278,1326,558,2020-11-24T13:24:51Z,27.75539,R+28,Tillis +28,republican,north-carolina,2020-11-28T00:49:40.047387Z
37127,Nash,51895,42553,24,24,Released as a precinct as first report of the night,99,52271,>98%,>98% reported,edison,10,all,,50237,,,24719,25474,1117,585,19557,21712,835,449,2020-11-24T13:24:52Z,1.45486,D+1.5,Cunningham +1.5,democrat,north-carolina,2020-11-28T00:49:40.047387Z
37129,New Hanover,130318,111503,43,43,None,99,131840,>98%,>98% reported,edison,10,all,,105584,,,61415,61702,5516,1685,51361,54730,4162,1250,2020-11-27T16:16:00Z,0.22023,D+0.22,Cunningham +0.22,democrat,north-carolina,2020-11-28T00:49:40.047387Z
37131,Northampton,10011,7598,13,13,"As a subtotal in the FIRST cumulative report, along with regular precincts",99,10109,>98%,>98% reported,edison,10,unknown,,9862,,,3720,6005,187,99,2478,4933,121,66,2020-11-24T13:24:45Z,22.82489,D+23,Cunningham +23,democrat,north-carolina,2020-11-28T00:49:40.047387Z
37133,Onslow,71202,55843,24,24,Released as a precinct as first report of the night,99,72235,>98%,>98% reported,edison,10,none,,47952,,,42868,23344,3627,1363,32807,19589,2485,962,2020-11-24T13:24:46Z,27.42058,R+27,Tillis +27,republican,north-carolina,2020-11-28T00:49:40.047387Z
37135,Orange,84525,75405,41,41,Released as a precinct as first report of the night,99,84997,>98%,>98% reported,edison,10,unknown,,86510,,,20862,61214,1961,488,16115,57329,1592,369,2020-11-24T13:24:47Z,47.73972,D+48,Cunningham +48,democrat,north-carolina,2020-11-28T00:49:40.047387Z
37137,Pamlico,7581,5860,10,10,Released as a separate subtotal as first report of the night,99,7631,>98%,>98% reported,edison,10,unknown,,7046,,,4589,2681,188,123,3372,2287,122,79,2020-11-24T13:24:47Z,25.16818,R+25,Tillis +25,republican,north-carolina,2020-11-28T00:49:40.047387Z
37139,Pasquotank,19648,15927,9,9,Released as a precinct as first report of the night,99,19897,>98%,>98% reported,edison,10,some,,20120,,,9491,9421,538,198,7181,8236,368,142,2020-11-24T13:24:48Z,0.35627,R+0.36,Tillis +0.36,republican,north-carolina,2020-11-28T00:49:40.047387Z
37141,Pender,33759,28981,19,19,Released as a precinct as first report of the night,99,34169,>98%,>98% reported,edison,10,all,,27966,,,20660,11272,1274,553,17640,9923,983,435,2020-11-24T13:24:48Z,27.80888,R+28,Tillis +28,republican,north-carolina,2020-11-28T00:49:40.047387Z
37143,Perquimans,7426,6180,7,7,Released as a precinct as first report of the night,99,7484,>98%,>98% reported,edison,10,unknown,,6298,,,4817,2382,139,88,3945,2059,109,67,2020-11-24T13:24:49Z,32.7902,R+33,Tillis +33,republican,north-carolina,2020-11-28T00:49:40.047387Z
37145,Person,21582,17496,11,11,Released as a separate subtotal as first report of the night,99,21894,>98%,>98% reported,edison,10,some,,21096,,,12192,8475,600,315,9485,7327,446,238,2020-11-24T13:24:50Z,17.22269,R+17,Tillis +17,republican,north-carolina,2020-11-28T00:49:40.047387Z
37147,Pitt,86901,71856,40,40,Released as a precinct as first report of the night,99,87573,>98%,>98% reported,edison,10,unknown,,82850,,,37947,45598,2510,846,30064,39270,1904,618,2020-11-24T13:24:53Z,8.80427,D+9,Cunningham +9,democrat,north-carolina,2020-11-28T00:49:40.047387Z
37149,Polk,12252,9628,7,7,Released as a separate subtotal as first report of the night,99,12358,>98%,>98% reported,edison,10,unknown,,11688,,,7394,4436,286,136,5400,3929,210,89,2020-11-24T13:24:53Z,24.143,R+24,Tillis +24,republican,north-carolina,2020-11-28T00:49:40.047387Z
37151,Randolph,72570,57466,11,22,Released as a separate subtotal as first report of the night,99,73316,>98%,>98% reported,edison,10,unknown,,49222,,,53357,15973,2097,1143,41953,13188,1504,821,2020-11-24T13:24:53Z,51.5144,R+52,Tillis +52,republican,north-carolina,2020-11-28T00:49:40.047387Z
37153,Richmond,20430,16140,16,16,Released as a precinct as first report of the night,98,20763,98%,98% reported,edison,10,all,,17301,,,11002,8510,566,352,8557,6884,441,258,2020-11-24T13:24:54Z,12.19775,R+12,Tillis +12,republican,north-carolina,2020-11-28T00:49:40.047387Z
37155,Robeson,45949,30313,39,39,Released as a precinct as first report of the night,97,47188,97%,97% reported,edison,10,unknown,,29189,,,25211,19135,955,648,15014,14316,596,387,2020-11-27T16:17:25Z,13.22336,R+13,Tillis +13,republican,north-carolina,2020-11-28T00:49:40.047387Z
37157,Rockingham,47313,37113,15,15,Released as a precinct as first report of the night,99,47809,>98%,>98% reported,edison,10,all,,38352,,,28971,16189,1473,680,22066,13520,1049,478,2020-11-27T16:18:51Z,27.01583,R+27,Tillis +27,republican,north-carolina,2020-11-28T00:49:40.047387Z
37159,Rowan,72748,56848,41,41,Released as a separate subtotal as first report of the night,99,73408,>98%,>98% reported,edison,10,unknown,,57107,,,46446,22615,2254,1433,35585,18654,1587,1022,2020-11-24T13:24:55Z,32.75829,R+33,Tillis +33,republican,north-carolina,2020-11-28T00:49:40.047387Z
37161,Rutherford,34067,25582,17,17,Released as a separate subtotal as first report of the night,99,34429,>98%,>98% reported,edison,10,unknown,,27253,,,23596,9136,781,554,17157,7545,517,363,2020-11-24T13:24:55Z,42.44577,R+42,Tillis +42,republican,north-carolina,2020-11-28T00:49:40.047387Z
37163,Sampson,28360,23047,23,23,None,99,28618,>98%,>98% reported,edison,10,some,,23014,,,16521,10818,636,385,13164,9107,481,295,2020-11-24T13:24:56Z,20.10931,R+20,Tillis +20,republican,north-carolina,2020-11-28T00:49:40.047387Z
37165,Scotland,14461,11781,7,7,"As a precinct in the FIRST cumulative report, along with regular precincts",98,14775,98%,98% reported,edison,10,unknown,,14203,,,7066,6850,322,223,5614,5756,240,171,2020-11-24T13:24:56Z,1.49367,R+1.5,Tillis +1.5,republican,north-carolina,2020-11-28T00:49:40.047387Z
37167,Stanly,33571,26823,22,22,Released as a separate subtotal as first report of the night,99,33939,>98%,>98% reported,edison,10,unknown,,26976,,,23891,8045,961,674,19032,6565,712,514,2020-11-24T13:24:57Z,47.20145,R+47,Tillis +47,republican,north-carolina,2020-11-28T00:49:40.047387Z
37169,Stokes,25480,18032,18,18,Released as a precinct as first report of the night,99,25702,>98%,>98% reported,edison,10,all,,16251,,,18599,5611,812,458,12829,4385,510,308,2020-11-27T16:18:26Z,50.97331,R+51,Tillis +51,republican,north-carolina,2020-11-28T00:49:40.047387Z
37171,Surry,36303,29411,24,24,Released as a precinct as first report of the night,99,36638,>98%,>98% reported,edison,10,unknown,,29027,,,25475,9267,1030,531,20347,7897,772,395,2020-11-24T13:24:57Z,44.64645,R+45,Tillis +45,republican,north-carolina,2020-11-28T00:49:40.047387Z
37173,Swain,6971,5331,5,5,Released as a separate subtotal as first report of the night,99,7068,>98%,>98% reported,edison,10,unknown,,5091,,,3846,2696,298,131,2792,2237,208,94,2020-11-24T13:24:59Z,16.49692,R+16,Tillis +16,republican,north-carolina,2020-11-28T00:49:40.047387Z
37175,Transylvania,20205,16692,15,15,Released as a separate subtotal as first report of the night,99,20404,>98%,>98% reported,edison,10,unknown,,17426,,,11209,8158,552,286,8631,7451,411,199,2020-11-24T13:24:59Z,15.10022,R+15,Tillis +15,republican,north-carolina,2020-11-28T00:49:40.047387Z
37177,Tyrrell,1784,1217,6,6,Released as a precinct as first report of the night,98,1817,98%,98% reported,edison,10,all,,1482,,,945,778,37,24,650,526,24,17,2020-11-24T13:25:00Z,9.36099,R+9,Tillis +9,republican,north-carolina,2020-11-28T00:49:40.047387Z
37179,Union,129844,108625,52,52,None,99,131011,>98%,>98% reported,edison,10,none,,96600,,,79645,45096,3765,1338,64870,39843,2895,1017,2020-11-24T13:24:27Z,26.60808,R+27,Tillis +27,republican,north-carolina,2020-11-28T00:49:40.047387Z
37181,Vance,20815,17446,12,12,Released as a precinct as first report of the night,99,20999,>98%,>98% reported,edison,10,unknown,,22971,,,7876,12247,455,237,6468,10437,361,180,2020-11-24T13:24:28Z,20.99928,D+21,Cunningham +21,democrat,north-carolina,2020-11-28T00:49:40.047387Z
37183,Wake,627228,536392,206,206,Released as a precinct as first report of the night,99,631830,>98%,>98% reported,edison,10,all,,457848,,,232388,367718,22229,4893,183752,331620,17305,3715,2020-11-24T13:24:29Z,21.57589,D+22,Cunningham +22,democrat,north-carolina,2020-11-28T00:49:40.047387Z
37185,Warren,10263,8270,14,14,Released as a separate subtotal as first report of the night,100,10293,>98%,>98% reported,edison,10,all,,10661,,,3520,6437,194,112,2548,5488,144,90,2020-11-24T13:24:30Z,28.42249,D+28,Cunningham +28,democrat,north-carolina,2020-11-28T00:49:40.047387Z
37187,Washington,6145,4899,6,6,Released as a separate subtotal as first report of the night,99,6205,>98%,>98% reported,edison,10,unknown,,6341,,,2584,3329,128,104,1949,2781,92,77,2020-11-24T13:24:31Z,12.12368,D+12,Cunningham +12,democrat,north-carolina,2020-11-28T00:49:40.047387Z
37189,Watauga,31878,27514,20,20,Released as a precinct as first report of the night,99,32220,>98%,>98% reported,edison,10,all,,26600,,,14216,16193,1138,331,11475,14899,886,254,2020-11-24T13:24:31Z,6.20177,D+6,Cunningham +6,democrat,north-carolina,2020-11-28T00:49:40.047387Z
37191,Wayne,54944,46024,28,28,Released as a precinct as first report of the night,99,55537,>98%,>98% reported,edison,10,unknown,,59616,,,29174,23528,1419,823,23958,20355,1068,643,2020-11-24T13:24:33Z,10.27592,R+10,Tillis +10,republican,north-carolina,2020-11-28T00:49:40.047387Z
37193,Wilkes,35073,24027,27,27,"As a precinct in the FIRST cumulative report, along with regular precincts",99,35464,>98%,>98% reported,edison,10,unknown,,22650,,,25488,8074,924,587,16832,6244,584,367,2020-11-27T16:14:31Z,49.65073,R+50,Tillis +50,republican,north-carolina,2020-11-28T00:49:40.047387Z
37195,Wilson,40411,31980,24,24,Released as a precinct as first report of the night,99,40735,>98%,>98% reported,edison,10,unknown,,40813,,,18642,20445,885,439,14176,16848,629,327,2020-11-24T13:24:34Z,4.46166,D+4,Cunningham +4,democrat,north-carolina,2020-11-28T00:49:40.047387Z
37197,Yadkin,19768,13403,12,12,"As a precinct in the FIRST cumulative report, along with regular precincts",99,19923,>98%,>98% reported,edison,10,unknown,,9283,,,14798,4036,553,381,9804,3028,334,237,2020-11-24T13:24:35Z,54.44152,R+54,Tillis +54,republican,north-carolina,2020-11-28T00:49:40.047387Z
37199,Yancey,11280,9076,11,11,Released as a separate subtotal as first report of the night,99,11352,>98%,>98% reported,edison,10,all,,8693,,,7038,3833,250,159,5448,3335,191,102,2020-11-24T13:24:36Z,28.41312,R+28,Tillis +28,republican,north-carolina,2020-11-28T00:49:40.047387Z
