fips,name,votes,absentee_votes,reporting,precincts,absentee_method,eevp,tot_exp_vote,eevp_value,eevp_display,eevp_source,turnout_stage,absentee_count_progress,absentee_max_ballots,results_swalwelle,results_haydena,results_absentee_swalwelle,results_absentee_haydena,last_updated,leader_margin_value,leader_margin_display,leader_margin_name_display,leader_party_id,race_id_race,race_slug_race,url_race,state_page_url_race,ap_polls_page_race,edison_exit_polls_page_race,race_type_race,election_type_race,election_date_race,runoff_race,race_name_race,office_race,officeid_race,race_rating_race,seat_race,seat_name_race,state_id_race,state_slug_race,state_name_race,state_nyt_abbrev_race,state_shape_race,state_aspect_ratio_race,party_id_race,uncontested_race,report_race,result_race,result_source_race,gain_race,lost_seat_race,votes_race,absentee_votes_race,absentee_counties_race,absentee_count_progress_race,poll_display_race,poll_countdown_display_race,poll_waiting_display_race,poll_time_race,poll_time_short_race,precincts_reporting_race,precincts_total_race,reporting_display_race,reporting_value_race,eevp_race,tot_exp_vote_race,eevp_source_race,eevp_value_race,eevp_display_race,county_data_source_race,incumbent_party_race,no_forecast_race,last_updated_race,has_incumbent_race,leader_margin_value_race,leader_margin_votes_race,leader_margin_display_race,leader_margin_name_display_race,leader_party_id_race,edison_certified_race,expectations_text_race,expectations_text_short_race,absentee_ballot_deadline_race,absentee_postmark_deadline_race,winner_called_timestamp_race
06001,Alameda,299525,107207,202,202,"Released as first report, then NOT included in cumulative results",100,286338,>98%,>98% reported,edison,2,unknown,533518,213864,85661,84014,23193,2020-11-24T13:23:30Z,42.8021,D+43,Swalwell +43,democrat,CA-G-H-15-2020-11-03,ca-house-general-district-015-2020-11-03,https://www.nytimes.com/interactive/2020/11/03/us/elections/results-california-house-district-15.html,https://www.nytimes.com/interactive/2020/11/03/us/elections/results-california.html,https://www.nytimes.com/interactive/2020/11/03/us/elections/ap-polls-california.html,https://www.nytimes.com/interactive/2020/11/03/us/elections/exit-polls-california.html,house,general,2020-11-03,FALSE,U.S. House District 15,U.S. House,H,solid-dem,15,District 15,CA,california,California,Calif.,vertical,0.5,"",FALSE,TRUE,winner,AP,FALSE,"",342543,130479,2,unknown,Polls close at 11 p.m. Eastern time.,Polls close in,Polls have closed.,2020-11-04T04:00:00.000Z,11 p.m.,271,271,100% reporting,100%,100,325000,edison,>98%,>98% reported,edison,democrat,FALSE,2020-11-24T13:23:25Z,TRUE,41.82453,143267,D+42,Swalwell +42,democrat,FALSE,"All active registered voters were sent mail ballots, and late-arriving mail ballots and provisional ballots will be counted in the days and weeks after the election.","All active registered voters were sent mail ballots, and late-arriving mail ballots and provisional ballots will be counted in the days and weeks after the election.",17,0,1604472039876
06013,Contra Costa,43018,23272,69,69,Released as a separate subtotal as first report of the night,100,38033,>98%,>98% reported,edison,4,all,393525,29041,13977,17121,6151,2020-11-24T13:23:31Z,35.0179,D+35,Swalwell +35,democrat,CA-G-H-15-2020-11-03,ca-house-general-district-015-2020-11-03,https://www.nytimes.com/interactive/2020/11/03/us/elections/results-california-house-district-15.html,https://www.nytimes.com/interactive/2020/11/03/us/elections/results-california.html,https://www.nytimes.com/interactive/2020/11/03/us/elections/ap-polls-california.html,https://www.nytimes.com/interactive/2020/11/03/us/elections/exit-polls-california.html,house,general,2020-11-03,FALSE,U.S. House District 15,U.S. House,H,solid-dem,15,District 15,CA,california,California,Calif.,vertical,0.5,"",FALSE,TRUE,winner,AP,FALSE,"",342543,130479,2,unknown,Polls close at 11 p.m. Eastern time.,Polls close in,Polls have closed.,2020-11-04T04:00:00.000Z,11 p.m.,271,271,100% reporting,100%,100,325000,edison,>98%,>98% reported,edison,democrat,FALSE,2020-11-24T13:23:25Z,TRUE,41.82453,143267,D+42,Swalwell +42,democrat,FALSE,"All active registered voters were sent mail ballots, and late-arriving mail ballots and provisional ballots will be counted in the days and weeks after the election.","All active registered voters were sent mail ballots, and late-arriving mail ballots and provisional ballots will be counted in the days and weeks after the election.",17,0,1604472039876
