fips,name,votes,absentee_votes,reporting,precincts,absentee_method,eevp,tot_exp_vote,eevp_value,eevp_display,eevp_source,turnout_stage,absentee_count_progress,absentee_max_ballots,results_thompsonm,results_giblins,results_absentee_thompsonm,results_absentee_giblins,last_updated,leader_margin_value,leader_margin_display,leader_margin_name_display,leader_party_id,race_id_race,race_slug_race,url_race,state_page_url_race,ap_polls_page_race,edison_exit_polls_page_race,race_type_race,election_type_race,election_date_race,runoff_race,race_name_race,office_race,officeid_race,race_rating_race,seat_race,seat_name_race,state_id_race,state_slug_race,state_name_race,state_nyt_abbrev_race,state_shape_race,state_aspect_ratio_race,party_id_race,uncontested_race,report_race,result_race,result_source_race,gain_race,lost_seat_race,votes_race,absentee_votes_race,absentee_counties_race,absentee_count_progress_race,poll_display_race,poll_countdown_display_race,poll_waiting_display_race,poll_time_race,poll_time_short_race,precincts_reporting_race,precincts_total_race,reporting_display_race,reporting_value_race,eevp_race,tot_exp_vote_race,eevp_source_race,eevp_value_race,eevp_display_race,county_data_source_race,incumbent_party_race,no_forecast_race,last_updated_race,has_incumbent_race,leader_margin_value_race,leader_margin_votes_race,leader_margin_display_race,leader_margin_name_display_race,leader_party_id_race,edison_certified_race,expectations_text_race,expectations_text_short_race,absentee_ballot_deadline_race,absentee_postmark_deadline_race,winner_called_timestamp_race
06013,Contra Costa,47943,26718,83,83,Released as a separate subtotal as first report of the night,100,45663,>98%,>98% reported,edison,4,all,393525,36998,10945,21878,4840,2020-11-24T13:23:40Z,54.34161,D+54,Thompson +54,democrat,CA-G-H-5-2020-11-03,ca-house-general-district-005-2020-11-03,https://www.nytimes.com/interactive/2020/11/03/us/elections/results-california-house-district-5.html,https://www.nytimes.com/interactive/2020/11/03/us/elections/results-california.html,https://www.nytimes.com/interactive/2020/11/03/us/elections/ap-polls-california.html,https://www.nytimes.com/interactive/2020/11/03/us/elections/exit-polls-california.html,house,general,2020-11-03,FALSE,U.S. House District 5,U.S. House,H,solid-dem,5,District 5,CA,california,California,Calif.,vertical,0.5,"",FALSE,TRUE,winner,AP,FALSE,"",341919,68433,2,unknown,Polls close at 11 p.m. Eastern time.,Polls close in,Polls have closed.,2020-11-04T04:00:00.000Z,11 p.m.,752,784,96% reporting,96%,98,348000,edison,98%,98% reported,edison,democrat,FALSE,2020-11-25T02:41:09Z,TRUE,53.56971,183165,D+54,Thompson +54,democrat,FALSE,"All active registered voters were sent mail ballots, and late-arriving mail ballots and provisional ballots will be counted in the days and weeks after the election.","All active registered voters were sent mail ballots, and late-arriving mail ballots and provisional ballots will be counted in the days and weeks after the election.",17,0,1604465942865
06033,Lake,5279,0,13,38,Released as a separate subtotal as first report of the night,35,15185,35%,35% reported,edison,2,unknown,23517,3573,1706,0,0,2020-11-24T13:23:41Z,35.36655,D+35,Thompson +35,democrat,CA-G-H-5-2020-11-03,ca-house-general-district-005-2020-11-03,https://www.nytimes.com/interactive/2020/11/03/us/elections/results-california-house-district-5.html,https://www.nytimes.com/interactive/2020/11/03/us/elections/results-california.html,https://www.nytimes.com/interactive/2020/11/03/us/elections/ap-polls-california.html,https://www.nytimes.com/interactive/2020/11/03/us/elections/exit-polls-california.html,house,general,2020-11-03,FALSE,U.S. House District 5,U.S. House,H,solid-dem,5,District 5,CA,california,California,Calif.,vertical,0.5,"",FALSE,TRUE,winner,AP,FALSE,"",341919,68433,2,unknown,Polls close at 11 p.m. Eastern time.,Polls close in,Polls have closed.,2020-11-04T04:00:00.000Z,11 p.m.,752,784,96% reporting,96%,98,348000,edison,98%,98% reported,edison,democrat,FALSE,2020-11-25T02:41:09Z,TRUE,53.56971,183165,D+54,Thompson +54,democrat,FALSE,"All active registered voters were sent mail ballots, and late-arriving mail ballots and provisional ballots will be counted in the days and weeks after the election.","All active registered voters were sent mail ballots, and late-arriving mail ballots and provisional ballots will be counted in the days and weeks after the election.",17,0,1604465942865
06055,Napa,66605,41715,184,191,Other,96,69118,96%,96% reported,edison,4,all,82274,49270,17335,32339,9376,2020-11-24T13:23:41Z,47.94685,D+48,Thompson +48,democrat,CA-G-H-5-2020-11-03,ca-house-general-district-005-2020-11-03,https://www.nytimes.com/interactive/2020/11/03/us/elections/results-california-house-district-5.html,https://www.nytimes.com/interactive/2020/11/03/us/elections/results-california.html,https://www.nytimes.com/interactive/2020/11/03/us/elections/ap-polls-california.html,https://www.nytimes.com/interactive/2020/11/03/us/elections/exit-polls-california.html,house,general,2020-11-03,FALSE,U.S. House District 5,U.S. House,H,solid-dem,5,District 5,CA,california,California,Calif.,vertical,0.5,"",FALSE,TRUE,winner,AP,FALSE,"",341919,68433,2,unknown,Polls close at 11 p.m. Eastern time.,Polls close in,Polls have closed.,2020-11-04T04:00:00.000Z,11 p.m.,752,784,96% reporting,96%,98,348000,edison,98%,98% reported,edison,democrat,FALSE,2020-11-25T02:41:09Z,TRUE,53.56971,183165,D+54,Thompson +54,democrat,FALSE,"All active registered voters were sent mail ballots, and late-arriving mail ballots and provisional ballots will be counted in the days and weeks after the election.","All active registered voters were sent mail ballots, and late-arriving mail ballots and provisional ballots will be counted in the days and weeks after the election.",17,0,1604465942865
06095,Solano,70623,0,89,89,Released as a separate subtotal as first report of the night,100,68106,>98%,>98% reported,edison,2,unknown,140931,55271,15352,0,0,2020-11-25T02:41:06Z,56.52408,D+57,Thompson +57,democrat,CA-G-H-5-2020-11-03,ca-house-general-district-005-2020-11-03,https://www.nytimes.com/interactive/2020/11/03/us/elections/results-california-house-district-5.html,https://www.nytimes.com/interactive/2020/11/03/us/elections/results-california.html,https://www.nytimes.com/interactive/2020/11/03/us/elections/ap-polls-california.html,https://www.nytimes.com/interactive/2020/11/03/us/elections/exit-polls-california.html,house,general,2020-11-03,FALSE,U.S. House District 5,U.S. House,H,solid-dem,5,District 5,CA,california,California,Calif.,vertical,0.5,"",FALSE,TRUE,winner,AP,FALSE,"",341919,68433,2,unknown,Polls close at 11 p.m. Eastern time.,Polls close in,Polls have closed.,2020-11-04T04:00:00.000Z,11 p.m.,752,784,96% reporting,96%,98,348000,edison,98%,98% reported,edison,democrat,FALSE,2020-11-25T02:41:09Z,TRUE,53.56971,183165,D+54,Thompson +54,democrat,FALSE,"All active registered voters were sent mail ballots, and late-arriving mail ballots and provisional ballots will be counted in the days and weeks after the election.","All active registered voters were sent mail ballots, and late-arriving mail ballots and provisional ballots will be counted in the days and weeks after the election.",17,0,1604465942865
06097,Sonoma,151469,0,383,383,Released as a separate subtotal as first report of the night,100,149688,>98%,>98% reported,edison,4,all,248885,117430,34039,0,0,2020-11-24T13:21:49Z,55.05483,D+55,Thompson +55,democrat,CA-G-H-5-2020-11-03,ca-house-general-district-005-2020-11-03,https://www.nytimes.com/interactive/2020/11/03/us/elections/results-california-house-district-5.html,https://www.nytimes.com/interactive/2020/11/03/us/elections/results-california.html,https://www.nytimes.com/interactive/2020/11/03/us/elections/ap-polls-california.html,https://www.nytimes.com/interactive/2020/11/03/us/elections/exit-polls-california.html,house,general,2020-11-03,FALSE,U.S. House District 5,U.S. House,H,solid-dem,5,District 5,CA,california,California,Calif.,vertical,0.5,"",FALSE,TRUE,winner,AP,FALSE,"",341919,68433,2,unknown,Polls close at 11 p.m. Eastern time.,Polls close in,Polls have closed.,2020-11-04T04:00:00.000Z,11 p.m.,752,784,96% reporting,96%,98,348000,edison,98%,98% reported,edison,democrat,FALSE,2020-11-25T02:41:09Z,TRUE,53.56971,183165,D+54,Thompson +54,democrat,FALSE,"All active registered voters were sent mail ballots, and late-arriving mail ballots and provisional ballots will be counted in the days and weeks after the election.","All active registered voters were sent mail ballots, and late-arriving mail ballots and provisional ballots will be counted in the days and weeks after the election.",17,0,1604465942865
