fips,name,votes,absentee_votes,reporting,precincts,absentee_method,eevp,tot_exp_vote,eevp_value,eevp_display,eevp_source,turnout_stage,absentee_count_progress,absentee_max_ballots,results_fergusond,results_almonordv,results_absentee_fergusond,results_absentee_almonordv,last_updated,leader_margin_value,leader_margin_display,leader_margin_name_display,leader_party_id,results_write_ins,results_absentee_write_ins,race_id_race,race_slug_race,url_race,state_page_url_race,ap_polls_page_race,edison_exit_polls_page_race,race_type_race,election_type_race,election_date_race,runoff_race,race_name_race,office_race,officeid_race,race_rating_race,seat_race,seat_name_race,state_id_race,state_slug_race,state_name_race,state_nyt_abbrev_race,state_shape_race,state_aspect_ratio_race,party_id_race,uncontested_race,report_race,result_race,result_source_race,gain_race,lost_seat_race,votes_race,absentee_votes_race,absentee_counties_race,absentee_count_progress_race,poll_display_race,poll_countdown_display_race,poll_waiting_display_race,poll_time_race,poll_time_short_race,precincts_reporting_race,precincts_total_race,reporting_display_race,reporting_value_race,eevp_race,tot_exp_vote_race,eevp_source_race,eevp_value_race,eevp_display_race,county_data_source_race,incumbent_party_race,no_forecast_race,last_updated_race,has_incumbent_race,leader_margin_value_race,leader_margin_votes_race,leader_margin_display_race,leader_margin_name_display_race,leader_party_id_race,edison_certified_race,expectations_text_race,expectations_text_short_race,absentee_ballot_deadline_race,absentee_postmark_deadline_race,winner_called_timestamp_race
13045,Carroll,53072,39064,28,28,None,100,53072,>98%,>98% reported,edison,10,unknown,31790,38034,15038,26829,12235,2020-11-24T13:25:24Z,43.32982,R+43,Ferguson +43,republican,,,GA-G-H-3-2020-11-03,ga-house-general-district-003-2020-11-03,https://www.nytimes.com/interactive/2020/11/03/us/elections/results-georgia-house-district-3.html,https://www.nytimes.com/interactive/2020/11/03/us/elections/results-georgia.html,https://www.nytimes.com/interactive/2020/11/03/us/elections/ap-polls-georgia.html,https://www.nytimes.com/interactive/2020/11/03/us/elections/exit-polls-georgia.html,house,general,2020-11-03,FALSE,U.S. House District 3,U.S. House,H,solid-rep,3,District 3,GA,georgia,Georgia,Ga.,vertical,1.3,"",FALSE,TRUE,winner,AP,FALSE,"",371336,281571,13,unknown,Polls close at 7 p.m. Eastern time.,Polls close in,Polls have closed.,2020-11-04T00:00:00.000Z,7 p.m.,183,183,100% reporting,100%,100,371336,edison,>98%,>98% reported,edison,republican,FALSE,2020-11-24T13:24:18Z,TRUE,30.08973,111734,R+30,Ferguson +30,republican,TRUE,"Because of the small margin between the candidates, the secretary of state authorized a hand recount of the presidential election in the state.","Because of the small margin between the candidates, the secretary of state authorized a hand recount of the presidential election in the state.",0,0,1604457012517
13077,Coweta,74987,51482,26,26,None,100,74987,>98%,>98% reported,edison,10,unknown,37867,52959,22028,34305,17177,2020-11-24T13:25:12Z,41.24848,R+41,Ferguson +41,republican,,,GA-G-H-3-2020-11-03,ga-house-general-district-003-2020-11-03,https://www.nytimes.com/interactive/2020/11/03/us/elections/results-georgia-house-district-3.html,https://www.nytimes.com/interactive/2020/11/03/us/elections/results-georgia.html,https://www.nytimes.com/interactive/2020/11/03/us/elections/ap-polls-georgia.html,https://www.nytimes.com/interactive/2020/11/03/us/elections/exit-polls-georgia.html,house,general,2020-11-03,FALSE,U.S. House District 3,U.S. House,H,solid-rep,3,District 3,GA,georgia,Georgia,Ga.,vertical,1.3,"",FALSE,TRUE,winner,AP,FALSE,"",371336,281571,13,unknown,Polls close at 7 p.m. Eastern time.,Polls close in,Polls have closed.,2020-11-04T00:00:00.000Z,7 p.m.,183,183,100% reporting,100%,100,371336,edison,>98%,>98% reported,edison,republican,FALSE,2020-11-24T13:24:18Z,TRUE,30.08973,111734,R+30,Ferguson +30,republican,TRUE,"Because of the small margin between the candidates, the secretary of state authorized a hand recount of the presidential election in the state.","Because of the small margin between the candidates, the secretary of state authorized a hand recount of the presidential election in the state.",0,0,1604457012517
13113,Fayette,58263,50017,30,30,Other,100,58263,>98%,>98% reported,edison,10,unknown,60498,35507,22756,29564,20453,2020-11-24T13:25:13Z,21.88524,R+22,Ferguson +22,republican,,,GA-G-H-3-2020-11-03,ga-house-general-district-003-2020-11-03,https://www.nytimes.com/interactive/2020/11/03/us/elections/results-georgia-house-district-3.html,https://www.nytimes.com/interactive/2020/11/03/us/elections/results-georgia.html,https://www.nytimes.com/interactive/2020/11/03/us/elections/ap-polls-georgia.html,https://www.nytimes.com/interactive/2020/11/03/us/elections/exit-polls-georgia.html,house,general,2020-11-03,FALSE,U.S. House District 3,U.S. House,H,solid-rep,3,District 3,GA,georgia,Georgia,Ga.,vertical,1.3,"",FALSE,TRUE,winner,AP,FALSE,"",371336,281571,13,unknown,Polls close at 7 p.m. Eastern time.,Polls close in,Polls have closed.,2020-11-04T00:00:00.000Z,7 p.m.,183,183,100% reporting,100%,100,371336,edison,>98%,>98% reported,edison,republican,FALSE,2020-11-24T13:24:18Z,TRUE,30.08973,111734,R+30,Ferguson +30,republican,TRUE,"Because of the small margin between the candidates, the secretary of state authorized a hand recount of the presidential election in the state.","Because of the small margin between the candidates, the secretary of state authorized a hand recount of the presidential election in the state.",0,0,1604457012517
13145,Harris,19543,12732,12,12,None,100,19543,>98%,>98% reported,edison,10,unknown,12696,14655,4888,8960,3772,2020-11-24T13:25:14Z,49.97697,R+50,Ferguson +50,republican,,,GA-G-H-3-2020-11-03,ga-house-general-district-003-2020-11-03,https://www.nytimes.com/interactive/2020/11/03/us/elections/results-georgia-house-district-3.html,https://www.nytimes.com/interactive/2020/11/03/us/elections/results-georgia.html,https://www.nytimes.com/interactive/2020/11/03/us/elections/ap-polls-georgia.html,https://www.nytimes.com/interactive/2020/11/03/us/elections/exit-polls-georgia.html,house,general,2020-11-03,FALSE,U.S. House District 3,U.S. House,H,solid-rep,3,District 3,GA,georgia,Georgia,Ga.,vertical,1.3,"",FALSE,TRUE,winner,AP,FALSE,"",371336,281571,13,unknown,Polls close at 7 p.m. Eastern time.,Polls close in,Polls have closed.,2020-11-04T00:00:00.000Z,7 p.m.,183,183,100% reporting,100%,100,371336,edison,>98%,>98% reported,edison,republican,FALSE,2020-11-24T13:24:18Z,TRUE,30.08973,111734,R+30,Ferguson +30,republican,TRUE,"Because of the small margin between the candidates, the secretary of state authorized a hand recount of the presidential election in the state.","Because of the small margin between the candidates, the secretary of state authorized a hand recount of the presidential election in the state.",0,0,1604457012517
13149,Heard,5189,3416,6,6,Merged into voters' home precincts and released with cumulative results,100,5189,>98%,>98% reported,edison,10,all,2362,4444,739,2831,583,2020-11-24T13:25:15Z,71.40104,R+71,Ferguson +71,republican,6,2,GA-G-H-3-2020-11-03,ga-house-general-district-003-2020-11-03,https://www.nytimes.com/interactive/2020/11/03/us/elections/results-georgia-house-district-3.html,https://www.nytimes.com/interactive/2020/11/03/us/elections/results-georgia.html,https://www.nytimes.com/interactive/2020/11/03/us/elections/ap-polls-georgia.html,https://www.nytimes.com/interactive/2020/11/03/us/elections/exit-polls-georgia.html,house,general,2020-11-03,FALSE,U.S. House District 3,U.S. House,H,solid-rep,3,District 3,GA,georgia,Georgia,Ga.,vertical,1.3,"",FALSE,TRUE,winner,AP,FALSE,"",371336,281571,13,unknown,Polls close at 7 p.m. Eastern time.,Polls close in,Polls have closed.,2020-11-04T00:00:00.000Z,7 p.m.,183,183,100% reporting,100%,100,371336,edison,>98%,>98% reported,edison,republican,FALSE,2020-11-24T13:24:18Z,TRUE,30.08973,111734,R+30,Ferguson +30,republican,TRUE,"Because of the small margin between the candidates, the secretary of state authorized a hand recount of the presidential election in the state.","Because of the small margin between the candidates, the secretary of state authorized a hand recount of the presidential election in the state.",0,0,1604457012517
13151,Henry,36932,31949,10,10,Other,100,36932,>98%,>98% reported,edison,10,unknown,101421,13880,23052,11799,20150,2020-11-24T13:25:16Z,24.83483,D+25,Almonord +25,democrat,,,GA-G-H-3-2020-11-03,ga-house-general-district-003-2020-11-03,https://www.nytimes.com/interactive/2020/11/03/us/elections/results-georgia-house-district-3.html,https://www.nytimes.com/interactive/2020/11/03/us/elections/results-georgia.html,https://www.nytimes.com/interactive/2020/11/03/us/elections/ap-polls-georgia.html,https://www.nytimes.com/interactive/2020/11/03/us/elections/exit-polls-georgia.html,house,general,2020-11-03,FALSE,U.S. House District 3,U.S. House,H,solid-rep,3,District 3,GA,georgia,Georgia,Ga.,vertical,1.3,"",FALSE,TRUE,winner,AP,FALSE,"",371336,281571,13,unknown,Polls close at 7 p.m. Eastern time.,Polls close in,Polls have closed.,2020-11-04T00:00:00.000Z,7 p.m.,183,183,100% reporting,100%,100,371336,edison,>98%,>98% reported,edison,republican,FALSE,2020-11-24T13:24:18Z,TRUE,30.08973,111734,R+30,Ferguson +30,republican,TRUE,"Because of the small margin between the candidates, the secretary of state authorized a hand recount of the presidential election in the state.","Because of the small margin between the candidates, the secretary of state authorized a hand recount of the presidential election in the state.",0,0,1604457012517
13171,Lamar,8812,6599,6,6,None,100,8812,>98%,>98% reported,edison,10,all,6784,6365,2447,4614,1985,2020-11-24T13:25:18Z,44.4621,R+44,Ferguson +44,republican,,,GA-G-H-3-2020-11-03,ga-house-general-district-003-2020-11-03,https://www.nytimes.com/interactive/2020/11/03/us/elections/results-georgia-house-district-3.html,https://www.nytimes.com/interactive/2020/11/03/us/elections/results-georgia.html,https://www.nytimes.com/interactive/2020/11/03/us/elections/ap-polls-georgia.html,https://www.nytimes.com/interactive/2020/11/03/us/elections/exit-polls-georgia.html,house,general,2020-11-03,FALSE,U.S. House District 3,U.S. House,H,solid-rep,3,District 3,GA,georgia,Georgia,Ga.,vertical,1.3,"",FALSE,TRUE,winner,AP,FALSE,"",371336,281571,13,unknown,Polls close at 7 p.m. Eastern time.,Polls close in,Polls have closed.,2020-11-04T00:00:00.000Z,7 p.m.,183,183,100% reporting,100%,100,371336,edison,>98%,>98% reported,edison,republican,FALSE,2020-11-24T13:24:18Z,TRUE,30.08973,111734,R+30,Ferguson +30,republican,TRUE,"Because of the small margin between the candidates, the secretary of state authorized a hand recount of the presidential election in the state.","Because of the small margin between the candidates, the secretary of state authorized a hand recount of the presidential election in the state.",0,0,1604457012517
13199,Meriwether,10542,7201,14,14,Released as a precinct as first report of the night,100,10542,>98%,>98% reported,edison,10,unknown,5128,6523,4007,4312,2889,2020-11-24T13:25:40Z,23.86644,R+24,Ferguson +24,republican,12,0,GA-G-H-3-2020-11-03,ga-house-general-district-003-2020-11-03,https://www.nytimes.com/interactive/2020/11/03/us/elections/results-georgia-house-district-3.html,https://www.nytimes.com/interactive/2020/11/03/us/elections/results-georgia.html,https://www.nytimes.com/interactive/2020/11/03/us/elections/ap-polls-georgia.html,https://www.nytimes.com/interactive/2020/11/03/us/elections/exit-polls-georgia.html,house,general,2020-11-03,FALSE,U.S. House District 3,U.S. House,H,solid-rep,3,District 3,GA,georgia,Georgia,Ga.,vertical,1.3,"",FALSE,TRUE,winner,AP,FALSE,"",371336,281571,13,unknown,Polls close at 7 p.m. Eastern time.,Polls close in,Polls have closed.,2020-11-04T00:00:00.000Z,7 p.m.,183,183,100% reporting,100%,100,371336,edison,>98%,>98% reported,edison,republican,FALSE,2020-11-24T13:24:18Z,TRUE,30.08973,111734,R+30,Ferguson +30,republican,TRUE,"Because of the small margin between the candidates, the secretary of state authorized a hand recount of the presidential election in the state.","Because of the small margin between the candidates, the secretary of state authorized a hand recount of the presidential election in the state.",0,0,1604457012517
13215,Muscogee,22431,18141,7,7,Merged into voters' home precincts and released with cumulative results,100,22431,>98%,>98% reported,edison,10,unknown,59253,14320,8111,11159,6982,2020-11-24T13:25:22Z,27.68044,R+28,Ferguson +28,republican,0,0,GA-G-H-3-2020-11-03,ga-house-general-district-003-2020-11-03,https://www.nytimes.com/interactive/2020/11/03/us/elections/results-georgia-house-district-3.html,https://www.nytimes.com/interactive/2020/11/03/us/elections/results-georgia.html,https://www.nytimes.com/interactive/2020/11/03/us/elections/ap-polls-georgia.html,https://www.nytimes.com/interactive/2020/11/03/us/elections/exit-polls-georgia.html,house,general,2020-11-03,FALSE,U.S. House District 3,U.S. House,H,solid-rep,3,District 3,GA,georgia,Georgia,Ga.,vertical,1.3,"",FALSE,TRUE,winner,AP,FALSE,"",371336,281571,13,unknown,Polls close at 7 p.m. Eastern time.,Polls close in,Polls have closed.,2020-11-04T00:00:00.000Z,7 p.m.,183,183,100% reporting,100%,100,371336,edison,>98%,>98% reported,edison,republican,FALSE,2020-11-24T13:24:18Z,TRUE,30.08973,111734,R+30,Ferguson +30,republican,TRUE,"Because of the small margin between the candidates, the secretary of state authorized a hand recount of the presidential election in the state.","Because of the small margin between the candidates, the secretary of state authorized a hand recount of the presidential election in the state.",0,0,1604457012517
13231,Pike,10481,7895,8,8,Released as a precinct at the end of tabulation,100,10481,>98%,>98% reported,edison,10,some,7038,9112,1369,6776,1119,2020-11-24T13:25:23Z,73.87654,R+74,Ferguson +74,republican,,,GA-G-H-3-2020-11-03,ga-house-general-district-003-2020-11-03,https://www.nytimes.com/interactive/2020/11/03/us/elections/results-georgia-house-district-3.html,https://www.nytimes.com/interactive/2020/11/03/us/elections/results-georgia.html,https://www.nytimes.com/interactive/2020/11/03/us/elections/ap-polls-georgia.html,https://www.nytimes.com/interactive/2020/11/03/us/elections/exit-polls-georgia.html,house,general,2020-11-03,FALSE,U.S. House District 3,U.S. House,H,solid-rep,3,District 3,GA,georgia,Georgia,Ga.,vertical,1.3,"",FALSE,TRUE,winner,AP,FALSE,"",371336,281571,13,unknown,Polls close at 7 p.m. Eastern time.,Polls close in,Polls have closed.,2020-11-04T00:00:00.000Z,7 p.m.,183,183,100% reporting,100%,100,371336,edison,>98%,>98% reported,edison,republican,FALSE,2020-11-24T13:24:18Z,TRUE,30.08973,111734,R+30,Ferguson +30,republican,TRUE,"Because of the small margin between the candidates, the secretary of state authorized a hand recount of the presidential election in the state.","Because of the small margin between the candidates, the secretary of state authorized a hand recount of the presidential election in the state.",0,0,1604457012517
13255,Spalding,29253,20671,18,18,None,100,29253,>98%,>98% reported,edison,10,all,23630,18182,11071,12379,8292,2020-11-24T13:25:24Z,24.30862,R+24,Ferguson +24,republican,,,GA-G-H-3-2020-11-03,ga-house-general-district-003-2020-11-03,https://www.nytimes.com/interactive/2020/11/03/us/elections/results-georgia-house-district-3.html,https://www.nytimes.com/interactive/2020/11/03/us/elections/results-georgia.html,https://www.nytimes.com/interactive/2020/11/03/us/elections/ap-polls-georgia.html,https://www.nytimes.com/interactive/2020/11/03/us/elections/exit-polls-georgia.html,house,general,2020-11-03,FALSE,U.S. House District 3,U.S. House,H,solid-rep,3,District 3,GA,georgia,Georgia,Ga.,vertical,1.3,"",FALSE,TRUE,winner,AP,FALSE,"",371336,281571,13,unknown,Polls close at 7 p.m. Eastern time.,Polls close in,Polls have closed.,2020-11-04T00:00:00.000Z,7 p.m.,183,183,100% reporting,100%,100,371336,edison,>98%,>98% reported,edison,republican,FALSE,2020-11-24T13:24:18Z,TRUE,30.08973,111734,R+30,Ferguson +30,republican,TRUE,"Because of the small margin between the candidates, the secretary of state authorized a hand recount of the presidential election in the state.","Because of the small margin between the candidates, the secretary of state authorized a hand recount of the presidential election in the state.",0,0,1604457012517
13285,Troup,29361,21912,14,14,None,100,29361,>98%,>98% reported,edison,10,unknown,20235,18881,10480,13977,7935,2020-11-24T13:25:25Z,28.61279,R+29,Ferguson +29,republican,0,0,GA-G-H-3-2020-11-03,ga-house-general-district-003-2020-11-03,https://www.nytimes.com/interactive/2020/11/03/us/elections/results-georgia-house-district-3.html,https://www.nytimes.com/interactive/2020/11/03/us/elections/results-georgia.html,https://www.nytimes.com/interactive/2020/11/03/us/elections/ap-polls-georgia.html,https://www.nytimes.com/interactive/2020/11/03/us/elections/exit-polls-georgia.html,house,general,2020-11-03,FALSE,U.S. House District 3,U.S. House,H,solid-rep,3,District 3,GA,georgia,Georgia,Ga.,vertical,1.3,"",FALSE,TRUE,winner,AP,FALSE,"",371336,281571,13,unknown,Polls close at 7 p.m. Eastern time.,Polls close in,Polls have closed.,2020-11-04T00:00:00.000Z,7 p.m.,183,183,100% reporting,100%,100,371336,edison,>98%,>98% reported,edison,republican,FALSE,2020-11-24T13:24:18Z,TRUE,30.08973,111734,R+30,Ferguson +30,republican,TRUE,"Because of the small margin between the candidates, the secretary of state authorized a hand recount of the presidential election in the state.","Because of the small margin between the candidates, the secretary of state authorized a hand recount of the presidential election in the state.",0,0,1604457012517
13293,Upson,12470,10492,4,4,None,100,12470,>98%,>98% reported,edison,10,unknown,9845,8664,3806,7280,3212,2020-11-24T13:25:26Z,38.9575,R+39,Ferguson +39,republican,,,GA-G-H-3-2020-11-03,ga-house-general-district-003-2020-11-03,https://www.nytimes.com/interactive/2020/11/03/us/elections/results-georgia-house-district-3.html,https://www.nytimes.com/interactive/2020/11/03/us/elections/results-georgia.html,https://www.nytimes.com/interactive/2020/11/03/us/elections/ap-polls-georgia.html,https://www.nytimes.com/interactive/2020/11/03/us/elections/exit-polls-georgia.html,house,general,2020-11-03,FALSE,U.S. House District 3,U.S. House,H,solid-rep,3,District 3,GA,georgia,Georgia,Ga.,vertical,1.3,"",FALSE,TRUE,winner,AP,FALSE,"",371336,281571,13,unknown,Polls close at 7 p.m. Eastern time.,Polls close in,Polls have closed.,2020-11-04T00:00:00.000Z,7 p.m.,183,183,100% reporting,100%,100,371336,edison,>98%,>98% reported,edison,republican,FALSE,2020-11-24T13:24:18Z,TRUE,30.08973,111734,R+30,Ferguson +30,republican,TRUE,"Because of the small margin between the candidates, the secretary of state authorized a hand recount of the presidential election in the state.","Because of the small margin between the candidates, the secretary of state authorized a hand recount of the presidential election in the state.",0,0,1604457012517
