fips,name,votes,absentee_votes,reporting,precincts,absentee_method,eevp,tot_exp_vote,eevp_value,eevp_display,eevp_source,turnout_stage,absentee_count_progress,absentee_max_ballots,results_turnerm,results_timsd,results_absentee_turnerm,results_absentee_timsd,last_updated,leader_margin_value,leader_margin_display,leader_margin_name_display,leader_party_id,race_id_race,race_slug_race,url_race,state_page_url_race,ap_polls_page_race,edison_exit_polls_page_race,race_type_race,election_type_race,election_date_race,runoff_race,race_name_race,office_race,officeid_race,race_rating_race,seat_race,seat_name_race,state_id_race,state_slug_race,state_name_race,state_nyt_abbrev_race,state_shape_race,party_id_race,uncontested_race,report_race,result_race,result_source_race,gain_race,lost_seat_race,votes_race,absentee_votes_race,absentee_counties_race,absentee_count_progress_race,poll_display_race,poll_countdown_display_race,poll_waiting_display_race,poll_time_race,poll_time_short_race,precincts_reporting_race,precincts_total_race,reporting_display_race,reporting_value_race,eevp_race,tot_exp_vote_race,eevp_source_race,eevp_value_race,eevp_display_race,county_data_source_race,incumbent_party_race,no_forecast_race,last_updated_race,has_incumbent_race,leader_margin_value_race,leader_margin_votes_race,leader_margin_display_race,leader_margin_name_display_race,leader_party_id_race,edison_certified_race,expectations_text_race,expectations_text_short_race,absentee_ballot_deadline_race,absentee_postmark_deadline_race,winner_called_timestamp_race
39047,Fayette,9902,5676,22,22,Released as a separate subtotal as first report of the night,100,9664,>98%,>98% reported,edison,6,all,5552,7610,2292,4035,1641,2020-11-24T13:22:10Z,53.70632,R+54,Turner +54,republican,OH-G-H-10-2020-11-03,oh-house-general-district-010-2020-11-03,https://www.nytimes.com/interactive/2020/11/03/us/elections/results-ohio-house-district-10.html,https://www.nytimes.com/interactive/2020/11/03/us/elections/results-ohio.html,https://www.nytimes.com/interactive/2020/11/03/us/elections/ap-polls-ohio.html,https://www.nytimes.com/interactive/2020/11/03/us/elections/exit-polls-ohio.html,house,general,2020-11-03,FALSE,U.S. House District 10,U.S. House,H,likely-rep,10,District 10,OH,ohio,Ohio,Ohio,horizontal,"",FALSE,TRUE,winner,AP,FALSE,"",364948,159058,2,unknown,Polls close at 7:30 p.m. Eastern time.,Polls close in,Polls have closed.,2020-11-04T00:30:00.000Z,7:30 p.m.,516,528,98% reporting,98%,91,401000,edison,91%,91% reported,edison,republican,FALSE,2020-11-24T13:23:22Z,TRUE,16.71361,60996,R+17,Turner +17,republican,FALSE,"Postmarked ballots have until Nov. 13 to arrive, but no additional results will be reported reported for at least a week and a half after the election. Counties may report their full official count after their vote canvass, due by Nov. 18, but full statewide results will not be available until final certification, due by Nov. 28. ","Postmarked ballots have until Nov. 13 to arrive, but no additional results will be reported for at least a week and a half after the election.",10,-1,1604459067033
39057,Greene,88207,0,134,146,Other,94,94003,94%,94% reported,edison,2,unknown,43531,58298,29909,0,0,2020-11-24T13:22:14Z,32.18452,R+32,Turner +32,republican,OH-G-H-10-2020-11-03,oh-house-general-district-010-2020-11-03,https://www.nytimes.com/interactive/2020/11/03/us/elections/results-ohio-house-district-10.html,https://www.nytimes.com/interactive/2020/11/03/us/elections/results-ohio.html,https://www.nytimes.com/interactive/2020/11/03/us/elections/ap-polls-ohio.html,https://www.nytimes.com/interactive/2020/11/03/us/elections/exit-polls-ohio.html,house,general,2020-11-03,FALSE,U.S. House District 10,U.S. House,H,likely-rep,10,District 10,OH,ohio,Ohio,Ohio,horizontal,"",FALSE,TRUE,winner,AP,FALSE,"",364948,159058,2,unknown,Polls close at 7:30 p.m. Eastern time.,Polls close in,Polls have closed.,2020-11-04T00:30:00.000Z,7:30 p.m.,516,528,98% reporting,98%,91,401000,edison,91%,91% reported,edison,republican,FALSE,2020-11-24T13:23:22Z,TRUE,16.71361,60996,R+17,Turner +17,republican,FALSE,"Postmarked ballots have until Nov. 13 to arrive, but no additional results will be reported reported for at least a week and a half after the election. Counties may report their full official count after their vote canvass, due by Nov. 18, but full statewide results will not be available until final certification, due by Nov. 28. ","Postmarked ballots have until Nov. 13 to arrive, but no additional results will be reported for at least a week and a half after the election.",10,-1,1604459067033
39113,Montgomery,266839,153382,360,360,Released as a precinct as first report of the night,90,296124,90%,90% reported,edison,4,all,127390,147064,119775,67499,85883,2020-11-24T13:22:15Z,10.22677,R+10,Turner +10,republican,OH-G-H-10-2020-11-03,oh-house-general-district-010-2020-11-03,https://www.nytimes.com/interactive/2020/11/03/us/elections/results-ohio-house-district-10.html,https://www.nytimes.com/interactive/2020/11/03/us/elections/results-ohio.html,https://www.nytimes.com/interactive/2020/11/03/us/elections/ap-polls-ohio.html,https://www.nytimes.com/interactive/2020/11/03/us/elections/exit-polls-ohio.html,house,general,2020-11-03,FALSE,U.S. House District 10,U.S. House,H,likely-rep,10,District 10,OH,ohio,Ohio,Ohio,horizontal,"",FALSE,TRUE,winner,AP,FALSE,"",364948,159058,2,unknown,Polls close at 7:30 p.m. Eastern time.,Polls close in,Polls have closed.,2020-11-04T00:30:00.000Z,7:30 p.m.,516,528,98% reporting,98%,91,401000,edison,91%,91% reported,edison,republican,FALSE,2020-11-24T13:23:22Z,TRUE,16.71361,60996,R+17,Turner +17,republican,FALSE,"Postmarked ballots have until Nov. 13 to arrive, but no additional results will be reported reported for at least a week and a half after the election. Counties may report their full official count after their vote canvass, due by Nov. 18, but full statewide results will not be available until final certification, due by Nov. 28. ","Postmarked ballots have until Nov. 13 to arrive, but no additional results will be reported for at least a week and a half after the election.",10,-1,1604459067033
