fips,name,votes,absentee_votes,reporting,precincts,absentee_method,eevp,tot_exp_vote,eevp_value,eevp_display,eevp_source,turnout_stage,absentee_count_progress,results_stricklandm,results_dogliob,results_write_ins,results_absentee_stricklandm,results_absentee_dogliob,results_absentee_write_ins,last_updated,leader_margin_value,leader_margin_display,leader_margin_name_display,leader_party_id,race_id_race,race_slug_race,url_race,state_page_url_race,ap_polls_page_race,edison_exit_polls_page_race,race_type_race,election_type_race,election_date_race,runoff_race,race_name_race,office_race,officeid_race,race_rating_race,seat_race,seat_name_race,state_id_race,state_slug_race,state_name_race,state_nyt_abbrev_race,state_shape_race,party_id_race,uncontested_race,report_race,result_race,result_source_race,gain_race,lost_seat_race,votes_race,absentee_votes_race,absentee_count_progress_race,poll_display_race,poll_countdown_display_race,poll_waiting_display_race,poll_time_race,poll_time_short_race,precincts_reporting_race,precincts_total_race,reporting_display_race,reporting_value_race,eevp_race,tot_exp_vote_race,eevp_source_race,eevp_value_race,eevp_display_race,county_data_source_race,incumbent_party_race,no_forecast_race,last_updated_race,has_incumbent_race,leader_margin_value_race,leader_margin_votes_race,leader_margin_display_race,leader_margin_name_display_race,leader_party_id_race,edison_certified_race,expectations_text_race,expectations_text_short_race,absentee_ballot_deadline_race,absentee_postmark_deadline_race,winner_called_timestamp_race
53045,Mason,6331,0,9,10,None,86,7361,86%,86% reported,edison,4,unknown,2795,2379,1157,0,0,0,2020-11-24T13:22:20Z,6.57084,D+7,Strickland +7,democrat,WA-G-H-10-2020-11-03,wa-house-general-district-010-2020-11-03,https://www.nytimes.com/interactive/2020/11/03/us/elections/results-washington-house-district-10.html,https://www.nytimes.com/interactive/2020/11/03/us/elections/results-washington.html,https://www.nytimes.com/interactive/2020/11/03/us/elections/ap-polls-washington.html,https://www.nytimes.com/interactive/2020/11/03/us/elections/exit-polls-washington.html,house,general,2020-11-03,FALSE,U.S. House District 10,U.S. House,H,solid-dem,10,District 10,WA,washington,Washington,Wash.,horizontal,"",FALSE,TRUE,winner,AP,FALSE,"",289268,0,unknown,Polls close at 11 p.m. Eastern time.,Polls close in,Polls have closed.,2020-11-04T04:00:00.000Z,11 p.m.,468,545,86% reporting,86%,86,337000,edison,86%,86% reported,edison,democrat,FALSE,2020-11-24T20:10:49Z,FALSE,16.18672,46823,D+16,Strickland +16,democrat,FALSE,Postmarked ballots have until Nov. 23 to arrive.,Postmarked ballots have until Nov. 23 to arrive.,20,0,1604505559558
53053,Pierce,161345,0,225,263,None,100,135949,>98%,>98% reported,edison,4,unknown,101265,60080,,0,0,,2020-11-24T20:10:46Z,25.52605,D+26,Strickland +26,democrat,WA-G-H-10-2020-11-03,wa-house-general-district-010-2020-11-03,https://www.nytimes.com/interactive/2020/11/03/us/elections/results-washington-house-district-10.html,https://www.nytimes.com/interactive/2020/11/03/us/elections/results-washington.html,https://www.nytimes.com/interactive/2020/11/03/us/elections/ap-polls-washington.html,https://www.nytimes.com/interactive/2020/11/03/us/elections/exit-polls-washington.html,house,general,2020-11-03,FALSE,U.S. House District 10,U.S. House,H,solid-dem,10,District 10,WA,washington,Washington,Wash.,horizontal,"",FALSE,TRUE,winner,AP,FALSE,"",289268,0,unknown,Polls close at 11 p.m. Eastern time.,Polls close in,Polls have closed.,2020-11-04T04:00:00.000Z,11 p.m.,468,545,86% reporting,86%,86,337000,edison,86%,86% reported,edison,democrat,FALSE,2020-11-24T20:10:49Z,FALSE,16.18672,46823,D+16,Strickland +16,democrat,FALSE,Postmarked ballots have until Nov. 23 to arrive.,Postmarked ballots have until Nov. 23 to arrive.,20,0,1604505559558
53067,Thurston,121592,0,234,272,None,86,141067,86%,86% reported,edison,4,unknown,63407,58185,,0,0,,2020-11-24T16:50:43Z,4.29469,D+4,Strickland +4,democrat,WA-G-H-10-2020-11-03,wa-house-general-district-010-2020-11-03,https://www.nytimes.com/interactive/2020/11/03/us/elections/results-washington-house-district-10.html,https://www.nytimes.com/interactive/2020/11/03/us/elections/results-washington.html,https://www.nytimes.com/interactive/2020/11/03/us/elections/ap-polls-washington.html,https://www.nytimes.com/interactive/2020/11/03/us/elections/exit-polls-washington.html,house,general,2020-11-03,FALSE,U.S. House District 10,U.S. House,H,solid-dem,10,District 10,WA,washington,Washington,Wash.,horizontal,"",FALSE,TRUE,winner,AP,FALSE,"",289268,0,unknown,Polls close at 11 p.m. Eastern time.,Polls close in,Polls have closed.,2020-11-04T04:00:00.000Z,11 p.m.,468,545,86% reporting,86%,86,337000,edison,86%,86% reported,edison,democrat,FALSE,2020-11-24T20:10:49Z,FALSE,16.18672,46823,D+16,Strickland +16,democrat,FALSE,Postmarked ballots have until Nov. 23 to arrive.,Postmarked ballots have until Nov. 23 to arrive.,20,0,1604505559558
