fips,name,votes,absentee_votes,reporting,precincts,absentee_method,eevp,tot_exp_vote,eevp_value,eevp_display,eevp_source,turnout_stage,absentee_count_progress,absentee_max_ballots,results_carlj,results_averhartj,results_absentee_carlj,results_absentee_averhartj,last_updated,leader_margin_value,leader_margin_display,leader_margin_name_display,leader_party_id,race_id_race,race_slug_race,url_race,state_page_url_race,ap_polls_page_race,edison_exit_polls_page_race,race_type_race,election_type_race,election_date_race,runoff_race,race_name_race,office_race,officeid_race,race_rating_race,seat_race,seat_name_race,state_id_race,state_slug_race,state_name_race,state_nyt_abbrev_race,state_shape_race,state_aspect_ratio_race,party_id_race,uncontested_race,report_race,result_race,result_source_race,gain_race,lost_seat_race,votes_race,absentee_votes_race,absentee_counties_race,absentee_count_progress_race,poll_display_race,poll_countdown_display_race,poll_waiting_display_race,poll_time_race,poll_time_short_race,precincts_reporting_race,precincts_total_race,reporting_display_race,reporting_value_race,eevp_race,tot_exp_vote_race,eevp_source_race,eevp_value_race,eevp_display_race,county_data_source_race,incumbent_party_race,no_forecast_race,last_updated_race,has_incumbent_race,leader_margin_value_race,leader_margin_votes_race,leader_margin_display_race,leader_margin_name_display_race,leader_party_id_race,edison_certified_race,expectations_text_race,expectations_text_short_race,absentee_ballot_deadline_race,absentee_postmark_deadline_race,winner_called_timestamp_race
01003,Baldwin,108290,0,51,51,"As a precinct in the FIRST cumulative report, along with regular precincts",100,108290,>98%,>98% reported,edison,10,all,6293,83964,24326,0,0,2020-11-24T13:22:22Z,55.07249,R+55,Carl +55,republican,AL-G-H-1-2020-11-03,al-house-general-district-001-2020-11-03,https://www.nytimes.com/interactive/2020/11/03/us/elections/results-alabama-house-district-1.html,https://www.nytimes.com/interactive/2020/11/03/us/elections/results-alabama.html,https://www.nytimes.com/interactive/2020/11/03/us/elections/ap-polls-alabama.html,https://www.nytimes.com/interactive/2020/11/03/us/elections/exit-polls-alabama.html,house,general,2020-11-03,FALSE,U.S. House District 1,U.S. House,H,solid-rep,1,District 1,AL,alabama,Alabama,Ala.,vertical,1,"",FALSE,TRUE,winner,AP,FALSE,"",328774,1249,1,unknown,Polls close at 8 p.m. Eastern time.,Polls close in,Polls have closed.,2020-11-04T01:00:00.000Z,8 p.m.,230,230,100% reporting,100%,100,328774,edison,>98%,>98% reported,edison,republican,FALSE,2020-11-24T13:21:46Z,FALSE,28.85751,94876,R+29,Carl +29,republican,TRUE,"","",0,-1,1604464321004
01025,Clarke,4386,0,7,7,Released as a precinct at the end of tabulation,100,4386,>98%,>98% reported,edison,10,all,1469,2978,1408,0,0,2020-11-24T13:22:23Z,35.79571,R+36,Carl +36,republican,AL-G-H-1-2020-11-03,al-house-general-district-001-2020-11-03,https://www.nytimes.com/interactive/2020/11/03/us/elections/results-alabama-house-district-1.html,https://www.nytimes.com/interactive/2020/11/03/us/elections/results-alabama.html,https://www.nytimes.com/interactive/2020/11/03/us/elections/ap-polls-alabama.html,https://www.nytimes.com/interactive/2020/11/03/us/elections/exit-polls-alabama.html,house,general,2020-11-03,FALSE,U.S. House District 1,U.S. House,H,solid-rep,1,District 1,AL,alabama,Alabama,Ala.,vertical,1,"",FALSE,TRUE,winner,AP,FALSE,"",328774,1249,1,unknown,Polls close at 8 p.m. Eastern time.,Polls close in,Polls have closed.,2020-11-04T01:00:00.000Z,8 p.m.,230,230,100% reporting,100%,100,328774,edison,>98%,>98% reported,edison,republican,FALSE,2020-11-24T13:21:46Z,FALSE,28.85751,94876,R+29,Carl +29,republican,TRUE,"","",0,-1,1604464321004
01053,Escambia,15670,0,33,33,None,100,15670,>98%,>98% reported,edison,10,all,848,10687,4983,0,0,2020-11-24T13:22:24Z,36.40077,R+36,Carl +36,republican,AL-G-H-1-2020-11-03,al-house-general-district-001-2020-11-03,https://www.nytimes.com/interactive/2020/11/03/us/elections/results-alabama-house-district-1.html,https://www.nytimes.com/interactive/2020/11/03/us/elections/results-alabama.html,https://www.nytimes.com/interactive/2020/11/03/us/elections/ap-polls-alabama.html,https://www.nytimes.com/interactive/2020/11/03/us/elections/exit-polls-alabama.html,house,general,2020-11-03,FALSE,U.S. House District 1,U.S. House,H,solid-rep,1,District 1,AL,alabama,Alabama,Ala.,vertical,1,"",FALSE,TRUE,winner,AP,FALSE,"",328774,1249,1,unknown,Polls close at 8 p.m. Eastern time.,Polls close in,Polls have closed.,2020-11-04T01:00:00.000Z,8 p.m.,230,230,100% reporting,100%,100,328774,edison,>98%,>98% reported,edison,republican,FALSE,2020-11-24T13:21:46Z,FALSE,28.85751,94876,R+29,Carl +29,republican,TRUE,"","",0,-1,1604464321004
01097,Mobile,181197,0,88,88,Released as a separate subtotal as first report of the night,100,181197,>98%,>98% reported,edison,10,all,11133,101862,79335,0,0,2020-11-24T13:22:25Z,12.43233,R+12,Carl +12,republican,AL-G-H-1-2020-11-03,al-house-general-district-001-2020-11-03,https://www.nytimes.com/interactive/2020/11/03/us/elections/results-alabama-house-district-1.html,https://www.nytimes.com/interactive/2020/11/03/us/elections/results-alabama.html,https://www.nytimes.com/interactive/2020/11/03/us/elections/ap-polls-alabama.html,https://www.nytimes.com/interactive/2020/11/03/us/elections/exit-polls-alabama.html,house,general,2020-11-03,FALSE,U.S. House District 1,U.S. House,H,solid-rep,1,District 1,AL,alabama,Alabama,Ala.,vertical,1,"",FALSE,TRUE,winner,AP,FALSE,"",328774,1249,1,unknown,Polls close at 8 p.m. Eastern time.,Polls close in,Polls have closed.,2020-11-04T01:00:00.000Z,8 p.m.,230,230,100% reporting,100%,100,328774,edison,>98%,>98% reported,edison,republican,FALSE,2020-11-24T13:21:46Z,FALSE,28.85751,94876,R+29,Carl +29,republican,TRUE,"","",0,-1,1604464321004
01099,Monroe,10563,1249,31,31,Merged into voters' home precincts and released with cumulative results,100,10563,>98%,>98% reported,edison,10,all,827,6044,4519,364,885,2020-11-24T13:22:27Z,14.43719,R+14,Carl +14,republican,AL-G-H-1-2020-11-03,al-house-general-district-001-2020-11-03,https://www.nytimes.com/interactive/2020/11/03/us/elections/results-alabama-house-district-1.html,https://www.nytimes.com/interactive/2020/11/03/us/elections/results-alabama.html,https://www.nytimes.com/interactive/2020/11/03/us/elections/ap-polls-alabama.html,https://www.nytimes.com/interactive/2020/11/03/us/elections/exit-polls-alabama.html,house,general,2020-11-03,FALSE,U.S. House District 1,U.S. House,H,solid-rep,1,District 1,AL,alabama,Alabama,Ala.,vertical,1,"",FALSE,TRUE,winner,AP,FALSE,"",328774,1249,1,unknown,Polls close at 8 p.m. Eastern time.,Polls close in,Polls have closed.,2020-11-04T01:00:00.000Z,8 p.m.,230,230,100% reporting,100%,100,328774,edison,>98%,>98% reported,edison,republican,FALSE,2020-11-24T13:21:46Z,FALSE,28.85751,94876,R+29,Carl +29,republican,TRUE,"","",0,-1,1604464321004
01129,Washington,8668,0,20,20,"As a precinct in the FIRST cumulative report, along with regular precincts",100,8668,>98%,>98% reported,edison,10,all,592,6290,2378,0,0,2020-11-24T13:22:31Z,45.13152,R+45,Carl +45,republican,AL-G-H-1-2020-11-03,al-house-general-district-001-2020-11-03,https://www.nytimes.com/interactive/2020/11/03/us/elections/results-alabama-house-district-1.html,https://www.nytimes.com/interactive/2020/11/03/us/elections/results-alabama.html,https://www.nytimes.com/interactive/2020/11/03/us/elections/ap-polls-alabama.html,https://www.nytimes.com/interactive/2020/11/03/us/elections/exit-polls-alabama.html,house,general,2020-11-03,FALSE,U.S. House District 1,U.S. House,H,solid-rep,1,District 1,AL,alabama,Alabama,Ala.,vertical,1,"",FALSE,TRUE,winner,AP,FALSE,"",328774,1249,1,unknown,Polls close at 8 p.m. Eastern time.,Polls close in,Polls have closed.,2020-11-04T01:00:00.000Z,8 p.m.,230,230,100% reporting,100%,100,328774,edison,>98%,>98% reported,edison,republican,FALSE,2020-11-24T13:21:46Z,FALSE,28.85751,94876,R+29,Carl +29,republican,TRUE,"","",0,-1,1604464321004
