fips,name,votes,absentee_votes,reporting,precincts,absentee_method,eevp,tot_exp_vote,eevp_value,eevp_display,eevp_source,turnout_stage,absentee_count_progress,results_feenstrar,results_scholtenj,results_absentee_feenstrar,results_absentee_scholtenj,last_updated,leader_margin_value,leader_margin_display,leader_margin_name_display,leader_party_id,race_id_race,race_slug_race,url_race,state_page_url_race,ap_polls_page_race,edison_exit_polls_page_race,race_type_race,election_type_race,election_date_race,runoff_race,race_name_race,office_race,officeid_race,nyt_race_description_race,race_rating_race,nyt_key_race_race,seat_race,seat_name_race,state_id_race,state_slug_race,state_name_race,state_nyt_abbrev_race,state_shape_race,party_id_race,uncontested_race,report_race,result_race,result_source_race,gain_race,lost_seat_race,votes_race,absentee_votes_race,absentee_counties_race,absentee_count_progress_race,poll_display_race,poll_countdown_display_race,poll_waiting_display_race,poll_time_race,poll_time_short_race,precincts_reporting_race,precincts_total_race,reporting_display_race,reporting_value_race,eevp_race,tot_exp_vote_race,eevp_source_race,eevp_value_race,eevp_display_race,county_data_source_race,incumbent_party_race,no_forecast_race,last_updated_race,has_incumbent_race,leader_margin_value_race,leader_margin_votes_race,leader_margin_display_race,leader_margin_name_display_race,leader_party_id_race,edison_certified_race,expectations_text_race,expectations_text_short_race,absentee_ballot_deadline_race,absentee_postmark_deadline_race,winner_called_timestamp_race
19009,Audubon,3113,1869,2,3,None,79,3923,79%,79% reported,edison,2,unknown,1979,1134,1065,804,2020-11-24T13:23:40Z,27.14423,R+27,Feenstra +27,republican,IA-G-H-4-2020-11-03,ia-house-general-district-004-2020-11-03,https://www.nytimes.com/interactive/2020/11/03/us/elections/results-iowa-house-district-4.html,https://www.nytimes.com/interactive/2020/11/03/us/elections/results-iowa.html,https://www.nytimes.com/interactive/2020/11/03/us/elections/ap-polls-iowa.html,https://www.nytimes.com/interactive/2020/11/03/us/elections/exit-polls-iowa.html,house,general,2020-11-03,FALSE,U.S. House District 4,U.S. House,H,"J.D. Scholten, a former minor league pitcher turned Democratic candidate, faces off against Randy Feenstra, a Republican state senator. Earlier this year, Mr. Feenstra defeated the incumbent, Steve King, the nine-term Republican with a history of racist comments, in one of the biggest surprises of the 2020 primary season. ",solid-rep,TRUE,4,District 4,IA,iowa,Iowa,Iowa,horizontal,"",FALSE,TRUE,winner,AP,FALSE,"",382130,216018,39,unknown,Polls close at 10 p.m. Eastern time.,Polls close in,Polls have closed.,2020-11-04T03:00:00.000Z,10 p.m.,445,489,91% reporting,91%,87,441000,edison,87%,87% reported,edison,republican,FALSE,2020-11-24T13:23:39Z,FALSE,24.23468,92608,R+24,Feenstra +24,republican,FALSE,"","",6,-1,1604467247103
19015,Boone,14633,9096,13,13,None,90,16279,90%,90% reported,edison,4,unknown,8180,6453,4211,4885,2020-11-24T13:22:37Z,11.80209,R+12,Feenstra +12,republican,IA-G-H-4-2020-11-03,ia-house-general-district-004-2020-11-03,https://www.nytimes.com/interactive/2020/11/03/us/elections/results-iowa-house-district-4.html,https://www.nytimes.com/interactive/2020/11/03/us/elections/results-iowa.html,https://www.nytimes.com/interactive/2020/11/03/us/elections/ap-polls-iowa.html,https://www.nytimes.com/interactive/2020/11/03/us/elections/exit-polls-iowa.html,house,general,2020-11-03,FALSE,U.S. House District 4,U.S. House,H,"J.D. Scholten, a former minor league pitcher turned Democratic candidate, faces off against Randy Feenstra, a Republican state senator. Earlier this year, Mr. Feenstra defeated the incumbent, Steve King, the nine-term Republican with a history of racist comments, in one of the biggest surprises of the 2020 primary season. ",solid-rep,TRUE,4,District 4,IA,iowa,Iowa,Iowa,horizontal,"",FALSE,TRUE,winner,AP,FALSE,"",382130,216018,39,unknown,Polls close at 10 p.m. Eastern time.,Polls close in,Polls have closed.,2020-11-04T03:00:00.000Z,10 p.m.,445,489,91% reporting,91%,87,441000,edison,87%,87% reported,edison,republican,FALSE,2020-11-24T13:23:39Z,FALSE,24.23468,92608,R+24,Feenstra +24,republican,FALSE,"","",6,-1,1604467247103
19021,Buena Vista,7714,4492,8,8,None,81,9505,81%,81% reported,edison,4,some,4698,3016,2384,2108,2020-11-24T13:23:41Z,21.80451,R+22,Feenstra +22,republican,IA-G-H-4-2020-11-03,ia-house-general-district-004-2020-11-03,https://www.nytimes.com/interactive/2020/11/03/us/elections/results-iowa-house-district-4.html,https://www.nytimes.com/interactive/2020/11/03/us/elections/results-iowa.html,https://www.nytimes.com/interactive/2020/11/03/us/elections/ap-polls-iowa.html,https://www.nytimes.com/interactive/2020/11/03/us/elections/exit-polls-iowa.html,house,general,2020-11-03,FALSE,U.S. House District 4,U.S. House,H,"J.D. Scholten, a former minor league pitcher turned Democratic candidate, faces off against Randy Feenstra, a Republican state senator. Earlier this year, Mr. Feenstra defeated the incumbent, Steve King, the nine-term Republican with a history of racist comments, in one of the biggest surprises of the 2020 primary season. ",solid-rep,TRUE,4,District 4,IA,iowa,Iowa,Iowa,horizontal,"",FALSE,TRUE,winner,AP,FALSE,"",382130,216018,39,unknown,Polls close at 10 p.m. Eastern time.,Polls close in,Polls have closed.,2020-11-04T03:00:00.000Z,10 p.m.,445,489,91% reporting,91%,87,441000,edison,87%,87% reported,edison,republican,FALSE,2020-11-24T13:23:39Z,FALSE,24.23468,92608,R+24,Feenstra +24,republican,FALSE,"","",6,-1,1604467247103
19023,Butler,7570,3901,7,8,None,100,7448,>98%,>98% reported,edison,2,unknown,5157,2413,2319,1582,2020-11-24T13:23:42Z,36.24835,R+36,Feenstra +36,republican,IA-G-H-4-2020-11-03,ia-house-general-district-004-2020-11-03,https://www.nytimes.com/interactive/2020/11/03/us/elections/results-iowa-house-district-4.html,https://www.nytimes.com/interactive/2020/11/03/us/elections/results-iowa.html,https://www.nytimes.com/interactive/2020/11/03/us/elections/ap-polls-iowa.html,https://www.nytimes.com/interactive/2020/11/03/us/elections/exit-polls-iowa.html,house,general,2020-11-03,FALSE,U.S. House District 4,U.S. House,H,"J.D. Scholten, a former minor league pitcher turned Democratic candidate, faces off against Randy Feenstra, a Republican state senator. Earlier this year, Mr. Feenstra defeated the incumbent, Steve King, the nine-term Republican with a history of racist comments, in one of the biggest surprises of the 2020 primary season. ",solid-rep,TRUE,4,District 4,IA,iowa,Iowa,Iowa,horizontal,"",FALSE,TRUE,winner,AP,FALSE,"",382130,216018,39,unknown,Polls close at 10 p.m. Eastern time.,Polls close in,Polls have closed.,2020-11-04T03:00:00.000Z,10 p.m.,445,489,91% reporting,91%,87,441000,edison,87%,87% reported,edison,republican,FALSE,2020-11-24T13:23:39Z,FALSE,24.23468,92608,R+24,Feenstra +24,republican,FALSE,"","",6,-1,1604467247103
19025,Calhoun,5043,2412,9,11,None,85,5928,85%,85% reported,edison,2,unknown,3473,1570,1423,989,2020-11-24T13:22:42Z,37.73547,R+38,Feenstra +38,republican,IA-G-H-4-2020-11-03,ia-house-general-district-004-2020-11-03,https://www.nytimes.com/interactive/2020/11/03/us/elections/results-iowa-house-district-4.html,https://www.nytimes.com/interactive/2020/11/03/us/elections/results-iowa.html,https://www.nytimes.com/interactive/2020/11/03/us/elections/ap-polls-iowa.html,https://www.nytimes.com/interactive/2020/11/03/us/elections/exit-polls-iowa.html,house,general,2020-11-03,FALSE,U.S. House District 4,U.S. House,H,"J.D. Scholten, a former minor league pitcher turned Democratic candidate, faces off against Randy Feenstra, a Republican state senator. Earlier this year, Mr. Feenstra defeated the incumbent, Steve King, the nine-term Republican with a history of racist comments, in one of the biggest surprises of the 2020 primary season. ",solid-rep,TRUE,4,District 4,IA,iowa,Iowa,Iowa,horizontal,"",FALSE,TRUE,winner,AP,FALSE,"",382130,216018,39,unknown,Polls close at 10 p.m. Eastern time.,Polls close in,Polls have closed.,2020-11-04T03:00:00.000Z,10 p.m.,445,489,91% reporting,91%,87,441000,edison,87%,87% reported,edison,republican,FALSE,2020-11-24T13:23:39Z,FALSE,24.23468,92608,R+24,Feenstra +24,republican,FALSE,"","",6,-1,1604467247103
19027,Carroll,10573,5952,12,14,None,87,12127,87%,87% reported,edison,2,unknown,6768,3805,3270,2682,2020-11-24T13:23:44Z,28.02421,R+28,Feenstra +28,republican,IA-G-H-4-2020-11-03,ia-house-general-district-004-2020-11-03,https://www.nytimes.com/interactive/2020/11/03/us/elections/results-iowa-house-district-4.html,https://www.nytimes.com/interactive/2020/11/03/us/elections/results-iowa.html,https://www.nytimes.com/interactive/2020/11/03/us/elections/ap-polls-iowa.html,https://www.nytimes.com/interactive/2020/11/03/us/elections/exit-polls-iowa.html,house,general,2020-11-03,FALSE,U.S. House District 4,U.S. House,H,"J.D. Scholten, a former minor league pitcher turned Democratic candidate, faces off against Randy Feenstra, a Republican state senator. Earlier this year, Mr. Feenstra defeated the incumbent, Steve King, the nine-term Republican with a history of racist comments, in one of the biggest surprises of the 2020 primary season. ",solid-rep,TRUE,4,District 4,IA,iowa,Iowa,Iowa,horizontal,"",FALSE,TRUE,winner,AP,FALSE,"",382130,216018,39,unknown,Polls close at 10 p.m. Eastern time.,Polls close in,Polls have closed.,2020-11-04T03:00:00.000Z,10 p.m.,445,489,91% reporting,91%,87,441000,edison,87%,87% reported,edison,republican,FALSE,2020-11-24T13:23:39Z,FALSE,24.23468,92608,R+24,Feenstra +24,republican,FALSE,"","",6,-1,1604467247103
19033,Cerro Gordo,22612,13385,26,27,None,100,22684,>98%,>98% reported,edison,4,unknown,11736,10876,5626,7759,2020-11-24T13:22:45Z,3.80329,R+4,Feenstra +4,republican,IA-G-H-4-2020-11-03,ia-house-general-district-004-2020-11-03,https://www.nytimes.com/interactive/2020/11/03/us/elections/results-iowa-house-district-4.html,https://www.nytimes.com/interactive/2020/11/03/us/elections/results-iowa.html,https://www.nytimes.com/interactive/2020/11/03/us/elections/ap-polls-iowa.html,https://www.nytimes.com/interactive/2020/11/03/us/elections/exit-polls-iowa.html,house,general,2020-11-03,FALSE,U.S. House District 4,U.S. House,H,"J.D. Scholten, a former minor league pitcher turned Democratic candidate, faces off against Randy Feenstra, a Republican state senator. Earlier this year, Mr. Feenstra defeated the incumbent, Steve King, the nine-term Republican with a history of racist comments, in one of the biggest surprises of the 2020 primary season. ",solid-rep,TRUE,4,District 4,IA,iowa,Iowa,Iowa,horizontal,"",FALSE,TRUE,winner,AP,FALSE,"",382130,216018,39,unknown,Polls close at 10 p.m. Eastern time.,Polls close in,Polls have closed.,2020-11-04T03:00:00.000Z,10 p.m.,445,489,91% reporting,91%,87,441000,edison,87%,87% reported,edison,republican,FALSE,2020-11-24T13:23:39Z,FALSE,24.23468,92608,R+24,Feenstra +24,republican,FALSE,"","",6,-1,1604467247103
19035,Cherokee,6258,3883,6,7,None,87,7184,87%,87% reported,edison,2,unknown,4168,2090,2347,1536,2020-11-24T13:23:45Z,33.2055,R+33,Feenstra +33,republican,IA-G-H-4-2020-11-03,ia-house-general-district-004-2020-11-03,https://www.nytimes.com/interactive/2020/11/03/us/elections/results-iowa-house-district-4.html,https://www.nytimes.com/interactive/2020/11/03/us/elections/results-iowa.html,https://www.nytimes.com/interactive/2020/11/03/us/elections/ap-polls-iowa.html,https://www.nytimes.com/interactive/2020/11/03/us/elections/exit-polls-iowa.html,house,general,2020-11-03,FALSE,U.S. House District 4,U.S. House,H,"J.D. Scholten, a former minor league pitcher turned Democratic candidate, faces off against Randy Feenstra, a Republican state senator. Earlier this year, Mr. Feenstra defeated the incumbent, Steve King, the nine-term Republican with a history of racist comments, in one of the biggest surprises of the 2020 primary season. ",solid-rep,TRUE,4,District 4,IA,iowa,Iowa,Iowa,horizontal,"",FALSE,TRUE,winner,AP,FALSE,"",382130,216018,39,unknown,Polls close at 10 p.m. Eastern time.,Polls close in,Polls have closed.,2020-11-04T03:00:00.000Z,10 p.m.,445,489,91% reporting,91%,87,441000,edison,87%,87% reported,edison,republican,FALSE,2020-11-24T13:23:39Z,FALSE,24.23468,92608,R+24,Feenstra +24,republican,FALSE,"","",6,-1,1604467247103
19037,Chickasaw,6346,4089,14,14,None,100,6334,>98%,>98% reported,edison,6,all,4254,2092,2406,1683,2020-11-24T13:22:50Z,34.0687,R+34,Feenstra +34,republican,IA-G-H-4-2020-11-03,ia-house-general-district-004-2020-11-03,https://www.nytimes.com/interactive/2020/11/03/us/elections/results-iowa-house-district-4.html,https://www.nytimes.com/interactive/2020/11/03/us/elections/results-iowa.html,https://www.nytimes.com/interactive/2020/11/03/us/elections/ap-polls-iowa.html,https://www.nytimes.com/interactive/2020/11/03/us/elections/exit-polls-iowa.html,house,general,2020-11-03,FALSE,U.S. House District 4,U.S. House,H,"J.D. Scholten, a former minor league pitcher turned Democratic candidate, faces off against Randy Feenstra, a Republican state senator. Earlier this year, Mr. Feenstra defeated the incumbent, Steve King, the nine-term Republican with a history of racist comments, in one of the biggest surprises of the 2020 primary season. ",solid-rep,TRUE,4,District 4,IA,iowa,Iowa,Iowa,horizontal,"",FALSE,TRUE,winner,AP,FALSE,"",382130,216018,39,unknown,Polls close at 10 p.m. Eastern time.,Polls close in,Polls have closed.,2020-11-04T03:00:00.000Z,10 p.m.,445,489,91% reporting,91%,87,441000,edison,87%,87% reported,edison,republican,FALSE,2020-11-24T13:23:39Z,FALSE,24.23468,92608,R+24,Feenstra +24,republican,FALSE,"","",6,-1,1604467247103
19041,Clay,8632,5474,10,12,None,87,9923,87%,87% reported,edison,2,unknown,5798,2834,3304,2170,2020-11-24T13:23:47Z,34.33735,R+34,Feenstra +34,republican,IA-G-H-4-2020-11-03,ia-house-general-district-004-2020-11-03,https://www.nytimes.com/interactive/2020/11/03/us/elections/results-iowa-house-district-4.html,https://www.nytimes.com/interactive/2020/11/03/us/elections/results-iowa.html,https://www.nytimes.com/interactive/2020/11/03/us/elections/ap-polls-iowa.html,https://www.nytimes.com/interactive/2020/11/03/us/elections/exit-polls-iowa.html,house,general,2020-11-03,FALSE,U.S. House District 4,U.S. House,H,"J.D. Scholten, a former minor league pitcher turned Democratic candidate, faces off against Randy Feenstra, a Republican state senator. Earlier this year, Mr. Feenstra defeated the incumbent, Steve King, the nine-term Republican with a history of racist comments, in one of the biggest surprises of the 2020 primary season. ",solid-rep,TRUE,4,District 4,IA,iowa,Iowa,Iowa,horizontal,"",FALSE,TRUE,winner,AP,FALSE,"",382130,216018,39,unknown,Polls close at 10 p.m. Eastern time.,Polls close in,Polls have closed.,2020-11-04T03:00:00.000Z,10 p.m.,445,489,91% reporting,91%,87,441000,edison,87%,87% reported,edison,republican,FALSE,2020-11-24T13:23:39Z,FALSE,24.23468,92608,R+24,Feenstra +24,republican,FALSE,"","",6,-1,1604467247103
19047,Crawford,6627,3847,7,8,None,83,7978,83%,83% reported,edison,2,unknown,4215,2412,2209,1638,2020-11-24T13:23:48Z,27.20688,R+27,Feenstra +27,republican,IA-G-H-4-2020-11-03,ia-house-general-district-004-2020-11-03,https://www.nytimes.com/interactive/2020/11/03/us/elections/results-iowa-house-district-4.html,https://www.nytimes.com/interactive/2020/11/03/us/elections/results-iowa.html,https://www.nytimes.com/interactive/2020/11/03/us/elections/ap-polls-iowa.html,https://www.nytimes.com/interactive/2020/11/03/us/elections/exit-polls-iowa.html,house,general,2020-11-03,FALSE,U.S. House District 4,U.S. House,H,"J.D. Scholten, a former minor league pitcher turned Democratic candidate, faces off against Randy Feenstra, a Republican state senator. Earlier this year, Mr. Feenstra defeated the incumbent, Steve King, the nine-term Republican with a history of racist comments, in one of the biggest surprises of the 2020 primary season. ",solid-rep,TRUE,4,District 4,IA,iowa,Iowa,Iowa,horizontal,"",FALSE,TRUE,winner,AP,FALSE,"",382130,216018,39,unknown,Polls close at 10 p.m. Eastern time.,Polls close in,Polls have closed.,2020-11-04T03:00:00.000Z,10 p.m.,445,489,91% reporting,91%,87,441000,edison,87%,87% reported,edison,republican,FALSE,2020-11-24T13:23:39Z,FALSE,24.23468,92608,R+24,Feenstra +24,republican,FALSE,"","",6,-1,1604467247103
19059,Dickinson,10780,7568,5,6,None,91,11907,91%,91% reported,edison,2,unknown,7205,3575,4690,2878,2020-11-24T13:23:48Z,33.67347,R+34,Feenstra +34,republican,IA-G-H-4-2020-11-03,ia-house-general-district-004-2020-11-03,https://www.nytimes.com/interactive/2020/11/03/us/elections/results-iowa-house-district-4.html,https://www.nytimes.com/interactive/2020/11/03/us/elections/results-iowa.html,https://www.nytimes.com/interactive/2020/11/03/us/elections/ap-polls-iowa.html,https://www.nytimes.com/interactive/2020/11/03/us/elections/exit-polls-iowa.html,house,general,2020-11-03,FALSE,U.S. House District 4,U.S. House,H,"J.D. Scholten, a former minor league pitcher turned Democratic candidate, faces off against Randy Feenstra, a Republican state senator. Earlier this year, Mr. Feenstra defeated the incumbent, Steve King, the nine-term Republican with a history of racist comments, in one of the biggest surprises of the 2020 primary season. ",solid-rep,TRUE,4,District 4,IA,iowa,Iowa,Iowa,horizontal,"",FALSE,TRUE,winner,AP,FALSE,"",382130,216018,39,unknown,Polls close at 10 p.m. Eastern time.,Polls close in,Polls have closed.,2020-11-04T03:00:00.000Z,10 p.m.,445,489,91% reporting,91%,87,441000,edison,87%,87% reported,edison,republican,FALSE,2020-11-24T13:23:39Z,FALSE,24.23468,92608,R+24,Feenstra +24,republican,FALSE,"","",6,-1,1604467247103
19063,Emmet,4649,2511,10,12,None,85,5466,85%,85% reported,edison,2,unknown,3084,1565,1400,1111,2020-11-24T13:22:52Z,32.67369,R+33,Feenstra +33,republican,IA-G-H-4-2020-11-03,ia-house-general-district-004-2020-11-03,https://www.nytimes.com/interactive/2020/11/03/us/elections/results-iowa-house-district-4.html,https://www.nytimes.com/interactive/2020/11/03/us/elections/results-iowa.html,https://www.nytimes.com/interactive/2020/11/03/us/elections/ap-polls-iowa.html,https://www.nytimes.com/interactive/2020/11/03/us/elections/exit-polls-iowa.html,house,general,2020-11-03,FALSE,U.S. House District 4,U.S. House,H,"J.D. Scholten, a former minor league pitcher turned Democratic candidate, faces off against Randy Feenstra, a Republican state senator. Earlier this year, Mr. Feenstra defeated the incumbent, Steve King, the nine-term Republican with a history of racist comments, in one of the biggest surprises of the 2020 primary season. ",solid-rep,TRUE,4,District 4,IA,iowa,Iowa,Iowa,horizontal,"",FALSE,TRUE,winner,AP,FALSE,"",382130,216018,39,unknown,Polls close at 10 p.m. Eastern time.,Polls close in,Polls have closed.,2020-11-04T03:00:00.000Z,10 p.m.,445,489,91% reporting,91%,87,441000,edison,87%,87% reported,edison,republican,FALSE,2020-11-24T13:23:39Z,FALSE,24.23468,92608,R+24,Feenstra +24,republican,FALSE,"","",6,-1,1604467247103
19067,Floyd,7722,4475,8,9,None,97,7983,97%,97% reported,edison,4,some,4478,3244,2163,2312,2020-11-24T13:22:57Z,15.98032,R+16,Feenstra +16,republican,IA-G-H-4-2020-11-03,ia-house-general-district-004-2020-11-03,https://www.nytimes.com/interactive/2020/11/03/us/elections/results-iowa-house-district-4.html,https://www.nytimes.com/interactive/2020/11/03/us/elections/results-iowa.html,https://www.nytimes.com/interactive/2020/11/03/us/elections/ap-polls-iowa.html,https://www.nytimes.com/interactive/2020/11/03/us/elections/exit-polls-iowa.html,house,general,2020-11-03,FALSE,U.S. House District 4,U.S. House,H,"J.D. Scholten, a former minor league pitcher turned Democratic candidate, faces off against Randy Feenstra, a Republican state senator. Earlier this year, Mr. Feenstra defeated the incumbent, Steve King, the nine-term Republican with a history of racist comments, in one of the biggest surprises of the 2020 primary season. ",solid-rep,TRUE,4,District 4,IA,iowa,Iowa,Iowa,horizontal,"",FALSE,TRUE,winner,AP,FALSE,"",382130,216018,39,unknown,Polls close at 10 p.m. Eastern time.,Polls close in,Polls have closed.,2020-11-04T03:00:00.000Z,10 p.m.,445,489,91% reporting,91%,87,441000,edison,87%,87% reported,edison,republican,FALSE,2020-11-24T13:23:39Z,FALSE,24.23468,92608,R+24,Feenstra +24,republican,FALSE,"","",6,-1,1604467247103
19069,Franklin,4883,2420,11,13,None,99,4925,>98%,>98% reported,edison,2,unknown,3249,1634,1411,1009,2020-11-24T13:23:00Z,33.07393,R+33,Feenstra +33,republican,IA-G-H-4-2020-11-03,ia-house-general-district-004-2020-11-03,https://www.nytimes.com/interactive/2020/11/03/us/elections/results-iowa-house-district-4.html,https://www.nytimes.com/interactive/2020/11/03/us/elections/results-iowa.html,https://www.nytimes.com/interactive/2020/11/03/us/elections/ap-polls-iowa.html,https://www.nytimes.com/interactive/2020/11/03/us/elections/exit-polls-iowa.html,house,general,2020-11-03,FALSE,U.S. House District 4,U.S. House,H,"J.D. Scholten, a former minor league pitcher turned Democratic candidate, faces off against Randy Feenstra, a Republican state senator. Earlier this year, Mr. Feenstra defeated the incumbent, Steve King, the nine-term Republican with a history of racist comments, in one of the biggest surprises of the 2020 primary season. ",solid-rep,TRUE,4,District 4,IA,iowa,Iowa,Iowa,horizontal,"",FALSE,TRUE,winner,AP,FALSE,"",382130,216018,39,unknown,Polls close at 10 p.m. Eastern time.,Polls close in,Polls have closed.,2020-11-04T03:00:00.000Z,10 p.m.,445,489,91% reporting,91%,87,441000,edison,87%,87% reported,edison,republican,FALSE,2020-11-24T13:23:39Z,FALSE,24.23468,92608,R+24,Feenstra +24,republican,FALSE,"","",6,-1,1604467247103
19073,Greene,4800,3006,7,7,None,100,4798,>98%,>98% reported,edison,6,unknown,2952,1848,1604,1402,2020-11-24T13:23:05Z,23,R+23,Feenstra +23,republican,IA-G-H-4-2020-11-03,ia-house-general-district-004-2020-11-03,https://www.nytimes.com/interactive/2020/11/03/us/elections/results-iowa-house-district-4.html,https://www.nytimes.com/interactive/2020/11/03/us/elections/results-iowa.html,https://www.nytimes.com/interactive/2020/11/03/us/elections/ap-polls-iowa.html,https://www.nytimes.com/interactive/2020/11/03/us/elections/exit-polls-iowa.html,house,general,2020-11-03,FALSE,U.S. House District 4,U.S. House,H,"J.D. Scholten, a former minor league pitcher turned Democratic candidate, faces off against Randy Feenstra, a Republican state senator. Earlier this year, Mr. Feenstra defeated the incumbent, Steve King, the nine-term Republican with a history of racist comments, in one of the biggest surprises of the 2020 primary season. ",solid-rep,TRUE,4,District 4,IA,iowa,Iowa,Iowa,horizontal,"",FALSE,TRUE,winner,AP,FALSE,"",382130,216018,39,unknown,Polls close at 10 p.m. Eastern time.,Polls close in,Polls have closed.,2020-11-04T03:00:00.000Z,10 p.m.,445,489,91% reporting,91%,87,441000,edison,87%,87% reported,edison,republican,FALSE,2020-11-24T13:23:39Z,FALSE,24.23468,92608,R+24,Feenstra +24,republican,FALSE,"","",6,-1,1604467247103
19075,Grundy,6918,3187,7,7,None,100,6768,>98%,>98% reported,edison,4,some,4906,2012,1915,1272,2020-11-24T13:23:49Z,41.8329,R+42,Feenstra +42,republican,IA-G-H-4-2020-11-03,ia-house-general-district-004-2020-11-03,https://www.nytimes.com/interactive/2020/11/03/us/elections/results-iowa-house-district-4.html,https://www.nytimes.com/interactive/2020/11/03/us/elections/results-iowa.html,https://www.nytimes.com/interactive/2020/11/03/us/elections/ap-polls-iowa.html,https://www.nytimes.com/interactive/2020/11/03/us/elections/exit-polls-iowa.html,house,general,2020-11-03,FALSE,U.S. House District 4,U.S. House,H,"J.D. Scholten, a former minor league pitcher turned Democratic candidate, faces off against Randy Feenstra, a Republican state senator. Earlier this year, Mr. Feenstra defeated the incumbent, Steve King, the nine-term Republican with a history of racist comments, in one of the biggest surprises of the 2020 primary season. ",solid-rep,TRUE,4,District 4,IA,iowa,Iowa,Iowa,horizontal,"",FALSE,TRUE,winner,AP,FALSE,"",382130,216018,39,unknown,Polls close at 10 p.m. Eastern time.,Polls close in,Polls have closed.,2020-11-04T03:00:00.000Z,10 p.m.,445,489,91% reporting,91%,87,441000,edison,87%,87% reported,edison,republican,FALSE,2020-11-24T13:23:39Z,FALSE,24.23468,92608,R+24,Feenstra +24,republican,FALSE,"","",6,-1,1604467247103
19079,Hamilton,7637,4516,8,8,None,100,7637,>98%,>98% reported,edison,6,all,4690,2947,2389,2127,2020-11-24T13:23:09Z,22.8231,R+23,Feenstra +23,republican,IA-G-H-4-2020-11-03,ia-house-general-district-004-2020-11-03,https://www.nytimes.com/interactive/2020/11/03/us/elections/results-iowa-house-district-4.html,https://www.nytimes.com/interactive/2020/11/03/us/elections/results-iowa.html,https://www.nytimes.com/interactive/2020/11/03/us/elections/ap-polls-iowa.html,https://www.nytimes.com/interactive/2020/11/03/us/elections/exit-polls-iowa.html,house,general,2020-11-03,FALSE,U.S. House District 4,U.S. House,H,"J.D. Scholten, a former minor league pitcher turned Democratic candidate, faces off against Randy Feenstra, a Republican state senator. Earlier this year, Mr. Feenstra defeated the incumbent, Steve King, the nine-term Republican with a history of racist comments, in one of the biggest surprises of the 2020 primary season. ",solid-rep,TRUE,4,District 4,IA,iowa,Iowa,Iowa,horizontal,"",FALSE,TRUE,winner,AP,FALSE,"",382130,216018,39,unknown,Polls close at 10 p.m. Eastern time.,Polls close in,Polls have closed.,2020-11-04T03:00:00.000Z,10 p.m.,445,489,91% reporting,91%,87,441000,edison,87%,87% reported,edison,republican,FALSE,2020-11-24T13:23:39Z,FALSE,24.23468,92608,R+24,Feenstra +24,republican,FALSE,"","",6,-1,1604467247103
19081,Hancock,5908,2777,10,11,None,100,5824,>98%,>98% reported,edison,4,some,4136,1772,1661,1116,2020-11-24T13:23:14Z,40.01354,R+40,Feenstra +40,republican,IA-G-H-4-2020-11-03,ia-house-general-district-004-2020-11-03,https://www.nytimes.com/interactive/2020/11/03/us/elections/results-iowa-house-district-4.html,https://www.nytimes.com/interactive/2020/11/03/us/elections/results-iowa.html,https://www.nytimes.com/interactive/2020/11/03/us/elections/ap-polls-iowa.html,https://www.nytimes.com/interactive/2020/11/03/us/elections/exit-polls-iowa.html,house,general,2020-11-03,FALSE,U.S. House District 4,U.S. House,H,"J.D. Scholten, a former minor league pitcher turned Democratic candidate, faces off against Randy Feenstra, a Republican state senator. Earlier this year, Mr. Feenstra defeated the incumbent, Steve King, the nine-term Republican with a history of racist comments, in one of the biggest surprises of the 2020 primary season. ",solid-rep,TRUE,4,District 4,IA,iowa,Iowa,Iowa,horizontal,"",FALSE,TRUE,winner,AP,FALSE,"",382130,216018,39,unknown,Polls close at 10 p.m. Eastern time.,Polls close in,Polls have closed.,2020-11-04T03:00:00.000Z,10 p.m.,445,489,91% reporting,91%,87,441000,edison,87%,87% reported,edison,republican,FALSE,2020-11-24T13:23:39Z,FALSE,24.23468,92608,R+24,Feenstra +24,republican,FALSE,"","",6,-1,1604467247103
19083,Hardin,8692,4729,7,8,None,100,8455,>98%,>98% reported,edison,2,unknown,5758,2934,2703,2026,2020-11-24T13:23:17Z,32.48965,R+32,Feenstra +32,republican,IA-G-H-4-2020-11-03,ia-house-general-district-004-2020-11-03,https://www.nytimes.com/interactive/2020/11/03/us/elections/results-iowa-house-district-4.html,https://www.nytimes.com/interactive/2020/11/03/us/elections/results-iowa.html,https://www.nytimes.com/interactive/2020/11/03/us/elections/ap-polls-iowa.html,https://www.nytimes.com/interactive/2020/11/03/us/elections/exit-polls-iowa.html,house,general,2020-11-03,FALSE,U.S. House District 4,U.S. House,H,"J.D. Scholten, a former minor league pitcher turned Democratic candidate, faces off against Randy Feenstra, a Republican state senator. Earlier this year, Mr. Feenstra defeated the incumbent, Steve King, the nine-term Republican with a history of racist comments, in one of the biggest surprises of the 2020 primary season. ",solid-rep,TRUE,4,District 4,IA,iowa,Iowa,Iowa,horizontal,"",FALSE,TRUE,winner,AP,FALSE,"",382130,216018,39,unknown,Polls close at 10 p.m. Eastern time.,Polls close in,Polls have closed.,2020-11-04T03:00:00.000Z,10 p.m.,445,489,91% reporting,91%,87,441000,edison,87%,87% reported,edison,republican,FALSE,2020-11-24T13:23:39Z,FALSE,24.23468,92608,R+24,Feenstra +24,republican,FALSE,"","",6,-1,1604467247103
19085,Harrison,7638,3763,12,13,None,89,8581,89%,89% reported,edison,2,unknown,5140,2498,2163,1600,2020-11-24T13:23:38Z,34.59021,R+35,Feenstra +35,republican,IA-G-H-4-2020-11-03,ia-house-general-district-004-2020-11-03,https://www.nytimes.com/interactive/2020/11/03/us/elections/results-iowa-house-district-4.html,https://www.nytimes.com/interactive/2020/11/03/us/elections/results-iowa.html,https://www.nytimes.com/interactive/2020/11/03/us/elections/ap-polls-iowa.html,https://www.nytimes.com/interactive/2020/11/03/us/elections/exit-polls-iowa.html,house,general,2020-11-03,FALSE,U.S. House District 4,U.S. House,H,"J.D. Scholten, a former minor league pitcher turned Democratic candidate, faces off against Randy Feenstra, a Republican state senator. Earlier this year, Mr. Feenstra defeated the incumbent, Steve King, the nine-term Republican with a history of racist comments, in one of the biggest surprises of the 2020 primary season. ",solid-rep,TRUE,4,District 4,IA,iowa,Iowa,Iowa,horizontal,"",FALSE,TRUE,winner,AP,FALSE,"",382130,216018,39,unknown,Polls close at 10 p.m. Eastern time.,Polls close in,Polls have closed.,2020-11-04T03:00:00.000Z,10 p.m.,445,489,91% reporting,91%,87,441000,edison,87%,87% reported,edison,republican,FALSE,2020-11-24T13:23:39Z,FALSE,24.23468,92608,R+24,Feenstra +24,republican,FALSE,"","",6,-1,1604467247103
19091,Humboldt,5074,2719,9,10,None,87,5844,87%,87% reported,edison,2,unknown,3601,1473,1693,1026,2020-11-24T13:23:20Z,41.9393,R+42,Feenstra +42,republican,IA-G-H-4-2020-11-03,ia-house-general-district-004-2020-11-03,https://www.nytimes.com/interactive/2020/11/03/us/elections/results-iowa-house-district-4.html,https://www.nytimes.com/interactive/2020/11/03/us/elections/results-iowa.html,https://www.nytimes.com/interactive/2020/11/03/us/elections/ap-polls-iowa.html,https://www.nytimes.com/interactive/2020/11/03/us/elections/exit-polls-iowa.html,house,general,2020-11-03,FALSE,U.S. House District 4,U.S. House,H,"J.D. Scholten, a former minor league pitcher turned Democratic candidate, faces off against Randy Feenstra, a Republican state senator. Earlier this year, Mr. Feenstra defeated the incumbent, Steve King, the nine-term Republican with a history of racist comments, in one of the biggest surprises of the 2020 primary season. ",solid-rep,TRUE,4,District 4,IA,iowa,Iowa,Iowa,horizontal,"",FALSE,TRUE,winner,AP,FALSE,"",382130,216018,39,unknown,Polls close at 10 p.m. Eastern time.,Polls close in,Polls have closed.,2020-11-04T03:00:00.000Z,10 p.m.,445,489,91% reporting,91%,87,441000,edison,87%,87% reported,edison,republican,FALSE,2020-11-24T13:23:39Z,FALSE,24.23468,92608,R+24,Feenstra +24,republican,FALSE,"","",6,-1,1604467247103
19093,Ida,3719,1831,7,8,None,100,3715,>98%,>98% reported,edison,6,all,2660,1059,1167,664,2020-11-24T13:23:50Z,43.04921,R+43,Feenstra +43,republican,IA-G-H-4-2020-11-03,ia-house-general-district-004-2020-11-03,https://www.nytimes.com/interactive/2020/11/03/us/elections/results-iowa-house-district-4.html,https://www.nytimes.com/interactive/2020/11/03/us/elections/results-iowa.html,https://www.nytimes.com/interactive/2020/11/03/us/elections/ap-polls-iowa.html,https://www.nytimes.com/interactive/2020/11/03/us/elections/exit-polls-iowa.html,house,general,2020-11-03,FALSE,U.S. House District 4,U.S. House,H,"J.D. Scholten, a former minor league pitcher turned Democratic candidate, faces off against Randy Feenstra, a Republican state senator. Earlier this year, Mr. Feenstra defeated the incumbent, Steve King, the nine-term Republican with a history of racist comments, in one of the biggest surprises of the 2020 primary season. ",solid-rep,TRUE,4,District 4,IA,iowa,Iowa,Iowa,horizontal,"",FALSE,TRUE,winner,AP,FALSE,"",382130,216018,39,unknown,Polls close at 10 p.m. Eastern time.,Polls close in,Polls have closed.,2020-11-04T03:00:00.000Z,10 p.m.,445,489,91% reporting,91%,87,441000,edison,87%,87% reported,edison,republican,FALSE,2020-11-24T13:23:39Z,FALSE,24.23468,92608,R+24,Feenstra +24,republican,FALSE,"","",6,-1,1604467247103
19109,Kossuth,8744,4884,18,20,None,88,9903,88%,88% reported,edison,2,unknown,5964,2780,2814,2070,2020-11-24T13:23:23Z,36.41354,R+36,Feenstra +36,republican,IA-G-H-4-2020-11-03,ia-house-general-district-004-2020-11-03,https://www.nytimes.com/interactive/2020/11/03/us/elections/results-iowa-house-district-4.html,https://www.nytimes.com/interactive/2020/11/03/us/elections/results-iowa.html,https://www.nytimes.com/interactive/2020/11/03/us/elections/ap-polls-iowa.html,https://www.nytimes.com/interactive/2020/11/03/us/elections/exit-polls-iowa.html,house,general,2020-11-03,FALSE,U.S. House District 4,U.S. House,H,"J.D. Scholten, a former minor league pitcher turned Democratic candidate, faces off against Randy Feenstra, a Republican state senator. Earlier this year, Mr. Feenstra defeated the incumbent, Steve King, the nine-term Republican with a history of racist comments, in one of the biggest surprises of the 2020 primary season. ",solid-rep,TRUE,4,District 4,IA,iowa,Iowa,Iowa,horizontal,"",FALSE,TRUE,winner,AP,FALSE,"",382130,216018,39,unknown,Polls close at 10 p.m. Eastern time.,Polls close in,Polls have closed.,2020-11-04T03:00:00.000Z,10 p.m.,445,489,91% reporting,91%,87,441000,edison,87%,87% reported,edison,republican,FALSE,2020-11-24T13:23:39Z,FALSE,24.23468,92608,R+24,Feenstra +24,republican,FALSE,"","",6,-1,1604467247103
19119,Lyon,6694,3281,7,8,None,91,7360,91%,91% reported,edison,2,unknown,5556,1138,2530,751,2020-11-24T13:23:50Z,65.9994,R+66,Feenstra +66,republican,IA-G-H-4-2020-11-03,ia-house-general-district-004-2020-11-03,https://www.nytimes.com/interactive/2020/11/03/us/elections/results-iowa-house-district-4.html,https://www.nytimes.com/interactive/2020/11/03/us/elections/results-iowa.html,https://www.nytimes.com/interactive/2020/11/03/us/elections/ap-polls-iowa.html,https://www.nytimes.com/interactive/2020/11/03/us/elections/exit-polls-iowa.html,house,general,2020-11-03,FALSE,U.S. House District 4,U.S. House,H,"J.D. Scholten, a former minor league pitcher turned Democratic candidate, faces off against Randy Feenstra, a Republican state senator. Earlier this year, Mr. Feenstra defeated the incumbent, Steve King, the nine-term Republican with a history of racist comments, in one of the biggest surprises of the 2020 primary season. ",solid-rep,TRUE,4,District 4,IA,iowa,Iowa,Iowa,horizontal,"",FALSE,TRUE,winner,AP,FALSE,"",382130,216018,39,unknown,Polls close at 10 p.m. Eastern time.,Polls close in,Polls have closed.,2020-11-04T03:00:00.000Z,10 p.m.,445,489,91% reporting,91%,87,441000,edison,87%,87% reported,edison,republican,FALSE,2020-11-24T13:23:39Z,FALSE,24.23468,92608,R+24,Feenstra +24,republican,FALSE,"","",6,-1,1604467247103
19133,Monona,4521,2113,7,8,None,86,5258,86%,86% reported,edison,2,unknown,2974,1547,1173,940,2020-11-24T13:23:51Z,31.56381,R+32,Feenstra +32,republican,IA-G-H-4-2020-11-03,ia-house-general-district-004-2020-11-03,https://www.nytimes.com/interactive/2020/11/03/us/elections/results-iowa-house-district-4.html,https://www.nytimes.com/interactive/2020/11/03/us/elections/results-iowa.html,https://www.nytimes.com/interactive/2020/11/03/us/elections/ap-polls-iowa.html,https://www.nytimes.com/interactive/2020/11/03/us/elections/exit-polls-iowa.html,house,general,2020-11-03,FALSE,U.S. House District 4,U.S. House,H,"J.D. Scholten, a former minor league pitcher turned Democratic candidate, faces off against Randy Feenstra, a Republican state senator. Earlier this year, Mr. Feenstra defeated the incumbent, Steve King, the nine-term Republican with a history of racist comments, in one of the biggest surprises of the 2020 primary season. ",solid-rep,TRUE,4,District 4,IA,iowa,Iowa,Iowa,horizontal,"",FALSE,TRUE,winner,AP,FALSE,"",382130,216018,39,unknown,Polls close at 10 p.m. Eastern time.,Polls close in,Polls have closed.,2020-11-04T03:00:00.000Z,10 p.m.,445,489,91% reporting,91%,87,441000,edison,87%,87% reported,edison,republican,FALSE,2020-11-24T13:23:39Z,FALSE,24.23468,92608,R+24,Feenstra +24,republican,FALSE,"","",6,-1,1604467247103
19141,O'Brien,7359,3544,9,9,None,86,8549,86%,86% reported,edison,4,some,5744,1615,2462,1082,2020-11-24T13:23:52Z,56.10817,R+56,Feenstra +56,republican,IA-G-H-4-2020-11-03,ia-house-general-district-004-2020-11-03,https://www.nytimes.com/interactive/2020/11/03/us/elections/results-iowa-house-district-4.html,https://www.nytimes.com/interactive/2020/11/03/us/elections/results-iowa.html,https://www.nytimes.com/interactive/2020/11/03/us/elections/ap-polls-iowa.html,https://www.nytimes.com/interactive/2020/11/03/us/elections/exit-polls-iowa.html,house,general,2020-11-03,FALSE,U.S. House District 4,U.S. House,H,"J.D. Scholten, a former minor league pitcher turned Democratic candidate, faces off against Randy Feenstra, a Republican state senator. Earlier this year, Mr. Feenstra defeated the incumbent, Steve King, the nine-term Republican with a history of racist comments, in one of the biggest surprises of the 2020 primary season. ",solid-rep,TRUE,4,District 4,IA,iowa,Iowa,Iowa,horizontal,"",FALSE,TRUE,winner,AP,FALSE,"",382130,216018,39,unknown,Polls close at 10 p.m. Eastern time.,Polls close in,Polls have closed.,2020-11-04T03:00:00.000Z,10 p.m.,445,489,91% reporting,91%,87,441000,edison,87%,87% reported,edison,republican,FALSE,2020-11-24T13:23:39Z,FALSE,24.23468,92608,R+24,Feenstra +24,republican,FALSE,"","",6,-1,1604467247103
19143,Osceola,3169,1406,8,8,None,85,3712,85%,85% reported,edison,4,some,2542,627,1049,357,2020-11-24T13:23:53Z,60.42916,R+60,Feenstra +60,republican,IA-G-H-4-2020-11-03,ia-house-general-district-004-2020-11-03,https://www.nytimes.com/interactive/2020/11/03/us/elections/results-iowa-house-district-4.html,https://www.nytimes.com/interactive/2020/11/03/us/elections/results-iowa.html,https://www.nytimes.com/interactive/2020/11/03/us/elections/ap-polls-iowa.html,https://www.nytimes.com/interactive/2020/11/03/us/elections/exit-polls-iowa.html,house,general,2020-11-03,FALSE,U.S. House District 4,U.S. House,H,"J.D. Scholten, a former minor league pitcher turned Democratic candidate, faces off against Randy Feenstra, a Republican state senator. Earlier this year, Mr. Feenstra defeated the incumbent, Steve King, the nine-term Republican with a history of racist comments, in one of the biggest surprises of the 2020 primary season. ",solid-rep,TRUE,4,District 4,IA,iowa,Iowa,Iowa,horizontal,"",FALSE,TRUE,winner,AP,FALSE,"",382130,216018,39,unknown,Polls close at 10 p.m. Eastern time.,Polls close in,Polls have closed.,2020-11-04T03:00:00.000Z,10 p.m.,445,489,91% reporting,91%,87,441000,edison,87%,87% reported,edison,republican,FALSE,2020-11-24T13:23:39Z,FALSE,24.23468,92608,R+24,Feenstra +24,republican,FALSE,"","",6,-1,1604467247103
19147,Palo Alto,4814,2706,5,6,None,100,4674,>98%,>98% reported,edison,2,unknown,3193,1621,1590,1116,2020-11-24T13:23:26Z,32.65476,R+33,Feenstra +33,republican,IA-G-H-4-2020-11-03,ia-house-general-district-004-2020-11-03,https://www.nytimes.com/interactive/2020/11/03/us/elections/results-iowa-house-district-4.html,https://www.nytimes.com/interactive/2020/11/03/us/elections/results-iowa.html,https://www.nytimes.com/interactive/2020/11/03/us/elections/ap-polls-iowa.html,https://www.nytimes.com/interactive/2020/11/03/us/elections/exit-polls-iowa.html,house,general,2020-11-03,FALSE,U.S. House District 4,U.S. House,H,"J.D. Scholten, a former minor league pitcher turned Democratic candidate, faces off against Randy Feenstra, a Republican state senator. Earlier this year, Mr. Feenstra defeated the incumbent, Steve King, the nine-term Republican with a history of racist comments, in one of the biggest surprises of the 2020 primary season. ",solid-rep,TRUE,4,District 4,IA,iowa,Iowa,Iowa,horizontal,"",FALSE,TRUE,winner,AP,FALSE,"",382130,216018,39,unknown,Polls close at 10 p.m. Eastern time.,Polls close in,Polls have closed.,2020-11-04T03:00:00.000Z,10 p.m.,445,489,91% reporting,91%,87,441000,edison,87%,87% reported,edison,republican,FALSE,2020-11-24T13:23:39Z,FALSE,24.23468,92608,R+24,Feenstra +24,republican,FALSE,"","",6,-1,1604467247103
19149,Plymouth,13746,7428,13,13,None,100,13714,>98%,>98% reported,edison,6,all,10126,3620,4983,2445,2020-11-24T13:23:54Z,47.33013,R+47,Feenstra +47,republican,IA-G-H-4-2020-11-03,ia-house-general-district-004-2020-11-03,https://www.nytimes.com/interactive/2020/11/03/us/elections/results-iowa-house-district-4.html,https://www.nytimes.com/interactive/2020/11/03/us/elections/results-iowa.html,https://www.nytimes.com/interactive/2020/11/03/us/elections/ap-polls-iowa.html,https://www.nytimes.com/interactive/2020/11/03/us/elections/exit-polls-iowa.html,house,general,2020-11-03,FALSE,U.S. House District 4,U.S. House,H,"J.D. Scholten, a former minor league pitcher turned Democratic candidate, faces off against Randy Feenstra, a Republican state senator. Earlier this year, Mr. Feenstra defeated the incumbent, Steve King, the nine-term Republican with a history of racist comments, in one of the biggest surprises of the 2020 primary season. ",solid-rep,TRUE,4,District 4,IA,iowa,Iowa,Iowa,horizontal,"",FALSE,TRUE,winner,AP,FALSE,"",382130,216018,39,unknown,Polls close at 10 p.m. Eastern time.,Polls close in,Polls have closed.,2020-11-04T03:00:00.000Z,10 p.m.,445,489,91% reporting,91%,87,441000,edison,87%,87% reported,edison,republican,FALSE,2020-11-24T13:23:39Z,FALSE,24.23468,92608,R+24,Feenstra +24,republican,FALSE,"","",6,-1,1604467247103
19151,Pocahontas,3648,1970,7,8,None,82,4457,82%,82% reported,edison,4,some,2584,1064,1246,724,2020-11-24T13:23:29Z,41.66667,R+42,Feenstra +42,republican,IA-G-H-4-2020-11-03,ia-house-general-district-004-2020-11-03,https://www.nytimes.com/interactive/2020/11/03/us/elections/results-iowa-house-district-4.html,https://www.nytimes.com/interactive/2020/11/03/us/elections/results-iowa.html,https://www.nytimes.com/interactive/2020/11/03/us/elections/ap-polls-iowa.html,https://www.nytimes.com/interactive/2020/11/03/us/elections/exit-polls-iowa.html,house,general,2020-11-03,FALSE,U.S. House District 4,U.S. House,H,"J.D. Scholten, a former minor league pitcher turned Democratic candidate, faces off against Randy Feenstra, a Republican state senator. Earlier this year, Mr. Feenstra defeated the incumbent, Steve King, the nine-term Republican with a history of racist comments, in one of the biggest surprises of the 2020 primary season. ",solid-rep,TRUE,4,District 4,IA,iowa,Iowa,Iowa,horizontal,"",FALSE,TRUE,winner,AP,FALSE,"",382130,216018,39,unknown,Polls close at 10 p.m. Eastern time.,Polls close in,Polls have closed.,2020-11-04T03:00:00.000Z,10 p.m.,445,489,91% reporting,91%,87,441000,edison,87%,87% reported,edison,republican,FALSE,2020-11-24T13:23:39Z,FALSE,24.23468,92608,R+24,Feenstra +24,republican,FALSE,"","",6,-1,1604467247103
19161,Sac,5285,2476,9,10,None,88,5997,88%,88% reported,edison,2,unknown,3745,1540,1542,934,2020-11-24T13:23:55Z,41.72185,R+42,Feenstra +42,republican,IA-G-H-4-2020-11-03,ia-house-general-district-004-2020-11-03,https://www.nytimes.com/interactive/2020/11/03/us/elections/results-iowa-house-district-4.html,https://www.nytimes.com/interactive/2020/11/03/us/elections/results-iowa.html,https://www.nytimes.com/interactive/2020/11/03/us/elections/ap-polls-iowa.html,https://www.nytimes.com/interactive/2020/11/03/us/elections/exit-polls-iowa.html,house,general,2020-11-03,FALSE,U.S. House District 4,U.S. House,H,"J.D. Scholten, a former minor league pitcher turned Democratic candidate, faces off against Randy Feenstra, a Republican state senator. Earlier this year, Mr. Feenstra defeated the incumbent, Steve King, the nine-term Republican with a history of racist comments, in one of the biggest surprises of the 2020 primary season. ",solid-rep,TRUE,4,District 4,IA,iowa,Iowa,Iowa,horizontal,"",FALSE,TRUE,winner,AP,FALSE,"",382130,216018,39,unknown,Polls close at 10 p.m. Eastern time.,Polls close in,Polls have closed.,2020-11-04T03:00:00.000Z,10 p.m.,445,489,91% reporting,91%,87,441000,edison,87%,87% reported,edison,republican,FALSE,2020-11-24T13:23:39Z,FALSE,24.23468,92608,R+24,Feenstra +24,republican,FALSE,"","",6,-1,1604467247103
19165,Shelby,6341,3992,8,9,None,87,7316,87%,87% reported,edison,2,unknown,4379,1962,2506,1486,2020-11-24T13:23:39Z,38.11702,R+38,Feenstra +38,republican,IA-G-H-4-2020-11-03,ia-house-general-district-004-2020-11-03,https://www.nytimes.com/interactive/2020/11/03/us/elections/results-iowa-house-district-4.html,https://www.nytimes.com/interactive/2020/11/03/us/elections/results-iowa.html,https://www.nytimes.com/interactive/2020/11/03/us/elections/ap-polls-iowa.html,https://www.nytimes.com/interactive/2020/11/03/us/elections/exit-polls-iowa.html,house,general,2020-11-03,FALSE,U.S. House District 4,U.S. House,H,"J.D. Scholten, a former minor league pitcher turned Democratic candidate, faces off against Randy Feenstra, a Republican state senator. Earlier this year, Mr. Feenstra defeated the incumbent, Steve King, the nine-term Republican with a history of racist comments, in one of the biggest surprises of the 2020 primary season. ",solid-rep,TRUE,4,District 4,IA,iowa,Iowa,Iowa,horizontal,"",FALSE,TRUE,winner,AP,FALSE,"",382130,216018,39,unknown,Polls close at 10 p.m. Eastern time.,Polls close in,Polls have closed.,2020-11-04T03:00:00.000Z,10 p.m.,445,489,91% reporting,91%,87,441000,edison,87%,87% reported,edison,republican,FALSE,2020-11-24T13:23:39Z,FALSE,24.23468,92608,R+24,Feenstra +24,republican,FALSE,"","",6,-1,1604467247103
19167,Sioux,18773,8265,16,16,None,100,18761,>98%,>98% reported,edison,6,all,16017,2756,6523,1742,2020-11-24T13:23:55Z,70.63868,R+71,Feenstra +71,republican,IA-G-H-4-2020-11-03,ia-house-general-district-004-2020-11-03,https://www.nytimes.com/interactive/2020/11/03/us/elections/results-iowa-house-district-4.html,https://www.nytimes.com/interactive/2020/11/03/us/elections/results-iowa.html,https://www.nytimes.com/interactive/2020/11/03/us/elections/ap-polls-iowa.html,https://www.nytimes.com/interactive/2020/11/03/us/elections/exit-polls-iowa.html,house,general,2020-11-03,FALSE,U.S. House District 4,U.S. House,H,"J.D. Scholten, a former minor league pitcher turned Democratic candidate, faces off against Randy Feenstra, a Republican state senator. Earlier this year, Mr. Feenstra defeated the incumbent, Steve King, the nine-term Republican with a history of racist comments, in one of the biggest surprises of the 2020 primary season. ",solid-rep,TRUE,4,District 4,IA,iowa,Iowa,Iowa,horizontal,"",FALSE,TRUE,winner,AP,FALSE,"",382130,216018,39,unknown,Polls close at 10 p.m. Eastern time.,Polls close in,Polls have closed.,2020-11-04T03:00:00.000Z,10 p.m.,445,489,91% reporting,91%,87,441000,edison,87%,87% reported,edison,republican,FALSE,2020-11-24T13:23:39Z,FALSE,24.23468,92608,R+24,Feenstra +24,republican,FALSE,"","",6,-1,1604467247103
19169,Story,48943,29488,36,43,None,100,48603,>98%,>98% reported,edison,6,all,20694,28249,8674,20814,2020-11-24T13:23:31Z,15.43632,D+15,Scholten +15,democrat,IA-G-H-4-2020-11-03,ia-house-general-district-004-2020-11-03,https://www.nytimes.com/interactive/2020/11/03/us/elections/results-iowa-house-district-4.html,https://www.nytimes.com/interactive/2020/11/03/us/elections/results-iowa.html,https://www.nytimes.com/interactive/2020/11/03/us/elections/ap-polls-iowa.html,https://www.nytimes.com/interactive/2020/11/03/us/elections/exit-polls-iowa.html,house,general,2020-11-03,FALSE,U.S. House District 4,U.S. House,H,"J.D. Scholten, a former minor league pitcher turned Democratic candidate, faces off against Randy Feenstra, a Republican state senator. Earlier this year, Mr. Feenstra defeated the incumbent, Steve King, the nine-term Republican with a history of racist comments, in one of the biggest surprises of the 2020 primary season. ",solid-rep,TRUE,4,District 4,IA,iowa,Iowa,Iowa,horizontal,"",FALSE,TRUE,winner,AP,FALSE,"",382130,216018,39,unknown,Polls close at 10 p.m. Eastern time.,Polls close in,Polls have closed.,2020-11-04T03:00:00.000Z,10 p.m.,445,489,91% reporting,91%,87,441000,edison,87%,87% reported,edison,republican,FALSE,2020-11-24T13:23:39Z,FALSE,24.23468,92608,R+24,Feenstra +24,republican,FALSE,"","",6,-1,1604467247103
19187,Webster,17011,9695,28,28,None,85,20022,85%,85% reported,edison,4,some,10117,6894,4835,4860,2020-11-24T13:23:32Z,18.94656,R+19,Feenstra +19,republican,IA-G-H-4-2020-11-03,ia-house-general-district-004-2020-11-03,https://www.nytimes.com/interactive/2020/11/03/us/elections/results-iowa-house-district-4.html,https://www.nytimes.com/interactive/2020/11/03/us/elections/results-iowa.html,https://www.nytimes.com/interactive/2020/11/03/us/elections/ap-polls-iowa.html,https://www.nytimes.com/interactive/2020/11/03/us/elections/exit-polls-iowa.html,house,general,2020-11-03,FALSE,U.S. House District 4,U.S. House,H,"J.D. Scholten, a former minor league pitcher turned Democratic candidate, faces off against Randy Feenstra, a Republican state senator. Earlier this year, Mr. Feenstra defeated the incumbent, Steve King, the nine-term Republican with a history of racist comments, in one of the biggest surprises of the 2020 primary season. ",solid-rep,TRUE,4,District 4,IA,iowa,Iowa,Iowa,horizontal,"",FALSE,TRUE,winner,AP,FALSE,"",382130,216018,39,unknown,Polls close at 10 p.m. Eastern time.,Polls close in,Polls have closed.,2020-11-04T03:00:00.000Z,10 p.m.,445,489,91% reporting,91%,87,441000,edison,87%,87% reported,edison,republican,FALSE,2020-11-24T13:23:39Z,FALSE,24.23468,92608,R+24,Feenstra +24,republican,FALSE,"","",6,-1,1604467247103
19189,Winnebago,5764,2874,11,11,None,100,5737,>98%,>98% reported,edison,6,unknown,3549,2215,1409,1465,2020-11-24T13:23:34Z,23.14365,R+23,Feenstra +23,republican,IA-G-H-4-2020-11-03,ia-house-general-district-004-2020-11-03,https://www.nytimes.com/interactive/2020/11/03/us/elections/results-iowa-house-district-4.html,https://www.nytimes.com/interactive/2020/11/03/us/elections/results-iowa.html,https://www.nytimes.com/interactive/2020/11/03/us/elections/ap-polls-iowa.html,https://www.nytimes.com/interactive/2020/11/03/us/elections/exit-polls-iowa.html,house,general,2020-11-03,FALSE,U.S. House District 4,U.S. House,H,"J.D. Scholten, a former minor league pitcher turned Democratic candidate, faces off against Randy Feenstra, a Republican state senator. Earlier this year, Mr. Feenstra defeated the incumbent, Steve King, the nine-term Republican with a history of racist comments, in one of the biggest surprises of the 2020 primary season. ",solid-rep,TRUE,4,District 4,IA,iowa,Iowa,Iowa,horizontal,"",FALSE,TRUE,winner,AP,FALSE,"",382130,216018,39,unknown,Polls close at 10 p.m. Eastern time.,Polls close in,Polls have closed.,2020-11-04T03:00:00.000Z,10 p.m.,445,489,91% reporting,91%,87,441000,edison,87%,87% reported,edison,republican,FALSE,2020-11-24T13:23:39Z,FALSE,24.23468,92608,R+24,Feenstra +24,republican,FALSE,"","",6,-1,1604467247103
19193,Woodbury,43857,26786,39,45,None,88,50053,88%,88% reported,edison,2,unknown,24045,19812,12605,14181,2020-11-24T13:23:56Z,9.65182,R+10,Feenstra +10,republican,IA-G-H-4-2020-11-03,ia-house-general-district-004-2020-11-03,https://www.nytimes.com/interactive/2020/11/03/us/elections/results-iowa-house-district-4.html,https://www.nytimes.com/interactive/2020/11/03/us/elections/results-iowa.html,https://www.nytimes.com/interactive/2020/11/03/us/elections/ap-polls-iowa.html,https://www.nytimes.com/interactive/2020/11/03/us/elections/exit-polls-iowa.html,house,general,2020-11-03,FALSE,U.S. House District 4,U.S. House,H,"J.D. Scholten, a former minor league pitcher turned Democratic candidate, faces off against Randy Feenstra, a Republican state senator. Earlier this year, Mr. Feenstra defeated the incumbent, Steve King, the nine-term Republican with a history of racist comments, in one of the biggest surprises of the 2020 primary season. ",solid-rep,TRUE,4,District 4,IA,iowa,Iowa,Iowa,horizontal,"",FALSE,TRUE,winner,AP,FALSE,"",382130,216018,39,unknown,Polls close at 10 p.m. Eastern time.,Polls close in,Polls have closed.,2020-11-04T03:00:00.000Z,10 p.m.,445,489,91% reporting,91%,87,441000,edison,87%,87% reported,edison,republican,FALSE,2020-11-24T13:23:39Z,FALSE,24.23468,92608,R+24,Feenstra +24,republican,FALSE,"","",6,-1,1604467247103
19197,Wright,5920,3208,9,10,None,99,5960,>98%,>98% reported,edison,2,unknown,3855,2065,1868,1340,2020-11-24T13:23:34Z,30.23649,R+30,Feenstra +30,republican,IA-G-H-4-2020-11-03,ia-house-general-district-004-2020-11-03,https://www.nytimes.com/interactive/2020/11/03/us/elections/results-iowa-house-district-4.html,https://www.nytimes.com/interactive/2020/11/03/us/elections/results-iowa.html,https://www.nytimes.com/interactive/2020/11/03/us/elections/ap-polls-iowa.html,https://www.nytimes.com/interactive/2020/11/03/us/elections/exit-polls-iowa.html,house,general,2020-11-03,FALSE,U.S. House District 4,U.S. House,H,"J.D. Scholten, a former minor league pitcher turned Democratic candidate, faces off against Randy Feenstra, a Republican state senator. Earlier this year, Mr. Feenstra defeated the incumbent, Steve King, the nine-term Republican with a history of racist comments, in one of the biggest surprises of the 2020 primary season. ",solid-rep,TRUE,4,District 4,IA,iowa,Iowa,Iowa,horizontal,"",FALSE,TRUE,winner,AP,FALSE,"",382130,216018,39,unknown,Polls close at 10 p.m. Eastern time.,Polls close in,Polls have closed.,2020-11-04T03:00:00.000Z,10 p.m.,445,489,91% reporting,91%,87,441000,edison,87%,87% reported,edison,republican,FALSE,2020-11-24T13:23:39Z,FALSE,24.23468,92608,R+24,Feenstra +24,republican,FALSE,"","",6,-1,1604467247103
