fips,name,votes,absentee_votes,reporting,precincts,absentee_method,eevp,tot_exp_vote,eevp_value,eevp_display,eevp_source,turnout_stage,absentee_count_progress,absentee_max_ballots,results_comerj,results_rhodesj,results_write_ins,results_absentee_comerj,results_absentee_rhodesj,results_absentee_write_ins,last_updated,leader_margin_value,leader_margin_display,leader_margin_name_display,leader_party_id,race_id_race,race_slug_race,url_race,state_page_url_race,ap_polls_page_race,edison_exit_polls_page_race,race_type_race,election_type_race,election_date_race,runoff_race,race_name_race,office_race,officeid_race,race_rating_race,seat_race,seat_name_race,state_id_race,state_slug_race,state_name_race,state_nyt_abbrev_race,state_shape_race,party_id_race,uncontested_race,report_race,result_race,result_source_race,gain_race,lost_seat_race,votes_race,absentee_votes_race,absentee_counties_race,absentee_count_progress_race,poll_display_race,poll_countdown_display_race,poll_waiting_display_race,poll_time_race,poll_time_short_race,precincts_reporting_race,precincts_total_race,reporting_display_race,reporting_value_race,eevp_race,tot_exp_vote_race,eevp_source_race,eevp_value_race,eevp_display_race,county_data_source_race,incumbent_party_race,no_forecast_race,last_updated_race,has_incumbent_race,leader_margin_value_race,leader_margin_votes_race,leader_margin_display_race,leader_margin_name_display_race,leader_party_id_race,edison_certified_race,expectations_text_race,expectations_text_short_race,absentee_ballot_deadline_race,absentee_postmark_deadline_race,winner_called_timestamp_race
21001,Adair,8575,0,16,16,Merged into voters' home precincts and released with cumulative results,100,8575,>98%,>98% reported,edison,10,all,904,7373,1202,0,0,0,0,2020-11-24T13:24:42Z,71.96501,R+72,Comer +72,republican,KY-G-H-1-2020-11-03,ky-house-general-district-001-2020-11-03,https://www.nytimes.com/interactive/2020/11/03/us/elections/results-kentucky-house-district-1.html,https://www.nytimes.com/interactive/2020/11/03/us/elections/results-kentucky.html,https://www.nytimes.com/interactive/2020/11/03/us/elections/ap-polls-kentucky.html,https://www.nytimes.com/interactive/2020/11/03/us/elections/exit-polls-kentucky.html,house,general,2020-11-03,FALSE,U.S. House District 1,U.S. House,H,solid-rep,1,District 1,KY,kentucky,Kentucky,Ky.,horizontal,"",FALSE,TRUE,winner,AP,FALSE,"",328470,45917,9,unknown,First polls close at 6 p.m. Eastern time.,First polls close in,Most polls have closed.,2020-11-03T23:00:00.000Z,6 p.m.,633,633,100% reporting,100%,100,328470,edison,>98%,>98% reported,edison,republican,FALSE,2020-11-24T13:23:12Z,TRUE,49.98569,164188,R+50,Comer +50,republican,TRUE,"","",3,0,1604448477069
21003,Allen,9176,6427,13,13,"As a subtotal in the FIRST cumulative report, along with regular precincts",100,9176,>98%,>98% reported,edison,10,all,661,7704,1472,0,5253,1174,0,2020-11-24T13:24:42Z,67.9163,R+68,Comer +68,republican,KY-G-H-1-2020-11-03,ky-house-general-district-001-2020-11-03,https://www.nytimes.com/interactive/2020/11/03/us/elections/results-kentucky-house-district-1.html,https://www.nytimes.com/interactive/2020/11/03/us/elections/results-kentucky.html,https://www.nytimes.com/interactive/2020/11/03/us/elections/ap-polls-kentucky.html,https://www.nytimes.com/interactive/2020/11/03/us/elections/exit-polls-kentucky.html,house,general,2020-11-03,FALSE,U.S. House District 1,U.S. House,H,solid-rep,1,District 1,KY,kentucky,Kentucky,Ky.,horizontal,"",FALSE,TRUE,winner,AP,FALSE,"",328470,45917,9,unknown,First polls close at 6 p.m. Eastern time.,First polls close in,Most polls have closed.,2020-11-03T23:00:00.000Z,6 p.m.,633,633,100% reporting,100%,100,328470,edison,>98%,>98% reported,edison,republican,FALSE,2020-11-24T13:23:12Z,TRUE,49.98569,164188,R+50,Comer +50,republican,TRUE,"","",3,0,1604448477069
21007,Ballard,4180,0,13,13,Released as a separate subtotal as first report of the night,100,4180,>98%,>98% reported,edison,10,all,208,3369,811,0,0,0,0,2020-11-24T13:22:16Z,61.19617,R+61,Comer +61,republican,KY-G-H-1-2020-11-03,ky-house-general-district-001-2020-11-03,https://www.nytimes.com/interactive/2020/11/03/us/elections/results-kentucky-house-district-1.html,https://www.nytimes.com/interactive/2020/11/03/us/elections/results-kentucky.html,https://www.nytimes.com/interactive/2020/11/03/us/elections/ap-polls-kentucky.html,https://www.nytimes.com/interactive/2020/11/03/us/elections/exit-polls-kentucky.html,house,general,2020-11-03,FALSE,U.S. House District 1,U.S. House,H,solid-rep,1,District 1,KY,kentucky,Kentucky,Ky.,horizontal,"",FALSE,TRUE,winner,AP,FALSE,"",328470,45917,9,unknown,First polls close at 6 p.m. Eastern time.,First polls close in,Most polls have closed.,2020-11-03T23:00:00.000Z,6 p.m.,633,633,100% reporting,100%,100,328470,edison,>98%,>98% reported,edison,republican,FALSE,2020-11-24T13:23:12Z,TRUE,49.98569,164188,R+50,Comer +50,republican,TRUE,"","",3,0,1604448477069
21033,Caldwell,6355,0,13,13,None,100,6355,>98%,>98% reported,edison,10,all,518,4948,1407,0,0,0,0,2020-11-24T13:22:21Z,55.71991,R+56,Comer +56,republican,KY-G-H-1-2020-11-03,ky-house-general-district-001-2020-11-03,https://www.nytimes.com/interactive/2020/11/03/us/elections/results-kentucky-house-district-1.html,https://www.nytimes.com/interactive/2020/11/03/us/elections/results-kentucky.html,https://www.nytimes.com/interactive/2020/11/03/us/elections/ap-polls-kentucky.html,https://www.nytimes.com/interactive/2020/11/03/us/elections/exit-polls-kentucky.html,house,general,2020-11-03,FALSE,U.S. House District 1,U.S. House,H,solid-rep,1,District 1,KY,kentucky,Kentucky,Ky.,horizontal,"",FALSE,TRUE,winner,AP,FALSE,"",328470,45917,9,unknown,First polls close at 6 p.m. Eastern time.,First polls close in,Most polls have closed.,2020-11-03T23:00:00.000Z,6 p.m.,633,633,100% reporting,100%,100,328470,edison,>98%,>98% reported,edison,republican,FALSE,2020-11-24T13:23:12Z,TRUE,49.98569,164188,R+50,Comer +50,republican,TRUE,"","",3,0,1604448477069
21035,Calloway,17289,0,23,23,Merged into voters' home precincts and released with cumulative results,100,17289,>98%,>98% reported,edison,10,all,1198,11946,5343,0,0,0,0,2020-11-24T13:22:23Z,38.19191,R+38,Comer +38,republican,KY-G-H-1-2020-11-03,ky-house-general-district-001-2020-11-03,https://www.nytimes.com/interactive/2020/11/03/us/elections/results-kentucky-house-district-1.html,https://www.nytimes.com/interactive/2020/11/03/us/elections/results-kentucky.html,https://www.nytimes.com/interactive/2020/11/03/us/elections/ap-polls-kentucky.html,https://www.nytimes.com/interactive/2020/11/03/us/elections/exit-polls-kentucky.html,house,general,2020-11-03,FALSE,U.S. House District 1,U.S. House,H,solid-rep,1,District 1,KY,kentucky,Kentucky,Ky.,horizontal,"",FALSE,TRUE,winner,AP,FALSE,"",328470,45917,9,unknown,First polls close at 6 p.m. Eastern time.,First polls close in,Most polls have closed.,2020-11-03T23:00:00.000Z,6 p.m.,633,633,100% reporting,100%,100,328470,edison,>98%,>98% reported,edison,republican,FALSE,2020-11-24T13:23:12Z,TRUE,49.98569,164188,R+50,Comer +50,republican,TRUE,"","",3,0,1604448477069
21039,Carlisle,2607,0,6,6,Released as a precinct as first report of the night,100,2607,>98%,>98% reported,edison,10,all,274,2161,446,0,0,0,0,2020-11-24T13:22:26Z,65.78443,R+66,Comer +66,republican,KY-G-H-1-2020-11-03,ky-house-general-district-001-2020-11-03,https://www.nytimes.com/interactive/2020/11/03/us/elections/results-kentucky-house-district-1.html,https://www.nytimes.com/interactive/2020/11/03/us/elections/results-kentucky.html,https://www.nytimes.com/interactive/2020/11/03/us/elections/ap-polls-kentucky.html,https://www.nytimes.com/interactive/2020/11/03/us/elections/exit-polls-kentucky.html,house,general,2020-11-03,FALSE,U.S. House District 1,U.S. House,H,solid-rep,1,District 1,KY,kentucky,Kentucky,Ky.,horizontal,"",FALSE,TRUE,winner,AP,FALSE,"",328470,45917,9,unknown,First polls close at 6 p.m. Eastern time.,First polls close in,Most polls have closed.,2020-11-03T23:00:00.000Z,6 p.m.,633,633,100% reporting,100%,100,328470,edison,>98%,>98% reported,edison,republican,FALSE,2020-11-24T13:23:12Z,TRUE,49.98569,164188,R+50,Comer +50,republican,TRUE,"","",3,0,1604448477069
21045,Casey,7066,0,15,15,Released as a precinct as first report of the night,100,7066,>98%,>98% reported,edison,10,all,677,6278,788,0,0,0,0,2020-11-24T13:22:29Z,77.69601,R+78,Comer +78,republican,KY-G-H-1-2020-11-03,ky-house-general-district-001-2020-11-03,https://www.nytimes.com/interactive/2020/11/03/us/elections/results-kentucky-house-district-1.html,https://www.nytimes.com/interactive/2020/11/03/us/elections/results-kentucky.html,https://www.nytimes.com/interactive/2020/11/03/us/elections/ap-polls-kentucky.html,https://www.nytimes.com/interactive/2020/11/03/us/elections/exit-polls-kentucky.html,house,general,2020-11-03,FALSE,U.S. House District 1,U.S. House,H,solid-rep,1,District 1,KY,kentucky,Kentucky,Ky.,horizontal,"",FALSE,TRUE,winner,AP,FALSE,"",328470,45917,9,unknown,First polls close at 6 p.m. Eastern time.,First polls close in,Most polls have closed.,2020-11-03T23:00:00.000Z,6 p.m.,633,633,100% reporting,100%,100,328470,edison,>98%,>98% reported,edison,republican,FALSE,2020-11-24T13:23:12Z,TRUE,49.98569,164188,R+50,Comer +50,republican,TRUE,"","",3,0,1604448477069
21047,Christian,23456,0,41,41,Released as a precinct as first report of the night,100,23456,>98%,>98% reported,edison,10,all,1462,15339,8117,0,0,0,0,2020-11-24T13:22:33Z,30.78956,R+31,Comer +31,republican,KY-G-H-1-2020-11-03,ky-house-general-district-001-2020-11-03,https://www.nytimes.com/interactive/2020/11/03/us/elections/results-kentucky-house-district-1.html,https://www.nytimes.com/interactive/2020/11/03/us/elections/results-kentucky.html,https://www.nytimes.com/interactive/2020/11/03/us/elections/ap-polls-kentucky.html,https://www.nytimes.com/interactive/2020/11/03/us/elections/exit-polls-kentucky.html,house,general,2020-11-03,FALSE,U.S. House District 1,U.S. House,H,solid-rep,1,District 1,KY,kentucky,Kentucky,Ky.,horizontal,"",FALSE,TRUE,winner,AP,FALSE,"",328470,45917,9,unknown,First polls close at 6 p.m. Eastern time.,First polls close in,Most polls have closed.,2020-11-03T23:00:00.000Z,6 p.m.,633,633,100% reporting,100%,100,328470,edison,>98%,>98% reported,edison,republican,FALSE,2020-11-24T13:23:12Z,TRUE,49.98569,164188,R+50,Comer +50,republican,TRUE,"","",3,0,1604448477069
21053,Clinton,4868,0,13,13,Other,100,4868,>98%,>98% reported,edison,10,all,808,4337,531,0,0,0,0,2020-11-24T13:22:36Z,78.18406,R+78,Comer +78,republican,KY-G-H-1-2020-11-03,ky-house-general-district-001-2020-11-03,https://www.nytimes.com/interactive/2020/11/03/us/elections/results-kentucky-house-district-1.html,https://www.nytimes.com/interactive/2020/11/03/us/elections/results-kentucky.html,https://www.nytimes.com/interactive/2020/11/03/us/elections/ap-polls-kentucky.html,https://www.nytimes.com/interactive/2020/11/03/us/elections/exit-polls-kentucky.html,house,general,2020-11-03,FALSE,U.S. House District 1,U.S. House,H,solid-rep,1,District 1,KY,kentucky,Kentucky,Ky.,horizontal,"",FALSE,TRUE,winner,AP,FALSE,"",328470,45917,9,unknown,First polls close at 6 p.m. Eastern time.,First polls close in,Most polls have closed.,2020-11-03T23:00:00.000Z,6 p.m.,633,633,100% reporting,100%,100,328470,edison,>98%,>98% reported,edison,republican,FALSE,2020-11-24T13:23:12Z,TRUE,49.98569,164188,R+50,Comer +50,republican,TRUE,"","",3,0,1604448477069
21055,Crittenden,4180,3411,12,12,Released as a precinct as first report of the night,100,4180,>98%,>98% reported,edison,10,all,362,3460,720,0,2789,622,0,2020-11-24T13:22:42Z,65.55024,R+66,Comer +66,republican,KY-G-H-1-2020-11-03,ky-house-general-district-001-2020-11-03,https://www.nytimes.com/interactive/2020/11/03/us/elections/results-kentucky-house-district-1.html,https://www.nytimes.com/interactive/2020/11/03/us/elections/results-kentucky.html,https://www.nytimes.com/interactive/2020/11/03/us/elections/ap-polls-kentucky.html,https://www.nytimes.com/interactive/2020/11/03/us/elections/exit-polls-kentucky.html,house,general,2020-11-03,FALSE,U.S. House District 1,U.S. House,H,solid-rep,1,District 1,KY,kentucky,Kentucky,Ky.,horizontal,"",FALSE,TRUE,winner,AP,FALSE,"",328470,45917,9,unknown,First polls close at 6 p.m. Eastern time.,First polls close in,Most polls have closed.,2020-11-03T23:00:00.000Z,6 p.m.,633,633,100% reporting,100%,100,328470,edison,>98%,>98% reported,edison,republican,FALSE,2020-11-24T13:23:12Z,TRUE,49.98569,164188,R+50,Comer +50,republican,TRUE,"","",3,0,1604448477069
21057,Cumberland,3244,0,10,10,Merged into voters' home precincts and released with cumulative results,100,3244,>98%,>98% reported,edison,10,all,507,2835,409,0,0,0,0,2020-11-24T13:22:45Z,74.78422,R+75,Comer +75,republican,KY-G-H-1-2020-11-03,ky-house-general-district-001-2020-11-03,https://www.nytimes.com/interactive/2020/11/03/us/elections/results-kentucky-house-district-1.html,https://www.nytimes.com/interactive/2020/11/03/us/elections/results-kentucky.html,https://www.nytimes.com/interactive/2020/11/03/us/elections/ap-polls-kentucky.html,https://www.nytimes.com/interactive/2020/11/03/us/elections/exit-polls-kentucky.html,house,general,2020-11-03,FALSE,U.S. House District 1,U.S. House,H,solid-rep,1,District 1,KY,kentucky,Kentucky,Ky.,horizontal,"",FALSE,TRUE,winner,AP,FALSE,"",328470,45917,9,unknown,First polls close at 6 p.m. Eastern time.,First polls close in,Most polls have closed.,2020-11-03T23:00:00.000Z,6 p.m.,633,633,100% reporting,100%,100,328470,edison,>98%,>98% reported,edison,republican,FALSE,2020-11-24T13:23:12Z,TRUE,49.98569,164188,R+50,Comer +50,republican,TRUE,"","",3,0,1604448477069
21075,Fulton,2379,378,11,11,Released as a separate subtotal as first report of the night,100,2379,>98%,>98% reported,edison,10,all,237,1623,756,0,175,203,0,2020-11-24T13:22:51Z,36.44388,R+36,Comer +36,republican,KY-G-H-1-2020-11-03,ky-house-general-district-001-2020-11-03,https://www.nytimes.com/interactive/2020/11/03/us/elections/results-kentucky-house-district-1.html,https://www.nytimes.com/interactive/2020/11/03/us/elections/results-kentucky.html,https://www.nytimes.com/interactive/2020/11/03/us/elections/ap-polls-kentucky.html,https://www.nytimes.com/interactive/2020/11/03/us/elections/exit-polls-kentucky.html,house,general,2020-11-03,FALSE,U.S. House District 1,U.S. House,H,solid-rep,1,District 1,KY,kentucky,Kentucky,Ky.,horizontal,"",FALSE,TRUE,winner,AP,FALSE,"",328470,45917,9,unknown,First polls close at 6 p.m. Eastern time.,First polls close in,Most polls have closed.,2020-11-03T23:00:00.000Z,6 p.m.,633,633,100% reporting,100%,100,328470,edison,>98%,>98% reported,edison,republican,FALSE,2020-11-24T13:23:12Z,TRUE,49.98569,164188,R+50,Comer +50,republican,TRUE,"","",3,0,1604448477069
21083,Graves,16675,0,30,30,"As a precinct in the FIRST cumulative report, along with regular precincts",100,16675,>98%,>98% reported,edison,10,all,998,13344,3331,0,0,0,0,2020-11-24T13:22:52Z,60.04798,R+60,Comer +60,republican,KY-G-H-1-2020-11-03,ky-house-general-district-001-2020-11-03,https://www.nytimes.com/interactive/2020/11/03/us/elections/results-kentucky-house-district-1.html,https://www.nytimes.com/interactive/2020/11/03/us/elections/results-kentucky.html,https://www.nytimes.com/interactive/2020/11/03/us/elections/ap-polls-kentucky.html,https://www.nytimes.com/interactive/2020/11/03/us/elections/exit-polls-kentucky.html,house,general,2020-11-03,FALSE,U.S. House District 1,U.S. House,H,solid-rep,1,District 1,KY,kentucky,Kentucky,Ky.,horizontal,"",FALSE,TRUE,winner,AP,FALSE,"",328470,45917,9,unknown,First polls close at 6 p.m. Eastern time.,First polls close in,Most polls have closed.,2020-11-03T23:00:00.000Z,6 p.m.,633,633,100% reporting,100%,100,328470,edison,>98%,>98% reported,edison,republican,FALSE,2020-11-24T13:23:12Z,TRUE,49.98569,164188,R+50,Comer +50,republican,TRUE,"","",3,0,1604448477069
21101,Henderson,20388,0,45,45,Released as a precinct as first report of the night,100,20388,>98%,>98% reported,edison,10,all,1430,12988,7400,0,0,0,0,2020-11-24T13:22:57Z,27.40828,R+27,Comer +27,republican,KY-G-H-1-2020-11-03,ky-house-general-district-001-2020-11-03,https://www.nytimes.com/interactive/2020/11/03/us/elections/results-kentucky-house-district-1.html,https://www.nytimes.com/interactive/2020/11/03/us/elections/results-kentucky.html,https://www.nytimes.com/interactive/2020/11/03/us/elections/ap-polls-kentucky.html,https://www.nytimes.com/interactive/2020/11/03/us/elections/exit-polls-kentucky.html,house,general,2020-11-03,FALSE,U.S. House District 1,U.S. House,H,solid-rep,1,District 1,KY,kentucky,Kentucky,Ky.,horizontal,"",FALSE,TRUE,winner,AP,FALSE,"",328470,45917,9,unknown,First polls close at 6 p.m. Eastern time.,First polls close in,Most polls have closed.,2020-11-03T23:00:00.000Z,6 p.m.,633,633,100% reporting,100%,100,328470,edison,>98%,>98% reported,edison,republican,FALSE,2020-11-24T13:23:12Z,TRUE,49.98569,164188,R+50,Comer +50,republican,TRUE,"","",3,0,1604448477069
21105,Hickman,2173,1541,6,6,None,100,2173,>98%,>98% reported,edison,10,all,141,1742,431,0,1214,327,0,2020-11-24T13:23:01Z,60.33134,R+60,Comer +60,republican,KY-G-H-1-2020-11-03,ky-house-general-district-001-2020-11-03,https://www.nytimes.com/interactive/2020/11/03/us/elections/results-kentucky-house-district-1.html,https://www.nytimes.com/interactive/2020/11/03/us/elections/results-kentucky.html,https://www.nytimes.com/interactive/2020/11/03/us/elections/ap-polls-kentucky.html,https://www.nytimes.com/interactive/2020/11/03/us/elections/exit-polls-kentucky.html,house,general,2020-11-03,FALSE,U.S. House District 1,U.S. House,H,solid-rep,1,District 1,KY,kentucky,Kentucky,Ky.,horizontal,"",FALSE,TRUE,winner,AP,FALSE,"",328470,45917,9,unknown,First polls close at 6 p.m. Eastern time.,First polls close in,Most polls have closed.,2020-11-03T23:00:00.000Z,6 p.m.,633,633,100% reporting,100%,100,328470,edison,>98%,>98% reported,edison,republican,FALSE,2020-11-24T13:23:12Z,TRUE,49.98569,164188,R+50,Comer +50,republican,TRUE,"","",3,0,1604448477069
21107,Hopkins,21090,15951,50,50,Merged into voters' home precincts and released with cumulative results,100,21090,>98%,>98% reported,edison,10,all,1408,15440,5650,0,11321,4630,0,2020-11-24T13:23:07Z,46.4201,R+46,Comer +46,republican,KY-G-H-1-2020-11-03,ky-house-general-district-001-2020-11-03,https://www.nytimes.com/interactive/2020/11/03/us/elections/results-kentucky-house-district-1.html,https://www.nytimes.com/interactive/2020/11/03/us/elections/results-kentucky.html,https://www.nytimes.com/interactive/2020/11/03/us/elections/ap-polls-kentucky.html,https://www.nytimes.com/interactive/2020/11/03/us/elections/exit-polls-kentucky.html,house,general,2020-11-03,FALSE,U.S. House District 1,U.S. House,H,solid-rep,1,District 1,KY,kentucky,Kentucky,Ky.,horizontal,"",FALSE,TRUE,winner,AP,FALSE,"",328470,45917,9,unknown,First polls close at 6 p.m. Eastern time.,First polls close in,Most polls have closed.,2020-11-03T23:00:00.000Z,6 p.m.,633,633,100% reporting,100%,100,328470,edison,>98%,>98% reported,edison,republican,FALSE,2020-11-24T13:23:12Z,TRUE,49.98569,164188,R+50,Comer +50,republican,TRUE,"","",3,0,1604448477069
21139,Livingston,4966,0,10,10,Released as a precinct as first report of the night,100,4966,>98%,>98% reported,edison,10,all,274,3981,985,0,0,0,0,2020-11-24T13:23:10Z,60.33025,R+60,Comer +60,republican,KY-G-H-1-2020-11-03,ky-house-general-district-001-2020-11-03,https://www.nytimes.com/interactive/2020/11/03/us/elections/results-kentucky-house-district-1.html,https://www.nytimes.com/interactive/2020/11/03/us/elections/results-kentucky.html,https://www.nytimes.com/interactive/2020/11/03/us/elections/ap-polls-kentucky.html,https://www.nytimes.com/interactive/2020/11/03/us/elections/exit-polls-kentucky.html,house,general,2020-11-03,FALSE,U.S. House District 1,U.S. House,H,solid-rep,1,District 1,KY,kentucky,Kentucky,Ky.,horizontal,"",FALSE,TRUE,winner,AP,FALSE,"",328470,45917,9,unknown,First polls close at 6 p.m. Eastern time.,First polls close in,Most polls have closed.,2020-11-03T23:00:00.000Z,6 p.m.,633,633,100% reporting,100%,100,328470,edison,>98%,>98% reported,edison,republican,FALSE,2020-11-24T13:23:12Z,TRUE,49.98569,164188,R+50,Comer +50,republican,TRUE,"","",3,0,1604448477069
21141,Logan,12157,0,20,20,None,100,12157,>98%,>98% reported,edison,10,all,738,9099,3058,0,0,0,0,2020-11-24T13:23:14Z,49.69154,R+50,Comer +50,republican,KY-G-H-1-2020-11-03,ky-house-general-district-001-2020-11-03,https://www.nytimes.com/interactive/2020/11/03/us/elections/results-kentucky-house-district-1.html,https://www.nytimes.com/interactive/2020/11/03/us/elections/results-kentucky.html,https://www.nytimes.com/interactive/2020/11/03/us/elections/ap-polls-kentucky.html,https://www.nytimes.com/interactive/2020/11/03/us/elections/exit-polls-kentucky.html,house,general,2020-11-03,FALSE,U.S. House District 1,U.S. House,H,solid-rep,1,District 1,KY,kentucky,Kentucky,Ky.,horizontal,"",FALSE,TRUE,winner,AP,FALSE,"",328470,45917,9,unknown,First polls close at 6 p.m. Eastern time.,First polls close in,Most polls have closed.,2020-11-03T23:00:00.000Z,6 p.m.,633,633,100% reporting,100%,100,328470,edison,>98%,>98% reported,edison,republican,FALSE,2020-11-24T13:23:12Z,TRUE,49.98569,164188,R+50,Comer +50,republican,TRUE,"","",3,0,1604448477069
21143,Lyon,4196,3562,6,6,Released as a precinct as first report of the night,100,4196,>98%,>98% reported,edison,10,all,624,3164,1032,0,2632,930,0,2020-11-24T13:23:18Z,50.8103,R+51,Comer +51,republican,KY-G-H-1-2020-11-03,ky-house-general-district-001-2020-11-03,https://www.nytimes.com/interactive/2020/11/03/us/elections/results-kentucky-house-district-1.html,https://www.nytimes.com/interactive/2020/11/03/us/elections/results-kentucky.html,https://www.nytimes.com/interactive/2020/11/03/us/elections/ap-polls-kentucky.html,https://www.nytimes.com/interactive/2020/11/03/us/elections/exit-polls-kentucky.html,house,general,2020-11-03,FALSE,U.S. House District 1,U.S. House,H,solid-rep,1,District 1,KY,kentucky,Kentucky,Ky.,horizontal,"",FALSE,TRUE,winner,AP,FALSE,"",328470,45917,9,unknown,First polls close at 6 p.m. Eastern time.,First polls close in,Most polls have closed.,2020-11-03T23:00:00.000Z,6 p.m.,633,633,100% reporting,100%,100,328470,edison,>98%,>98% reported,edison,republican,FALSE,2020-11-24T13:23:12Z,TRUE,49.98569,164188,R+50,Comer +50,republican,TRUE,"","",3,0,1604448477069
21155,Marion,8604,0,17,17,Released as a separate subtotal as first report of the night,100,8604,>98%,>98% reported,edison,10,all,666,5885,2719,0,0,0,0,2020-11-24T13:24:44Z,36.79684,R+37,Comer +37,republican,KY-G-H-1-2020-11-03,ky-house-general-district-001-2020-11-03,https://www.nytimes.com/interactive/2020/11/03/us/elections/results-kentucky-house-district-1.html,https://www.nytimes.com/interactive/2020/11/03/us/elections/results-kentucky.html,https://www.nytimes.com/interactive/2020/11/03/us/elections/ap-polls-kentucky.html,https://www.nytimes.com/interactive/2020/11/03/us/elections/exit-polls-kentucky.html,house,general,2020-11-03,FALSE,U.S. House District 1,U.S. House,H,solid-rep,1,District 1,KY,kentucky,Kentucky,Ky.,horizontal,"",FALSE,TRUE,winner,AP,FALSE,"",328470,45917,9,unknown,First polls close at 6 p.m. Eastern time.,First polls close in,Most polls have closed.,2020-11-03T23:00:00.000Z,6 p.m.,633,633,100% reporting,100%,100,328470,edison,>98%,>98% reported,edison,republican,FALSE,2020-11-24T13:23:12Z,TRUE,49.98569,164188,R+50,Comer +50,republican,TRUE,"","",3,0,1604448477069
21157,Marshall,17406,0,25,25,Released as a precinct as first report of the night,100,17406,>98%,>98% reported,edison,10,all,1222,13442,3964,0,0,0,0,2020-11-24T13:24:42Z,54.45249,R+54,Comer +54,republican,KY-G-H-1-2020-11-03,ky-house-general-district-001-2020-11-03,https://www.nytimes.com/interactive/2020/11/03/us/elections/results-kentucky-house-district-1.html,https://www.nytimes.com/interactive/2020/11/03/us/elections/results-kentucky.html,https://www.nytimes.com/interactive/2020/11/03/us/elections/ap-polls-kentucky.html,https://www.nytimes.com/interactive/2020/11/03/us/elections/exit-polls-kentucky.html,house,general,2020-11-03,FALSE,U.S. House District 1,U.S. House,H,solid-rep,1,District 1,KY,kentucky,Kentucky,Ky.,horizontal,"",FALSE,TRUE,winner,AP,FALSE,"",328470,45917,9,unknown,First polls close at 6 p.m. Eastern time.,First polls close in,Most polls have closed.,2020-11-03T23:00:00.000Z,6 p.m.,633,633,100% reporting,100%,100,328470,edison,>98%,>98% reported,edison,republican,FALSE,2020-11-24T13:23:12Z,TRUE,49.98569,164188,R+50,Comer +50,republican,TRUE,"","",3,0,1604448477069
21145,McCracken,33119,7703,54,54,Released as a precinct as first report of the night,100,33119,>98%,>98% reported,edison,10,all,2509,22705,10414,0,3485,4218,0,2020-11-24T13:23:23Z,37.11163,R+37,Comer +37,republican,KY-G-H-1-2020-11-03,ky-house-general-district-001-2020-11-03,https://www.nytimes.com/interactive/2020/11/03/us/elections/results-kentucky-house-district-1.html,https://www.nytimes.com/interactive/2020/11/03/us/elections/results-kentucky.html,https://www.nytimes.com/interactive/2020/11/03/us/elections/ap-polls-kentucky.html,https://www.nytimes.com/interactive/2020/11/03/us/elections/exit-polls-kentucky.html,house,general,2020-11-03,FALSE,U.S. House District 1,U.S. House,H,solid-rep,1,District 1,KY,kentucky,Kentucky,Ky.,horizontal,"",FALSE,TRUE,winner,AP,FALSE,"",328470,45917,9,unknown,First polls close at 6 p.m. Eastern time.,First polls close in,Most polls have closed.,2020-11-03T23:00:00.000Z,6 p.m.,633,633,100% reporting,100%,100,328470,edison,>98%,>98% reported,edison,republican,FALSE,2020-11-24T13:23:12Z,TRUE,49.98569,164188,R+50,Comer +50,republican,TRUE,"","",3,0,1604448477069
21149,McLean,4708,0,8,8,Merged into voters' home precincts AFTER election night,100,4708,>98%,>98% reported,edison,10,all,374,3593,1115,0,0,0,0,2020-11-24T13:23:24Z,52.63381,R+53,Comer +53,republican,KY-G-H-1-2020-11-03,ky-house-general-district-001-2020-11-03,https://www.nytimes.com/interactive/2020/11/03/us/elections/results-kentucky-house-district-1.html,https://www.nytimes.com/interactive/2020/11/03/us/elections/results-kentucky.html,https://www.nytimes.com/interactive/2020/11/03/us/elections/ap-polls-kentucky.html,https://www.nytimes.com/interactive/2020/11/03/us/elections/exit-polls-kentucky.html,house,general,2020-11-03,FALSE,U.S. House District 1,U.S. House,H,solid-rep,1,District 1,KY,kentucky,Kentucky,Ky.,horizontal,"",FALSE,TRUE,winner,AP,FALSE,"",328470,45917,9,unknown,First polls close at 6 p.m. Eastern time.,First polls close in,Most polls have closed.,2020-11-03T23:00:00.000Z,6 p.m.,633,633,100% reporting,100%,100,328470,edison,>98%,>98% reported,edison,republican,FALSE,2020-11-24T13:23:12Z,TRUE,49.98569,164188,R+50,Comer +50,republican,TRUE,"","",3,0,1604448477069
21169,Metcalfe,4910,767,12,12,Other,100,4910,>98%,>98% reported,edison,10,all,362,4036,874,0,458,309,0,2020-11-24T13:24:44Z,64.39919,R+64,Comer +64,republican,KY-G-H-1-2020-11-03,ky-house-general-district-001-2020-11-03,https://www.nytimes.com/interactive/2020/11/03/us/elections/results-kentucky-house-district-1.html,https://www.nytimes.com/interactive/2020/11/03/us/elections/results-kentucky.html,https://www.nytimes.com/interactive/2020/11/03/us/elections/ap-polls-kentucky.html,https://www.nytimes.com/interactive/2020/11/03/us/elections/exit-polls-kentucky.html,house,general,2020-11-03,FALSE,U.S. House District 1,U.S. House,H,solid-rep,1,District 1,KY,kentucky,Kentucky,Ky.,horizontal,"",FALSE,TRUE,winner,AP,FALSE,"",328470,45917,9,unknown,First polls close at 6 p.m. Eastern time.,First polls close in,Most polls have closed.,2020-11-03T23:00:00.000Z,6 p.m.,633,633,100% reporting,100%,100,328470,edison,>98%,>98% reported,edison,republican,FALSE,2020-11-24T13:23:12Z,TRUE,49.98569,164188,R+50,Comer +50,republican,TRUE,"","",3,0,1604448477069
21171,Monroe,5283,0,12,12,Merged into voters' home precincts and released with cumulative results,100,5283,>98%,>98% reported,edison,10,all,517,4870,413,0,0,0,0,2020-11-24T13:24:44Z,84.36494,R+84,Comer +84,republican,KY-G-H-1-2020-11-03,ky-house-general-district-001-2020-11-03,https://www.nytimes.com/interactive/2020/11/03/us/elections/results-kentucky-house-district-1.html,https://www.nytimes.com/interactive/2020/11/03/us/elections/results-kentucky.html,https://www.nytimes.com/interactive/2020/11/03/us/elections/ap-polls-kentucky.html,https://www.nytimes.com/interactive/2020/11/03/us/elections/exit-polls-kentucky.html,house,general,2020-11-03,FALSE,U.S. House District 1,U.S. House,H,solid-rep,1,District 1,KY,kentucky,Kentucky,Ky.,horizontal,"",FALSE,TRUE,winner,AP,FALSE,"",328470,45917,9,unknown,First polls close at 6 p.m. Eastern time.,First polls close in,Most polls have closed.,2020-11-03T23:00:00.000Z,6 p.m.,633,633,100% reporting,100%,100,328470,edison,>98%,>98% reported,edison,republican,FALSE,2020-11-24T13:23:12Z,TRUE,49.98569,164188,R+50,Comer +50,republican,TRUE,"","",3,0,1604448477069
21177,Muhlenberg,13850,0,25,25,Released as a separate subtotal as first report of the night,100,13850,>98%,>98% reported,edison,10,all,1022,9804,4046,0,0,0,0,2020-11-24T13:24:42Z,41.57401,R+42,Comer +42,republican,KY-G-H-1-2020-11-03,ky-house-general-district-001-2020-11-03,https://www.nytimes.com/interactive/2020/11/03/us/elections/results-kentucky-house-district-1.html,https://www.nytimes.com/interactive/2020/11/03/us/elections/results-kentucky.html,https://www.nytimes.com/interactive/2020/11/03/us/elections/ap-polls-kentucky.html,https://www.nytimes.com/interactive/2020/11/03/us/elections/exit-polls-kentucky.html,house,general,2020-11-03,FALSE,U.S. House District 1,U.S. House,H,solid-rep,1,District 1,KY,kentucky,Kentucky,Ky.,horizontal,"",FALSE,TRUE,winner,AP,FALSE,"",328470,45917,9,unknown,First polls close at 6 p.m. Eastern time.,First polls close in,Most polls have closed.,2020-11-03T23:00:00.000Z,6 p.m.,633,633,100% reporting,100%,100,328470,edison,>98%,>98% reported,edison,republican,FALSE,2020-11-24T13:23:12Z,TRUE,49.98569,164188,R+50,Comer +50,republican,TRUE,"","",3,0,1604448477069
21183,Ohio,10890,0,19,19,None,100,10890,>98%,>98% reported,edison,10,all,790,8544,2346,0,0,0,0,2020-11-24T13:24:43Z,56.9146,R+57,Comer +57,republican,KY-G-H-1-2020-11-03,ky-house-general-district-001-2020-11-03,https://www.nytimes.com/interactive/2020/11/03/us/elections/results-kentucky-house-district-1.html,https://www.nytimes.com/interactive/2020/11/03/us/elections/results-kentucky.html,https://www.nytimes.com/interactive/2020/11/03/us/elections/ap-polls-kentucky.html,https://www.nytimes.com/interactive/2020/11/03/us/elections/exit-polls-kentucky.html,house,general,2020-11-03,FALSE,U.S. House District 1,U.S. House,H,solid-rep,1,District 1,KY,kentucky,Kentucky,Ky.,horizontal,"",FALSE,TRUE,winner,AP,FALSE,"",328470,45917,9,unknown,First polls close at 6 p.m. Eastern time.,First polls close in,Most polls have closed.,2020-11-03T23:00:00.000Z,6 p.m.,633,633,100% reporting,100%,100,328470,edison,>98%,>98% reported,edison,republican,FALSE,2020-11-24T13:23:12Z,TRUE,49.98569,164188,R+50,Comer +50,republican,TRUE,"","",3,0,1604448477069
21207,Russell,8791,0,16,16,Released as a separate subtotal as first report of the night,100,8791,>98%,>98% reported,edison,10,all,904,7653,1138,0,0,0,0,2020-11-24T13:24:43Z,74.10989,R+74,Comer +74,republican,KY-G-H-1-2020-11-03,ky-house-general-district-001-2020-11-03,https://www.nytimes.com/interactive/2020/11/03/us/elections/results-kentucky-house-district-1.html,https://www.nytimes.com/interactive/2020/11/03/us/elections/results-kentucky.html,https://www.nytimes.com/interactive/2020/11/03/us/elections/ap-polls-kentucky.html,https://www.nytimes.com/interactive/2020/11/03/us/elections/exit-polls-kentucky.html,house,general,2020-11-03,FALSE,U.S. House District 1,U.S. House,H,solid-rep,1,District 1,KY,kentucky,Kentucky,Ky.,horizontal,"",FALSE,TRUE,winner,AP,FALSE,"",328470,45917,9,unknown,First polls close at 6 p.m. Eastern time.,First polls close in,Most polls have closed.,2020-11-03T23:00:00.000Z,6 p.m.,633,633,100% reporting,100%,100,328470,edison,>98%,>98% reported,edison,republican,FALSE,2020-11-24T13:23:12Z,TRUE,49.98569,164188,R+50,Comer +50,republican,TRUE,"","",3,0,1604448477069
21213,Simpson,8621,0,13,13,Released as a precinct as first report of the night,100,8621,>98%,>98% reported,edison,10,all,538,6055,2566,0,0,0,0,2020-11-24T13:24:43Z,40.47094,R+40,Comer +40,republican,KY-G-H-1-2020-11-03,ky-house-general-district-001-2020-11-03,https://www.nytimes.com/interactive/2020/11/03/us/elections/results-kentucky-house-district-1.html,https://www.nytimes.com/interactive/2020/11/03/us/elections/results-kentucky.html,https://www.nytimes.com/interactive/2020/11/03/us/elections/ap-polls-kentucky.html,https://www.nytimes.com/interactive/2020/11/03/us/elections/exit-polls-kentucky.html,house,general,2020-11-03,FALSE,U.S. House District 1,U.S. House,H,solid-rep,1,District 1,KY,kentucky,Kentucky,Ky.,horizontal,"",FALSE,TRUE,winner,AP,FALSE,"",328470,45917,9,unknown,First polls close at 6 p.m. Eastern time.,First polls close in,Most polls have closed.,2020-11-03T23:00:00.000Z,6 p.m.,633,633,100% reporting,100%,100,328470,edison,>98%,>98% reported,edison,republican,FALSE,2020-11-24T13:23:12Z,TRUE,49.98569,164188,R+50,Comer +50,republican,TRUE,"","",3,0,1604448477069
21217,Taylor,12269,0,20,20,Released as a precinct as first report of the night,100,12269,>98%,>98% reported,edison,10,all,1142,9622,2647,0,0,0,0,2020-11-24T13:24:44Z,56.8506,R+57,Comer +57,republican,KY-G-H-1-2020-11-03,ky-house-general-district-001-2020-11-03,https://www.nytimes.com/interactive/2020/11/03/us/elections/results-kentucky-house-district-1.html,https://www.nytimes.com/interactive/2020/11/03/us/elections/results-kentucky.html,https://www.nytimes.com/interactive/2020/11/03/us/elections/ap-polls-kentucky.html,https://www.nytimes.com/interactive/2020/11/03/us/elections/exit-polls-kentucky.html,house,general,2020-11-03,FALSE,U.S. House District 1,U.S. House,H,solid-rep,1,District 1,KY,kentucky,Kentucky,Ky.,horizontal,"",FALSE,TRUE,winner,AP,FALSE,"",328470,45917,9,unknown,First polls close at 6 p.m. Eastern time.,First polls close in,Most polls have closed.,2020-11-03T23:00:00.000Z,6 p.m.,633,633,100% reporting,100%,100,328470,edison,>98%,>98% reported,edison,republican,FALSE,2020-11-24T13:23:12Z,TRUE,49.98569,164188,R+50,Comer +50,republican,TRUE,"","",3,0,1604448477069
21219,Todd,5186,0,13,13,Released as a separate subtotal as first report of the night,100,5186,>98%,>98% reported,edison,10,all,282,3971,1215,0,0,0,0,2020-11-24T13:24:43Z,53.14308,R+53,Comer +53,republican,KY-G-H-1-2020-11-03,ky-house-general-district-001-2020-11-03,https://www.nytimes.com/interactive/2020/11/03/us/elections/results-kentucky-house-district-1.html,https://www.nytimes.com/interactive/2020/11/03/us/elections/results-kentucky.html,https://www.nytimes.com/interactive/2020/11/03/us/elections/ap-polls-kentucky.html,https://www.nytimes.com/interactive/2020/11/03/us/elections/exit-polls-kentucky.html,house,general,2020-11-03,FALSE,U.S. House District 1,U.S. House,H,solid-rep,1,District 1,KY,kentucky,Kentucky,Ky.,horizontal,"",FALSE,TRUE,winner,AP,FALSE,"",328470,45917,9,unknown,First polls close at 6 p.m. Eastern time.,First polls close in,Most polls have closed.,2020-11-03T23:00:00.000Z,6 p.m.,633,633,100% reporting,100%,100,328470,edison,>98%,>98% reported,edison,republican,FALSE,2020-11-24T13:23:12Z,TRUE,49.98569,164188,R+50,Comer +50,republican,TRUE,"","",3,0,1604448477069
21221,Trigg,7285,6177,15,15,Merged into voters' home precincts and released with cumulative results,100,7285,>98%,>98% reported,edison,10,all,707,5537,1748,0,4621,1556,0,2020-11-24T13:24:43Z,52.01098,R+52,Comer +52,republican,KY-G-H-1-2020-11-03,ky-house-general-district-001-2020-11-03,https://www.nytimes.com/interactive/2020/11/03/us/elections/results-kentucky-house-district-1.html,https://www.nytimes.com/interactive/2020/11/03/us/elections/results-kentucky.html,https://www.nytimes.com/interactive/2020/11/03/us/elections/ap-polls-kentucky.html,https://www.nytimes.com/interactive/2020/11/03/us/elections/exit-polls-kentucky.html,house,general,2020-11-03,FALSE,U.S. House District 1,U.S. House,H,solid-rep,1,District 1,KY,kentucky,Kentucky,Ky.,horizontal,"",FALSE,TRUE,winner,AP,FALSE,"",328470,45917,9,unknown,First polls close at 6 p.m. Eastern time.,First polls close in,Most polls have closed.,2020-11-03T23:00:00.000Z,6 p.m.,633,633,100% reporting,100%,100,328470,edison,>98%,>98% reported,edison,republican,FALSE,2020-11-24T13:23:12Z,TRUE,49.98569,164188,R+50,Comer +50,republican,TRUE,"","",3,0,1604448477069
21225,Union,6413,0,16,16,Merged into voters' home precincts and released with cumulative results,100,6413,>98%,>98% reported,edison,10,all,426,4837,1576,0,0,0,0,2020-11-24T13:24:43Z,50.84984,R+51,Comer +51,republican,KY-G-H-1-2020-11-03,ky-house-general-district-001-2020-11-03,https://www.nytimes.com/interactive/2020/11/03/us/elections/results-kentucky-house-district-1.html,https://www.nytimes.com/interactive/2020/11/03/us/elections/results-kentucky.html,https://www.nytimes.com/interactive/2020/11/03/us/elections/ap-polls-kentucky.html,https://www.nytimes.com/interactive/2020/11/03/us/elections/exit-polls-kentucky.html,house,general,2020-11-03,FALSE,U.S. House District 1,U.S. House,H,solid-rep,1,District 1,KY,kentucky,Kentucky,Ky.,horizontal,"",FALSE,TRUE,winner,AP,FALSE,"",328470,45917,9,unknown,First polls close at 6 p.m. Eastern time.,First polls close in,Most polls have closed.,2020-11-03T23:00:00.000Z,6 p.m.,633,633,100% reporting,100%,100,328470,edison,>98%,>98% reported,edison,republican,FALSE,2020-11-24T13:23:12Z,TRUE,49.98569,164188,R+50,Comer +50,republican,TRUE,"","",3,0,1604448477069
21229,Washington,250,0,1,1,None,100,250,>98%,>98% reported,edison,10,all,418,199,51,,0,0,,2020-11-24T13:24:44Z,59.2,R+59,Comer +59,republican,KY-G-H-1-2020-11-03,ky-house-general-district-001-2020-11-03,https://www.nytimes.com/interactive/2020/11/03/us/elections/results-kentucky-house-district-1.html,https://www.nytimes.com/interactive/2020/11/03/us/elections/results-kentucky.html,https://www.nytimes.com/interactive/2020/11/03/us/elections/ap-polls-kentucky.html,https://www.nytimes.com/interactive/2020/11/03/us/elections/exit-polls-kentucky.html,house,general,2020-11-03,FALSE,U.S. House District 1,U.S. House,H,solid-rep,1,District 1,KY,kentucky,Kentucky,Ky.,horizontal,"",FALSE,TRUE,winner,AP,FALSE,"",328470,45917,9,unknown,First polls close at 6 p.m. Eastern time.,First polls close in,Most polls have closed.,2020-11-03T23:00:00.000Z,6 p.m.,633,633,100% reporting,100%,100,328470,edison,>98%,>98% reported,edison,republican,FALSE,2020-11-24T13:23:12Z,TRUE,49.98569,164188,R+50,Comer +50,republican,TRUE,"","",3,0,1604448477069
21233,Webster,5865,0,14,14,Released as a precinct as first report of the night,100,5865,>98%,>98% reported,edison,10,all,325,4445,1420,0,0,0,0,2020-11-24T13:24:44Z,51.57715,R+52,Comer +52,republican,KY-G-H-1-2020-11-03,ky-house-general-district-001-2020-11-03,https://www.nytimes.com/interactive/2020/11/03/us/elections/results-kentucky-house-district-1.html,https://www.nytimes.com/interactive/2020/11/03/us/elections/results-kentucky.html,https://www.nytimes.com/interactive/2020/11/03/us/elections/ap-polls-kentucky.html,https://www.nytimes.com/interactive/2020/11/03/us/elections/exit-polls-kentucky.html,house,general,2020-11-03,FALSE,U.S. House District 1,U.S. House,H,solid-rep,1,District 1,KY,kentucky,Kentucky,Ky.,horizontal,"",FALSE,TRUE,winner,AP,FALSE,"",328470,45917,9,unknown,First polls close at 6 p.m. Eastern time.,First polls close in,Most polls have closed.,2020-11-03T23:00:00.000Z,6 p.m.,633,633,100% reporting,100%,100,328470,edison,>98%,>98% reported,edison,republican,FALSE,2020-11-24T13:23:12Z,TRUE,49.98569,164188,R+50,Comer +50,republican,TRUE,"","",3,0,1604448477069
