fips,name,votes,absentee_votes,reporting,precincts,absentee_method,eevp,tot_exp_vote,eevp_value,eevp_display,eevp_source,turnout_stage,absentee_count_progress,absentee_max_ballots,results_mfumek,results_klacikk,results_absentee_mfumek,results_absentee_klacikk,last_updated,leader_margin_value,leader_margin_display,leader_margin_name_display,leader_party_id,race_id_race,race_slug_race,url_race,state_page_url_race,ap_polls_page_race,race_type_race,election_type_race,election_date_race,runoff_race,race_name_race,office_race,officeid_race,race_rating_race,seat_race,seat_name_race,state_id_race,state_slug_race,state_name_race,state_nyt_abbrev_race,state_shape_race,party_id_race,uncontested_race,report_race,result_race,result_source_race,gain_race,lost_seat_race,votes_race,absentee_votes_race,absentee_counties_race,absentee_count_progress_race,poll_display_race,poll_countdown_display_race,poll_waiting_display_race,poll_time_race,poll_time_short_race,precincts_reporting_race,precincts_total_race,reporting_display_race,reporting_value_race,eevp_race,tot_exp_vote_race,eevp_source_race,eevp_value_race,eevp_display_race,county_data_source_race,incumbent_party_race,no_forecast_race,last_updated_race,has_incumbent_race,leader_margin_value_race,leader_margin_votes_race,leader_margin_display_race,leader_margin_name_display_race,leader_party_id_race,edison_certified_race,expectations_text_race,expectations_text_short_race,absentee_ballot_deadline_race,absentee_postmark_deadline_race,winner_called_timestamp_race
24005,Baltimore,103773,0,59,59,Released separately AFTER election night,100,99836,>98%,>98% reported,edison,2,none,89978,64456,39317,0,0,2020-11-24T13:23:34Z,24.22499,D+24,Mfume +24,democrat,MD-G-H-7-2020-11-03,md-house-general-district-007-2020-11-03,https://www.nytimes.com/interactive/2020/11/03/us/elections/results-maryland-house-district-7.html,https://www.nytimes.com/interactive/2020/11/03/us/elections/results-maryland.html,https://www.nytimes.com/interactive/2020/11/03/us/elections/ap-polls-maryland.html,house,general,2020-11-03,FALSE,U.S. House District 7,U.S. House,H,solid-dem,7,District 7,MD,maryland,Maryland,Md.,horizontal,"",FALSE,TRUE,winner,AP,FALSE,"",329983,33186,1,unknown,Polls close at 8 p.m. Eastern time.,Polls close in,Polls have closed.,2020-11-04T01:00:00.000Z,8 p.m.,283,296,96% reporting,96%,92,360000,edison,92%,92% reported,edison,democrat,FALSE,2020-11-24T13:23:02Z,TRUE,43.7171,144259,D+44,Mfume +44,democrat,FALSE,Mail ballots postmarked by Election Day are accepted until Nov. 13 and will be reported each day those ballots are counted.,Mail ballots postmarked by Election Day are accepted until Nov. 13 and will be reported each day those ballots are counted.,10,0,1604463656716
24510,Baltimore City,127472,0,158,171,Other,92,137879,92%,92% reported,edison,2,none,72816,112917,14555,0,0,2020-11-24T13:23:34Z,77.16361,D+77,Mfume +77,democrat,MD-G-H-7-2020-11-03,md-house-general-district-007-2020-11-03,https://www.nytimes.com/interactive/2020/11/03/us/elections/results-maryland-house-district-7.html,https://www.nytimes.com/interactive/2020/11/03/us/elections/results-maryland.html,https://www.nytimes.com/interactive/2020/11/03/us/elections/ap-polls-maryland.html,house,general,2020-11-03,FALSE,U.S. House District 7,U.S. House,H,solid-dem,7,District 7,MD,maryland,Maryland,Md.,horizontal,"",FALSE,TRUE,winner,AP,FALSE,"",329983,33186,1,unknown,Polls close at 8 p.m. Eastern time.,Polls close in,Polls have closed.,2020-11-04T01:00:00.000Z,8 p.m.,283,296,96% reporting,96%,92,360000,edison,92%,92% reported,edison,democrat,FALSE,2020-11-24T13:23:02Z,TRUE,43.7171,144259,D+44,Mfume +44,democrat,FALSE,Mail ballots postmarked by Election Day are accepted until Nov. 13 and will be reported each day those ballots are counted.,Mail ballots postmarked by Election Day are accepted until Nov. 13 and will be reported each day those ballots are counted.,10,0,1604463656716
24027,Howard,98664,33112,66,66,Released separately AFTER election night,100,92204,>98%,>98% reported,edison,2,some,48738,59711,38953,15815,17297,2020-11-24T13:23:36Z,21.03908,D+21,Mfume +21,democrat,MD-G-H-7-2020-11-03,md-house-general-district-007-2020-11-03,https://www.nytimes.com/interactive/2020/11/03/us/elections/results-maryland-house-district-7.html,https://www.nytimes.com/interactive/2020/11/03/us/elections/results-maryland.html,https://www.nytimes.com/interactive/2020/11/03/us/elections/ap-polls-maryland.html,house,general,2020-11-03,FALSE,U.S. House District 7,U.S. House,H,solid-dem,7,District 7,MD,maryland,Maryland,Md.,horizontal,"",FALSE,TRUE,winner,AP,FALSE,"",329983,33186,1,unknown,Polls close at 8 p.m. Eastern time.,Polls close in,Polls have closed.,2020-11-04T01:00:00.000Z,8 p.m.,283,296,96% reporting,96%,92,360000,edison,92%,92% reported,edison,democrat,FALSE,2020-11-24T13:23:02Z,TRUE,43.7171,144259,D+44,Mfume +44,democrat,FALSE,Mail ballots postmarked by Election Day are accepted until Nov. 13 and will be reported each day those ballots are counted.,Mail ballots postmarked by Election Day are accepted until Nov. 13 and will be reported each day those ballots are counted.,10,0,1604463656716
