fips,name,votes,absentee_votes,reporting,precincts,absentee_method,eevp,tot_exp_vote,eevp_value,eevp_display,eevp_source,turnout_stage,absentee_count_progress,absentee_max_ballots,results_mccollumb,results_rechtzigelg,results_pendergast_sindts,results_absentee_mccollumb,results_absentee_rechtzigelg,results_absentee_pendergast_sindts,last_updated,leader_margin_value,leader_margin_display,leader_margin_name_display,leader_party_id,race_id_race,race_slug_race,url_race,state_page_url_race,ap_polls_page_race,edison_exit_polls_page_race,race_type_race,election_type_race,election_date_race,runoff_race,race_name_race,office_race,officeid_race,race_rating_race,seat_race,seat_name_race,state_id_race,state_slug_race,state_name_race,state_nyt_abbrev_race,state_shape_race,state_aspect_ratio_race,party_id_race,uncontested_race,report_race,result_race,result_source_race,gain_race,lost_seat_race,votes_race,absentee_votes_race,absentee_count_progress_race,poll_display_race,poll_countdown_display_race,poll_waiting_display_race,poll_time_race,poll_time_short_race,precincts_reporting_race,precincts_total_race,reporting_display_race,reporting_value_race,eevp_race,tot_exp_vote_race,eevp_source_race,eevp_value_race,eevp_display_race,county_data_source_race,incumbent_party_race,no_forecast_race,last_updated_race,has_incumbent_race,leader_margin_value_race,leader_margin_votes_race,leader_margin_display_race,leader_margin_name_display_race,leader_party_id_race,edison_certified_race,absentee_ballot_deadline_race,absentee_postmark_deadline_race,winner_called_timestamp_race
27123,Ramsey,280417,0,168,168,Merged into voters' home precincts and released with cumulative results,100,280417,>98%,>98% reported,edison,10,all,61280,188299,68963,23155,0,0,0,2020-11-27T03:47:05Z,42.55662,D+43,McCollum +43,democrat,MN-G-H-4-2020-11-03,mn-house-general-district-004-2020-11-03,https://www.nytimes.com/interactive/2020/11/03/us/elections/results-minnesota-house-district-4.html,https://www.nytimes.com/interactive/2020/11/03/us/elections/results-minnesota.html,https://www.nytimes.com/interactive/2020/11/03/us/elections/ap-polls-minnesota.html,https://www.nytimes.com/interactive/2020/11/03/us/elections/exit-polls-minnesota.html,house,general,2020-11-03,FALSE,U.S. House District 4,U.S. House,H,solid-dem,4,District 4,MN,minnesota,Minnesota,Minn.,vertical,0.9,"",FALSE,TRUE,winner,AP,FALSE,"",388080,0,unknown,Polls close at 9 p.m. Eastern time.,Polls close in,Polls have closed.,2020-11-04T02:00:00.000Z,9 p.m.,223,223,100% reporting,100%,100,388080,edison,>98%,>98% reported,edison,democrat,FALSE,2020-11-27T04:55:39Z,TRUE,34.29267,133083,D+34,McCollum +34,democrat,TRUE,7,0,1604468940957
27163,Washington,107663,0,55,55,Merged into voters' home precincts and released with cumulative results,100,107663,>98%,>98% reported,edison,10,all,35973,57514,43767,6382,0,0,0,2020-11-27T04:05:44Z,12.76855,D+13,McCollum +13,democrat,MN-G-H-4-2020-11-03,mn-house-general-district-004-2020-11-03,https://www.nytimes.com/interactive/2020/11/03/us/elections/results-minnesota-house-district-4.html,https://www.nytimes.com/interactive/2020/11/03/us/elections/results-minnesota.html,https://www.nytimes.com/interactive/2020/11/03/us/elections/ap-polls-minnesota.html,https://www.nytimes.com/interactive/2020/11/03/us/elections/exit-polls-minnesota.html,house,general,2020-11-03,FALSE,U.S. House District 4,U.S. House,H,solid-dem,4,District 4,MN,minnesota,Minnesota,Minn.,vertical,0.9,"",FALSE,TRUE,winner,AP,FALSE,"",388080,0,unknown,Polls close at 9 p.m. Eastern time.,Polls close in,Polls have closed.,2020-11-04T02:00:00.000Z,9 p.m.,223,223,100% reporting,100%,100,388080,edison,>98%,>98% reported,edison,democrat,FALSE,2020-11-27T04:55:39Z,TRUE,34.29267,133083,D+34,McCollum +34,democrat,TRUE,7,0,1604468940957
