fips,name,votes,absentee_votes,reporting,precincts,absentee_method,eevp,tot_exp_vote,eevp_value,eevp_display,eevp_source,turnout_stage,absentee_count_progress,absentee_max_ballots,results_pallonef,results_onuohac,results_absentee_pallonef,results_absentee_onuohac,last_updated,leader_margin_value,leader_margin_display,leader_margin_name_display,leader_party_id,race_id_race,race_slug_race,url_race,state_page_url_race,ap_polls_page_race,race_type_race,election_type_race,election_date_race,runoff_race,race_name_race,office_race,officeid_race,race_rating_race,seat_race,seat_name_race,state_id_race,state_slug_race,state_name_race,state_nyt_abbrev_race,state_shape_race,state_aspect_ratio_race,party_id_race,uncontested_race,report_race,result_race,result_source_race,gain_race,lost_seat_race,votes_race,absentee_votes_race,absentee_count_progress_race,poll_display_race,poll_countdown_display_race,poll_waiting_display_race,poll_time_race,poll_time_short_race,precincts_reporting_race,precincts_total_race,reporting_display_race,reporting_value_race,eevp_race,tot_exp_vote_race,eevp_source_race,eevp_value_race,eevp_display_race,county_data_source_race,incumbent_party_race,no_forecast_race,last_updated_race,has_incumbent_race,leader_margin_value_race,leader_margin_votes_race,leader_margin_display_race,leader_margin_name_display_race,leader_party_id_race,edison_certified_race,expectations_text_race,expectations_text_short_race,absentee_ballot_deadline_race,absentee_postmark_deadline_race,winner_called_timestamp_race
34023,Middlesex,205687,0,355,355,Other,96,214753,96%,96% reported,edison,4,some,56703,136277,69410,0,0,2020-11-24T13:22:47Z,32.5091,D+33,Pallone +33,democrat,NJ-G-H-6-2020-11-03,nj-house-general-district-006-2020-11-03,https://www.nytimes.com/interactive/2020/11/03/us/elections/results-new-jersey-house-district-6.html,https://www.nytimes.com/interactive/2020/11/03/us/elections/results-new-jersey.html,https://www.nytimes.com/interactive/2020/11/03/us/elections/ap-polls-new-jersey.html,house,general,2020-11-03,FALSE,U.S. House District 6,U.S. House,H,solid-dem,6,District 6,NJ,new-jersey,New Jersey,N.J.,vertical,0.7,"",FALSE,TRUE,winner,AP,FALSE,"",326401,0,unknown,Polls close at 8 p.m. Eastern time.,Polls close in,Polls have closed.,2020-11-04T01:00:00.000Z,8 p.m.,520,520,100% reporting,100%,99,331000,edison,>98%,>98% reported,edison,democrat,FALSE,2020-11-24T13:23:39Z,TRUE,22.33112,72889,D+22,Pallone +22,democrat,FALSE,"","",7,0,1604470307866
34025,Monmouth,120714,0,165,165,Merged into voters' home precincts and released with cumulative results,100,115446,>98%,>98% reported,edison,2,some,47571,63368,57346,0,0,2020-11-24T13:22:48Z,4.98865,D+5,Pallone +5,democrat,NJ-G-H-6-2020-11-03,nj-house-general-district-006-2020-11-03,https://www.nytimes.com/interactive/2020/11/03/us/elections/results-new-jersey-house-district-6.html,https://www.nytimes.com/interactive/2020/11/03/us/elections/results-new-jersey.html,https://www.nytimes.com/interactive/2020/11/03/us/elections/ap-polls-new-jersey.html,house,general,2020-11-03,FALSE,U.S. House District 6,U.S. House,H,solid-dem,6,District 6,NJ,new-jersey,New Jersey,N.J.,vertical,0.7,"",FALSE,TRUE,winner,AP,FALSE,"",326401,0,unknown,Polls close at 8 p.m. Eastern time.,Polls close in,Polls have closed.,2020-11-04T01:00:00.000Z,8 p.m.,520,520,100% reporting,100%,99,331000,edison,>98%,>98% reported,edison,democrat,FALSE,2020-11-24T13:23:39Z,TRUE,22.33112,72889,D+22,Pallone +22,democrat,FALSE,"","",7,0,1604470307866
