fips,name,votes,absentee_votes,reporting,precincts,absentee_method,eevp,tot_exp_vote,eevp_value,eevp_display,eevp_source,turnout_stage,absentee_count_progress,absentee_max_ballots,results_bradyk,results_hernandeze,results_duncanc,results_absentee_bradyk,results_absentee_hernandeze,results_absentee_duncanc,last_updated,leader_margin_value,leader_margin_display,leader_margin_name_display,leader_party_id,race_id_race,race_slug_race,url_race,state_page_url_race,ap_polls_page_race,edison_exit_polls_page_race,race_type_race,election_type_race,election_date_race,runoff_race,race_name_race,office_race,officeid_race,race_rating_race,seat_race,seat_name_race,state_id_race,state_slug_race,state_name_race,state_nyt_abbrev_race,state_shape_race,party_id_race,uncontested_race,report_race,result_race,result_source_race,gain_race,lost_seat_race,votes_race,absentee_votes_race,absentee_counties_race,absentee_count_progress_race,poll_display_race,poll_countdown_display_race,poll_waiting_display_race,poll_time_race,poll_time_short_race,precincts_reporting_race,precincts_total_race,reporting_display_race,reporting_value_race,eevp_race,tot_exp_vote_race,eevp_source_race,eevp_value_race,eevp_display_race,county_data_source_race,incumbent_party_race,no_forecast_race,last_updated_race,has_incumbent_race,leader_margin_value_race,leader_margin_votes_race,leader_margin_display_race,leader_margin_name_display_race,leader_party_id_race,edison_certified_race,expectations_text_race,expectations_text_short_race,absentee_ballot_deadline_race,absentee_postmark_deadline_race,winner_called_timestamp_race
48185,Grimes,12198,9341,15,15,Released as a precinct as first report of the night,100,12198,>98%,>98% reported,edison,10,unknown,7009,9356,2638,204,7094,2121,126,2020-11-24T13:27:02Z,55.0746,R+55,Brady +55,republican,TX-G-H-8-2020-11-03,tx-house-general-district-008-2020-11-03,https://www.nytimes.com/interactive/2020/11/03/us/elections/results-texas-house-district-8.html,https://www.nytimes.com/interactive/2020/11/03/us/elections/results-texas.html,https://www.nytimes.com/interactive/2020/11/03/us/elections/ap-polls-texas.html,https://www.nytimes.com/interactive/2020/11/03/us/elections/exit-polls-texas.html,house,general,2020-11-03,FALSE,U.S. House District 8,U.S. House,H,solid-rep,8,District 8,TX,texas,Texas,Texas,horizontal,"",FALSE,TRUE,winner,AP,FALSE,"",382471,328219,9,unknown,Most polls close at 8 p.m. Eastern time.,Polls close in,Polls have closed.,2020-11-04T01:00:00.000Z,8 p.m.,223,223,100% reporting,100%,100,382471,edison,>98%,>98% reported,edison,republican,FALSE,2020-11-29T13:39:33Z,TRUE,47.04095,179918,R+47,Brady +47,republican,TRUE,"","",1,0,1604454657763
48201,Harris,42044,37361,23,23,Released as a precinct as first report of the night,100,42044,>98%,>98% reported,edison,10,some,1267589,25906,15212,926,22972,13672,717,2020-11-29T04:28:59Z,25.43526,R+25,Brady +25,republican,TX-G-H-8-2020-11-03,tx-house-general-district-008-2020-11-03,https://www.nytimes.com/interactive/2020/11/03/us/elections/results-texas-house-district-8.html,https://www.nytimes.com/interactive/2020/11/03/us/elections/results-texas.html,https://www.nytimes.com/interactive/2020/11/03/us/elections/ap-polls-texas.html,https://www.nytimes.com/interactive/2020/11/03/us/elections/exit-polls-texas.html,house,general,2020-11-03,FALSE,U.S. House District 8,U.S. House,H,solid-rep,8,District 8,TX,texas,Texas,Texas,horizontal,"",FALSE,TRUE,winner,AP,FALSE,"",382471,328219,9,unknown,Most polls close at 8 p.m. Eastern time.,Polls close in,Polls have closed.,2020-11-04T01:00:00.000Z,8 p.m.,223,223,100% reporting,100%,100,382471,edison,>98%,>98% reported,edison,republican,FALSE,2020-11-29T13:39:33Z,TRUE,47.04095,179918,R+47,Brady +47,republican,TRUE,"","",1,0,1604454657763
48225,Houston,9353,7030,22,22,Released as a precinct as first report of the night,100,9353,>98%,>98% reported,edison,10,unknown,7268,7066,2177,110,5220,1742,68,2020-11-28T14:40:31Z,52.272,R+52,Brady +52,republican,TX-G-H-8-2020-11-03,tx-house-general-district-008-2020-11-03,https://www.nytimes.com/interactive/2020/11/03/us/elections/results-texas-house-district-8.html,https://www.nytimes.com/interactive/2020/11/03/us/elections/results-texas.html,https://www.nytimes.com/interactive/2020/11/03/us/elections/ap-polls-texas.html,https://www.nytimes.com/interactive/2020/11/03/us/elections/exit-polls-texas.html,house,general,2020-11-03,FALSE,U.S. House District 8,U.S. House,H,solid-rep,8,District 8,TX,texas,Texas,Texas,horizontal,"",FALSE,TRUE,winner,AP,FALSE,"",382471,328219,9,unknown,Most polls close at 8 p.m. Eastern time.,Polls close in,Polls have closed.,2020-11-04T01:00:00.000Z,8 p.m.,223,223,100% reporting,100%,100,382471,edison,>98%,>98% reported,edison,republican,FALSE,2020-11-29T13:39:33Z,TRUE,47.04095,179918,R+47,Brady +47,republican,TRUE,"","",1,0,1604454657763
48289,Leon,4062,2693,8,8,Released as a precinct as first report of the night,100,4062,>98%,>98% reported,edison,10,unknown,4924,3579,443,40,2345,325,23,2020-11-29T04:08:22Z,77.20335,R+77,Brady +77,republican,TX-G-H-8-2020-11-03,tx-house-general-district-008-2020-11-03,https://www.nytimes.com/interactive/2020/11/03/us/elections/results-texas-house-district-8.html,https://www.nytimes.com/interactive/2020/11/03/us/elections/results-texas.html,https://www.nytimes.com/interactive/2020/11/03/us/elections/ap-polls-texas.html,https://www.nytimes.com/interactive/2020/11/03/us/elections/exit-polls-texas.html,house,general,2020-11-03,FALSE,U.S. House District 8,U.S. House,H,solid-rep,8,District 8,TX,texas,Texas,Texas,horizontal,"",FALSE,TRUE,winner,AP,FALSE,"",382471,328219,9,unknown,Most polls close at 8 p.m. Eastern time.,Polls close in,Polls have closed.,2020-11-04T01:00:00.000Z,8 p.m.,223,223,100% reporting,100%,100,382471,edison,>98%,>98% reported,edison,republican,FALSE,2020-11-29T13:39:33Z,TRUE,47.04095,179918,R+47,Brady +47,republican,TRUE,"","",1,0,1604454657763
48313,Madison,5242,4339,5,5,Released as a precinct as first report of the night,100,5242,>98%,>98% reported,edison,10,unknown,4216,4151,1024,67,3425,863,51,2020-11-24T13:27:02Z,59.6528,R+60,Brady +60,republican,TX-G-H-8-2020-11-03,tx-house-general-district-008-2020-11-03,https://www.nytimes.com/interactive/2020/11/03/us/elections/results-texas-house-district-8.html,https://www.nytimes.com/interactive/2020/11/03/us/elections/results-texas.html,https://www.nytimes.com/interactive/2020/11/03/us/elections/ap-polls-texas.html,https://www.nytimes.com/interactive/2020/11/03/us/elections/exit-polls-texas.html,house,general,2020-11-03,FALSE,U.S. House District 8,U.S. House,H,solid-rep,8,District 8,TX,texas,Texas,Texas,horizontal,"",FALSE,TRUE,winner,AP,FALSE,"",382471,328219,9,unknown,Most polls close at 8 p.m. Eastern time.,Polls close in,Polls have closed.,2020-11-04T01:00:00.000Z,8 p.m.,223,223,100% reporting,100%,100,382471,edison,>98%,>98% reported,edison,republican,FALSE,2020-11-29T13:39:33Z,TRUE,47.04095,179918,R+47,Brady +47,republican,TRUE,"","",1,0,1604454657763
48339,Montgomery,266867,232618,101,101,Released as a precinct as first report of the night,100,266867,>98%,>98% reported,edison,10,some,200221,196032,65242,5593,170586,57743,4289,2020-11-24T13:27:01Z,49.00943,R+49,Brady +49,republican,TX-G-H-8-2020-11-03,tx-house-general-district-008-2020-11-03,https://www.nytimes.com/interactive/2020/11/03/us/elections/results-texas-house-district-8.html,https://www.nytimes.com/interactive/2020/11/03/us/elections/results-texas.html,https://www.nytimes.com/interactive/2020/11/03/us/elections/ap-polls-texas.html,https://www.nytimes.com/interactive/2020/11/03/us/elections/exit-polls-texas.html,house,general,2020-11-03,FALSE,U.S. House District 8,U.S. House,H,solid-rep,8,District 8,TX,texas,Texas,Texas,horizontal,"",FALSE,TRUE,winner,AP,FALSE,"",382471,328219,9,unknown,Most polls close at 8 p.m. Eastern time.,Polls close in,Polls have closed.,2020-11-04T01:00:00.000Z,8 p.m.,223,223,100% reporting,100%,100,382471,edison,>98%,>98% reported,edison,republican,FALSE,2020-11-29T13:39:33Z,TRUE,47.04095,179918,R+47,Brady +47,republican,TRUE,"","",1,0,1604454657763
48407,San Jacinto,12360,10198,12,12,Released as a precinct as first report of the night,100,12360,>98%,>98% reported,edison,10,unknown,9360,10000,2131,229,8245,1787,166,2020-11-28T14:40:39Z,63.66505,R+64,Brady +64,republican,TX-G-H-8-2020-11-03,tx-house-general-district-008-2020-11-03,https://www.nytimes.com/interactive/2020/11/03/us/elections/results-texas-house-district-8.html,https://www.nytimes.com/interactive/2020/11/03/us/elections/results-texas.html,https://www.nytimes.com/interactive/2020/11/03/us/elections/ap-polls-texas.html,https://www.nytimes.com/interactive/2020/11/03/us/elections/exit-polls-texas.html,house,general,2020-11-03,FALSE,U.S. House District 8,U.S. House,H,solid-rep,8,District 8,TX,texas,Texas,Texas,horizontal,"",FALSE,TRUE,winner,AP,FALSE,"",382471,328219,9,unknown,Most polls close at 8 p.m. Eastern time.,Polls close in,Polls have closed.,2020-11-04T01:00:00.000Z,8 p.m.,223,223,100% reporting,100%,100,382471,edison,>98%,>98% reported,edison,republican,FALSE,2020-11-29T13:39:33Z,TRUE,47.04095,179918,R+47,Brady +47,republican,TRUE,"","",1,0,1604454657763
48455,Trinity,6808,5252,20,20,Released as a precinct as first report of the night,100,6808,>98%,>98% reported,edison,10,unknown,6125,5543,1185,80,4282,917,53,2020-11-28T14:40:43Z,64.01293,R+64,Brady +64,republican,TX-G-H-8-2020-11-03,tx-house-general-district-008-2020-11-03,https://www.nytimes.com/interactive/2020/11/03/us/elections/results-texas-house-district-8.html,https://www.nytimes.com/interactive/2020/11/03/us/elections/results-texas.html,https://www.nytimes.com/interactive/2020/11/03/us/elections/ap-polls-texas.html,https://www.nytimes.com/interactive/2020/11/03/us/elections/exit-polls-texas.html,house,general,2020-11-03,FALSE,U.S. House District 8,U.S. House,H,solid-rep,8,District 8,TX,texas,Texas,Texas,horizontal,"",FALSE,TRUE,winner,AP,FALSE,"",382471,328219,9,unknown,Most polls close at 8 p.m. Eastern time.,Polls close in,Polls have closed.,2020-11-04T01:00:00.000Z,8 p.m.,223,223,100% reporting,100%,100,382471,edison,>98%,>98% reported,edison,republican,FALSE,2020-11-29T13:39:33Z,TRUE,47.04095,179918,R+47,Brady +47,republican,TRUE,"","",1,0,1604454657763
48471,Walker,23537,19387,17,17,Released as a precinct as first report of the night,100,23537,>98%,>98% reported,edison,10,unknown,16785,15694,7357,486,12820,6225,342,2020-11-28T14:40:46Z,35.42083,R+35,Brady +35,republican,TX-G-H-8-2020-11-03,tx-house-general-district-008-2020-11-03,https://www.nytimes.com/interactive/2020/11/03/us/elections/results-texas-house-district-8.html,https://www.nytimes.com/interactive/2020/11/03/us/elections/results-texas.html,https://www.nytimes.com/interactive/2020/11/03/us/elections/ap-polls-texas.html,https://www.nytimes.com/interactive/2020/11/03/us/elections/exit-polls-texas.html,house,general,2020-11-03,FALSE,U.S. House District 8,U.S. House,H,solid-rep,8,District 8,TX,texas,Texas,Texas,horizontal,"",FALSE,TRUE,winner,AP,FALSE,"",382471,328219,9,unknown,Most polls close at 8 p.m. Eastern time.,Polls close in,Polls have closed.,2020-11-04T01:00:00.000Z,8 p.m.,223,223,100% reporting,100%,100,382471,edison,>98%,>98% reported,edison,republican,FALSE,2020-11-29T13:39:33Z,TRUE,47.04095,179918,R+47,Brady +47,republican,TRUE,"","",1,0,1604454657763
