fips,name,votes,absentee_votes,reporting,precincts,absentee_method,eevp,tot_exp_vote,eevp_value,eevp_display,eevp_source,turnout_stage,absentee_count_progress,absentee_max_ballots,results_fallonp,results_fosterr,results_antonellil,results_write_ins,results_absentee_fallonp,results_absentee_fosterr,results_absentee_antonellil,results_absentee_write_ins,last_updated,leader_margin_value,leader_margin_display,leader_margin_name_display,leader_party_id,race_id_race,race_slug_race,url_race,state_page_url_race,ap_polls_page_race,edison_exit_polls_page_race,race_type_race,election_type_race,election_date_race,runoff_race,race_name_race,office_race,officeid_race,race_rating_race,seat_race,seat_name_race,state_id_race,state_slug_race,state_name_race,state_nyt_abbrev_race,state_shape_race,party_id_race,uncontested_race,report_race,result_race,result_source_race,gain_race,lost_seat_race,votes_race,absentee_votes_race,absentee_counties_race,absentee_count_progress_race,poll_display_race,poll_countdown_display_race,poll_waiting_display_race,poll_time_race,poll_time_short_race,precincts_reporting_race,precincts_total_race,reporting_display_race,reporting_value_race,eevp_race,tot_exp_vote_race,eevp_source_race,eevp_value_race,eevp_display_race,county_data_source_race,incumbent_party_race,no_forecast_race,last_updated_race,has_incumbent_race,leader_margin_value_race,leader_margin_votes_race,leader_margin_display_race,leader_margin_name_display_race,leader_party_id_race,edison_certified_race,expectations_text_race,expectations_text_short_race,absentee_ballot_deadline_race,absentee_postmark_deadline_race,winner_called_timestamp_race
48037,Bowie,37816,29737,43,43,Released as a precinct as first report of the night,100,37816,>98%,>98% reported,edison,10,all,32487,26416,10257,573,570,20115,8746,413,463,2020-11-28T14:28:05Z,42.73059,R+43,Fallon +43,republican,TX-G-H-4-2020-11-03,tx-house-general-district-004-2020-11-03,https://www.nytimes.com/interactive/2020/11/03/us/elections/results-texas-house-district-4.html,https://www.nytimes.com/interactive/2020/11/03/us/elections/results-texas.html,https://www.nytimes.com/interactive/2020/11/03/us/elections/ap-polls-texas.html,https://www.nytimes.com/interactive/2020/11/03/us/elections/exit-polls-texas.html,house,general,2020-11-03,FALSE,U.S. House District 4,U.S. House,H,solid-rep,4,District 4,TX,texas,Texas,Texas,horizontal,"",FALSE,TRUE,winner,AP,FALSE,"",337803,276784,18,unknown,Most polls close at 8 p.m. Eastern time.,Polls close in,Polls have closed.,2020-11-04T01:00:00.000Z,8 p.m.,335,335,100% reporting,100%,100,337803,edison,>98%,>98% reported,edison,republican,FALSE,2020-11-29T13:36:07Z,FALSE,52.54867,177511,R+53,Fallon +53,republican,TRUE,"","",1,0,1604458451049
48063,Camp,4973,4225,5,5,Released as a precinct as first report of the night,100,4973,>98%,>98% reported,edison,10,all,4295,3575,1315,69,14,3082,1092,40,11,2020-11-28T14:37:44Z,45.44541,R+45,Fallon +45,republican,TX-G-H-4-2020-11-03,tx-house-general-district-004-2020-11-03,https://www.nytimes.com/interactive/2020/11/03/us/elections/results-texas-house-district-4.html,https://www.nytimes.com/interactive/2020/11/03/us/elections/results-texas.html,https://www.nytimes.com/interactive/2020/11/03/us/elections/ap-polls-texas.html,https://www.nytimes.com/interactive/2020/11/03/us/elections/exit-polls-texas.html,house,general,2020-11-03,FALSE,U.S. House District 4,U.S. House,H,solid-rep,4,District 4,TX,texas,Texas,Texas,horizontal,"",FALSE,TRUE,winner,AP,FALSE,"",337803,276784,18,unknown,Most polls close at 8 p.m. Eastern time.,Polls close in,Polls have closed.,2020-11-04T01:00:00.000Z,8 p.m.,335,335,100% reporting,100%,100,337803,edison,>98%,>98% reported,edison,republican,FALSE,2020-11-29T13:36:07Z,FALSE,52.54867,177511,R+53,Fallon +53,republican,TRUE,"","",1,0,1604458451049
48067,Cass,13530,10511,19,19,Released as a precinct as first report of the night,100,13530,>98%,>98% reported,edison,10,all,8478,10575,2623,171,161,8113,2155,101,142,2020-11-28T14:29:08Z,58.7731,R+59,Fallon +59,republican,TX-G-H-4-2020-11-03,tx-house-general-district-004-2020-11-03,https://www.nytimes.com/interactive/2020/11/03/us/elections/results-texas-house-district-4.html,https://www.nytimes.com/interactive/2020/11/03/us/elections/results-texas.html,https://www.nytimes.com/interactive/2020/11/03/us/elections/ap-polls-texas.html,https://www.nytimes.com/interactive/2020/11/03/us/elections/exit-polls-texas.html,house,general,2020-11-03,FALSE,U.S. House District 4,U.S. House,H,solid-rep,4,District 4,TX,texas,Texas,Texas,horizontal,"",FALSE,TRUE,winner,AP,FALSE,"",337803,276784,18,unknown,Most polls close at 8 p.m. Eastern time.,Polls close in,Polls have closed.,2020-11-04T01:00:00.000Z,8 p.m.,335,335,100% reporting,100%,100,337803,edison,>98%,>98% reported,edison,republican,FALSE,2020-11-29T13:36:07Z,FALSE,52.54867,177511,R+53,Fallon +53,republican,TRUE,"","",1,0,1604458451049
48085,Collin,29063,26111,13,13,Released as a precinct as first report of the night,100,29063,>98%,>98% reported,edison,10,all,368567,21582,6808,671,2,19332,6213,564,2,2020-11-28T14:29:46Z,50.83439,R+51,Fallon +51,republican,TX-G-H-4-2020-11-03,tx-house-general-district-004-2020-11-03,https://www.nytimes.com/interactive/2020/11/03/us/elections/results-texas-house-district-4.html,https://www.nytimes.com/interactive/2020/11/03/us/elections/results-texas.html,https://www.nytimes.com/interactive/2020/11/03/us/elections/ap-polls-texas.html,https://www.nytimes.com/interactive/2020/11/03/us/elections/exit-polls-texas.html,house,general,2020-11-03,FALSE,U.S. House District 4,U.S. House,H,solid-rep,4,District 4,TX,texas,Texas,Texas,horizontal,"",FALSE,TRUE,winner,AP,FALSE,"",337803,276784,18,unknown,Most polls close at 8 p.m. Eastern time.,Polls close in,Polls have closed.,2020-11-04T01:00:00.000Z,8 p.m.,335,335,100% reporting,100%,100,337803,edison,>98%,>98% reported,edison,republican,FALSE,2020-11-29T13:36:07Z,FALSE,52.54867,177511,R+53,Fallon +53,republican,TRUE,"","",1,0,1604458451049
48119,Delta,2470,1748,8,8,Released as a precinct as first report of the night,100,2470,>98%,>98% reported,edison,10,all,1505,2065,366,36,3,1423,299,23,3,2020-11-28T14:38:22Z,68.78543,R+69,Fallon +69,republican,TX-G-H-4-2020-11-03,tx-house-general-district-004-2020-11-03,https://www.nytimes.com/interactive/2020/11/03/us/elections/results-texas-house-district-4.html,https://www.nytimes.com/interactive/2020/11/03/us/elections/results-texas.html,https://www.nytimes.com/interactive/2020/11/03/us/elections/ap-polls-texas.html,https://www.nytimes.com/interactive/2020/11/03/us/elections/exit-polls-texas.html,house,general,2020-11-03,FALSE,U.S. House District 4,U.S. House,H,solid-rep,4,District 4,TX,texas,Texas,Texas,horizontal,"",FALSE,TRUE,winner,AP,FALSE,"",337803,276784,18,unknown,Most polls close at 8 p.m. Eastern time.,Polls close in,Polls have closed.,2020-11-04T01:00:00.000Z,8 p.m.,335,335,100% reporting,100%,100,337803,edison,>98%,>98% reported,edison,republican,FALSE,2020-11-29T13:36:07Z,FALSE,52.54867,177511,R+53,Fallon +53,republican,TRUE,"","",1,0,1604458451049
48147,Fannin,14524,10744,17,17,Released as a precinct as first report of the night,100,14524,>98%,>98% reported,edison,10,all,8408,11825,2398,287,14,8624,1934,173,13,2020-11-28T14:30:42Z,64.90636,R+65,Fallon +65,republican,TX-G-H-4-2020-11-03,tx-house-general-district-004-2020-11-03,https://www.nytimes.com/interactive/2020/11/03/us/elections/results-texas-house-district-4.html,https://www.nytimes.com/interactive/2020/11/03/us/elections/results-texas.html,https://www.nytimes.com/interactive/2020/11/03/us/elections/ap-polls-texas.html,https://www.nytimes.com/interactive/2020/11/03/us/elections/exit-polls-texas.html,house,general,2020-11-03,FALSE,U.S. House District 4,U.S. House,H,solid-rep,4,District 4,TX,texas,Texas,Texas,horizontal,"",FALSE,TRUE,winner,AP,FALSE,"",337803,276784,18,unknown,Most polls close at 8 p.m. Eastern time.,Polls close in,Polls have closed.,2020-11-04T01:00:00.000Z,8 p.m.,335,335,100% reporting,100%,100,337803,edison,>98%,>98% reported,edison,republican,FALSE,2020-11-29T13:36:07Z,FALSE,52.54867,177511,R+53,Fallon +53,republican,TRUE,"","",1,0,1604458451049
48159,Franklin,4875,3830,9,9,Released as a precinct as first report of the night,100,4875,>98%,>98% reported,edison,10,all,3878,4049,723,68,35,3157,599,45,29,2020-11-28T14:31:16Z,68.22564,R+68,Fallon +68,republican,TX-G-H-4-2020-11-03,tx-house-general-district-004-2020-11-03,https://www.nytimes.com/interactive/2020/11/03/us/elections/results-texas-house-district-4.html,https://www.nytimes.com/interactive/2020/11/03/us/elections/results-texas.html,https://www.nytimes.com/interactive/2020/11/03/us/elections/ap-polls-texas.html,https://www.nytimes.com/interactive/2020/11/03/us/elections/exit-polls-texas.html,house,general,2020-11-03,FALSE,U.S. House District 4,U.S. House,H,solid-rep,4,District 4,TX,texas,Texas,Texas,horizontal,"",FALSE,TRUE,winner,AP,FALSE,"",337803,276784,18,unknown,Most polls close at 8 p.m. Eastern time.,Polls close in,Polls have closed.,2020-11-04T01:00:00.000Z,8 p.m.,335,335,100% reporting,100%,100,337803,edison,>98%,>98% reported,edison,republican,FALSE,2020-11-29T13:36:07Z,FALSE,52.54867,177511,R+53,Fallon +53,republican,TRUE,"","",1,0,1604458451049
48181,Grayson,58609,50221,37,37,Released as a precinct as first report of the night,100,58609,>98%,>98% reported,edison,10,all,43337,44475,13031,1085,18,37935,11489,781,16,2020-11-28T14:31:56Z,53.65046,R+54,Fallon +54,republican,TX-G-H-4-2020-11-03,tx-house-general-district-004-2020-11-03,https://www.nytimes.com/interactive/2020/11/03/us/elections/results-texas-house-district-4.html,https://www.nytimes.com/interactive/2020/11/03/us/elections/results-texas.html,https://www.nytimes.com/interactive/2020/11/03/us/elections/ap-polls-texas.html,https://www.nytimes.com/interactive/2020/11/03/us/elections/exit-polls-texas.html,house,general,2020-11-03,FALSE,U.S. House District 4,U.S. House,H,solid-rep,4,District 4,TX,texas,Texas,Texas,horizontal,"",FALSE,TRUE,winner,AP,FALSE,"",337803,276784,18,unknown,Most polls close at 8 p.m. Eastern time.,Polls close in,Polls have closed.,2020-11-04T01:00:00.000Z,8 p.m.,335,335,100% reporting,100%,100,337803,edison,>98%,>98% reported,edison,republican,FALSE,2020-11-29T13:36:07Z,FALSE,52.54867,177511,R+53,Fallon +53,republican,TRUE,"","",1,0,1604458451049
48223,Hopkins,15380,12515,22,22,Released as a precinct as first report of the night,100,15380,>98%,>98% reported,edison,10,all,12167,12323,2768,284,5,10011,2297,203,4,2020-11-28T14:32:31Z,62.12614,R+62,Fallon +62,republican,TX-G-H-4-2020-11-03,tx-house-general-district-004-2020-11-03,https://www.nytimes.com/interactive/2020/11/03/us/elections/results-texas-house-district-4.html,https://www.nytimes.com/interactive/2020/11/03/us/elections/results-texas.html,https://www.nytimes.com/interactive/2020/11/03/us/elections/ap-polls-texas.html,https://www.nytimes.com/interactive/2020/11/03/us/elections/exit-polls-texas.html,house,general,2020-11-03,FALSE,U.S. House District 4,U.S. House,H,solid-rep,4,District 4,TX,texas,Texas,Texas,horizontal,"",FALSE,TRUE,winner,AP,FALSE,"",337803,276784,18,unknown,Most polls close at 8 p.m. Eastern time.,Polls close in,Polls have closed.,2020-11-04T01:00:00.000Z,8 p.m.,335,335,100% reporting,100%,100,337803,edison,>98%,>98% reported,edison,republican,FALSE,2020-11-29T13:36:07Z,FALSE,52.54867,177511,R+53,Fallon +53,republican,TRUE,"","",1,0,1604458451049
48231,Hunt,37368,27514,34,34,Released as a precinct as first report of the night,100,37368,>98%,>98% reported,edison,10,all,22277,28593,7994,768,13,20829,6188,485,12,2020-11-28T14:33:04Z,55.12471,R+55,Fallon +55,republican,TX-G-H-4-2020-11-03,tx-house-general-district-004-2020-11-03,https://www.nytimes.com/interactive/2020/11/03/us/elections/results-texas-house-district-4.html,https://www.nytimes.com/interactive/2020/11/03/us/elections/results-texas.html,https://www.nytimes.com/interactive/2020/11/03/us/elections/ap-polls-texas.html,https://www.nytimes.com/interactive/2020/11/03/us/elections/exit-polls-texas.html,house,general,2020-11-03,FALSE,U.S. House District 4,U.S. House,H,solid-rep,4,District 4,TX,texas,Texas,Texas,horizontal,"",FALSE,TRUE,winner,AP,FALSE,"",337803,276784,18,unknown,Most polls close at 8 p.m. Eastern time.,Polls close in,Polls have closed.,2020-11-04T01:00:00.000Z,8 p.m.,335,335,100% reporting,100%,100,337803,edison,>98%,>98% reported,edison,republican,FALSE,2020-11-29T13:36:07Z,FALSE,52.54867,177511,R+53,Fallon +53,republican,TRUE,"","",1,0,1604458451049
48277,Lamar,20914,16385,27,27,Released as a precinct as first report of the night,100,20914,>98%,>98% reported,edison,10,all,15300,16079,4178,314,343,12331,3488,230,336,2020-11-28T14:33:43Z,56.90447,R+57,Fallon +57,republican,TX-G-H-4-2020-11-03,tx-house-general-district-004-2020-11-03,https://www.nytimes.com/interactive/2020/11/03/us/elections/results-texas-house-district-4.html,https://www.nytimes.com/interactive/2020/11/03/us/elections/results-texas.html,https://www.nytimes.com/interactive/2020/11/03/us/elections/ap-polls-texas.html,https://www.nytimes.com/interactive/2020/11/03/us/elections/exit-polls-texas.html,house,general,2020-11-03,FALSE,U.S. House District 4,U.S. House,H,solid-rep,4,District 4,TX,texas,Texas,Texas,horizontal,"",FALSE,TRUE,winner,AP,FALSE,"",337803,276784,18,unknown,Most polls close at 8 p.m. Eastern time.,Polls close in,Polls have closed.,2020-11-04T01:00:00.000Z,8 p.m.,335,335,100% reporting,100%,100,337803,edison,>98%,>98% reported,edison,republican,FALSE,2020-11-29T13:36:07Z,FALSE,52.54867,177511,R+53,Fallon +53,republican,TRUE,"","",1,0,1604458451049
48315,Marion,4739,3633,10,10,Released as a precinct as first report of the night,100,4739,>98%,>98% reported,edison,10,all,3462,3408,1251,76,4,2572,1003,54,4,2020-11-28T14:34:09Z,45.51593,R+46,Fallon +46,republican,TX-G-H-4-2020-11-03,tx-house-general-district-004-2020-11-03,https://www.nytimes.com/interactive/2020/11/03/us/elections/results-texas-house-district-4.html,https://www.nytimes.com/interactive/2020/11/03/us/elections/results-texas.html,https://www.nytimes.com/interactive/2020/11/03/us/elections/ap-polls-texas.html,https://www.nytimes.com/interactive/2020/11/03/us/elections/exit-polls-texas.html,house,general,2020-11-03,FALSE,U.S. House District 4,U.S. House,H,solid-rep,4,District 4,TX,texas,Texas,Texas,horizontal,"",FALSE,TRUE,winner,AP,FALSE,"",337803,276784,18,unknown,Most polls close at 8 p.m. Eastern time.,Polls close in,Polls have closed.,2020-11-04T01:00:00.000Z,8 p.m.,335,335,100% reporting,100%,100,337803,edison,>98%,>98% reported,edison,republican,FALSE,2020-11-29T13:36:07Z,FALSE,52.54867,177511,R+53,Fallon +53,republican,TRUE,"","",1,0,1604458451049
48343,Morris,5436,4032,9,9,Released as a precinct as first report of the night,100,5436,>98%,>98% reported,edison,10,all,4099,3737,1624,70,5,2722,1273,37,0,2020-11-28T14:34:29Z,38.87049,R+39,Fallon +39,republican,TX-G-H-4-2020-11-03,tx-house-general-district-004-2020-11-03,https://www.nytimes.com/interactive/2020/11/03/us/elections/results-texas-house-district-4.html,https://www.nytimes.com/interactive/2020/11/03/us/elections/results-texas.html,https://www.nytimes.com/interactive/2020/11/03/us/elections/ap-polls-texas.html,https://www.nytimes.com/interactive/2020/11/03/us/elections/exit-polls-texas.html,house,general,2020-11-03,FALSE,U.S. House District 4,U.S. House,H,solid-rep,4,District 4,TX,texas,Texas,Texas,horizontal,"",FALSE,TRUE,winner,AP,FALSE,"",337803,276784,18,unknown,Most polls close at 8 p.m. Eastern time.,Polls close in,Polls have closed.,2020-11-04T01:00:00.000Z,8 p.m.,335,335,100% reporting,100%,100,337803,edison,>98%,>98% reported,edison,republican,FALSE,2020-11-29T13:36:07Z,FALSE,52.54867,177511,R+53,Fallon +53,republican,TRUE,"","",1,0,1604458451049
48379,Rains,5891,4900,9,9,Released as a precinct as first report of the night,100,5891,>98%,>98% reported,edison,10,all,3940,5035,777,79,0,4193,661,46,0,2020-11-28T14:34:53Z,72.27975,R+72,Fallon +72,republican,TX-G-H-4-2020-11-03,tx-house-general-district-004-2020-11-03,https://www.nytimes.com/interactive/2020/11/03/us/elections/results-texas-house-district-4.html,https://www.nytimes.com/interactive/2020/11/03/us/elections/results-texas.html,https://www.nytimes.com/interactive/2020/11/03/us/elections/ap-polls-texas.html,https://www.nytimes.com/interactive/2020/11/03/us/elections/exit-polls-texas.html,house,general,2020-11-03,FALSE,U.S. House District 4,U.S. House,H,solid-rep,4,District 4,TX,texas,Texas,Texas,horizontal,"",FALSE,TRUE,winner,AP,FALSE,"",337803,276784,18,unknown,Most polls close at 8 p.m. Eastern time.,Polls close in,Polls have closed.,2020-11-04T01:00:00.000Z,8 p.m.,335,335,100% reporting,100%,100,337803,edison,>98%,>98% reported,edison,republican,FALSE,2020-11-29T13:36:07Z,FALSE,52.54867,177511,R+53,Fallon +53,republican,TRUE,"","",1,0,1604458451049
48387,Red River,5637,4153,20,20,Released as a precinct as first report of the night,100,5637,>98%,>98% reported,edison,10,all,5311,4333,1151,153,0,3110,935,108,0,2020-11-28T14:35:14Z,56.44847,R+56,Fallon +56,republican,TX-G-H-4-2020-11-03,tx-house-general-district-004-2020-11-03,https://www.nytimes.com/interactive/2020/11/03/us/elections/results-texas-house-district-4.html,https://www.nytimes.com/interactive/2020/11/03/us/elections/results-texas.html,https://www.nytimes.com/interactive/2020/11/03/us/elections/ap-polls-texas.html,https://www.nytimes.com/interactive/2020/11/03/us/elections/exit-polls-texas.html,house,general,2020-11-03,FALSE,U.S. House District 4,U.S. House,H,solid-rep,4,District 4,TX,texas,Texas,Texas,horizontal,"",FALSE,TRUE,winner,AP,FALSE,"",337803,276784,18,unknown,Most polls close at 8 p.m. Eastern time.,Polls close in,Polls have closed.,2020-11-04T01:00:00.000Z,8 p.m.,335,335,100% reporting,100%,100,337803,edison,>98%,>98% reported,edison,republican,FALSE,2020-11-29T13:36:07Z,FALSE,52.54867,177511,R+53,Fallon +53,republican,TRUE,"","",1,0,1604458451049
48397,Rockwall,53122,47846,18,18,Released as a precinct as first report of the night,100,53122,>98%,>98% reported,edison,10,all,36546,37324,14606,1144,48,33516,13358,924,48,2020-11-28T14:36:23Z,42.76571,R+43,Fallon +43,republican,TX-G-H-4-2020-11-03,tx-house-general-district-004-2020-11-03,https://www.nytimes.com/interactive/2020/11/03/us/elections/results-texas-house-district-4.html,https://www.nytimes.com/interactive/2020/11/03/us/elections/results-texas.html,https://www.nytimes.com/interactive/2020/11/03/us/elections/ap-polls-texas.html,https://www.nytimes.com/interactive/2020/11/03/us/elections/exit-polls-texas.html,house,general,2020-11-03,FALSE,U.S. House District 4,U.S. House,H,solid-rep,4,District 4,TX,texas,Texas,Texas,horizontal,"",FALSE,TRUE,winner,AP,FALSE,"",337803,276784,18,unknown,Most polls close at 8 p.m. Eastern time.,Polls close in,Polls have closed.,2020-11-04T01:00:00.000Z,8 p.m.,335,335,100% reporting,100%,100,337803,edison,>98%,>98% reported,edison,republican,FALSE,2020-11-29T13:36:07Z,FALSE,52.54867,177511,R+53,Fallon +53,republican,TRUE,"","",1,0,1604458451049
48449,Titus,10254,8023,19,19,Released as a precinct as first report of the night,100,10254,>98%,>98% reported,edison,10,all,7555,7210,2691,282,71,5667,2093,204,59,2020-11-28T14:36:45Z,44.07061,R+44,Fallon +44,republican,TX-G-H-4-2020-11-03,tx-house-general-district-004-2020-11-03,https://www.nytimes.com/interactive/2020/11/03/us/elections/results-texas-house-district-4.html,https://www.nytimes.com/interactive/2020/11/03/us/elections/results-texas.html,https://www.nytimes.com/interactive/2020/11/03/us/elections/ap-polls-texas.html,https://www.nytimes.com/interactive/2020/11/03/us/elections/exit-polls-texas.html,house,general,2020-11-03,FALSE,U.S. House District 4,U.S. House,H,solid-rep,4,District 4,TX,texas,Texas,Texas,horizontal,"",FALSE,TRUE,winner,AP,FALSE,"",337803,276784,18,unknown,Most polls close at 8 p.m. Eastern time.,Polls close in,Polls have closed.,2020-11-04T01:00:00.000Z,8 p.m.,335,335,100% reporting,100%,100,337803,edison,>98%,>98% reported,edison,republican,FALSE,2020-11-29T13:36:07Z,FALSE,52.54867,177511,R+53,Fallon +53,republican,TRUE,"","",1,0,1604458451049
48459,Upshur,13202,10656,16,16,Released as a precinct as first report of the night,100,13202,>98%,>98% reported,edison,10,all,12933,11233,1765,204,0,9025,1493,138,0,2020-11-28T14:37:08Z,71.71641,R+72,Fallon +72,republican,TX-G-H-4-2020-11-03,tx-house-general-district-004-2020-11-03,https://www.nytimes.com/interactive/2020/11/03/us/elections/results-texas-house-district-4.html,https://www.nytimes.com/interactive/2020/11/03/us/elections/results-texas.html,https://www.nytimes.com/interactive/2020/11/03/us/elections/ap-polls-texas.html,https://www.nytimes.com/interactive/2020/11/03/us/elections/exit-polls-texas.html,house,general,2020-11-03,FALSE,U.S. House District 4,U.S. House,H,solid-rep,4,District 4,TX,texas,Texas,Texas,horizontal,"",FALSE,TRUE,winner,AP,FALSE,"",337803,276784,18,unknown,Most polls close at 8 p.m. Eastern time.,Polls close in,Polls have closed.,2020-11-04T01:00:00.000Z,8 p.m.,335,335,100% reporting,100%,100,337803,edison,>98%,>98% reported,edison,republican,FALSE,2020-11-29T13:36:07Z,FALSE,52.54867,177511,R+53,Fallon +53,republican,TRUE,"","",1,0,1604458451049
