fips,name,votes,absentee_votes,reporting,precincts,absentee_method,eevp,tot_exp_vote,eevp_value,eevp_display,eevp_source,turnout_stage,absentee_count_progress,absentee_max_ballots,results_issad,results_campa_najjara,results_absentee_issad,results_absentee_campa_najjara,last_updated,leader_margin_value,leader_margin_display,leader_margin_name_display,leader_party_id,race_id_race,race_slug_race,url_race,state_page_url_race,ap_polls_page_race,edison_exit_polls_page_race,race_type_race,election_type_race,election_date_race,runoff_race,race_name_race,office_race,officeid_race,race_rating_race,seat_race,seat_name_race,state_id_race,state_slug_race,state_name_race,state_nyt_abbrev_race,state_shape_race,state_aspect_ratio_race,party_id_race,uncontested_race,report_race,result_race,result_source_race,gain_race,lost_seat_race,votes_race,absentee_votes_race,absentee_counties_race,absentee_count_progress_race,poll_display_race,poll_countdown_display_race,poll_waiting_display_race,poll_time_race,poll_time_short_race,precincts_reporting_race,precincts_total_race,reporting_display_race,reporting_value_race,eevp_race,tot_exp_vote_race,eevp_source_race,eevp_value_race,eevp_display_race,county_data_source_race,incumbent_party_race,no_forecast_race,last_updated_race,has_incumbent_race,leader_margin_value_race,leader_margin_votes_race,leader_margin_display_race,leader_margin_name_display_race,leader_party_id_race,expectations_text_race,expectations_text_short_race,absentee_ballot_deadline_race,absentee_postmark_deadline_race,winner_called_timestamp_race
06065,Riverside,41974,15963,38,38,Released as a separate subtotal as first report of the night,100,37784,>98%,>98% reported,edison,4,unknown,594424,23413,18561,8312,7651,2020-11-20T02:41:06Z,11.55954,R+12,Issa +12,republican,CA-G-H-50-2020-11-03,ca-house-general-district-050-2020-11-03,https://www.nytimes.com/interactive/2020/11/03/us/elections/results-california-house-district-50.html,https://www.nytimes.com/interactive/2020/11/03/us/elections/results-california.html,https://www.nytimes.com/interactive/2020/11/03/us/elections/ap-polls-california.html,https://www.nytimes.com/interactive/2020/11/03/us/elections/exit-polls-california.html,house,general,2020-11-03,FALSE,U.S. House District 50,U.S. House,H,lean-rep,50,District 50,CA,california,California,Calif.,vertical,0.5,"",FALSE,TRUE,winner,AP,FALSE,"",361202,290312,2,unknown,Polls close at 11 p.m. Eastern time.,Polls close in,Polls have closed.,2020-11-04T04:00:00.000Z,11 p.m.,322,322,100% reporting,100%,100,334000,edison,>98%,>98% reported,edison,republican,FALSE,2020-11-20T14:23:22Z,FALSE,7.887,28488,R+8,Issa +8,republican,"All active registered voters were sent mail ballots, and late-arriving mail ballots and provisional ballots will be counted in the days and weeks after the election.","All active registered voters were sent mail ballots, and late-arriving mail ballots and provisional ballots will be counted in the days and weeks after the election.",17,0,1604798763319
06073,San Diego,319228,274349,284,284,Released as a separate subtotal as first report of the night,100,296097,>98%,>98% reported,edison,2,some,1080011,171432,147796,139976,134373,2020-11-19T02:41:07Z,7.40411,R+7,Issa +7,republican,CA-G-H-50-2020-11-03,ca-house-general-district-050-2020-11-03,https://www.nytimes.com/interactive/2020/11/03/us/elections/results-california-house-district-50.html,https://www.nytimes.com/interactive/2020/11/03/us/elections/results-california.html,https://www.nytimes.com/interactive/2020/11/03/us/elections/ap-polls-california.html,https://www.nytimes.com/interactive/2020/11/03/us/elections/exit-polls-california.html,house,general,2020-11-03,FALSE,U.S. House District 50,U.S. House,H,lean-rep,50,District 50,CA,california,California,Calif.,vertical,0.5,"",FALSE,TRUE,winner,AP,FALSE,"",361202,290312,2,unknown,Polls close at 11 p.m. Eastern time.,Polls close in,Polls have closed.,2020-11-04T04:00:00.000Z,11 p.m.,322,322,100% reporting,100%,100,334000,edison,>98%,>98% reported,edison,republican,FALSE,2020-11-20T14:23:22Z,FALSE,7.887,28488,R+8,Issa +8,republican,"All active registered voters were sent mail ballots, and late-arriving mail ballots and provisional ballots will be counted in the days and weeks after the election.","All active registered voters were sent mail ballots, and late-arriving mail ballots and provisional ballots will be counted in the days and weeks after the election.",17,0,1604798763319
