fips,name,votes,absentee_votes,reporting,precincts,absentee_method,eevp,tot_exp_vote,eevp_value,eevp_display,eevp_source,turnout_stage,absentee_count_progress,absentee_max_ballots,results_hicej,results_johnson_greent,results_absentee_hicej,results_absentee_johnson_greent,last_updated,leader_margin_value,leader_margin_display,leader_margin_name_display,leader_party_id,results_write_ins,results_absentee_write_ins,race_id_race,race_slug_race,url_race,state_page_url_race,ap_polls_page_race,edison_exit_polls_page_race,race_type_race,election_type_race,election_date_race,runoff_race,race_name_race,office_race,officeid_race,race_rating_race,seat_race,seat_name_race,state_id_race,state_slug_race,state_name_race,state_nyt_abbrev_race,state_shape_race,state_aspect_ratio_race,party_id_race,uncontested_race,report_race,result_race,result_source_race,gain_race,lost_seat_race,votes_race,absentee_votes_race,absentee_counties_race,absentee_count_progress_race,poll_display_race,poll_countdown_display_race,poll_waiting_display_race,poll_time_race,poll_time_short_race,precincts_reporting_race,precincts_total_race,reporting_display_race,reporting_value_race,eevp_race,tot_exp_vote_race,eevp_source_race,eevp_value_race,eevp_display_race,county_data_source_race,incumbent_party_race,no_forecast_race,last_updated_race,has_incumbent_race,leader_margin_value_race,leader_margin_votes_race,leader_margin_display_race,leader_margin_name_display_race,leader_party_id_race,expectations_text_race,expectations_text_short_race,absentee_ballot_deadline_race,absentee_postmark_deadline_race,winner_called_timestamp_race
13009,Baldwin,17734,14371,14,14,Other,100,17693,>98%,>98% reported,edison,6,all,14066,9101,8633,7217,7154,2020-11-20T21:23:07Z,2.639,R+3,Hice +3,republican,,,GA-G-H-10-2020-11-03,ga-house-general-district-010-2020-11-03,https://www.nytimes.com/interactive/2020/11/03/us/elections/results-georgia-house-district-10.html,https://www.nytimes.com/interactive/2020/11/03/us/elections/results-georgia.html,https://www.nytimes.com/interactive/2020/11/03/us/elections/ap-polls-georgia.html,https://www.nytimes.com/interactive/2020/11/03/us/elections/exit-polls-georgia.html,house,general,2020-11-03,FALSE,U.S. House District 10,U.S. House,H,solid-rep,10,District 10,GA,georgia,Georgia,Ga.,vertical,1.3,"",FALSE,TRUE,winner,AP,FALSE,"",378514,302620,25,unknown,Polls close at 7 p.m. Eastern time.,Polls close in,Polls have closed.,2020-11-04T00:00:00.000Z,7 p.m.,197,201,98% reporting,98%,94,404000,edison,94%,94% reported,edison,republican,FALSE,2020-11-20T14:22:43Z,TRUE,24.61362,93166,R+25,Hice +25,republican,"Because of the small margin between the candidates, the secretary of state authorized a hand recount of the presidential election in the state.","Because of the small margin between the candidates, the secretary of state authorized a hand recount of the presidential election in the state.",0,0,1604456222921
13013,Barrow,36931,29324,8,8,None,100,36931,>98%,>98% reported,edison,6,all,20877,26957,9928,21046,8278,2020-11-20T23:04:50Z,46.11031,R+46,Hice +46,republican,46,0,GA-G-H-10-2020-11-03,ga-house-general-district-010-2020-11-03,https://www.nytimes.com/interactive/2020/11/03/us/elections/results-georgia-house-district-10.html,https://www.nytimes.com/interactive/2020/11/03/us/elections/results-georgia.html,https://www.nytimes.com/interactive/2020/11/03/us/elections/ap-polls-georgia.html,https://www.nytimes.com/interactive/2020/11/03/us/elections/exit-polls-georgia.html,house,general,2020-11-03,FALSE,U.S. House District 10,U.S. House,H,solid-rep,10,District 10,GA,georgia,Georgia,Ga.,vertical,1.3,"",FALSE,TRUE,winner,AP,FALSE,"",378514,302620,25,unknown,Polls close at 7 p.m. Eastern time.,Polls close in,Polls have closed.,2020-11-04T00:00:00.000Z,7 p.m.,197,201,98% reporting,98%,94,404000,edison,94%,94% reported,edison,republican,FALSE,2020-11-20T14:22:43Z,TRUE,24.61362,93166,R+25,Hice +25,republican,"Because of the small margin between the candidates, the secretary of state authorized a hand recount of the presidential election in the state.","Because of the small margin between the candidates, the secretary of state authorized a hand recount of the presidential election in the state.",0,0,1604456222921
13035,Butts,11441,10265,1,1,Released as a precinct as first report of the night,100,11441,>98%,>98% reported,edison,6,all,10779,8317,3110,7511,2742,2020-11-20T23:05:12Z,45.51176,R+46,Hice +46,republican,14,12,GA-G-H-10-2020-11-03,ga-house-general-district-010-2020-11-03,https://www.nytimes.com/interactive/2020/11/03/us/elections/results-georgia-house-district-10.html,https://www.nytimes.com/interactive/2020/11/03/us/elections/results-georgia.html,https://www.nytimes.com/interactive/2020/11/03/us/elections/ap-polls-georgia.html,https://www.nytimes.com/interactive/2020/11/03/us/elections/exit-polls-georgia.html,house,general,2020-11-03,FALSE,U.S. House District 10,U.S. House,H,solid-rep,10,District 10,GA,georgia,Georgia,Ga.,vertical,1.3,"",FALSE,TRUE,winner,AP,FALSE,"",378514,302620,25,unknown,Polls close at 7 p.m. Eastern time.,Polls close in,Polls have closed.,2020-11-04T00:00:00.000Z,7 p.m.,197,201,98% reporting,98%,94,404000,edison,94%,94% reported,edison,republican,FALSE,2020-11-20T14:22:43Z,TRUE,24.61362,93166,R+25,Hice +25,republican,"Because of the small margin between the candidates, the secretary of state authorized a hand recount of the presidential election in the state.","Because of the small margin between the candidates, the secretary of state authorized a hand recount of the presidential election in the state.",0,0,1604456222921
13059,Clarke,44287,37054,21,21,None,88,50326,88%,88% reported,edison,2,unknown,31528,14163,30124,11037,26017,2020-11-20T01:43:20Z,36.03992,D+36,Johnson-Green +36,democrat,,,GA-G-H-10-2020-11-03,ga-house-general-district-010-2020-11-03,https://www.nytimes.com/interactive/2020/11/03/us/elections/results-georgia-house-district-10.html,https://www.nytimes.com/interactive/2020/11/03/us/elections/results-georgia.html,https://www.nytimes.com/interactive/2020/11/03/us/elections/ap-polls-georgia.html,https://www.nytimes.com/interactive/2020/11/03/us/elections/exit-polls-georgia.html,house,general,2020-11-03,FALSE,U.S. House District 10,U.S. House,H,solid-rep,10,District 10,GA,georgia,Georgia,Ga.,vertical,1.3,"",FALSE,TRUE,winner,AP,FALSE,"",378514,302620,25,unknown,Polls close at 7 p.m. Eastern time.,Polls close in,Polls have closed.,2020-11-04T00:00:00.000Z,7 p.m.,197,201,98% reporting,98%,94,404000,edison,94%,94% reported,edison,republican,FALSE,2020-11-20T14:22:43Z,TRUE,24.61362,93166,R+25,Hice +25,republican,"Because of the small margin between the candidates, the secretary of state authorized a hand recount of the presidential election in the state.","Because of the small margin between the candidates, the secretary of state authorized a hand recount of the presidential election in the state.",0,0,1604456222921
13073,Columbia,11372,8263,6,6,Merged into voters' home precincts and released with cumulative results,100,11322,>98%,>98% reported,edison,4,unknown,44339,8339,3033,5779,2484,2020-11-20T21:39:13Z,46.65846,R+47,Hice +47,republican,,,GA-G-H-10-2020-11-03,ga-house-general-district-010-2020-11-03,https://www.nytimes.com/interactive/2020/11/03/us/elections/results-georgia-house-district-10.html,https://www.nytimes.com/interactive/2020/11/03/us/elections/results-georgia.html,https://www.nytimes.com/interactive/2020/11/03/us/elections/ap-polls-georgia.html,https://www.nytimes.com/interactive/2020/11/03/us/elections/exit-polls-georgia.html,house,general,2020-11-03,FALSE,U.S. House District 10,U.S. House,H,solid-rep,10,District 10,GA,georgia,Georgia,Ga.,vertical,1.3,"",FALSE,TRUE,winner,AP,FALSE,"",378514,302620,25,unknown,Polls close at 7 p.m. Eastern time.,Polls close in,Polls have closed.,2020-11-04T00:00:00.000Z,7 p.m.,197,201,98% reporting,98%,94,404000,edison,94%,94% reported,edison,republican,FALSE,2020-11-20T14:22:43Z,TRUE,24.61362,93166,R+25,Hice +25,republican,"Because of the small margin between the candidates, the secretary of state authorized a hand recount of the presidential election in the state.","Because of the small margin between the candidates, the secretary of state authorized a hand recount of the presidential election in the state.",0,0,1604456222921
13125,Glascock,1497,1068,3,4,None,84,1779,84%,84% reported,edison,2,unknown,920,1353,144,961,107,2020-11-20T21:48:28Z,80.76152,R+81,Hice +81,republican,,,GA-G-H-10-2020-11-03,ga-house-general-district-010-2020-11-03,https://www.nytimes.com/interactive/2020/11/03/us/elections/results-georgia-house-district-10.html,https://www.nytimes.com/interactive/2020/11/03/us/elections/results-georgia.html,https://www.nytimes.com/interactive/2020/11/03/us/elections/ap-polls-georgia.html,https://www.nytimes.com/interactive/2020/11/03/us/elections/exit-polls-georgia.html,house,general,2020-11-03,FALSE,U.S. House District 10,U.S. House,H,solid-rep,10,District 10,GA,georgia,Georgia,Ga.,vertical,1.3,"",FALSE,TRUE,winner,AP,FALSE,"",378514,302620,25,unknown,Polls close at 7 p.m. Eastern time.,Polls close in,Polls have closed.,2020-11-04T00:00:00.000Z,7 p.m.,197,201,98% reporting,98%,94,404000,edison,94%,94% reported,edison,republican,FALSE,2020-11-20T14:22:43Z,TRUE,24.61362,93166,R+25,Hice +25,republican,"Because of the small margin between the candidates, the secretary of state authorized a hand recount of the presidential election in the state.","Because of the small margin between the candidates, the secretary of state authorized a hand recount of the presidential election in the state.",0,0,1604456222921
13133,Greene,11056,9635,5,5,Released as a precinct as first report of the night,100,11043,>98%,>98% reported,edison,6,all,8130,7379,3677,6506,3129,2020-11-20T21:46:45Z,33.48408,R+33,Hice +33,republican,,,GA-G-H-10-2020-11-03,ga-house-general-district-010-2020-11-03,https://www.nytimes.com/interactive/2020/11/03/us/elections/results-georgia-house-district-10.html,https://www.nytimes.com/interactive/2020/11/03/us/elections/results-georgia.html,https://www.nytimes.com/interactive/2020/11/03/us/elections/ap-polls-georgia.html,https://www.nytimes.com/interactive/2020/11/03/us/elections/exit-polls-georgia.html,house,general,2020-11-03,FALSE,U.S. House District 10,U.S. House,H,solid-rep,10,District 10,GA,georgia,Georgia,Ga.,vertical,1.3,"",FALSE,TRUE,winner,AP,FALSE,"",378514,302620,25,unknown,Polls close at 7 p.m. Eastern time.,Polls close in,Polls have closed.,2020-11-04T00:00:00.000Z,7 p.m.,197,201,98% reporting,98%,94,404000,edison,94%,94% reported,edison,republican,FALSE,2020-11-20T14:22:43Z,TRUE,24.61362,93166,R+25,Hice +25,republican,"Because of the small margin between the candidates, the secretary of state authorized a hand recount of the presidential election in the state.","Because of the small margin between the candidates, the secretary of state authorized a hand recount of the presidential election in the state.",0,0,1604456222921
13135,Gwinnett,42644,35797,16,16,Released with cumulative results periodically election night,100,42195,>98%,>98% reported,edison,2,unknown,177474,23283,19361,18936,16861,2020-11-20T21:46:04Z,9.19707,R+9,Hice +9,republican,,,GA-G-H-10-2020-11-03,ga-house-general-district-010-2020-11-03,https://www.nytimes.com/interactive/2020/11/03/us/elections/results-georgia-house-district-10.html,https://www.nytimes.com/interactive/2020/11/03/us/elections/results-georgia.html,https://www.nytimes.com/interactive/2020/11/03/us/elections/ap-polls-georgia.html,https://www.nytimes.com/interactive/2020/11/03/us/elections/exit-polls-georgia.html,house,general,2020-11-03,FALSE,U.S. House District 10,U.S. House,H,solid-rep,10,District 10,GA,georgia,Georgia,Ga.,vertical,1.3,"",FALSE,TRUE,winner,AP,FALSE,"",378514,302620,25,unknown,Polls close at 7 p.m. Eastern time.,Polls close in,Polls have closed.,2020-11-04T00:00:00.000Z,7 p.m.,197,201,98% reporting,98%,94,404000,edison,94%,94% reported,edison,republican,FALSE,2020-11-20T14:22:43Z,TRUE,24.61362,93166,R+25,Hice +25,republican,"Because of the small margin between the candidates, the secretary of state authorized a hand recount of the presidential election in the state.","Because of the small margin between the candidates, the secretary of state authorized a hand recount of the presidential election in the state.",0,0,1604456222921
13141,Hancock,3977,3112,10,10,None,87,4582,87%,87% reported,edison,2,unknown,2875,1162,2815,891,2221,2020-11-20T21:44:14Z,41.56399,D+42,Johnson-Green +42,democrat,,,GA-G-H-10-2020-11-03,ga-house-general-district-010-2020-11-03,https://www.nytimes.com/interactive/2020/11/03/us/elections/results-georgia-house-district-10.html,https://www.nytimes.com/interactive/2020/11/03/us/elections/results-georgia.html,https://www.nytimes.com/interactive/2020/11/03/us/elections/ap-polls-georgia.html,https://www.nytimes.com/interactive/2020/11/03/us/elections/exit-polls-georgia.html,house,general,2020-11-03,FALSE,U.S. House District 10,U.S. House,H,solid-rep,10,District 10,GA,georgia,Georgia,Ga.,vertical,1.3,"",FALSE,TRUE,winner,AP,FALSE,"",378514,302620,25,unknown,Polls close at 7 p.m. Eastern time.,Polls close in,Polls have closed.,2020-11-04T00:00:00.000Z,7 p.m.,197,201,98% reporting,98%,94,404000,edison,94%,94% reported,edison,republican,FALSE,2020-11-20T14:22:43Z,TRUE,24.61362,93166,R+25,Hice +25,republican,"Because of the small margin between the candidates, the secretary of state authorized a hand recount of the presidential election in the state.","Because of the small margin between the candidates, the secretary of state authorized a hand recount of the presidential election in the state.",0,0,1604456222921
13151,Henry,28595,23167,11,11,Other,96,29836,96%,96% reported,edison,2,unknown,101421,18015,10580,14014,9153,2020-11-20T21:42:06Z,26.00105,R+26,Hice +26,republican,,,GA-G-H-10-2020-11-03,ga-house-general-district-010-2020-11-03,https://www.nytimes.com/interactive/2020/11/03/us/elections/results-georgia-house-district-10.html,https://www.nytimes.com/interactive/2020/11/03/us/elections/results-georgia.html,https://www.nytimes.com/interactive/2020/11/03/us/elections/ap-polls-georgia.html,https://www.nytimes.com/interactive/2020/11/03/us/elections/exit-polls-georgia.html,house,general,2020-11-03,FALSE,U.S. House District 10,U.S. House,H,solid-rep,10,District 10,GA,georgia,Georgia,Ga.,vertical,1.3,"",FALSE,TRUE,winner,AP,FALSE,"",378514,302620,25,unknown,Polls close at 7 p.m. Eastern time.,Polls close in,Polls have closed.,2020-11-04T00:00:00.000Z,7 p.m.,197,201,98% reporting,98%,94,404000,edison,94%,94% reported,edison,republican,FALSE,2020-11-20T14:22:43Z,TRUE,24.61362,93166,R+25,Hice +25,republican,"Because of the small margin between the candidates, the secretary of state authorized a hand recount of the presidential election in the state.","Because of the small margin between the candidates, the secretary of state authorized a hand recount of the presidential election in the state.",0,0,1604456222921
13159,Jasper,7461,5636,3,3,Released as a precinct as first report of the night,100,7182,>98%,>98% reported,edison,4,unknown,5181,5815,1646,4279,1357,2020-11-20T21:41:09Z,55.87723,R+56,Hice +56,republican,,,GA-G-H-10-2020-11-03,ga-house-general-district-010-2020-11-03,https://www.nytimes.com/interactive/2020/11/03/us/elections/results-georgia-house-district-10.html,https://www.nytimes.com/interactive/2020/11/03/us/elections/results-georgia.html,https://www.nytimes.com/interactive/2020/11/03/us/elections/ap-polls-georgia.html,https://www.nytimes.com/interactive/2020/11/03/us/elections/exit-polls-georgia.html,house,general,2020-11-03,FALSE,U.S. House District 10,U.S. House,H,solid-rep,10,District 10,GA,georgia,Georgia,Ga.,vertical,1.3,"",FALSE,TRUE,winner,AP,FALSE,"",378514,302620,25,unknown,Polls close at 7 p.m. Eastern time.,Polls close in,Polls have closed.,2020-11-04T00:00:00.000Z,7 p.m.,197,201,98% reporting,98%,94,404000,edison,94%,94% reported,edison,republican,FALSE,2020-11-20T14:22:43Z,TRUE,24.61362,93166,R+25,Hice +25,republican,"Because of the small margin between the candidates, the secretary of state authorized a hand recount of the presidential election in the state.","Because of the small margin between the candidates, the secretary of state authorized a hand recount of the presidential election in the state.",0,0,1604456222921
13163,Jefferson,7315,5222,8,8,Merged into voters' home precincts and released with cumulative results,100,7304,>98%,>98% reported,edison,6,all,4930,3481,3834,2404,2818,2020-11-20T21:40:47Z,4.8257,D+5,Johnson-Green +5,democrat,,,GA-G-H-10-2020-11-03,ga-house-general-district-010-2020-11-03,https://www.nytimes.com/interactive/2020/11/03/us/elections/results-georgia-house-district-10.html,https://www.nytimes.com/interactive/2020/11/03/us/elections/results-georgia.html,https://www.nytimes.com/interactive/2020/11/03/us/elections/ap-polls-georgia.html,https://www.nytimes.com/interactive/2020/11/03/us/elections/exit-polls-georgia.html,house,general,2020-11-03,FALSE,U.S. House District 10,U.S. House,H,solid-rep,10,District 10,GA,georgia,Georgia,Ga.,vertical,1.3,"",FALSE,TRUE,winner,AP,FALSE,"",378514,302620,25,unknown,Polls close at 7 p.m. Eastern time.,Polls close in,Polls have closed.,2020-11-04T00:00:00.000Z,7 p.m.,197,201,98% reporting,98%,94,404000,edison,94%,94% reported,edison,republican,FALSE,2020-11-20T14:22:43Z,TRUE,24.61362,93166,R+25,Hice +25,republican,"Because of the small margin between the candidates, the secretary of state authorized a hand recount of the presidential election in the state.","Because of the small margin between the candidates, the secretary of state authorized a hand recount of the presidential election in the state.",0,0,1604456222921
13167,Johnson,3906,2954,3,4,Released as a precinct as first report of the night,83,4713,83%,83% reported,edison,2,unknown,3190,2801,1105,2048,906,2020-11-20T21:40:07Z,43.42038,R+43,Hice +43,republican,,,GA-G-H-10-2020-11-03,ga-house-general-district-010-2020-11-03,https://www.nytimes.com/interactive/2020/11/03/us/elections/results-georgia-house-district-10.html,https://www.nytimes.com/interactive/2020/11/03/us/elections/results-georgia.html,https://www.nytimes.com/interactive/2020/11/03/us/elections/ap-polls-georgia.html,https://www.nytimes.com/interactive/2020/11/03/us/elections/exit-polls-georgia.html,house,general,2020-11-03,FALSE,U.S. House District 10,U.S. House,H,solid-rep,10,District 10,GA,georgia,Georgia,Ga.,vertical,1.3,"",FALSE,TRUE,winner,AP,FALSE,"",378514,302620,25,unknown,Polls close at 7 p.m. Eastern time.,Polls close in,Polls have closed.,2020-11-04T00:00:00.000Z,7 p.m.,197,201,98% reporting,98%,94,404000,edison,94%,94% reported,edison,republican,FALSE,2020-11-20T14:22:43Z,TRUE,24.61362,93166,R+25,Hice +25,republican,"Because of the small margin between the candidates, the secretary of state authorized a hand recount of the presidential election in the state.","Because of the small margin between the candidates, the secretary of state authorized a hand recount of the presidential election in the state.",0,0,1604456222921
13181,Lincoln,4515,3365,6,7,Released as a precinct as first report of the night,86,5251,86%,86% reported,edison,2,unknown,4384,3171,1344,2271,1094,2020-11-20T01:57:11Z,40.46512,R+40,Hice +40,republican,,,GA-G-H-10-2020-11-03,ga-house-general-district-010-2020-11-03,https://www.nytimes.com/interactive/2020/11/03/us/elections/results-georgia-house-district-10.html,https://www.nytimes.com/interactive/2020/11/03/us/elections/results-georgia.html,https://www.nytimes.com/interactive/2020/11/03/us/elections/ap-polls-georgia.html,https://www.nytimes.com/interactive/2020/11/03/us/elections/exit-polls-georgia.html,house,general,2020-11-03,FALSE,U.S. House District 10,U.S. House,H,solid-rep,10,District 10,GA,georgia,Georgia,Ga.,vertical,1.3,"",FALSE,TRUE,winner,AP,FALSE,"",378514,302620,25,unknown,Polls close at 7 p.m. Eastern time.,Polls close in,Polls have closed.,2020-11-04T00:00:00.000Z,7 p.m.,197,201,98% reporting,98%,94,404000,edison,94%,94% reported,edison,republican,FALSE,2020-11-20T14:22:43Z,TRUE,24.61362,93166,R+25,Hice +25,republican,"Because of the small margin between the candidates, the secretary of state authorized a hand recount of the presidential election in the state.","Because of the small margin between the candidates, the secretary of state authorized a hand recount of the presidential election in the state.",0,0,1604456222921
13189,McDuffie,10229,8809,9,9,Released as a separate subtotal as first report of the night,86,11863,86%,86% reported,edison,4,unknown,8941,6243,3986,5412,3397,2020-11-20T21:37:29Z,22.06472,R+22,Hice +22,republican,,,GA-G-H-10-2020-11-03,ga-house-general-district-010-2020-11-03,https://www.nytimes.com/interactive/2020/11/03/us/elections/results-georgia-house-district-10.html,https://www.nytimes.com/interactive/2020/11/03/us/elections/results-georgia.html,https://www.nytimes.com/interactive/2020/11/03/us/elections/ap-polls-georgia.html,https://www.nytimes.com/interactive/2020/11/03/us/elections/exit-polls-georgia.html,house,general,2020-11-03,FALSE,U.S. House District 10,U.S. House,H,solid-rep,10,District 10,GA,georgia,Georgia,Ga.,vertical,1.3,"",FALSE,TRUE,winner,AP,FALSE,"",378514,302620,25,unknown,Polls close at 7 p.m. Eastern time.,Polls close in,Polls have closed.,2020-11-04T00:00:00.000Z,7 p.m.,197,201,98% reporting,98%,94,404000,edison,94%,94% reported,edison,republican,FALSE,2020-11-20T14:22:43Z,TRUE,24.61362,93166,R+25,Hice +25,republican,"Because of the small margin between the candidates, the secretary of state authorized a hand recount of the presidential election in the state.","Because of the small margin between the candidates, the secretary of state authorized a hand recount of the presidential election in the state.",0,0,1604456222921
13211,Morgan,11476,9105,7,7,Merged into voters' home precincts and released with cumulative results,100,11458,>98%,>98% reported,edison,6,all,7670,8415,3061,6508,2597,2020-11-20T21:34:16Z,46.65389,R+47,Hice +47,republican,,,GA-G-H-10-2020-11-03,ga-house-general-district-010-2020-11-03,https://www.nytimes.com/interactive/2020/11/03/us/elections/results-georgia-house-district-10.html,https://www.nytimes.com/interactive/2020/11/03/us/elections/results-georgia.html,https://www.nytimes.com/interactive/2020/11/03/us/elections/ap-polls-georgia.html,https://www.nytimes.com/interactive/2020/11/03/us/elections/exit-polls-georgia.html,house,general,2020-11-03,FALSE,U.S. House District 10,U.S. House,H,solid-rep,10,District 10,GA,georgia,Georgia,Ga.,vertical,1.3,"",FALSE,TRUE,winner,AP,FALSE,"",378514,302620,25,unknown,Polls close at 7 p.m. Eastern time.,Polls close in,Polls have closed.,2020-11-04T00:00:00.000Z,7 p.m.,197,201,98% reporting,98%,94,404000,edison,94%,94% reported,edison,republican,FALSE,2020-11-20T14:22:43Z,TRUE,24.61362,93166,R+25,Hice +25,republican,"Because of the small margin between the candidates, the secretary of state authorized a hand recount of the presidential election in the state.","Because of the small margin between the candidates, the secretary of state authorized a hand recount of the presidential election in the state.",0,0,1604456222921
13217,Newton,12200,6136,8,8,None,93,13160,93%,93% reported,edison,4,unknown,40739,9130,3070,3968,2168,2020-11-20T21:33:24Z,49.67213,R+50,Hice +50,republican,,,GA-G-H-10-2020-11-03,ga-house-general-district-010-2020-11-03,https://www.nytimes.com/interactive/2020/11/03/us/elections/results-georgia-house-district-10.html,https://www.nytimes.com/interactive/2020/11/03/us/elections/results-georgia.html,https://www.nytimes.com/interactive/2020/11/03/us/elections/ap-polls-georgia.html,https://www.nytimes.com/interactive/2020/11/03/us/elections/exit-polls-georgia.html,house,general,2020-11-03,FALSE,U.S. House District 10,U.S. House,H,solid-rep,10,District 10,GA,georgia,Georgia,Ga.,vertical,1.3,"",FALSE,TRUE,winner,AP,FALSE,"",378514,302620,25,unknown,Polls close at 7 p.m. Eastern time.,Polls close in,Polls have closed.,2020-11-04T00:00:00.000Z,7 p.m.,197,201,98% reporting,98%,94,404000,edison,94%,94% reported,edison,republican,FALSE,2020-11-20T14:22:43Z,TRUE,24.61362,93166,R+25,Hice +25,republican,"Because of the small margin between the candidates, the secretary of state authorized a hand recount of the presidential election in the state.","Because of the small margin between the candidates, the secretary of state authorized a hand recount of the presidential election in the state.",0,0,1604456222921
13219,Oconee,24835,21386,12,12,Merged into voters' home precincts and released with cumulative results,100,24825,>98%,>98% reported,edison,6,unknown,16322,17644,7191,14832,6554,2020-11-20T21:33:08Z,42.08979,R+42,Hice +42,republican,,,GA-G-H-10-2020-11-03,ga-house-general-district-010-2020-11-03,https://www.nytimes.com/interactive/2020/11/03/us/elections/results-georgia-house-district-10.html,https://www.nytimes.com/interactive/2020/11/03/us/elections/results-georgia.html,https://www.nytimes.com/interactive/2020/11/03/us/elections/ap-polls-georgia.html,https://www.nytimes.com/interactive/2020/11/03/us/elections/exit-polls-georgia.html,house,general,2020-11-03,FALSE,U.S. House District 10,U.S. House,H,solid-rep,10,District 10,GA,georgia,Georgia,Ga.,vertical,1.3,"",FALSE,TRUE,winner,AP,FALSE,"",378514,302620,25,unknown,Polls close at 7 p.m. Eastern time.,Polls close in,Polls have closed.,2020-11-04T00:00:00.000Z,7 p.m.,197,201,98% reporting,98%,94,404000,edison,94%,94% reported,edison,republican,FALSE,2020-11-20T14:22:43Z,TRUE,24.61362,93166,R+25,Hice +25,republican,"Because of the small margin between the candidates, the secretary of state authorized a hand recount of the presidential election in the state.","Because of the small margin between the candidates, the secretary of state authorized a hand recount of the presidential election in the state.",0,0,1604456222921
13221,Oglethorpe,7905,6456,3,3,Merged into voters' home precincts and released with cumulative results,93,8518,93%,93% reported,edison,2,some,4622,5587,2318,4533,1923,2020-11-20T21:32:44Z,41.35357,R+41,Hice +41,republican,,,GA-G-H-10-2020-11-03,ga-house-general-district-010-2020-11-03,https://www.nytimes.com/interactive/2020/11/03/us/elections/results-georgia-house-district-10.html,https://www.nytimes.com/interactive/2020/11/03/us/elections/results-georgia.html,https://www.nytimes.com/interactive/2020/11/03/us/elections/ap-polls-georgia.html,https://www.nytimes.com/interactive/2020/11/03/us/elections/exit-polls-georgia.html,house,general,2020-11-03,FALSE,U.S. House District 10,U.S. House,H,solid-rep,10,District 10,GA,georgia,Georgia,Ga.,vertical,1.3,"",FALSE,TRUE,winner,AP,FALSE,"",378514,302620,25,unknown,Polls close at 7 p.m. Eastern time.,Polls close in,Polls have closed.,2020-11-04T00:00:00.000Z,7 p.m.,197,201,98% reporting,98%,94,404000,edison,94%,94% reported,edison,republican,FALSE,2020-11-20T14:22:43Z,TRUE,24.61362,93166,R+25,Hice +25,republican,"Because of the small margin between the candidates, the secretary of state authorized a hand recount of the presidential election in the state.","Because of the small margin between the candidates, the secretary of state authorized a hand recount of the presidential election in the state.",0,0,1604456222921
13237,Putnam,11615,9622,5,5,"As a precinct in the FIRST cumulative report, along with regular precincts",100,11295,>98%,>98% reported,edison,4,some,8776,8393,3222,6835,2787,2020-11-20T21:30:41Z,44.52002,R+45,Hice +45,republican,,,GA-G-H-10-2020-11-03,ga-house-general-district-010-2020-11-03,https://www.nytimes.com/interactive/2020/11/03/us/elections/results-georgia-house-district-10.html,https://www.nytimes.com/interactive/2020/11/03/us/elections/results-georgia.html,https://www.nytimes.com/interactive/2020/11/03/us/elections/ap-polls-georgia.html,https://www.nytimes.com/interactive/2020/11/03/us/elections/exit-polls-georgia.html,house,general,2020-11-03,FALSE,U.S. House District 10,U.S. House,H,solid-rep,10,District 10,GA,georgia,Georgia,Ga.,vertical,1.3,"",FALSE,TRUE,winner,AP,FALSE,"",378514,302620,25,unknown,Polls close at 7 p.m. Eastern time.,Polls close in,Polls have closed.,2020-11-04T00:00:00.000Z,7 p.m.,197,201,98% reporting,98%,94,404000,edison,94%,94% reported,edison,republican,FALSE,2020-11-20T14:22:43Z,TRUE,24.61362,93166,R+25,Hice +25,republican,"Because of the small margin between the candidates, the secretary of state authorized a hand recount of the presidential election in the state.","Because of the small margin between the candidates, the secretary of state authorized a hand recount of the presidential election in the state.",0,0,1604456222921
13265,Taliaferro,861,669,1,2,None,75,1148,75%,75% reported,edison,2,unknown,946,363,498,261,408,2020-11-20T21:24:28Z,15.67944,D+16,Johnson-Green +16,democrat,,,GA-G-H-10-2020-11-03,ga-house-general-district-010-2020-11-03,https://www.nytimes.com/interactive/2020/11/03/us/elections/results-georgia-house-district-10.html,https://www.nytimes.com/interactive/2020/11/03/us/elections/results-georgia.html,https://www.nytimes.com/interactive/2020/11/03/us/elections/ap-polls-georgia.html,https://www.nytimes.com/interactive/2020/11/03/us/elections/exit-polls-georgia.html,house,general,2020-11-03,FALSE,U.S. House District 10,U.S. House,H,solid-rep,10,District 10,GA,georgia,Georgia,Ga.,vertical,1.3,"",FALSE,TRUE,winner,AP,FALSE,"",378514,302620,25,unknown,Polls close at 7 p.m. Eastern time.,Polls close in,Polls have closed.,2020-11-04T00:00:00.000Z,7 p.m.,197,201,98% reporting,98%,94,404000,edison,94%,94% reported,edison,republican,FALSE,2020-11-20T14:22:43Z,TRUE,24.61362,93166,R+25,Hice +25,republican,"Because of the small margin between the candidates, the secretary of state authorized a hand recount of the presidential election in the state.","Because of the small margin between the candidates, the secretary of state authorized a hand recount of the presidential election in the state.",0,0,1604456222921
13297,Walton,50169,38834,21,21,Other,97,51804,97%,97% reported,edison,4,unknown,26750,38157,12012,28897,9937,2020-11-20T21:19:01Z,52.11386,R+52,Hice +52,republican,,,GA-G-H-10-2020-11-03,ga-house-general-district-010-2020-11-03,https://www.nytimes.com/interactive/2020/11/03/us/elections/results-georgia-house-district-10.html,https://www.nytimes.com/interactive/2020/11/03/us/elections/results-georgia.html,https://www.nytimes.com/interactive/2020/11/03/us/elections/ap-polls-georgia.html,https://www.nytimes.com/interactive/2020/11/03/us/elections/exit-polls-georgia.html,house,general,2020-11-03,FALSE,U.S. House District 10,U.S. House,H,solid-rep,10,District 10,GA,georgia,Georgia,Ga.,vertical,1.3,"",FALSE,TRUE,winner,AP,FALSE,"",378514,302620,25,unknown,Polls close at 7 p.m. Eastern time.,Polls close in,Polls have closed.,2020-11-04T00:00:00.000Z,7 p.m.,197,201,98% reporting,98%,94,404000,edison,94%,94% reported,edison,republican,FALSE,2020-11-20T14:22:43Z,TRUE,24.61362,93166,R+25,Hice +25,republican,"Because of the small margin between the candidates, the secretary of state authorized a hand recount of the presidential election in the state.","Because of the small margin between the candidates, the secretary of state authorized a hand recount of the presidential election in the state.",0,0,1604456222921
13301,Warren,2572,2092,1,1,Other,86,2986,86%,86% reported,edison,2,unknown,1914,1166,1406,977,1115,2020-11-20T23:10:29Z,9.33126,D+9,Johnson-Green +9,democrat,,,GA-G-H-10-2020-11-03,ga-house-general-district-010-2020-11-03,https://www.nytimes.com/interactive/2020/11/03/us/elections/results-georgia-house-district-10.html,https://www.nytimes.com/interactive/2020/11/03/us/elections/results-georgia.html,https://www.nytimes.com/interactive/2020/11/03/us/elections/ap-polls-georgia.html,https://www.nytimes.com/interactive/2020/11/03/us/elections/exit-polls-georgia.html,house,general,2020-11-03,FALSE,U.S. House District 10,U.S. House,H,solid-rep,10,District 10,GA,georgia,Georgia,Ga.,vertical,1.3,"",FALSE,TRUE,winner,AP,FALSE,"",378514,302620,25,unknown,Polls close at 7 p.m. Eastern time.,Polls close in,Polls have closed.,2020-11-04T00:00:00.000Z,7 p.m.,197,201,98% reporting,98%,94,404000,edison,94%,94% reported,edison,republican,FALSE,2020-11-20T14:22:43Z,TRUE,24.61362,93166,R+25,Hice +25,republican,"Because of the small margin between the candidates, the secretary of state authorized a hand recount of the presidential election in the state.","Because of the small margin between the candidates, the secretary of state authorized a hand recount of the presidential election in the state.",0,0,1604456222921
13303,Washington,9069,6611,8,8,None,100,9055,>98%,>98% reported,edison,6,unknown,6994,4538,4531,3127,3484,2020-11-20T21:16:52Z,0.07719,R+0.08,Hice +0.08,republican,,,GA-G-H-10-2020-11-03,ga-house-general-district-010-2020-11-03,https://www.nytimes.com/interactive/2020/11/03/us/elections/results-georgia-house-district-10.html,https://www.nytimes.com/interactive/2020/11/03/us/elections/results-georgia.html,https://www.nytimes.com/interactive/2020/11/03/us/elections/ap-polls-georgia.html,https://www.nytimes.com/interactive/2020/11/03/us/elections/exit-polls-georgia.html,house,general,2020-11-03,FALSE,U.S. House District 10,U.S. House,H,solid-rep,10,District 10,GA,georgia,Georgia,Ga.,vertical,1.3,"",FALSE,TRUE,winner,AP,FALSE,"",378514,302620,25,unknown,Polls close at 7 p.m. Eastern time.,Polls close in,Polls have closed.,2020-11-04T00:00:00.000Z,7 p.m.,197,201,98% reporting,98%,94,404000,edison,94%,94% reported,edison,republican,FALSE,2020-11-20T14:22:43Z,TRUE,24.61362,93166,R+25,Hice +25,republican,"Because of the small margin between the candidates, the secretary of state authorized a hand recount of the presidential election in the state.","Because of the small margin between the candidates, the secretary of state authorized a hand recount of the presidential election in the state.",0,0,1604456222921
13317,Wilkes,4852,3664,7,7,None,85,5731,85%,85% reported,edison,2,some,3725,2837,2015,2122,1542,2020-11-20T23:11:08Z,16.94147,R+17,Hice +17,republican,,,GA-G-H-10-2020-11-03,ga-house-general-district-010-2020-11-03,https://www.nytimes.com/interactive/2020/11/03/us/elections/results-georgia-house-district-10.html,https://www.nytimes.com/interactive/2020/11/03/us/elections/results-georgia.html,https://www.nytimes.com/interactive/2020/11/03/us/elections/ap-polls-georgia.html,https://www.nytimes.com/interactive/2020/11/03/us/elections/exit-polls-georgia.html,house,general,2020-11-03,FALSE,U.S. House District 10,U.S. House,H,solid-rep,10,District 10,GA,georgia,Georgia,Ga.,vertical,1.3,"",FALSE,TRUE,winner,AP,FALSE,"",378514,302620,25,unknown,Polls close at 7 p.m. Eastern time.,Polls close in,Polls have closed.,2020-11-04T00:00:00.000Z,7 p.m.,197,201,98% reporting,98%,94,404000,edison,94%,94% reported,edison,republican,FALSE,2020-11-20T14:22:43Z,TRUE,24.61362,93166,R+25,Hice +25,republican,"Because of the small margin between the candidates, the secretary of state authorized a hand recount of the presidential election in the state.","Because of the small margin between the candidates, the secretary of state authorized a hand recount of the presidential election in the state.",0,0,1604456222921
