fips,name,votes,absentee_votes,reporting,precincts,absentee_method,eevp,tot_exp_vote,eevp_value,eevp_display,eevp_source,turnout_stage,absentee_count_progress,absentee_max_ballots,results_scotta,results_hollidayl,results_absentee_scotta,results_absentee_hollidayl,last_updated,leader_margin_value,leader_margin_display,leader_margin_name_display,leader_party_id,results_write_ins,results_absentee_write_ins,race_id_race,race_slug_race,url_race,state_page_url_race,ap_polls_page_race,edison_exit_polls_page_race,race_type_race,election_type_race,election_date_race,runoff_race,race_name_race,office_race,officeid_race,race_rating_race,seat_race,seat_name_race,state_id_race,state_slug_race,state_name_race,state_nyt_abbrev_race,state_shape_race,state_aspect_ratio_race,party_id_race,uncontested_race,report_race,result_race,result_source_race,gain_race,lost_seat_race,votes_race,absentee_votes_race,absentee_counties_race,absentee_count_progress_race,poll_display_race,poll_countdown_display_race,poll_waiting_display_race,poll_time_race,poll_time_short_race,precincts_reporting_race,precincts_total_race,reporting_display_race,reporting_value_race,eevp_race,tot_exp_vote_race,eevp_source_race,eevp_value_race,eevp_display_race,county_data_source_race,incumbent_party_race,no_forecast_race,last_updated_race,has_incumbent_race,leader_margin_value_race,leader_margin_votes_race,leader_margin_display_race,leader_margin_name_display_race,leader_party_id_race,expectations_text_race,expectations_text_short_race,absentee_ballot_deadline_race,absentee_postmark_deadline_race,winner_called_timestamp_race
13003,Atkinson,2905,2020,4,4,None,87,3341,87%,87% reported,edison,2,unknown,2338,2201,704,1522,498,2020-11-20T21:19:47Z,51.53184,R+52,Scott +52,republican,,,GA-G-H-8-2020-11-03,ga-house-general-district-008-2020-11-03,https://www.nytimes.com/interactive/2020/11/03/us/elections/results-georgia-house-district-8.html,https://www.nytimes.com/interactive/2020/11/03/us/elections/results-georgia.html,https://www.nytimes.com/interactive/2020/11/03/us/elections/ap-polls-georgia.html,https://www.nytimes.com/interactive/2020/11/03/us/elections/exit-polls-georgia.html,house,general,2020-11-03,FALSE,U.S. House District 8,U.S. House,H,solid-rep,8,District 8,GA,georgia,Georgia,Ga.,vertical,1.3,"",FALSE,TRUE,winner,AP,FALSE,"",307985,232924,24,unknown,Polls close at 7 p.m. Eastern time.,Polls close in,Polls have closed.,2020-11-04T00:00:00.000Z,7 p.m.,205,207,99% reporting,99%,91,340000,edison,91%,91% reported,edison,republican,FALSE,2020-11-20T14:22:40Z,TRUE,29.03875,89435,R+29,Scott +29,republican,"Because of the small margin between the candidates, the secretary of state authorized a hand recount of the presidential election in the state.","Because of the small margin between the candidates, the secretary of state authorized a hand recount of the presidential election in the state.",0,0,1604456699154
13017,Ben Hill,6393,5627,3,3,Other,100,6393,>98%,>98% reported,edison,6,all,5778,4168,2225,3718,1909,2020-11-20T21:24:46Z,30.39262,R+30,Scott +30,republican,0,0,GA-G-H-8-2020-11-03,ga-house-general-district-008-2020-11-03,https://www.nytimes.com/interactive/2020/11/03/us/elections/results-georgia-house-district-8.html,https://www.nytimes.com/interactive/2020/11/03/us/elections/results-georgia.html,https://www.nytimes.com/interactive/2020/11/03/us/elections/ap-polls-georgia.html,https://www.nytimes.com/interactive/2020/11/03/us/elections/exit-polls-georgia.html,house,general,2020-11-03,FALSE,U.S. House District 8,U.S. House,H,solid-rep,8,District 8,GA,georgia,Georgia,Ga.,vertical,1.3,"",FALSE,TRUE,winner,AP,FALSE,"",307985,232924,24,unknown,Polls close at 7 p.m. Eastern time.,Polls close in,Polls have closed.,2020-11-04T00:00:00.000Z,7 p.m.,205,207,99% reporting,99%,91,340000,edison,91%,91% reported,edison,republican,FALSE,2020-11-20T14:22:40Z,TRUE,29.03875,89435,R+29,Scott +29,republican,"Because of the small margin between the candidates, the secretary of state authorized a hand recount of the presidential election in the state.","Because of the small margin between the candidates, the secretary of state authorized a hand recount of the presidential election in the state.",0,0,1604456699154
13019,Berrien,7496,5370,5,5,Released as a separate subtotal as first report of the night,89,8428,89%,89% reported,edison,2,unknown,4416,6349,1147,4531,839,2020-11-20T21:25:27Z,69.39701,R+69,Scott +69,republican,,,GA-G-H-8-2020-11-03,ga-house-general-district-008-2020-11-03,https://www.nytimes.com/interactive/2020/11/03/us/elections/results-georgia-house-district-8.html,https://www.nytimes.com/interactive/2020/11/03/us/elections/results-georgia.html,https://www.nytimes.com/interactive/2020/11/03/us/elections/ap-polls-georgia.html,https://www.nytimes.com/interactive/2020/11/03/us/elections/exit-polls-georgia.html,house,general,2020-11-03,FALSE,U.S. House District 8,U.S. House,H,solid-rep,8,District 8,GA,georgia,Georgia,Ga.,vertical,1.3,"",FALSE,TRUE,winner,AP,FALSE,"",307985,232924,24,unknown,Polls close at 7 p.m. Eastern time.,Polls close in,Polls have closed.,2020-11-04T00:00:00.000Z,7 p.m.,205,207,99% reporting,99%,91,340000,edison,91%,91% reported,edison,republican,FALSE,2020-11-20T14:22:40Z,TRUE,29.03875,89435,R+29,Scott +29,republican,"Because of the small margin between the candidates, the secretary of state authorized a hand recount of the presidential election in the state.","Because of the small margin between the candidates, the secretary of state authorized a hand recount of the presidential election in the state.",0,0,1604456699154
13021,Bibb,24590,19111,11,11,Released as a separate subtotal in the middle of the tabulation,89,27596,89%,89% reported,edison,4,unknown,38674,13588,11002,10122,8989,2020-11-20T21:26:15Z,10.51647,R+11,Scott +11,republican,,,GA-G-H-8-2020-11-03,ga-house-general-district-008-2020-11-03,https://www.nytimes.com/interactive/2020/11/03/us/elections/results-georgia-house-district-8.html,https://www.nytimes.com/interactive/2020/11/03/us/elections/results-georgia.html,https://www.nytimes.com/interactive/2020/11/03/us/elections/ap-polls-georgia.html,https://www.nytimes.com/interactive/2020/11/03/us/elections/exit-polls-georgia.html,house,general,2020-11-03,FALSE,U.S. House District 8,U.S. House,H,solid-rep,8,District 8,GA,georgia,Georgia,Ga.,vertical,1.3,"",FALSE,TRUE,winner,AP,FALSE,"",307985,232924,24,unknown,Polls close at 7 p.m. Eastern time.,Polls close in,Polls have closed.,2020-11-04T00:00:00.000Z,7 p.m.,205,207,99% reporting,99%,91,340000,edison,91%,91% reported,edison,republican,FALSE,2020-11-20T14:22:40Z,TRUE,29.03875,89435,R+29,Scott +29,republican,"Because of the small margin between the candidates, the secretary of state authorized a hand recount of the presidential election in the state.","Because of the small margin between the candidates, the secretary of state authorized a hand recount of the presidential election in the state.",0,0,1604456699154
13023,Bleckley,5588,4359,1,1,Merged into voters' home precincts and released with cumulative results,100,5437,>98%,>98% reported,edison,2,unknown,4032,4347,1241,3399,960,2020-11-20T21:27:16Z,55.58339,R+56,Scott +56,republican,,,GA-G-H-8-2020-11-03,ga-house-general-district-008-2020-11-03,https://www.nytimes.com/interactive/2020/11/03/us/elections/results-georgia-house-district-8.html,https://www.nytimes.com/interactive/2020/11/03/us/elections/results-georgia.html,https://www.nytimes.com/interactive/2020/11/03/us/elections/ap-polls-georgia.html,https://www.nytimes.com/interactive/2020/11/03/us/elections/exit-polls-georgia.html,house,general,2020-11-03,FALSE,U.S. House District 8,U.S. House,H,solid-rep,8,District 8,GA,georgia,Georgia,Ga.,vertical,1.3,"",FALSE,TRUE,winner,AP,FALSE,"",307985,232924,24,unknown,Polls close at 7 p.m. Eastern time.,Polls close in,Polls have closed.,2020-11-04T00:00:00.000Z,7 p.m.,205,207,99% reporting,99%,91,340000,edison,91%,91% reported,edison,republican,FALSE,2020-11-20T14:22:40Z,TRUE,29.03875,89435,R+29,Scott +29,republican,"Because of the small margin between the candidates, the secretary of state authorized a hand recount of the presidential election in the state.","Because of the small margin between the candidates, the secretary of state authorized a hand recount of the presidential election in the state.",0,0,1604456699154
13027,Brooks,6829,4943,7,7,Released as a precinct as first report of the night,100,6810,>98%,>98% reported,edison,6,all,5648,4227,2602,2828,2115,2020-11-20T21:28:58Z,23.79558,R+24,Scott +24,republican,,,GA-G-H-8-2020-11-03,ga-house-general-district-008-2020-11-03,https://www.nytimes.com/interactive/2020/11/03/us/elections/results-georgia-house-district-8.html,https://www.nytimes.com/interactive/2020/11/03/us/elections/results-georgia.html,https://www.nytimes.com/interactive/2020/11/03/us/elections/ap-polls-georgia.html,https://www.nytimes.com/interactive/2020/11/03/us/elections/exit-polls-georgia.html,house,general,2020-11-03,FALSE,U.S. House District 8,U.S. House,H,solid-rep,8,District 8,GA,georgia,Georgia,Ga.,vertical,1.3,"",FALSE,TRUE,winner,AP,FALSE,"",307985,232924,24,unknown,Polls close at 7 p.m. Eastern time.,Polls close in,Polls have closed.,2020-11-04T00:00:00.000Z,7 p.m.,205,207,99% reporting,99%,91,340000,edison,91%,91% reported,edison,republican,FALSE,2020-11-20T14:22:40Z,TRUE,29.03875,89435,R+29,Scott +29,republican,"Because of the small margin between the candidates, the secretary of state authorized a hand recount of the presidential election in the state.","Because of the small margin between the candidates, the secretary of state authorized a hand recount of the presidential election in the state.",0,0,1604456699154
13071,Colquitt,15623,10330,19,19,None,90,17409,90%,90% reported,edison,2,unknown,9626,11824,3799,7571,2759,2020-11-20T21:39:01Z,51.36657,R+51,Scott +51,republican,,,GA-G-H-8-2020-11-03,ga-house-general-district-008-2020-11-03,https://www.nytimes.com/interactive/2020/11/03/us/elections/results-georgia-house-district-8.html,https://www.nytimes.com/interactive/2020/11/03/us/elections/results-georgia.html,https://www.nytimes.com/interactive/2020/11/03/us/elections/ap-polls-georgia.html,https://www.nytimes.com/interactive/2020/11/03/us/elections/exit-polls-georgia.html,house,general,2020-11-03,FALSE,U.S. House District 8,U.S. House,H,solid-rep,8,District 8,GA,georgia,Georgia,Ga.,vertical,1.3,"",FALSE,TRUE,winner,AP,FALSE,"",307985,232924,24,unknown,Polls close at 7 p.m. Eastern time.,Polls close in,Polls have closed.,2020-11-04T00:00:00.000Z,7 p.m.,205,207,99% reporting,99%,91,340000,edison,91%,91% reported,edison,republican,FALSE,2020-11-20T14:22:40Z,TRUE,29.03875,89435,R+29,Scott +29,republican,"Because of the small margin between the candidates, the secretary of state authorized a hand recount of the presidential election in the state.","Because of the small margin between the candidates, the secretary of state authorized a hand recount of the presidential election in the state.",0,0,1604456699154
13075,Cook,6827,5203,8,8,Released as a separate subtotal as first report of the night,88,7732,88%,88% reported,edison,2,unknown,5070,4917,1910,3791,1412,2020-11-20T21:39:28Z,44.0457,R+44,Scott +44,republican,,,GA-G-H-8-2020-11-03,ga-house-general-district-008-2020-11-03,https://www.nytimes.com/interactive/2020/11/03/us/elections/results-georgia-house-district-8.html,https://www.nytimes.com/interactive/2020/11/03/us/elections/results-georgia.html,https://www.nytimes.com/interactive/2020/11/03/us/elections/ap-polls-georgia.html,https://www.nytimes.com/interactive/2020/11/03/us/elections/exit-polls-georgia.html,house,general,2020-11-03,FALSE,U.S. House District 8,U.S. House,H,solid-rep,8,District 8,GA,georgia,Georgia,Ga.,vertical,1.3,"",FALSE,TRUE,winner,AP,FALSE,"",307985,232924,24,unknown,Polls close at 7 p.m. Eastern time.,Polls close in,Polls have closed.,2020-11-04T00:00:00.000Z,7 p.m.,205,207,99% reporting,99%,91,340000,edison,91%,91% reported,edison,republican,FALSE,2020-11-20T14:22:40Z,TRUE,29.03875,89435,R+29,Scott +29,republican,"Because of the small margin between the candidates, the secretary of state authorized a hand recount of the presidential election in the state.","Because of the small margin between the candidates, the secretary of state authorized a hand recount of the presidential election in the state.",0,0,1604456699154
13091,Dodge,7790,4966,16,16,Released as a precinct as first report of the night,100,7785,>98%,>98% reported,edison,6,unknown,5826,5825,1965,3525,1441,2020-11-20T21:40:55Z,49.55071,R+50,Scott +50,republican,0,0,GA-G-H-8-2020-11-03,ga-house-general-district-008-2020-11-03,https://www.nytimes.com/interactive/2020/11/03/us/elections/results-georgia-house-district-8.html,https://www.nytimes.com/interactive/2020/11/03/us/elections/results-georgia.html,https://www.nytimes.com/interactive/2020/11/03/us/elections/ap-polls-georgia.html,https://www.nytimes.com/interactive/2020/11/03/us/elections/exit-polls-georgia.html,house,general,2020-11-03,FALSE,U.S. House District 8,U.S. House,H,solid-rep,8,District 8,GA,georgia,Georgia,Ga.,vertical,1.3,"",FALSE,TRUE,winner,AP,FALSE,"",307985,232924,24,unknown,Polls close at 7 p.m. Eastern time.,Polls close in,Polls have closed.,2020-11-04T00:00:00.000Z,7 p.m.,205,207,99% reporting,99%,91,340000,edison,91%,91% reported,edison,republican,FALSE,2020-11-20T14:22:40Z,TRUE,29.03875,89435,R+29,Scott +29,republican,"Because of the small margin between the candidates, the secretary of state authorized a hand recount of the presidential election in the state.","Because of the small margin between the candidates, the secretary of state authorized a hand recount of the presidential election in the state.",0,0,1604456699154
13153,Houston,73432,55290,16,16,Other,96,76472,96%,96% reported,edison,2,some,53598,42880,30552,30878,24412,2020-11-20T21:41:50Z,16.78832,R+17,Scott +17,republican,,,GA-G-H-8-2020-11-03,ga-house-general-district-008-2020-11-03,https://www.nytimes.com/interactive/2020/11/03/us/elections/results-georgia-house-district-8.html,https://www.nytimes.com/interactive/2020/11/03/us/elections/results-georgia.html,https://www.nytimes.com/interactive/2020/11/03/us/elections/ap-polls-georgia.html,https://www.nytimes.com/interactive/2020/11/03/us/elections/exit-polls-georgia.html,house,general,2020-11-03,FALSE,U.S. House District 8,U.S. House,H,solid-rep,8,District 8,GA,georgia,Georgia,Ga.,vertical,1.3,"",FALSE,TRUE,winner,AP,FALSE,"",307985,232924,24,unknown,Polls close at 7 p.m. Eastern time.,Polls close in,Polls have closed.,2020-11-04T00:00:00.000Z,7 p.m.,205,207,99% reporting,99%,91,340000,edison,91%,91% reported,edison,republican,FALSE,2020-11-20T14:22:40Z,TRUE,29.03875,89435,R+29,Scott +29,republican,"Because of the small margin between the candidates, the secretary of state authorized a hand recount of the presidential election in the state.","Because of the small margin between the candidates, the secretary of state authorized a hand recount of the presidential election in the state.",0,0,1604456699154
13155,Irwin,4091,3210,3,3,Released as a precinct as first report of the night,100,4091,>98%,>98% reported,edison,6,all,2670,3141,942,2497,713,2020-11-20T21:41:38Z,53.75214,R+54,Scott +54,republican,8,0,GA-G-H-8-2020-11-03,ga-house-general-district-008-2020-11-03,https://www.nytimes.com/interactive/2020/11/03/us/elections/results-georgia-house-district-8.html,https://www.nytimes.com/interactive/2020/11/03/us/elections/results-georgia.html,https://www.nytimes.com/interactive/2020/11/03/us/elections/ap-polls-georgia.html,https://www.nytimes.com/interactive/2020/11/03/us/elections/exit-polls-georgia.html,house,general,2020-11-03,FALSE,U.S. House District 8,U.S. House,H,solid-rep,8,District 8,GA,georgia,Georgia,Ga.,vertical,1.3,"",FALSE,TRUE,winner,AP,FALSE,"",307985,232924,24,unknown,Polls close at 7 p.m. Eastern time.,Polls close in,Polls have closed.,2020-11-04T00:00:00.000Z,7 p.m.,205,207,99% reporting,99%,91,340000,edison,91%,91% reported,edison,republican,FALSE,2020-11-20T14:22:40Z,TRUE,29.03875,89435,R+29,Scott +29,republican,"Because of the small margin between the candidates, the secretary of state authorized a hand recount of the presidential election in the state.","Because of the small margin between the candidates, the secretary of state authorized a hand recount of the presidential election in the state.",0,0,1604456699154
13169,Jones,14634,10812,10,10,Merged into voters' home precincts AFTER election night,100,14628,>98%,>98% reported,edison,6,some,10683,10031,4603,7017,3795,2020-11-20T21:39:55Z,37.0917,R+37,Scott +37,republican,,,GA-G-H-8-2020-11-03,ga-house-general-district-008-2020-11-03,https://www.nytimes.com/interactive/2020/11/03/us/elections/results-georgia-house-district-8.html,https://www.nytimes.com/interactive/2020/11/03/us/elections/results-georgia.html,https://www.nytimes.com/interactive/2020/11/03/us/elections/ap-polls-georgia.html,https://www.nytimes.com/interactive/2020/11/03/us/elections/exit-polls-georgia.html,house,general,2020-11-03,FALSE,U.S. House District 8,U.S. House,H,solid-rep,8,District 8,GA,georgia,Georgia,Ga.,vertical,1.3,"",FALSE,TRUE,winner,AP,FALSE,"",307985,232924,24,unknown,Polls close at 7 p.m. Eastern time.,Polls close in,Polls have closed.,2020-11-04T00:00:00.000Z,7 p.m.,205,207,99% reporting,99%,91,340000,edison,91%,91% reported,edison,republican,FALSE,2020-11-20T14:22:40Z,TRUE,29.03875,89435,R+29,Scott +29,republican,"Because of the small margin between the candidates, the secretary of state authorized a hand recount of the presidential election in the state.","Because of the small margin between the candidates, the secretary of state authorized a hand recount of the presidential election in the state.",0,0,1604456699154
13173,Lanier,3440,2783,1,1,Released separately AFTER election night,94,3665,94%,94% reported,edison,2,unknown,2618,2514,926,2041,742,2020-11-20T21:39:28Z,46.16279,R+46,Scott +46,republican,,,GA-G-H-8-2020-11-03,ga-house-general-district-008-2020-11-03,https://www.nytimes.com/interactive/2020/11/03/us/elections/results-georgia-house-district-8.html,https://www.nytimes.com/interactive/2020/11/03/us/elections/results-georgia.html,https://www.nytimes.com/interactive/2020/11/03/us/elections/ap-polls-georgia.html,https://www.nytimes.com/interactive/2020/11/03/us/elections/exit-polls-georgia.html,house,general,2020-11-03,FALSE,U.S. House District 8,U.S. House,H,solid-rep,8,District 8,GA,georgia,Georgia,Ga.,vertical,1.3,"",FALSE,TRUE,winner,AP,FALSE,"",307985,232924,24,unknown,Polls close at 7 p.m. Eastern time.,Polls close in,Polls have closed.,2020-11-04T00:00:00.000Z,7 p.m.,205,207,99% reporting,99%,91,340000,edison,91%,91% reported,edison,republican,FALSE,2020-11-20T14:22:40Z,TRUE,29.03875,89435,R+29,Scott +29,republican,"Because of the small margin between the candidates, the secretary of state authorized a hand recount of the presidential election in the state.","Because of the small margin between the candidates, the secretary of state authorized a hand recount of the presidential election in the state.",0,0,1604456699154
13185,Lowndes,43289,35163,12,12,Merged into voters' home precincts and released with cumulative results,94,46280,94%,94% reported,edison,2,unknown,37909,25068,18221,19796,15367,2020-11-20T21:37:56Z,15.81695,R+16,Scott +16,republican,,,GA-G-H-8-2020-11-03,ga-house-general-district-008-2020-11-03,https://www.nytimes.com/interactive/2020/11/03/us/elections/results-georgia-house-district-8.html,https://www.nytimes.com/interactive/2020/11/03/us/elections/results-georgia.html,https://www.nytimes.com/interactive/2020/11/03/us/elections/ap-polls-georgia.html,https://www.nytimes.com/interactive/2020/11/03/us/elections/exit-polls-georgia.html,house,general,2020-11-03,FALSE,U.S. House District 8,U.S. House,H,solid-rep,8,District 8,GA,georgia,Georgia,Ga.,vertical,1.3,"",FALSE,TRUE,winner,AP,FALSE,"",307985,232924,24,unknown,Polls close at 7 p.m. Eastern time.,Polls close in,Polls have closed.,2020-11-04T00:00:00.000Z,7 p.m.,205,207,99% reporting,99%,91,340000,edison,91%,91% reported,edison,republican,FALSE,2020-11-20T14:22:40Z,TRUE,29.03875,89435,R+29,Scott +29,republican,"Because of the small margin between the candidates, the secretary of state authorized a hand recount of the presidential election in the state.","Because of the small margin between the candidates, the secretary of state authorized a hand recount of the presidential election in the state.",0,0,1604456699154
13207,Monroe,15203,11463,14,14,Released as a separate subtotal as first report of the night,100,15195,>98%,>98% reported,edison,6,unknown,9966,11086,4117,8011,3452,2020-11-20T21:35:04Z,45.83964,R+46,Scott +46,republican,,,GA-G-H-8-2020-11-03,ga-house-general-district-008-2020-11-03,https://www.nytimes.com/interactive/2020/11/03/us/elections/results-georgia-house-district-8.html,https://www.nytimes.com/interactive/2020/11/03/us/elections/results-georgia.html,https://www.nytimes.com/interactive/2020/11/03/us/elections/ap-polls-georgia.html,https://www.nytimes.com/interactive/2020/11/03/us/elections/exit-polls-georgia.html,house,general,2020-11-03,FALSE,U.S. House District 8,U.S. House,H,solid-rep,8,District 8,GA,georgia,Georgia,Ga.,vertical,1.3,"",FALSE,TRUE,winner,AP,FALSE,"",307985,232924,24,unknown,Polls close at 7 p.m. Eastern time.,Polls close in,Polls have closed.,2020-11-04T00:00:00.000Z,7 p.m.,205,207,99% reporting,99%,91,340000,edison,91%,91% reported,edison,republican,FALSE,2020-11-20T14:22:40Z,TRUE,29.03875,89435,R+29,Scott +29,republican,"Because of the small margin between the candidates, the secretary of state authorized a hand recount of the presidential election in the state.","Because of the small margin between the candidates, the secretary of state authorized a hand recount of the presidential election in the state.",0,0,1604456699154
13235,Pulaski,3884,3400,1,1,None,98,3959,98%,98% reported,edison,2,some,3709,2804,1080,2470,930,2020-11-20T21:31:08Z,44.38723,R+44,Scott +44,republican,,,GA-G-H-8-2020-11-03,ga-house-general-district-008-2020-11-03,https://www.nytimes.com/interactive/2020/11/03/us/elections/results-georgia-house-district-8.html,https://www.nytimes.com/interactive/2020/11/03/us/elections/results-georgia.html,https://www.nytimes.com/interactive/2020/11/03/us/elections/ap-polls-georgia.html,https://www.nytimes.com/interactive/2020/11/03/us/elections/exit-polls-georgia.html,house,general,2020-11-03,FALSE,U.S. House District 8,U.S. House,H,solid-rep,8,District 8,GA,georgia,Georgia,Ga.,vertical,1.3,"",FALSE,TRUE,winner,AP,FALSE,"",307985,232924,24,unknown,Polls close at 7 p.m. Eastern time.,Polls close in,Polls have closed.,2020-11-04T00:00:00.000Z,7 p.m.,205,207,99% reporting,99%,91,340000,edison,91%,91% reported,edison,republican,FALSE,2020-11-20T14:22:40Z,TRUE,29.03875,89435,R+29,Scott +29,republican,"Because of the small margin between the candidates, the secretary of state authorized a hand recount of the presidential election in the state.","Because of the small margin between the candidates, the secretary of state authorized a hand recount of the presidential election in the state.",0,0,1604456699154
13271,Telfair,4118,2912,5,6,None,99,4175,>98%,>98% reported,edison,2,unknown,2662,2703,1415,1796,1116,2020-11-20T21:23:41Z,31.27732,R+31,Scott +31,republican,,,GA-G-H-8-2020-11-03,ga-house-general-district-008-2020-11-03,https://www.nytimes.com/interactive/2020/11/03/us/elections/results-georgia-house-district-8.html,https://www.nytimes.com/interactive/2020/11/03/us/elections/results-georgia.html,https://www.nytimes.com/interactive/2020/11/03/us/elections/ap-polls-georgia.html,https://www.nytimes.com/interactive/2020/11/03/us/elections/exit-polls-georgia.html,house,general,2020-11-03,FALSE,U.S. House District 8,U.S. House,H,solid-rep,8,District 8,GA,georgia,Georgia,Ga.,vertical,1.3,"",FALSE,TRUE,winner,AP,FALSE,"",307985,232924,24,unknown,Polls close at 7 p.m. Eastern time.,Polls close in,Polls have closed.,2020-11-04T00:00:00.000Z,7 p.m.,205,207,99% reporting,99%,91,340000,edison,91%,91% reported,edison,republican,FALSE,2020-11-20T14:22:40Z,TRUE,29.03875,89435,R+29,Scott +29,republican,"Because of the small margin between the candidates, the secretary of state authorized a hand recount of the presidential election in the state.","Because of the small margin between the candidates, the secretary of state authorized a hand recount of the presidential election in the state.",0,0,1604456699154
13275,Thomas,21124,17042,20,20,None,100,21105,>98%,>98% reported,edison,6,unknown,17408,13121,8003,10414,6628,2020-11-20T21:22:58Z,24.22837,R+24,Scott +24,republican,,,GA-G-H-8-2020-11-03,ga-house-general-district-008-2020-11-03,https://www.nytimes.com/interactive/2020/11/03/us/elections/results-georgia-house-district-8.html,https://www.nytimes.com/interactive/2020/11/03/us/elections/results-georgia.html,https://www.nytimes.com/interactive/2020/11/03/us/elections/ap-polls-georgia.html,https://www.nytimes.com/interactive/2020/11/03/us/elections/exit-polls-georgia.html,house,general,2020-11-03,FALSE,U.S. House District 8,U.S. House,H,solid-rep,8,District 8,GA,georgia,Georgia,Ga.,vertical,1.3,"",FALSE,TRUE,winner,AP,FALSE,"",307985,232924,24,unknown,Polls close at 7 p.m. Eastern time.,Polls close in,Polls have closed.,2020-11-04T00:00:00.000Z,7 p.m.,205,207,99% reporting,99%,91,340000,edison,91%,91% reported,edison,republican,FALSE,2020-11-20T14:22:40Z,TRUE,29.03875,89435,R+29,Scott +29,republican,"Because of the small margin between the candidates, the secretary of state authorized a hand recount of the presidential election in the state.","Because of the small margin between the candidates, the secretary of state authorized a hand recount of the presidential election in the state.",0,0,1604456699154
13277,Tift,15928,12102,12,12,Released as a precinct as first report of the night,100,15592,>98%,>98% reported,edison,2,all,12083,11267,4645,8452,3635,2020-11-20T01:48:17Z,41.57459,R+42,Scott +42,republican,16,15,GA-G-H-8-2020-11-03,ga-house-general-district-008-2020-11-03,https://www.nytimes.com/interactive/2020/11/03/us/elections/results-georgia-house-district-8.html,https://www.nytimes.com/interactive/2020/11/03/us/elections/results-georgia.html,https://www.nytimes.com/interactive/2020/11/03/us/elections/ap-polls-georgia.html,https://www.nytimes.com/interactive/2020/11/03/us/elections/exit-polls-georgia.html,house,general,2020-11-03,FALSE,U.S. House District 8,U.S. House,H,solid-rep,8,District 8,GA,georgia,Georgia,Ga.,vertical,1.3,"",FALSE,TRUE,winner,AP,FALSE,"",307985,232924,24,unknown,Polls close at 7 p.m. Eastern time.,Polls close in,Polls have closed.,2020-11-04T00:00:00.000Z,7 p.m.,205,207,99% reporting,99%,91,340000,edison,91%,91% reported,edison,republican,FALSE,2020-11-20T14:22:40Z,TRUE,29.03875,89435,R+29,Scott +29,republican,"Because of the small margin between the candidates, the secretary of state authorized a hand recount of the presidential election in the state.","Because of the small margin between the candidates, the secretary of state authorized a hand recount of the presidential election in the state.",0,0,1604456699154
13287,Turner,3712,3012,3,3,None,100,3710,>98%,>98% reported,edison,6,all,3227,2468,1244,2070,942,2020-11-20T21:21:14Z,32.97414,R+33,Scott +33,republican,,,GA-G-H-8-2020-11-03,ga-house-general-district-008-2020-11-03,https://www.nytimes.com/interactive/2020/11/03/us/elections/results-georgia-house-district-8.html,https://www.nytimes.com/interactive/2020/11/03/us/elections/results-georgia.html,https://www.nytimes.com/interactive/2020/11/03/us/elections/ap-polls-georgia.html,https://www.nytimes.com/interactive/2020/11/03/us/elections/exit-polls-georgia.html,house,general,2020-11-03,FALSE,U.S. House District 8,U.S. House,H,solid-rep,8,District 8,GA,georgia,Georgia,Ga.,vertical,1.3,"",FALSE,TRUE,winner,AP,FALSE,"",307985,232924,24,unknown,Polls close at 7 p.m. Eastern time.,Polls close in,Polls have closed.,2020-11-04T00:00:00.000Z,7 p.m.,205,207,99% reporting,99%,91,340000,edison,91%,91% reported,edison,republican,FALSE,2020-11-20T14:22:40Z,TRUE,29.03875,89435,R+29,Scott +29,republican,"Because of the small margin between the candidates, the secretary of state authorized a hand recount of the presidential election in the state.","Because of the small margin between the candidates, the secretary of state authorized a hand recount of the presidential election in the state.",0,0,1604456699154
13289,Twiggs,4255,3031,4,5,Released as a precinct as first report of the night,82,5192,82%,82% reported,edison,2,unknown,2886,2309,1946,1504,1527,2020-11-20T21:21:02Z,8.53114,R+9,Scott +9,republican,,,GA-G-H-8-2020-11-03,ga-house-general-district-008-2020-11-03,https://www.nytimes.com/interactive/2020/11/03/us/elections/results-georgia-house-district-8.html,https://www.nytimes.com/interactive/2020/11/03/us/elections/results-georgia.html,https://www.nytimes.com/interactive/2020/11/03/us/elections/ap-polls-georgia.html,https://www.nytimes.com/interactive/2020/11/03/us/elections/exit-polls-georgia.html,house,general,2020-11-03,FALSE,U.S. House District 8,U.S. House,H,solid-rep,8,District 8,GA,georgia,Georgia,Ga.,vertical,1.3,"",FALSE,TRUE,winner,AP,FALSE,"",307985,232924,24,unknown,Polls close at 7 p.m. Eastern time.,Polls close in,Polls have closed.,2020-11-04T00:00:00.000Z,7 p.m.,205,207,99% reporting,99%,91,340000,edison,91%,91% reported,edison,republican,FALSE,2020-11-20T14:22:40Z,TRUE,29.03875,89435,R+29,Scott +29,republican,"Because of the small margin between the candidates, the secretary of state authorized a hand recount of the presidential election in the state.","Because of the small margin between the candidates, the secretary of state authorized a hand recount of the presidential election in the state.",0,0,1604456699154
13315,Wilcox,3183,2186,6,6,None,97,3270,97%,97% reported,edison,2,unknown,2054,2383,800,1652,534,2020-11-20T21:14:14Z,49.73296,R+50,Scott +50,republican,,,GA-G-H-8-2020-11-03,ga-house-general-district-008-2020-11-03,https://www.nytimes.com/interactive/2020/11/03/us/elections/results-georgia-house-district-8.html,https://www.nytimes.com/interactive/2020/11/03/us/elections/results-georgia.html,https://www.nytimes.com/interactive/2020/11/03/us/elections/ap-polls-georgia.html,https://www.nytimes.com/interactive/2020/11/03/us/elections/exit-polls-georgia.html,house,general,2020-11-03,FALSE,U.S. House District 8,U.S. House,H,solid-rep,8,District 8,GA,georgia,Georgia,Ga.,vertical,1.3,"",FALSE,TRUE,winner,AP,FALSE,"",307985,232924,24,unknown,Polls close at 7 p.m. Eastern time.,Polls close in,Polls have closed.,2020-11-04T00:00:00.000Z,7 p.m.,205,207,99% reporting,99%,91,340000,edison,91%,91% reported,edison,republican,FALSE,2020-11-20T14:22:40Z,TRUE,29.03875,89435,R+29,Scott +29,republican,"Because of the small margin between the candidates, the secretary of state authorized a hand recount of the presidential election in the state.","Because of the small margin between the candidates, the secretary of state authorized a hand recount of the presidential election in the state.",0,0,1604456699154
13319,Wilkinson,4602,2831,9,9,Released as a separate subtotal as first report of the night,84,5476,84%,84% reported,edison,2,unknown,2746,2651,1951,1372,1459,2020-11-20T21:11:29Z,15.21078,R+15,Scott +15,republican,,,GA-G-H-8-2020-11-03,ga-house-general-district-008-2020-11-03,https://www.nytimes.com/interactive/2020/11/03/us/elections/results-georgia-house-district-8.html,https://www.nytimes.com/interactive/2020/11/03/us/elections/results-georgia.html,https://www.nytimes.com/interactive/2020/11/03/us/elections/ap-polls-georgia.html,https://www.nytimes.com/interactive/2020/11/03/us/elections/exit-polls-georgia.html,house,general,2020-11-03,FALSE,U.S. House District 8,U.S. House,H,solid-rep,8,District 8,GA,georgia,Georgia,Ga.,vertical,1.3,"",FALSE,TRUE,winner,AP,FALSE,"",307985,232924,24,unknown,Polls close at 7 p.m. Eastern time.,Polls close in,Polls have closed.,2020-11-04T00:00:00.000Z,7 p.m.,205,207,99% reporting,99%,91,340000,edison,91%,91% reported,edison,republican,FALSE,2020-11-20T14:22:40Z,TRUE,29.03875,89435,R+29,Scott +29,republican,"Because of the small margin between the candidates, the secretary of state authorized a hand recount of the presidential election in the state.","Because of the small margin between the candidates, the secretary of state authorized a hand recount of the presidential election in the state.",0,0,1604456699154
13321,Worth,9049,5756,15,15,None,99,9107,>98%,>98% reported,edison,2,unknown,5098,6826,2223,4074,1682,2020-11-20T23:11:20Z,50.8675,R+51,Scott +51,republican,,,GA-G-H-8-2020-11-03,ga-house-general-district-008-2020-11-03,https://www.nytimes.com/interactive/2020/11/03/us/elections/results-georgia-house-district-8.html,https://www.nytimes.com/interactive/2020/11/03/us/elections/results-georgia.html,https://www.nytimes.com/interactive/2020/11/03/us/elections/ap-polls-georgia.html,https://www.nytimes.com/interactive/2020/11/03/us/elections/exit-polls-georgia.html,house,general,2020-11-03,FALSE,U.S. House District 8,U.S. House,H,solid-rep,8,District 8,GA,georgia,Georgia,Ga.,vertical,1.3,"",FALSE,TRUE,winner,AP,FALSE,"",307985,232924,24,unknown,Polls close at 7 p.m. Eastern time.,Polls close in,Polls have closed.,2020-11-04T00:00:00.000Z,7 p.m.,205,207,99% reporting,99%,91,340000,edison,91%,91% reported,edison,republican,FALSE,2020-11-20T14:22:40Z,TRUE,29.03875,89435,R+29,Scott +29,republican,"Because of the small margin between the candidates, the secretary of state authorized a hand recount of the presidential election in the state.","Because of the small margin between the candidates, the secretary of state authorized a hand recount of the presidential election in the state.",0,0,1604456699154
