fips,name,votes,absentee_votes,reporting,precincts,absentee_method,eevp,tot_exp_vote,eevp_value,eevp_display,eevp_source,turnout_stage,absentee_count_progress,absentee_max_ballots,results_millerm,results_weavere,results_absentee_millerm,results_absentee_weavere,last_updated,leader_margin_value,leader_margin_display,leader_margin_name_display,leader_party_id,race_id_race,race_slug_race,url_race,state_page_url_race,ap_polls_page_race,race_type_race,election_type_race,election_date_race,runoff_race,race_name_race,office_race,officeid_race,race_rating_race,seat_race,seat_name_race,state_id_race,state_slug_race,state_name_race,state_nyt_abbrev_race,state_shape_race,state_aspect_ratio_race,party_id_race,uncontested_race,report_race,result_race,result_source_race,gain_race,lost_seat_race,votes_race,absentee_votes_race,absentee_counties_race,absentee_count_progress_race,poll_display_race,poll_countdown_display_race,poll_waiting_display_race,poll_time_race,poll_time_short_race,precincts_reporting_race,precincts_total_race,reporting_display_race,reporting_value_race,eevp_race,tot_exp_vote_race,eevp_source_race,eevp_value_race,eevp_display_race,county_data_source_race,incumbent_party_race,no_forecast_race,last_updated_race,has_incumbent_race,leader_margin_value_race,leader_margin_votes_race,leader_margin_display_race,leader_margin_name_display_race,leader_party_id_race,expectations_text_race,expectations_text_short_race,absentee_ballot_deadline_race,absentee_postmark_deadline_race,winner_called_timestamp_race
17005,Bond,5641,0,17,18,Released as a precinct at the end of tabulation,100,4131,>98%,>98% reported,edison,6,unknown,2398,3890,1751,0,0,2020-11-16T15:48:08Z,37.91881,R+38,Miller +38,republican,IL-G-H-15-2020-11-03,il-house-general-district-015-2020-11-03,https://www.nytimes.com/interactive/2020/11/03/us/elections/results-illinois-house-district-15.html,https://www.nytimes.com/interactive/2020/11/03/us/elections/results-illinois.html,https://www.nytimes.com/interactive/2020/11/03/us/elections/ap-polls-illinois.html,house,general,2020-11-03,FALSE,U.S. House District 15,U.S. House,H,solid-rep,15,District 15,IL,illinois,Illinois,Ill.,vertical,0.9,"",FALSE,TRUE,winner,AP,FALSE,"",322360,14855,2,unknown,Polls close at 8 p.m. Eastern time.,Polls close in,Polls have closed.,2020-11-04T01:00:00.000Z,8 p.m.,703,789,89% reporting,89%,90,359000,edison,90%,90% reported,edison,republican,FALSE,2020-11-20T14:22:07Z,FALSE,43.29011,139550,R+43,Miller +43,republican,Mail ballots postmarked by Election Day have two weeks to arrive in the mail. The state's election board will post the number of unreturned mail ballots on its website.,Mail ballots postmarked by Election Day have two weeks to arrive in the mail.,14,0,1604463077372
17019,Champaign,25269,14620,29,30,None,98,25750,98%,98% reported,edison,4,some,23782,16912,8357,8568,6052,2020-11-16T15:48:00Z,33.85571,R+34,Miller +34,republican,IL-G-H-15-2020-11-03,il-house-general-district-015-2020-11-03,https://www.nytimes.com/interactive/2020/11/03/us/elections/results-illinois-house-district-15.html,https://www.nytimes.com/interactive/2020/11/03/us/elections/results-illinois.html,https://www.nytimes.com/interactive/2020/11/03/us/elections/ap-polls-illinois.html,house,general,2020-11-03,FALSE,U.S. House District 15,U.S. House,H,solid-rep,15,District 15,IL,illinois,Illinois,Ill.,vertical,0.9,"",FALSE,TRUE,winner,AP,FALSE,"",322360,14855,2,unknown,Polls close at 8 p.m. Eastern time.,Polls close in,Polls have closed.,2020-11-04T01:00:00.000Z,8 p.m.,703,789,89% reporting,89%,90,359000,edison,90%,90% reported,edison,republican,FALSE,2020-11-20T14:22:07Z,FALSE,43.29011,139550,R+43,Miller +43,republican,Mail ballots postmarked by Election Day have two weeks to arrive in the mail. The state's election board will post the number of unreturned mail ballots on its website.,Mail ballots postmarked by Election Day have two weeks to arrive in the mail.,14,0,1604463077372
17023,Clark,8257,0,22,23,Released as a separate subtotal in the middle of the tabulation,94,8764,94%,94% reported,edison,4,some,2598,6278,1979,0,0,2020-11-16T15:48:01Z,52.06491,R+52,Miller +52,republican,IL-G-H-15-2020-11-03,il-house-general-district-015-2020-11-03,https://www.nytimes.com/interactive/2020/11/03/us/elections/results-illinois-house-district-15.html,https://www.nytimes.com/interactive/2020/11/03/us/elections/results-illinois.html,https://www.nytimes.com/interactive/2020/11/03/us/elections/ap-polls-illinois.html,house,general,2020-11-03,FALSE,U.S. House District 15,U.S. House,H,solid-rep,15,District 15,IL,illinois,Illinois,Ill.,vertical,0.9,"",FALSE,TRUE,winner,AP,FALSE,"",322360,14855,2,unknown,Polls close at 8 p.m. Eastern time.,Polls close in,Polls have closed.,2020-11-04T01:00:00.000Z,8 p.m.,703,789,89% reporting,89%,90,359000,edison,90%,90% reported,edison,republican,FALSE,2020-11-20T14:22:07Z,FALSE,43.29011,139550,R+43,Miller +43,republican,Mail ballots postmarked by Election Day have two weeks to arrive in the mail. The state's election board will post the number of unreturned mail ballots on its website.,Mail ballots postmarked by Election Day have two weeks to arrive in the mail.,14,0,1604463077372
17025,Clay,6492,0,20,22,Merged into voters' home precincts and released with cumulative results,92,7054,92%,92% reported,edison,4,some,965,5329,1163,0,0,2020-11-16T15:48:09Z,64.17129,R+64,Miller +64,republican,IL-G-H-15-2020-11-03,il-house-general-district-015-2020-11-03,https://www.nytimes.com/interactive/2020/11/03/us/elections/results-illinois-house-district-15.html,https://www.nytimes.com/interactive/2020/11/03/us/elections/results-illinois.html,https://www.nytimes.com/interactive/2020/11/03/us/elections/ap-polls-illinois.html,house,general,2020-11-03,FALSE,U.S. House District 15,U.S. House,H,solid-rep,15,District 15,IL,illinois,Illinois,Ill.,vertical,0.9,"",FALSE,TRUE,winner,AP,FALSE,"",322360,14855,2,unknown,Polls close at 8 p.m. Eastern time.,Polls close in,Polls have closed.,2020-11-04T01:00:00.000Z,8 p.m.,703,789,89% reporting,89%,90,359000,edison,90%,90% reported,edison,republican,FALSE,2020-11-20T14:22:07Z,FALSE,43.29011,139550,R+43,Miller +43,republican,Mail ballots postmarked by Election Day have two weeks to arrive in the mail. The state's election board will post the number of unreturned mail ballots on its website.,Mail ballots postmarked by Election Day have two weeks to arrive in the mail.,14,0,1604463077372
17027,Clinton,11112,0,23,40,Released as a precinct at the end of tabulation,57,19370,57%,57% reported,edison,4,unknown,3803,1992,9120,0,0,2020-11-16T15:48:09Z,64.14687,D+64,Weaver +64,democrat,IL-G-H-15-2020-11-03,il-house-general-district-015-2020-11-03,https://www.nytimes.com/interactive/2020/11/03/us/elections/results-illinois-house-district-15.html,https://www.nytimes.com/interactive/2020/11/03/us/elections/results-illinois.html,https://www.nytimes.com/interactive/2020/11/03/us/elections/ap-polls-illinois.html,house,general,2020-11-03,FALSE,U.S. House District 15,U.S. House,H,solid-rep,15,District 15,IL,illinois,Illinois,Ill.,vertical,0.9,"",FALSE,TRUE,winner,AP,FALSE,"",322360,14855,2,unknown,Polls close at 8 p.m. Eastern time.,Polls close in,Polls have closed.,2020-11-04T01:00:00.000Z,8 p.m.,703,789,89% reporting,89%,90,359000,edison,90%,90% reported,edison,republican,FALSE,2020-11-20T14:22:07Z,FALSE,43.29011,139550,R+43,Miller +43,republican,Mail ballots postmarked by Election Day have two weeks to arrive in the mail. The state's election board will post the number of unreturned mail ballots on its website.,Mail ballots postmarked by Election Day have two weeks to arrive in the mail.,14,0,1604463077372
17029,Coles,20533,0,37,44,None,85,24219,85%,85% reported,edison,4,some,6758,12657,7876,0,0,2020-11-16T15:48:01Z,23.28447,R+23,Miller +23,republican,IL-G-H-15-2020-11-03,il-house-general-district-015-2020-11-03,https://www.nytimes.com/interactive/2020/11/03/us/elections/results-illinois-house-district-15.html,https://www.nytimes.com/interactive/2020/11/03/us/elections/results-illinois.html,https://www.nytimes.com/interactive/2020/11/03/us/elections/ap-polls-illinois.html,house,general,2020-11-03,FALSE,U.S. House District 15,U.S. House,H,solid-rep,15,District 15,IL,illinois,Illinois,Ill.,vertical,0.9,"",FALSE,TRUE,winner,AP,FALSE,"",322360,14855,2,unknown,Polls close at 8 p.m. Eastern time.,Polls close in,Polls have closed.,2020-11-04T01:00:00.000Z,8 p.m.,703,789,89% reporting,89%,90,359000,edison,90%,90% reported,edison,republican,FALSE,2020-11-20T14:22:07Z,FALSE,43.29011,139550,R+43,Miller +43,republican,Mail ballots postmarked by Election Day have two weeks to arrive in the mail. The state's election board will post the number of unreturned mail ballots on its website.,Mail ballots postmarked by Election Day have two weeks to arrive in the mail.,14,0,1604463077372
17033,Crawford,9285,0,23,24,None,96,9700,96%,96% reported,edison,4,some,2307,7017,2268,0,0,2020-11-16T15:48:02Z,51.14701,R+51,Miller +51,republican,IL-G-H-15-2020-11-03,il-house-general-district-015-2020-11-03,https://www.nytimes.com/interactive/2020/11/03/us/elections/results-illinois-house-district-15.html,https://www.nytimes.com/interactive/2020/11/03/us/elections/results-illinois.html,https://www.nytimes.com/interactive/2020/11/03/us/elections/ap-polls-illinois.html,house,general,2020-11-03,FALSE,U.S. House District 15,U.S. House,H,solid-rep,15,District 15,IL,illinois,Illinois,Ill.,vertical,0.9,"",FALSE,TRUE,winner,AP,FALSE,"",322360,14855,2,unknown,Polls close at 8 p.m. Eastern time.,Polls close in,Polls have closed.,2020-11-04T01:00:00.000Z,8 p.m.,703,789,89% reporting,89%,90,359000,edison,90%,90% reported,edison,republican,FALSE,2020-11-20T14:22:07Z,FALSE,43.29011,139550,R+43,Miller +43,republican,Mail ballots postmarked by Election Day have two weeks to arrive in the mail. The state's election board will post the number of unreturned mail ballots on its website.,Mail ballots postmarked by Election Day have two weeks to arrive in the mail.,14,0,1604463077372
17035,Cumberland,5767,0,11,12,Released as a separate subtotal at the end of tabulation,93,6185,93%,93% reported,edison,2,unknown,741,4537,1230,0,0,2020-11-16T15:48:02Z,57.34351,R+57,Miller +57,republican,IL-G-H-15-2020-11-03,il-house-general-district-015-2020-11-03,https://www.nytimes.com/interactive/2020/11/03/us/elections/results-illinois-house-district-15.html,https://www.nytimes.com/interactive/2020/11/03/us/elections/results-illinois.html,https://www.nytimes.com/interactive/2020/11/03/us/elections/ap-polls-illinois.html,house,general,2020-11-03,FALSE,U.S. House District 15,U.S. House,H,solid-rep,15,District 15,IL,illinois,Illinois,Ill.,vertical,0.9,"",FALSE,TRUE,winner,AP,FALSE,"",322360,14855,2,unknown,Polls close at 8 p.m. Eastern time.,Polls close in,Polls have closed.,2020-11-04T01:00:00.000Z,8 p.m.,703,789,89% reporting,89%,90,359000,edison,90%,90% reported,edison,republican,FALSE,2020-11-20T14:22:07Z,FALSE,43.29011,139550,R+43,Miller +43,republican,Mail ballots postmarked by Election Day have two weeks to arrive in the mail. The state's election board will post the number of unreturned mail ballots on its website.,Mail ballots postmarked by Election Day have two weeks to arrive in the mail.,14,0,1604463077372
17041,Douglas,8624,0,16,17,Merged into voters' home precincts and released with cumulative results,95,9071,95%,95% reported,edison,2,unknown,1744,6405,2219,0,0,2020-11-16T15:48:02Z,48.53896,R+49,Miller +49,republican,IL-G-H-15-2020-11-03,il-house-general-district-015-2020-11-03,https://www.nytimes.com/interactive/2020/11/03/us/elections/results-illinois-house-district-15.html,https://www.nytimes.com/interactive/2020/11/03/us/elections/results-illinois.html,https://www.nytimes.com/interactive/2020/11/03/us/elections/ap-polls-illinois.html,house,general,2020-11-03,FALSE,U.S. House District 15,U.S. House,H,solid-rep,15,District 15,IL,illinois,Illinois,Ill.,vertical,0.9,"",FALSE,TRUE,winner,AP,FALSE,"",322360,14855,2,unknown,Polls close at 8 p.m. Eastern time.,Polls close in,Polls have closed.,2020-11-04T01:00:00.000Z,8 p.m.,703,789,89% reporting,89%,90,359000,edison,90%,90% reported,edison,republican,FALSE,2020-11-20T14:22:07Z,FALSE,43.29011,139550,R+43,Miller +43,republican,Mail ballots postmarked by Election Day have two weeks to arrive in the mail. The state's election board will post the number of unreturned mail ballots on its website.,Mail ballots postmarked by Election Day have two weeks to arrive in the mail.,14,0,1604463077372
17045,Edgar,8013,0,28,31,Merged into voters' home precincts and released with cumulative results,92,8753,92%,92% reported,edison,4,all,2528,6114,1899,0,0,2020-11-16T15:48:03Z,52.60202,R+53,Miller +53,republican,IL-G-H-15-2020-11-03,il-house-general-district-015-2020-11-03,https://www.nytimes.com/interactive/2020/11/03/us/elections/results-illinois-house-district-15.html,https://www.nytimes.com/interactive/2020/11/03/us/elections/results-illinois.html,https://www.nytimes.com/interactive/2020/11/03/us/elections/ap-polls-illinois.html,house,general,2020-11-03,FALSE,U.S. House District 15,U.S. House,H,solid-rep,15,District 15,IL,illinois,Illinois,Ill.,vertical,0.9,"",FALSE,TRUE,winner,AP,FALSE,"",322360,14855,2,unknown,Polls close at 8 p.m. Eastern time.,Polls close in,Polls have closed.,2020-11-04T01:00:00.000Z,8 p.m.,703,789,89% reporting,89%,90,359000,edison,90%,90% reported,edison,republican,FALSE,2020-11-20T14:22:07Z,FALSE,43.29011,139550,R+43,Miller +43,republican,Mail ballots postmarked by Election Day have two weeks to arrive in the mail. The state's election board will post the number of unreturned mail ballots on its website.,Mail ballots postmarked by Election Day have two weeks to arrive in the mail.,14,0,1604463077372
17047,Edwards,3201,0,10,12,Merged into voters' home precincts and released with cumulative results,86,3713,86%,86% reported,edison,4,all,874,2743,458,0,0,2020-11-16T15:48:03Z,71.38394,R+71,Miller +71,republican,IL-G-H-15-2020-11-03,il-house-general-district-015-2020-11-03,https://www.nytimes.com/interactive/2020/11/03/us/elections/results-illinois-house-district-15.html,https://www.nytimes.com/interactive/2020/11/03/us/elections/results-illinois.html,https://www.nytimes.com/interactive/2020/11/03/us/elections/ap-polls-illinois.html,house,general,2020-11-03,FALSE,U.S. House District 15,U.S. House,H,solid-rep,15,District 15,IL,illinois,Illinois,Ill.,vertical,0.9,"",FALSE,TRUE,winner,AP,FALSE,"",322360,14855,2,unknown,Polls close at 8 p.m. Eastern time.,Polls close in,Polls have closed.,2020-11-04T01:00:00.000Z,8 p.m.,703,789,89% reporting,89%,90,359000,edison,90%,90% reported,edison,republican,FALSE,2020-11-20T14:22:07Z,FALSE,43.29011,139550,R+43,Miller +43,republican,Mail ballots postmarked by Election Day have two weeks to arrive in the mail. The state's election board will post the number of unreturned mail ballots on its website.,Mail ballots postmarked by Election Day have two weeks to arrive in the mail.,14,0,1604463077372
17049,Effingham,18420,0,35,37,Merged into voters' home precincts and released with cumulative results,94,19557,94%,94% reported,edison,4,all,5338,14847,3573,0,0,2020-11-16T15:48:10Z,61.20521,R+61,Miller +61,republican,IL-G-H-15-2020-11-03,il-house-general-district-015-2020-11-03,https://www.nytimes.com/interactive/2020/11/03/us/elections/results-illinois-house-district-15.html,https://www.nytimes.com/interactive/2020/11/03/us/elections/results-illinois.html,https://www.nytimes.com/interactive/2020/11/03/us/elections/ap-polls-illinois.html,house,general,2020-11-03,FALSE,U.S. House District 15,U.S. House,H,solid-rep,15,District 15,IL,illinois,Illinois,Ill.,vertical,0.9,"",FALSE,TRUE,winner,AP,FALSE,"",322360,14855,2,unknown,Polls close at 8 p.m. Eastern time.,Polls close in,Polls have closed.,2020-11-04T01:00:00.000Z,8 p.m.,703,789,89% reporting,89%,90,359000,edison,90%,90% reported,edison,republican,FALSE,2020-11-20T14:22:07Z,FALSE,43.29011,139550,R+43,Miller +43,republican,Mail ballots postmarked by Election Day have two weeks to arrive in the mail. The state's election board will post the number of unreturned mail ballots on its website.,Mail ballots postmarked by Election Day have two weeks to arrive in the mail.,14,0,1604463077372
17051,Fayette,9808,0,26,28,Merged into voters' home precincts and released with cumulative results,100,9808,>98%,>98% reported,edison,6,some,1970,7940,1868,0,0,2020-11-16T15:48:10Z,61.90865,R+62,Miller +62,republican,IL-G-H-15-2020-11-03,il-house-general-district-015-2020-11-03,https://www.nytimes.com/interactive/2020/11/03/us/elections/results-illinois-house-district-15.html,https://www.nytimes.com/interactive/2020/11/03/us/elections/results-illinois.html,https://www.nytimes.com/interactive/2020/11/03/us/elections/ap-polls-illinois.html,house,general,2020-11-03,FALSE,U.S. House District 15,U.S. House,H,solid-rep,15,District 15,IL,illinois,Illinois,Ill.,vertical,0.9,"",FALSE,TRUE,winner,AP,FALSE,"",322360,14855,2,unknown,Polls close at 8 p.m. Eastern time.,Polls close in,Polls have closed.,2020-11-04T01:00:00.000Z,8 p.m.,703,789,89% reporting,89%,90,359000,edison,90%,90% reported,edison,republican,FALSE,2020-11-20T14:22:07Z,FALSE,43.29011,139550,R+43,Miller +43,republican,Mail ballots postmarked by Election Day have two weeks to arrive in the mail. The state's election board will post the number of unreturned mail ballots on its website.,Mail ballots postmarked by Election Day have two weeks to arrive in the mail.,14,0,1604463077372
17053,Ford,2962,0,9,10,Merged into voters' home precincts and released with cumulative results,95,3134,95%,95% reported,edison,4,some,1058,2304,658,0,0,2020-11-16T15:48:04Z,55.57056,R+56,Miller +56,republican,IL-G-H-15-2020-11-03,il-house-general-district-015-2020-11-03,https://www.nytimes.com/interactive/2020/11/03/us/elections/results-illinois-house-district-15.html,https://www.nytimes.com/interactive/2020/11/03/us/elections/results-illinois.html,https://www.nytimes.com/interactive/2020/11/03/us/elections/ap-polls-illinois.html,house,general,2020-11-03,FALSE,U.S. House District 15,U.S. House,H,solid-rep,15,District 15,IL,illinois,Illinois,Ill.,vertical,0.9,"",FALSE,TRUE,winner,AP,FALSE,"",322360,14855,2,unknown,Polls close at 8 p.m. Eastern time.,Polls close in,Polls have closed.,2020-11-04T01:00:00.000Z,8 p.m.,703,789,89% reporting,89%,90,359000,edison,90%,90% reported,edison,republican,FALSE,2020-11-20T14:22:07Z,FALSE,43.29011,139550,R+43,Miller +43,republican,Mail ballots postmarked by Election Day have two weeks to arrive in the mail. The state's election board will post the number of unreturned mail ballots on its website.,Mail ballots postmarked by Election Day have two weeks to arrive in the mail.,14,0,1604463077372
17059,Gallatin,2426,235,9,11,Merged into voters' home precincts and released with cumulative results,80,3015,80%,80% reported,edison,4,all,1011,1764,662,163,72,2020-11-16T15:48:04Z,45.42457,R+45,Miller +45,republican,IL-G-H-15-2020-11-03,il-house-general-district-015-2020-11-03,https://www.nytimes.com/interactive/2020/11/03/us/elections/results-illinois-house-district-15.html,https://www.nytimes.com/interactive/2020/11/03/us/elections/results-illinois.html,https://www.nytimes.com/interactive/2020/11/03/us/elections/ap-polls-illinois.html,house,general,2020-11-03,FALSE,U.S. House District 15,U.S. House,H,solid-rep,15,District 15,IL,illinois,Illinois,Ill.,vertical,0.9,"",FALSE,TRUE,winner,AP,FALSE,"",322360,14855,2,unknown,Polls close at 8 p.m. Eastern time.,Polls close in,Polls have closed.,2020-11-04T01:00:00.000Z,8 p.m.,703,789,89% reporting,89%,90,359000,edison,90%,90% reported,edison,republican,FALSE,2020-11-20T14:22:07Z,FALSE,43.29011,139550,R+43,Miller +43,republican,Mail ballots postmarked by Election Day have two weeks to arrive in the mail. The state's election board will post the number of unreturned mail ballots on its website.,Mail ballots postmarked by Election Day have two weeks to arrive in the mail.,14,0,1604463077372
17065,Hamilton,4091,0,14,16,None,88,4644,88%,88% reported,edison,4,none,1330,3188,903,0,0,2020-11-16T15:48:11Z,55.85431,R+56,Miller +56,republican,IL-G-H-15-2020-11-03,il-house-general-district-015-2020-11-03,https://www.nytimes.com/interactive/2020/11/03/us/elections/results-illinois-house-district-15.html,https://www.nytimes.com/interactive/2020/11/03/us/elections/results-illinois.html,https://www.nytimes.com/interactive/2020/11/03/us/elections/ap-polls-illinois.html,house,general,2020-11-03,FALSE,U.S. House District 15,U.S. House,H,solid-rep,15,District 15,IL,illinois,Illinois,Ill.,vertical,0.9,"",FALSE,TRUE,winner,AP,FALSE,"",322360,14855,2,unknown,Polls close at 8 p.m. Eastern time.,Polls close in,Polls have closed.,2020-11-04T01:00:00.000Z,8 p.m.,703,789,89% reporting,89%,90,359000,edison,90%,90% reported,edison,republican,FALSE,2020-11-20T14:22:07Z,FALSE,43.29011,139550,R+43,Miller +43,republican,Mail ballots postmarked by Election Day have two weeks to arrive in the mail. The state's election board will post the number of unreturned mail ballots on its website.,Mail ballots postmarked by Election Day have two weeks to arrive in the mail.,14,0,1604463077372
17069,Hardin,0,0,0,6,Merged into voters' home precincts and released with cumulative results,0,2393,0%,0% reported,edison,,unknown,1520,0,0,0,0,2020-11-16T15:48:11Z,,–,–,"",IL-G-H-15-2020-11-03,il-house-general-district-015-2020-11-03,https://www.nytimes.com/interactive/2020/11/03/us/elections/results-illinois-house-district-15.html,https://www.nytimes.com/interactive/2020/11/03/us/elections/results-illinois.html,https://www.nytimes.com/interactive/2020/11/03/us/elections/ap-polls-illinois.html,house,general,2020-11-03,FALSE,U.S. House District 15,U.S. House,H,solid-rep,15,District 15,IL,illinois,Illinois,Ill.,vertical,0.9,"",FALSE,TRUE,winner,AP,FALSE,"",322360,14855,2,unknown,Polls close at 8 p.m. Eastern time.,Polls close in,Polls have closed.,2020-11-04T01:00:00.000Z,8 p.m.,703,789,89% reporting,89%,90,359000,edison,90%,90% reported,edison,republican,FALSE,2020-11-20T14:22:07Z,FALSE,43.29011,139550,R+43,Miller +43,republican,Mail ballots postmarked by Election Day have two weeks to arrive in the mail. The state's election board will post the number of unreturned mail ballots on its website.,Mail ballots postmarked by Election Day have two weeks to arrive in the mail.,14,0,1604463077372
17079,Jasper,5291,0,15,16,Merged into voters' home precincts and released with cumulative results,93,5719,93%,93% reported,edison,2,some,2270,4311,980,0,0,2020-11-16T15:48:11Z,62.95596,R+63,Miller +63,republican,IL-G-H-15-2020-11-03,il-house-general-district-015-2020-11-03,https://www.nytimes.com/interactive/2020/11/03/us/elections/results-illinois-house-district-15.html,https://www.nytimes.com/interactive/2020/11/03/us/elections/results-illinois.html,https://www.nytimes.com/interactive/2020/11/03/us/elections/ap-polls-illinois.html,house,general,2020-11-03,FALSE,U.S. House District 15,U.S. House,H,solid-rep,15,District 15,IL,illinois,Illinois,Ill.,vertical,0.9,"",FALSE,TRUE,winner,AP,FALSE,"",322360,14855,2,unknown,Polls close at 8 p.m. Eastern time.,Polls close in,Polls have closed.,2020-11-04T01:00:00.000Z,8 p.m.,703,789,89% reporting,89%,90,359000,edison,90%,90% reported,edison,republican,FALSE,2020-11-20T14:22:07Z,FALSE,43.29011,139550,R+43,Miller +43,republican,Mail ballots postmarked by Election Day have two weeks to arrive in the mail. The state's election board will post the number of unreturned mail ballots on its website.,Mail ballots postmarked by Election Day have two weeks to arrive in the mail.,14,0,1604463077372
17087,Johnson,6230,0,15,16,Released as a precinct at the end of tabulation,100,6230,>98%,>98% reported,edison,6,some,3610,4961,1269,0,0,2020-11-16T15:48:12Z,59.26164,R+59,Miller +59,republican,IL-G-H-15-2020-11-03,il-house-general-district-015-2020-11-03,https://www.nytimes.com/interactive/2020/11/03/us/elections/results-illinois-house-district-15.html,https://www.nytimes.com/interactive/2020/11/03/us/elections/results-illinois.html,https://www.nytimes.com/interactive/2020/11/03/us/elections/ap-polls-illinois.html,house,general,2020-11-03,FALSE,U.S. House District 15,U.S. House,H,solid-rep,15,District 15,IL,illinois,Illinois,Ill.,vertical,0.9,"",FALSE,TRUE,winner,AP,FALSE,"",322360,14855,2,unknown,Polls close at 8 p.m. Eastern time.,Polls close in,Polls have closed.,2020-11-04T01:00:00.000Z,8 p.m.,703,789,89% reporting,89%,90,359000,edison,90%,90% reported,edison,republican,FALSE,2020-11-20T14:22:07Z,FALSE,43.29011,139550,R+43,Miller +43,republican,Mail ballots postmarked by Election Day have two weeks to arrive in the mail. The state's election board will post the number of unreturned mail ballots on its website.,Mail ballots postmarked by Election Day have two weeks to arrive in the mail.,14,0,1604463077372
17101,Lawrence,6011,0,20,22,None,89,6772,89%,89% reported,edison,4,none,920,4562,1449,0,0,2020-11-16T15:48:05Z,51.78839,R+52,Miller +52,republican,IL-G-H-15-2020-11-03,il-house-general-district-015-2020-11-03,https://www.nytimes.com/interactive/2020/11/03/us/elections/results-illinois-house-district-15.html,https://www.nytimes.com/interactive/2020/11/03/us/elections/results-illinois.html,https://www.nytimes.com/interactive/2020/11/03/us/elections/ap-polls-illinois.html,house,general,2020-11-03,FALSE,U.S. House District 15,U.S. House,H,solid-rep,15,District 15,IL,illinois,Illinois,Ill.,vertical,0.9,"",FALSE,TRUE,winner,AP,FALSE,"",322360,14855,2,unknown,Polls close at 8 p.m. Eastern time.,Polls close in,Polls have closed.,2020-11-04T01:00:00.000Z,8 p.m.,703,789,89% reporting,89%,90,359000,edison,90%,90% reported,edison,republican,FALSE,2020-11-20T14:22:07Z,FALSE,43.29011,139550,R+43,Miller +43,republican,Mail ballots postmarked by Election Day have two weeks to arrive in the mail. The state's election board will post the number of unreturned mail ballots on its website.,Mail ballots postmarked by Election Day have two weeks to arrive in the mail.,14,0,1604463077372
17119,Madison,31591,0,50,51,None,97,32488,97%,97% reported,edison,2,some,57323,20831,10760,0,0,2020-11-16T15:48:12Z,31.87933,R+32,Miller +32,republican,IL-G-H-15-2020-11-03,il-house-general-district-015-2020-11-03,https://www.nytimes.com/interactive/2020/11/03/us/elections/results-illinois-house-district-15.html,https://www.nytimes.com/interactive/2020/11/03/us/elections/results-illinois.html,https://www.nytimes.com/interactive/2020/11/03/us/elections/ap-polls-illinois.html,house,general,2020-11-03,FALSE,U.S. House District 15,U.S. House,H,solid-rep,15,District 15,IL,illinois,Illinois,Ill.,vertical,0.9,"",FALSE,TRUE,winner,AP,FALSE,"",322360,14855,2,unknown,Polls close at 8 p.m. Eastern time.,Polls close in,Polls have closed.,2020-11-04T01:00:00.000Z,8 p.m.,703,789,89% reporting,89%,90,359000,edison,90%,90% reported,edison,republican,FALSE,2020-11-20T14:22:07Z,FALSE,43.29011,139550,R+43,Miller +43,republican,Mail ballots postmarked by Election Day have two weeks to arrive in the mail. The state's election board will post the number of unreturned mail ballots on its website.,Mail ballots postmarked by Election Day have two weeks to arrive in the mail.,14,0,1604463077372
17121,Marion,16805,0,43,48,Merged into voters' home precincts and released with cumulative results,89,18973,89%,89% reported,edison,4,some,4072,12157,4648,0,0,2020-11-16T15:48:13Z,44.68313,R+45,Miller +45,republican,IL-G-H-15-2020-11-03,il-house-general-district-015-2020-11-03,https://www.nytimes.com/interactive/2020/11/03/us/elections/results-illinois-house-district-15.html,https://www.nytimes.com/interactive/2020/11/03/us/elections/results-illinois.html,https://www.nytimes.com/interactive/2020/11/03/us/elections/ap-polls-illinois.html,house,general,2020-11-03,FALSE,U.S. House District 15,U.S. House,H,solid-rep,15,District 15,IL,illinois,Illinois,Ill.,vertical,0.9,"",FALSE,TRUE,winner,AP,FALSE,"",322360,14855,2,unknown,Polls close at 8 p.m. Eastern time.,Polls close in,Polls have closed.,2020-11-04T01:00:00.000Z,8 p.m.,703,789,89% reporting,89%,90,359000,edison,90%,90% reported,edison,republican,FALSE,2020-11-20T14:22:07Z,FALSE,43.29011,139550,R+43,Miller +43,republican,Mail ballots postmarked by Election Day have two weeks to arrive in the mail. The state's election board will post the number of unreturned mail ballots on its website.,Mail ballots postmarked by Election Day have two weeks to arrive in the mail.,14,0,1604463077372
17127,Massac,6632,0,15,17,Merged into voters' home precincts and released with cumulative results,100,6632,>98%,>98% reported,edison,6,all,1360,4906,1726,0,0,2020-11-16T15:48:13Z,47.94934,R+48,Miller +48,republican,IL-G-H-15-2020-11-03,il-house-general-district-015-2020-11-03,https://www.nytimes.com/interactive/2020/11/03/us/elections/results-illinois-house-district-15.html,https://www.nytimes.com/interactive/2020/11/03/us/elections/results-illinois.html,https://www.nytimes.com/interactive/2020/11/03/us/elections/ap-polls-illinois.html,house,general,2020-11-03,FALSE,U.S. House District 15,U.S. House,H,solid-rep,15,District 15,IL,illinois,Illinois,Ill.,vertical,0.9,"",FALSE,TRUE,winner,AP,FALSE,"",322360,14855,2,unknown,Polls close at 8 p.m. Eastern time.,Polls close in,Polls have closed.,2020-11-04T01:00:00.000Z,8 p.m.,703,789,89% reporting,89%,90,359000,edison,90%,90% reported,edison,republican,FALSE,2020-11-20T14:22:07Z,FALSE,43.29011,139550,R+43,Miller +43,republican,Mail ballots postmarked by Election Day have two weeks to arrive in the mail. The state's election board will post the number of unreturned mail ballots on its website.,Mail ballots postmarked by Election Day have two weeks to arrive in the mail.,14,0,1604463077372
17139,Moultrie,6633,0,13,14,Merged into voters' home precincts and released with cumulative results,95,6964,95%,95% reported,edison,4,all,2046,4913,1720,0,0,2020-11-16T15:48:05Z,48.1381,R+48,Miller +48,republican,IL-G-H-15-2020-11-03,il-house-general-district-015-2020-11-03,https://www.nytimes.com/interactive/2020/11/03/us/elections/results-illinois-house-district-15.html,https://www.nytimes.com/interactive/2020/11/03/us/elections/results-illinois.html,https://www.nytimes.com/interactive/2020/11/03/us/elections/ap-polls-illinois.html,house,general,2020-11-03,FALSE,U.S. House District 15,U.S. House,H,solid-rep,15,District 15,IL,illinois,Illinois,Ill.,vertical,0.9,"",FALSE,TRUE,winner,AP,FALSE,"",322360,14855,2,unknown,Polls close at 8 p.m. Eastern time.,Polls close in,Polls have closed.,2020-11-04T01:00:00.000Z,8 p.m.,703,789,89% reporting,89%,90,359000,edison,90%,90% reported,edison,republican,FALSE,2020-11-20T14:22:07Z,FALSE,43.29011,139550,R+43,Miller +43,republican,Mail ballots postmarked by Election Day have two weeks to arrive in the mail. The state's election board will post the number of unreturned mail ballots on its website.,Mail ballots postmarked by Election Day have two weeks to arrive in the mail.,14,0,1604463077372
17151,Pope,2094,0,5,6,Merged into voters' home precincts and released with cumulative results,88,2389,88%,88% reported,edison,4,some,758,1644,450,0,0,2020-11-16T15:48:14Z,57.02006,R+57,Miller +57,republican,IL-G-H-15-2020-11-03,il-house-general-district-015-2020-11-03,https://www.nytimes.com/interactive/2020/11/03/us/elections/results-illinois-house-district-15.html,https://www.nytimes.com/interactive/2020/11/03/us/elections/results-illinois.html,https://www.nytimes.com/interactive/2020/11/03/us/elections/ap-polls-illinois.html,house,general,2020-11-03,FALSE,U.S. House District 15,U.S. House,H,solid-rep,15,District 15,IL,illinois,Illinois,Ill.,vertical,0.9,"",FALSE,TRUE,winner,AP,FALSE,"",322360,14855,2,unknown,Polls close at 8 p.m. Eastern time.,Polls close in,Polls have closed.,2020-11-04T01:00:00.000Z,8 p.m.,703,789,89% reporting,89%,90,359000,edison,90%,90% reported,edison,republican,FALSE,2020-11-20T14:22:07Z,FALSE,43.29011,139550,R+43,Miller +43,republican,Mail ballots postmarked by Election Day have two weeks to arrive in the mail. The state's election board will post the number of unreturned mail ballots on its website.,Mail ballots postmarked by Election Day have two weeks to arrive in the mail.,14,0,1604463077372
17159,Richland,9442,0,21,21,Merged into voters' home precincts and released with cumulative results,100,8556,>98%,>98% reported,edison,4,all,1760,7998,1444,0,0,2020-11-16T15:48:14Z,69.41326,R+69,Miller +69,republican,IL-G-H-15-2020-11-03,il-house-general-district-015-2020-11-03,https://www.nytimes.com/interactive/2020/11/03/us/elections/results-illinois-house-district-15.html,https://www.nytimes.com/interactive/2020/11/03/us/elections/results-illinois.html,https://www.nytimes.com/interactive/2020/11/03/us/elections/ap-polls-illinois.html,house,general,2020-11-03,FALSE,U.S. House District 15,U.S. House,H,solid-rep,15,District 15,IL,illinois,Illinois,Ill.,vertical,0.9,"",FALSE,TRUE,winner,AP,FALSE,"",322360,14855,2,unknown,Polls close at 8 p.m. Eastern time.,Polls close in,Polls have closed.,2020-11-04T01:00:00.000Z,8 p.m.,703,789,89% reporting,89%,90,359000,edison,90%,90% reported,edison,republican,FALSE,2020-11-20T14:22:07Z,FALSE,43.29011,139550,R+43,Miller +43,republican,Mail ballots postmarked by Election Day have two weeks to arrive in the mail. The state's election board will post the number of unreturned mail ballots on its website.,Mail ballots postmarked by Election Day have two weeks to arrive in the mail.,14,0,1604463077372
17165,Saline,10541,0,23,28,Merged into voters' home precincts and released with cumulative results,83,12637,83%,83% reported,edison,4,some,4206,7709,2832,0,0,2020-11-16T15:48:06Z,46.26696,R+46,Miller +46,republican,IL-G-H-15-2020-11-03,il-house-general-district-015-2020-11-03,https://www.nytimes.com/interactive/2020/11/03/us/elections/results-illinois-house-district-15.html,https://www.nytimes.com/interactive/2020/11/03/us/elections/results-illinois.html,https://www.nytimes.com/interactive/2020/11/03/us/elections/ap-polls-illinois.html,house,general,2020-11-03,FALSE,U.S. House District 15,U.S. House,H,solid-rep,15,District 15,IL,illinois,Illinois,Ill.,vertical,0.9,"",FALSE,TRUE,winner,AP,FALSE,"",322360,14855,2,unknown,Polls close at 8 p.m. Eastern time.,Polls close in,Polls have closed.,2020-11-04T01:00:00.000Z,8 p.m.,703,789,89% reporting,89%,90,359000,edison,90%,90% reported,edison,republican,FALSE,2020-11-20T14:22:07Z,FALSE,43.29011,139550,R+43,Miller +43,republican,Mail ballots postmarked by Election Day have two weeks to arrive in the mail. The state's election board will post the number of unreturned mail ballots on its website.,Mail ballots postmarked by Election Day have two weeks to arrive in the mail.,14,0,1604463077372
17173,Shelby,11812,0,32,33,None,100,11812,>98%,>98% reported,edison,6,all,2422,9167,2645,0,0,2020-11-16T15:48:14Z,55.21504,R+55,Miller +55,republican,IL-G-H-15-2020-11-03,il-house-general-district-015-2020-11-03,https://www.nytimes.com/interactive/2020/11/03/us/elections/results-illinois-house-district-15.html,https://www.nytimes.com/interactive/2020/11/03/us/elections/results-illinois.html,https://www.nytimes.com/interactive/2020/11/03/us/elections/ap-polls-illinois.html,house,general,2020-11-03,FALSE,U.S. House District 15,U.S. House,H,solid-rep,15,District 15,IL,illinois,Illinois,Ill.,vertical,0.9,"",FALSE,TRUE,winner,AP,FALSE,"",322360,14855,2,unknown,Polls close at 8 p.m. Eastern time.,Polls close in,Polls have closed.,2020-11-04T01:00:00.000Z,8 p.m.,703,789,89% reporting,89%,90,359000,edison,90%,90% reported,edison,republican,FALSE,2020-11-20T14:22:07Z,FALSE,43.29011,139550,R+43,Miller +43,republican,Mail ballots postmarked by Election Day have two weeks to arrive in the mail. The state's election board will post the number of unreturned mail ballots on its website.,Mail ballots postmarked by Election Day have two weeks to arrive in the mail.,14,0,1604463077372
17183,Vermilion,31054,0,50,55,Merged into voters' home precincts and released with cumulative results,91,34181,91%,91% reported,edison,2,unknown,4752,21190,9864,0,0,2020-11-16T15:48:06Z,36.47195,R+36,Miller +36,republican,IL-G-H-15-2020-11-03,il-house-general-district-015-2020-11-03,https://www.nytimes.com/interactive/2020/11/03/us/elections/results-illinois-house-district-15.html,https://www.nytimes.com/interactive/2020/11/03/us/elections/results-illinois.html,https://www.nytimes.com/interactive/2020/11/03/us/elections/ap-polls-illinois.html,house,general,2020-11-03,FALSE,U.S. House District 15,U.S. House,H,solid-rep,15,District 15,IL,illinois,Illinois,Ill.,vertical,0.9,"",FALSE,TRUE,winner,AP,FALSE,"",322360,14855,2,unknown,Polls close at 8 p.m. Eastern time.,Polls close in,Polls have closed.,2020-11-04T01:00:00.000Z,8 p.m.,703,789,89% reporting,89%,90,359000,edison,90%,90% reported,edison,republican,FALSE,2020-11-20T14:22:07Z,FALSE,43.29011,139550,R+43,Miller +43,republican,Mail ballots postmarked by Election Day have two weeks to arrive in the mail. The state's election board will post the number of unreturned mail ballots on its website.,Mail ballots postmarked by Election Day have two weeks to arrive in the mail.,14,0,1604463077372
17185,Wabash,5290,0,14,16,None,87,6065,87%,87% reported,edison,4,some,1834,4076,1214,0,0,2020-11-16T15:48:07Z,54.10208,R+54,Miller +54,republican,IL-G-H-15-2020-11-03,il-house-general-district-015-2020-11-03,https://www.nytimes.com/interactive/2020/11/03/us/elections/results-illinois-house-district-15.html,https://www.nytimes.com/interactive/2020/11/03/us/elections/results-illinois.html,https://www.nytimes.com/interactive/2020/11/03/us/elections/ap-polls-illinois.html,house,general,2020-11-03,FALSE,U.S. House District 15,U.S. House,H,solid-rep,15,District 15,IL,illinois,Illinois,Ill.,vertical,0.9,"",FALSE,TRUE,winner,AP,FALSE,"",322360,14855,2,unknown,Polls close at 8 p.m. Eastern time.,Polls close in,Polls have closed.,2020-11-04T01:00:00.000Z,8 p.m.,703,789,89% reporting,89%,90,359000,edison,90%,90% reported,edison,republican,FALSE,2020-11-20T14:22:07Z,FALSE,43.29011,139550,R+43,Miller +43,republican,Mail ballots postmarked by Election Day have two weeks to arrive in the mail. The state's election board will post the number of unreturned mail ballots on its website.,Mail ballots postmarked by Election Day have two weeks to arrive in the mail.,14,0,1604463077372
17189,Washington,7638,0,18,20,None,92,8269,92%,92% reported,edison,2,some,987,5960,1678,0,0,2020-11-16T15:48:15Z,56.0618,R+56,Miller +56,republican,IL-G-H-15-2020-11-03,il-house-general-district-015-2020-11-03,https://www.nytimes.com/interactive/2020/11/03/us/elections/results-illinois-house-district-15.html,https://www.nytimes.com/interactive/2020/11/03/us/elections/results-illinois.html,https://www.nytimes.com/interactive/2020/11/03/us/elections/ap-polls-illinois.html,house,general,2020-11-03,FALSE,U.S. House District 15,U.S. House,H,solid-rep,15,District 15,IL,illinois,Illinois,Ill.,vertical,0.9,"",FALSE,TRUE,winner,AP,FALSE,"",322360,14855,2,unknown,Polls close at 8 p.m. Eastern time.,Polls close in,Polls have closed.,2020-11-04T01:00:00.000Z,8 p.m.,703,789,89% reporting,89%,90,359000,edison,90%,90% reported,edison,republican,FALSE,2020-11-20T14:22:07Z,FALSE,43.29011,139550,R+43,Miller +43,republican,Mail ballots postmarked by Election Day have two weeks to arrive in the mail. The state's election board will post the number of unreturned mail ballots on its website.,Mail ballots postmarked by Election Day have two weeks to arrive in the mail.,14,0,1604463077372
17191,Wayne,8217,0,24,27,None,89,9252,89%,89% reported,edison,4,some,1717,7008,1209,0,0,2020-11-16T15:48:15Z,70.5732,R+71,Miller +71,republican,IL-G-H-15-2020-11-03,il-house-general-district-015-2020-11-03,https://www.nytimes.com/interactive/2020/11/03/us/elections/results-illinois-house-district-15.html,https://www.nytimes.com/interactive/2020/11/03/us/elections/results-illinois.html,https://www.nytimes.com/interactive/2020/11/03/us/elections/ap-polls-illinois.html,house,general,2020-11-03,FALSE,U.S. House District 15,U.S. House,H,solid-rep,15,District 15,IL,illinois,Illinois,Ill.,vertical,0.9,"",FALSE,TRUE,winner,AP,FALSE,"",322360,14855,2,unknown,Polls close at 8 p.m. Eastern time.,Polls close in,Polls have closed.,2020-11-04T01:00:00.000Z,8 p.m.,703,789,89% reporting,89%,90,359000,edison,90%,90% reported,edison,republican,FALSE,2020-11-20T14:22:07Z,FALSE,43.29011,139550,R+43,Miller +43,republican,Mail ballots postmarked by Election Day have two weeks to arrive in the mail. The state's election board will post the number of unreturned mail ballots on its website.,Mail ballots postmarked by Election Day have two weeks to arrive in the mail.,14,0,1604463077372
17193,White,7178,0,16,18,Merged into voters' home precincts and released with cumulative results,88,8166,88%,88% reported,edison,4,all,1565,5645,1533,0,0,2020-11-16T15:48:07Z,57.28615,R+57,Miller +57,republican,IL-G-H-15-2020-11-03,il-house-general-district-015-2020-11-03,https://www.nytimes.com/interactive/2020/11/03/us/elections/results-illinois-house-district-15.html,https://www.nytimes.com/interactive/2020/11/03/us/elections/results-illinois.html,https://www.nytimes.com/interactive/2020/11/03/us/elections/ap-polls-illinois.html,house,general,2020-11-03,FALSE,U.S. House District 15,U.S. House,H,solid-rep,15,District 15,IL,illinois,Illinois,Ill.,vertical,0.9,"",FALSE,TRUE,winner,AP,FALSE,"",322360,14855,2,unknown,Polls close at 8 p.m. Eastern time.,Polls close in,Polls have closed.,2020-11-04T01:00:00.000Z,8 p.m.,703,789,89% reporting,89%,90,359000,edison,90%,90% reported,edison,republican,FALSE,2020-11-20T14:22:07Z,FALSE,43.29011,139550,R+43,Miller +43,republican,Mail ballots postmarked by Election Day have two weeks to arrive in the mail. The state's election board will post the number of unreturned mail ballots on its website.,Mail ballots postmarked by Election Day have two weeks to arrive in the mail.,14,0,1604463077372
