fips,name,votes,absentee_votes,reporting,precincts,absentee_method,eevp,tot_exp_vote,eevp_value,eevp_display,eevp_source,turnout_stage,absentee_count_progress,absentee_max_ballots,results_hoyers,results_palombic,results_absentee_hoyers,results_absentee_palombic,last_updated,leader_margin_value,leader_margin_display,leader_margin_name_display,leader_party_id,race_id_race,race_slug_race,url_race,state_page_url_race,ap_polls_page_race,race_type_race,election_type_race,election_date_race,runoff_race,race_name_race,office_race,officeid_race,race_rating_race,seat_race,seat_name_race,state_id_race,state_slug_race,state_name_race,state_nyt_abbrev_race,state_shape_race,party_id_race,uncontested_race,report_race,result_race,result_source_race,gain_race,lost_seat_race,votes_race,absentee_votes_race,absentee_counties_race,absentee_count_progress_race,poll_display_race,poll_countdown_display_race,poll_waiting_display_race,poll_time_race,poll_time_short_race,precincts_reporting_race,precincts_total_race,reporting_display_race,reporting_value_race,eevp_race,tot_exp_vote_race,eevp_source_race,eevp_value_race,eevp_display_race,county_data_source_race,incumbent_party_race,no_forecast_race,last_updated_race,has_incumbent_race,leader_margin_value_race,leader_margin_votes_race,leader_margin_display_race,leader_margin_name_display_race,leader_party_id_race,expectations_text_race,expectations_text_short_race,absentee_ballot_deadline_race,absentee_postmark_deadline_race,winner_called_timestamp_race
24003,Anne Arundel,34812,0,23,23,Released as a precinct as first report of the night,100,34365,>98%,>98% reported,edison,2,none,61018,16671,18141,0,0,2020-11-16T15:47:55Z,4.22268,R+4,Palombi +4,republican,MD-G-H-5-2020-11-03,md-house-general-district-005-2020-11-03,https://www.nytimes.com/interactive/2020/11/03/us/elections/results-maryland-house-district-5.html,https://www.nytimes.com/interactive/2020/11/03/us/elections/results-maryland.html,https://www.nytimes.com/interactive/2020/11/03/us/elections/ap-polls-maryland.html,house,general,2020-11-03,FALSE,U.S. House District 5,U.S. House,H,solid-dem,5,District 5,MD,maryland,Maryland,Md.,horizontal,"",FALSE,TRUE,winner,AP,FALSE,"",396551,127564,1,unknown,Polls close at 8 p.m. Eastern time.,Polls close in,Polls have closed.,2020-11-04T01:00:00.000Z,8 p.m.,239,247,97% reporting,97%,97,408000,edison,97%,97% reported,edison,democrat,FALSE,2020-11-20T14:22:10Z,TRUE,37.79816,149889,D+38,Hoyer +38,democrat,Mail ballots postmarked by Election Day are accepted until Nov. 13 and will be reported each day those ballots are counted.,Mail ballots postmarked by Election Day are accepted until Nov. 13 and will be reported each day those ballots are counted.,10,0,1604459506215
24009,Calvert,48129,0,22,24,"As a precinct in the FIRST cumulative report, along with regular precincts",92,52320,92%,92% reported,edison,2,unknown,11262,21928,26201,0,0,2020-11-16T15:47:56Z,8.87822,R+9,Palombi +9,republican,MD-G-H-5-2020-11-03,md-house-general-district-005-2020-11-03,https://www.nytimes.com/interactive/2020/11/03/us/elections/results-maryland-house-district-5.html,https://www.nytimes.com/interactive/2020/11/03/us/elections/results-maryland.html,https://www.nytimes.com/interactive/2020/11/03/us/elections/ap-polls-maryland.html,house,general,2020-11-03,FALSE,U.S. House District 5,U.S. House,H,solid-dem,5,District 5,MD,maryland,Maryland,Md.,horizontal,"",FALSE,TRUE,winner,AP,FALSE,"",396551,127564,1,unknown,Polls close at 8 p.m. Eastern time.,Polls close in,Polls have closed.,2020-11-04T01:00:00.000Z,8 p.m.,239,247,97% reporting,97%,97,408000,edison,97%,97% reported,edison,democrat,FALSE,2020-11-20T14:22:10Z,TRUE,37.79816,149889,D+38,Hoyer +38,democrat,Mail ballots postmarked by Election Day are accepted until Nov. 13 and will be reported each day those ballots are counted.,Mail ballots postmarked by Election Day are accepted until Nov. 13 and will be reported each day those ballots are counted.,10,0,1604459506215
24017,Charles,88582,0,44,44,Released as a precinct as first report of the night,100,86710,>98%,>98% reported,edison,2,unknown,19179,62491,26091,0,0,2020-11-16T15:47:56Z,41.09187,D+41,Hoyer +41,democrat,MD-G-H-5-2020-11-03,md-house-general-district-005-2020-11-03,https://www.nytimes.com/interactive/2020/11/03/us/elections/results-maryland-house-district-5.html,https://www.nytimes.com/interactive/2020/11/03/us/elections/results-maryland.html,https://www.nytimes.com/interactive/2020/11/03/us/elections/ap-polls-maryland.html,house,general,2020-11-03,FALSE,U.S. House District 5,U.S. House,H,solid-dem,5,District 5,MD,maryland,Maryland,Md.,horizontal,"",FALSE,TRUE,winner,AP,FALSE,"",396551,127564,1,unknown,Polls close at 8 p.m. Eastern time.,Polls close in,Polls have closed.,2020-11-04T01:00:00.000Z,8 p.m.,239,247,97% reporting,97%,97,408000,edison,97%,97% reported,edison,democrat,FALSE,2020-11-20T14:22:10Z,TRUE,37.79816,149889,D+38,Hoyer +38,democrat,Mail ballots postmarked by Election Day are accepted until Nov. 13 and will be reported each day those ballots are counted.,Mail ballots postmarked by Election Day are accepted until Nov. 13 and will be reported each day those ballots are counted.,10,0,1604459506215
24033,Prince George's,170410,127564,113,119,None,100,129041,>98%,>98% reported,edison,6,some,111886,149065,21345,112903,14661,2020-11-20T02:31:00Z,74.94865,D+75,Hoyer +75,democrat,MD-G-H-5-2020-11-03,md-house-general-district-005-2020-11-03,https://www.nytimes.com/interactive/2020/11/03/us/elections/results-maryland-house-district-5.html,https://www.nytimes.com/interactive/2020/11/03/us/elections/results-maryland.html,https://www.nytimes.com/interactive/2020/11/03/us/elections/ap-polls-maryland.html,house,general,2020-11-03,FALSE,U.S. House District 5,U.S. House,H,solid-dem,5,District 5,MD,maryland,Maryland,Md.,horizontal,"",FALSE,TRUE,winner,AP,FALSE,"",396551,127564,1,unknown,Polls close at 8 p.m. Eastern time.,Polls close in,Polls have closed.,2020-11-04T01:00:00.000Z,8 p.m.,239,247,97% reporting,97%,97,408000,edison,97%,97% reported,edison,democrat,FALSE,2020-11-20T14:22:10Z,TRUE,37.79816,149889,D+38,Hoyer +38,democrat,Mail ballots postmarked by Election Day are accepted until Nov. 13 and will be reported each day those ballots are counted.,Mail ballots postmarked by Election Day are accepted until Nov. 13 and will be reported each day those ballots are counted.,10,0,1604459506215
24037,St. Mary's,54618,0,37,37,"As a precinct in the FIRST cumulative report, along with regular precincts",100,54851,>98%,>98% reported,edison,2,none,11354,23065,31553,0,0,2020-11-16T15:47:58Z,15.54066,R+16,Palombi +16,republican,MD-G-H-5-2020-11-03,md-house-general-district-005-2020-11-03,https://www.nytimes.com/interactive/2020/11/03/us/elections/results-maryland-house-district-5.html,https://www.nytimes.com/interactive/2020/11/03/us/elections/results-maryland.html,https://www.nytimes.com/interactive/2020/11/03/us/elections/ap-polls-maryland.html,house,general,2020-11-03,FALSE,U.S. House District 5,U.S. House,H,solid-dem,5,District 5,MD,maryland,Maryland,Md.,horizontal,"",FALSE,TRUE,winner,AP,FALSE,"",396551,127564,1,unknown,Polls close at 8 p.m. Eastern time.,Polls close in,Polls have closed.,2020-11-04T01:00:00.000Z,8 p.m.,239,247,97% reporting,97%,97,408000,edison,97%,97% reported,edison,democrat,FALSE,2020-11-20T14:22:10Z,TRUE,37.79816,149889,D+38,Hoyer +38,democrat,Mail ballots postmarked by Election Day are accepted until Nov. 13 and will be reported each day those ballots are counted.,Mail ballots postmarked by Election Day are accepted until Nov. 13 and will be reported each day those ballots are counted.,10,0,1604459506215
