fips,name,votes,absentee_votes,reporting,precincts,absentee_method,eevp,tot_exp_vote,eevp_value,eevp_display,eevp_source,turnout_stage,absentee_count_progress,absentee_max_ballots,results_joyced,results_muerih,results_absentee_joyced,results_absentee_muerih,last_updated,leader_margin_value,leader_margin_display,leader_margin_name_display,leader_party_id,race_id_race,race_slug_race,url_race,state_page_url_race,ap_polls_page_race,edison_exit_polls_page_race,race_type_race,election_type_race,election_date_race,runoff_race,race_name_race,office_race,officeid_race,race_rating_race,seat_race,seat_name_race,state_id_race,state_slug_race,state_name_race,state_nyt_abbrev_race,state_shape_race,party_id_race,uncontested_race,report_race,result_race,result_source_race,gain_race,lost_seat_race,votes_race,absentee_votes_race,absentee_counties_race,absentee_count_progress_race,poll_display_race,poll_countdown_display_race,poll_waiting_display_race,poll_time_race,poll_time_short_race,precincts_reporting_race,precincts_total_race,reporting_display_race,reporting_value_race,eevp_race,tot_exp_vote_race,eevp_source_race,eevp_value_race,eevp_display_race,county_data_source_race,incumbent_party_race,no_forecast_race,last_updated_race,has_incumbent_race,leader_margin_value_race,leader_margin_votes_race,leader_margin_display_race,leader_margin_name_display_race,leader_party_id_race,expectations_text_race,expectations_text_short_race,absentee_ballot_deadline_race,absentee_postmark_deadline_race,winner_called_timestamp_race
39007,Ashtabula,43043,22623,104,104,Released as a separate subtotal as first report of the night,100,42131,>98%,>98% reported,edison,6,all,17976,27955,15088,12511,10112,2020-11-18T19:17:02Z,29.89336,R+30,Joyce +30,republican,OH-G-H-14-2020-11-03,oh-house-general-district-014-2020-11-03,https://www.nytimes.com/interactive/2020/11/03/us/elections/results-ohio-house-district-14.html,https://www.nytimes.com/interactive/2020/11/03/us/elections/results-ohio.html,https://www.nytimes.com/interactive/2020/11/03/us/elections/ap-polls-ohio.html,https://www.nytimes.com/interactive/2020/11/03/us/elections/exit-polls-ohio.html,house,general,2020-11-03,FALSE,U.S. House District 14,U.S. House,H,solid-rep,14,District 14,OH,ohio,Ohio,Ohio,horizontal,"",FALSE,TRUE,winner,AP,FALSE,"",397083,145339,4,unknown,Polls close at 7:30 p.m. Eastern time.,Polls close in,Polls have closed.,2020-11-04T00:30:00.000Z,7:30 p.m.,580,598,97% reporting,97%,94,421000,edison,94%,94% reported,edison,republican,FALSE,2020-11-20T14:20:14Z,TRUE,20.18545,80153,R+20,Joyce +20,republican,"Postmarked ballots have until Nov. 13 to arrive, but no additional results will be reported reported for at least a week and a half after the election. Counties may report their full official count after their vote canvass, due by Nov. 18, but full statewide results will not be available until final certification, due by Nov. 28. ","Postmarked ballots have until Nov. 13 to arrive, but no additional results will be reported for at least a week and a half after the election.",10,-1,1604460161937
39035,Cuyahoga,63604,38480,76,82,Released as a separate subtotal as first report of the night,93,68695,93%,93% reported,edison,4,all,431608,32288,31316,15323,23157,2020-11-18T19:02:36Z,1.52821,R+1.5,Joyce +1.5,republican,OH-G-H-14-2020-11-03,oh-house-general-district-014-2020-11-03,https://www.nytimes.com/interactive/2020/11/03/us/elections/results-ohio-house-district-14.html,https://www.nytimes.com/interactive/2020/11/03/us/elections/results-ohio.html,https://www.nytimes.com/interactive/2020/11/03/us/elections/ap-polls-ohio.html,https://www.nytimes.com/interactive/2020/11/03/us/elections/exit-polls-ohio.html,house,general,2020-11-03,FALSE,U.S. House District 14,U.S. House,H,solid-rep,14,District 14,OH,ohio,Ohio,Ohio,horizontal,"",FALSE,TRUE,winner,AP,FALSE,"",397083,145339,4,unknown,Polls close at 7:30 p.m. Eastern time.,Polls close in,Polls have closed.,2020-11-04T00:30:00.000Z,7:30 p.m.,580,598,97% reporting,97%,94,421000,edison,94%,94% reported,edison,republican,FALSE,2020-11-20T14:20:14Z,TRUE,20.18545,80153,R+20,Joyce +20,republican,"Postmarked ballots have until Nov. 13 to arrive, but no additional results will be reported reported for at least a week and a half after the election. Counties may report their full official count after their vote canvass, due by Nov. 18, but full statewide results will not be available until final certification, due by Nov. 28. ","Postmarked ballots have until Nov. 13 to arrive, but no additional results will be reported for at least a week and a half after the election.",10,-1,1604460161937
39055,Geauga,54548,0,78,78,Other,100,53814,>98%,>98% reported,edison,6,unknown,25718,37098,17450,0,0,2020-11-19T16:09:03Z,36.01965,R+36,Joyce +36,republican,OH-G-H-14-2020-11-03,oh-house-general-district-014-2020-11-03,https://www.nytimes.com/interactive/2020/11/03/us/elections/results-ohio-house-district-14.html,https://www.nytimes.com/interactive/2020/11/03/us/elections/results-ohio.html,https://www.nytimes.com/interactive/2020/11/03/us/elections/ap-polls-ohio.html,https://www.nytimes.com/interactive/2020/11/03/us/elections/exit-polls-ohio.html,house,general,2020-11-03,FALSE,U.S. House District 14,U.S. House,H,solid-rep,14,District 14,OH,ohio,Ohio,Ohio,horizontal,"",FALSE,TRUE,winner,AP,FALSE,"",397083,145339,4,unknown,Polls close at 7:30 p.m. Eastern time.,Polls close in,Polls have closed.,2020-11-04T00:30:00.000Z,7:30 p.m.,580,598,97% reporting,97%,94,421000,edison,94%,94% reported,edison,republican,FALSE,2020-11-20T14:20:14Z,TRUE,20.18545,80153,R+20,Joyce +20,republican,"Postmarked ballots have until Nov. 13 to arrive, but no additional results will be reported reported for at least a week and a half after the election. Counties may report their full official count after their vote canvass, due by Nov. 18, but full statewide results will not be available until final certification, due by Nov. 28. ","Postmarked ballots have until Nov. 13 to arrive, but no additional results will be reported for at least a week and a half after the election.",10,-1,1604460161937
39085,Lake,125344,79280,151,163,Other,95,132186,95%,95% reported,edison,4,unknown,65162,78171,47173,43757,35523,2020-11-18T22:25:46Z,24.73034,R+25,Joyce +25,republican,OH-G-H-14-2020-11-03,oh-house-general-district-014-2020-11-03,https://www.nytimes.com/interactive/2020/11/03/us/elections/results-ohio-house-district-14.html,https://www.nytimes.com/interactive/2020/11/03/us/elections/results-ohio.html,https://www.nytimes.com/interactive/2020/11/03/us/elections/ap-polls-ohio.html,https://www.nytimes.com/interactive/2020/11/03/us/elections/exit-polls-ohio.html,house,general,2020-11-03,FALSE,U.S. House District 14,U.S. House,H,solid-rep,14,District 14,OH,ohio,Ohio,Ohio,horizontal,"",FALSE,TRUE,winner,AP,FALSE,"",397083,145339,4,unknown,Polls close at 7:30 p.m. Eastern time.,Polls close in,Polls have closed.,2020-11-04T00:30:00.000Z,7:30 p.m.,580,598,97% reporting,97%,94,421000,edison,94%,94% reported,edison,republican,FALSE,2020-11-20T14:20:14Z,TRUE,20.18545,80153,R+20,Joyce +20,republican,"Postmarked ballots have until Nov. 13 to arrive, but no additional results will be reported reported for at least a week and a half after the election. Counties may report their full official count after their vote canvass, due by Nov. 18, but full statewide results will not be available until final certification, due by Nov. 28. ","Postmarked ballots have until Nov. 13 to arrive, but no additional results will be reported for at least a week and a half after the election.",10,-1,1604460161937
39133,Portage,20408,0,32,32,Other,100,19549,>98%,>98% reported,edison,4,all,35339,13275,7133,0,0,2020-11-18T19:05:56Z,30.09604,R+30,Joyce +30,republican,OH-G-H-14-2020-11-03,oh-house-general-district-014-2020-11-03,https://www.nytimes.com/interactive/2020/11/03/us/elections/results-ohio-house-district-14.html,https://www.nytimes.com/interactive/2020/11/03/us/elections/results-ohio.html,https://www.nytimes.com/interactive/2020/11/03/us/elections/ap-polls-ohio.html,https://www.nytimes.com/interactive/2020/11/03/us/elections/exit-polls-ohio.html,house,general,2020-11-03,FALSE,U.S. House District 14,U.S. House,H,solid-rep,14,District 14,OH,ohio,Ohio,Ohio,horizontal,"",FALSE,TRUE,winner,AP,FALSE,"",397083,145339,4,unknown,Polls close at 7:30 p.m. Eastern time.,Polls close in,Polls have closed.,2020-11-04T00:30:00.000Z,7:30 p.m.,580,598,97% reporting,97%,94,421000,edison,94%,94% reported,edison,republican,FALSE,2020-11-20T14:20:14Z,TRUE,20.18545,80153,R+20,Joyce +20,republican,"Postmarked ballots have until Nov. 13 to arrive, but no additional results will be reported reported for at least a week and a half after the election. Counties may report their full official count after their vote canvass, due by Nov. 18, but full statewide results will not be available until final certification, due by Nov. 28. ","Postmarked ballots have until Nov. 13 to arrive, but no additional results will be reported for at least a week and a half after the election.",10,-1,1604460161937
39153,Summit,80521,0,121,121,None,95,84824,95%,95% reported,edison,2,unknown,138795,42679,37842,0,0,2020-11-18T19:08:05Z,6.00713,R+6,Joyce +6,republican,OH-G-H-14-2020-11-03,oh-house-general-district-014-2020-11-03,https://www.nytimes.com/interactive/2020/11/03/us/elections/results-ohio-house-district-14.html,https://www.nytimes.com/interactive/2020/11/03/us/elections/results-ohio.html,https://www.nytimes.com/interactive/2020/11/03/us/elections/ap-polls-ohio.html,https://www.nytimes.com/interactive/2020/11/03/us/elections/exit-polls-ohio.html,house,general,2020-11-03,FALSE,U.S. House District 14,U.S. House,H,solid-rep,14,District 14,OH,ohio,Ohio,Ohio,horizontal,"",FALSE,TRUE,winner,AP,FALSE,"",397083,145339,4,unknown,Polls close at 7:30 p.m. Eastern time.,Polls close in,Polls have closed.,2020-11-04T00:30:00.000Z,7:30 p.m.,580,598,97% reporting,97%,94,421000,edison,94%,94% reported,edison,republican,FALSE,2020-11-20T14:20:14Z,TRUE,20.18545,80153,R+20,Joyce +20,republican,"Postmarked ballots have until Nov. 13 to arrive, but no additional results will be reported reported for at least a week and a half after the election. Counties may report their full official count after their vote canvass, due by Nov. 18, but full statewide results will not be available until final certification, due by Nov. 28. ","Postmarked ballots have until Nov. 13 to arrive, but no additional results will be reported for at least a week and a half after the election.",10,-1,1604460161937
39155,Trumbull,9615,4956,18,18,Released as a separate subtotal as first report of the night,100,9381,>98%,>98% reported,edison,6,some,47683,7152,2463,3210,1746,2020-11-18T22:28:09Z,48.76755,R+49,Joyce +49,republican,OH-G-H-14-2020-11-03,oh-house-general-district-014-2020-11-03,https://www.nytimes.com/interactive/2020/11/03/us/elections/results-ohio-house-district-14.html,https://www.nytimes.com/interactive/2020/11/03/us/elections/results-ohio.html,https://www.nytimes.com/interactive/2020/11/03/us/elections/ap-polls-ohio.html,https://www.nytimes.com/interactive/2020/11/03/us/elections/exit-polls-ohio.html,house,general,2020-11-03,FALSE,U.S. House District 14,U.S. House,H,solid-rep,14,District 14,OH,ohio,Ohio,Ohio,horizontal,"",FALSE,TRUE,winner,AP,FALSE,"",397083,145339,4,unknown,Polls close at 7:30 p.m. Eastern time.,Polls close in,Polls have closed.,2020-11-04T00:30:00.000Z,7:30 p.m.,580,598,97% reporting,97%,94,421000,edison,94%,94% reported,edison,republican,FALSE,2020-11-20T14:20:14Z,TRUE,20.18545,80153,R+20,Joyce +20,republican,"Postmarked ballots have until Nov. 13 to arrive, but no additional results will be reported reported for at least a week and a half after the election. Counties may report their full official count after their vote canvass, due by Nov. 18, but full statewide results will not be available until final certification, due by Nov. 28. ","Postmarked ballots have until Nov. 13 to arrive, but no additional results will be reported for at least a week and a half after the election.",10,-1,1604460161937
