fips,name,votes,absentee_votes,reporting,precincts,eevp_display,eevp_source,results_langevinj,results_lanciar,results_absentee_langevinj,results_absentee_lanciar,last_updated,leader_margin_value,leader_margin_display,leader_margin_name_display,leader_party_id,race_id_race,race_slug_race,url_race,state_page_url_race,ap_polls_page_race,race_type_race,election_type_race,election_date_race,runoff_race,race_name_race,office_race,officeid_race,race_rating_race,seat_race,seat_name_race,state_id_race,state_slug_race,state_name_race,state_nyt_abbrev_race,state_shape_race,state_aspect_ratio_race,party_id_race,uncontested_race,report_race,result_race,result_source_race,gain_race,lost_seat_race,votes_race,absentee_votes_race,absentee_count_progress_race,poll_display_race,poll_countdown_display_race,poll_waiting_display_race,poll_time_race,poll_time_short_race,precincts_reporting_race,precincts_total_race,reporting_display_race,reporting_value_race,eevp_race,tot_exp_vote_race,eevp_source_race,eevp_value_race,eevp_display_race,county_data_source_race,incumbent_party_race,no_forecast_race,last_updated_race,has_incumbent_race,leader_margin_value_race,leader_margin_votes_race,leader_margin_display_race,leader_margin_name_display_race,leader_party_id_race,expectations_text_race,expectations_text_short_race,absentee_ballot_deadline_race,absentee_postmark_deadline_race,winner_called_timestamp_race
44003,Kent,89911,0,70,70,"",edison,50216,39695,0,0,2020-11-16T15:48:11Z,11.70157,D+12,Langevin +12,democrat,RI-G-H-2-2020-11-03,ri-house-general-district-002-2020-11-03,https://www.nytimes.com/interactive/2020/11/03/us/elections/results-rhode-island-house-district-2.html,https://www.nytimes.com/interactive/2020/11/03/us/elections/results-rhode-island.html,https://www.nytimes.com/interactive/2020/11/03/us/elections/ap-polls-rhode-island.html,house,general,2020-11-03,FALSE,U.S. House District 2,U.S. House,H,solid-dem,2,District 2,RI,rhode-island,Rhode Island,R.I.,vertical,1.1,"",FALSE,TRUE,winner,AP,FALSE,"",263462,0,unknown,Polls close at 8 p.m. Eastern time.,Polls close in,Polls have closed.,2020-11-04T01:00:00.000Z,8 p.m.,201,206,98% reporting,98%,98,268000,edison,98%,98% reported,edison,democrat,FALSE,2020-11-20T14:20:09Z,TRUE,16.60657,43752,D+17,Langevin +17,democrat,"","",0,0,1604470909774
44007,Providence,100500,0,87,92,"",edison,59864,40636,0,0,2020-11-16T15:48:05Z,19.13234,D+19,Langevin +19,democrat,RI-G-H-2-2020-11-03,ri-house-general-district-002-2020-11-03,https://www.nytimes.com/interactive/2020/11/03/us/elections/results-rhode-island-house-district-2.html,https://www.nytimes.com/interactive/2020/11/03/us/elections/results-rhode-island.html,https://www.nytimes.com/interactive/2020/11/03/us/elections/ap-polls-rhode-island.html,house,general,2020-11-03,FALSE,U.S. House District 2,U.S. House,H,solid-dem,2,District 2,RI,rhode-island,Rhode Island,R.I.,vertical,1.1,"",FALSE,TRUE,winner,AP,FALSE,"",263462,0,unknown,Polls close at 8 p.m. Eastern time.,Polls close in,Polls have closed.,2020-11-04T01:00:00.000Z,8 p.m.,201,206,98% reporting,98%,98,268000,edison,98%,98% reported,edison,democrat,FALSE,2020-11-20T14:20:09Z,TRUE,16.60657,43752,D+17,Langevin +17,democrat,"","",0,0,1604470909774
44009,Washington,73051,0,44,44,"",edison,43527,29524,0,0,2020-11-16T15:48:04Z,19.1688,D+19,Langevin +19,democrat,RI-G-H-2-2020-11-03,ri-house-general-district-002-2020-11-03,https://www.nytimes.com/interactive/2020/11/03/us/elections/results-rhode-island-house-district-2.html,https://www.nytimes.com/interactive/2020/11/03/us/elections/results-rhode-island.html,https://www.nytimes.com/interactive/2020/11/03/us/elections/ap-polls-rhode-island.html,house,general,2020-11-03,FALSE,U.S. House District 2,U.S. House,H,solid-dem,2,District 2,RI,rhode-island,Rhode Island,R.I.,vertical,1.1,"",FALSE,TRUE,winner,AP,FALSE,"",263462,0,unknown,Polls close at 8 p.m. Eastern time.,Polls close in,Polls have closed.,2020-11-04T01:00:00.000Z,8 p.m.,201,206,98% reporting,98%,98,268000,edison,98%,98% reported,edison,democrat,FALSE,2020-11-20T14:20:09Z,TRUE,16.60657,43752,D+17,Langevin +17,democrat,"","",0,0,1604470909774
