fips,name,votes,absentee_votes,reporting,precincts,eevp_display,eevp_source,results_welchp,results_berrym,results_beckerp,results_helalic,results_hornem,results_trudellj,results_orrs,results_write_ins,results_absentee_welchp,results_absentee_berrym,results_absentee_beckerp,results_absentee_helalic,results_absentee_hornem,results_absentee_trudellj,results_absentee_orrs,results_absentee_write_ins,last_updated,leader_margin_value,leader_margin_display,leader_margin_name_display,leader_party_id,race_id_race,race_slug_race,url_race,state_page_url_race,ap_polls_page_race,race_type_race,election_type_race,election_date_race,runoff_race,race_name_race,office_race,officeid_race,race_rating_race,seat_race,seat_name_race,state_id_race,state_slug_race,state_name_race,state_nyt_abbrev_race,state_shape_race,state_aspect_ratio_race,party_id_race,uncontested_race,report_race,result_race,result_source_race,gain_race,lost_seat_race,votes_race,absentee_votes_race,absentee_count_progress_race,poll_display_race,poll_countdown_display_race,poll_waiting_display_race,poll_time_race,poll_time_short_race,precincts_reporting_race,precincts_total_race,reporting_display_race,reporting_value_race,eevp_race,tot_exp_vote_race,eevp_source_race,eevp_value_race,eevp_display_race,county_data_source_race,incumbent_party_race,no_forecast_race,last_updated_race,has_incumbent_race,leader_margin_value_race,leader_margin_votes_race,leader_margin_display_race,leader_margin_name_display_race,leader_party_id_race,expectations_text_race,expectations_text_short_race,absentee_ballot_deadline_race,absentee_postmark_deadline_race,winner_called_timestamp_race
50001,Addison,21479,0,23,23,"",edison,14973,5449,457,190,176,152,57,25,0,0,0,0,0,0,0,0,2020-11-16T15:48:21Z,44.34098,D+44,Welch +44,democrat,VT-G-H-1-2020-11-03,vt-house-general-district-001-2020-11-03,https://www.nytimes.com/interactive/2020/11/03/us/elections/results-vermont-house-district-at-large.html,https://www.nytimes.com/interactive/2020/11/03/us/elections/results-vermont.html,https://www.nytimes.com/interactive/2020/11/03/us/elections/ap-polls-vermont.html,house,general,2020-11-03,FALSE,U.S. House At-Large,U.S. House,H,solid-dem,1,At-Large,VT,vermont,Vermont,Vt.,vertical,0.8,"",FALSE,TRUE,winner,AP,FALSE,"",354839,0,unknown,Polls close at 7 p.m. Eastern time.,Polls close in,Polls have closed.,2020-11-04T00:00:00.000Z,7 p.m.,272,275,99% reporting,99%,100,354837,edison,>98%,>98% reported,edison,democrat,FALSE,2020-11-20T14:19:10Z,TRUE,40.29912,142997,D+40,Welch +40,democrat,"","",0,0,1604448212856
50003,Bennington,19351,0,18,18,"",edison,11987,5851,787,137,236,94,221,38,0,0,0,0,0,0,0,0,2020-11-16T15:48:20Z,31.70896,D+32,Welch +32,democrat,VT-G-H-1-2020-11-03,vt-house-general-district-001-2020-11-03,https://www.nytimes.com/interactive/2020/11/03/us/elections/results-vermont-house-district-at-large.html,https://www.nytimes.com/interactive/2020/11/03/us/elections/results-vermont.html,https://www.nytimes.com/interactive/2020/11/03/us/elections/ap-polls-vermont.html,house,general,2020-11-03,FALSE,U.S. House At-Large,U.S. House,H,solid-dem,1,At-Large,VT,vermont,Vermont,Vt.,vertical,0.8,"",FALSE,TRUE,winner,AP,FALSE,"",354839,0,unknown,Polls close at 7 p.m. Eastern time.,Polls close in,Polls have closed.,2020-11-04T00:00:00.000Z,7 p.m.,272,275,99% reporting,99%,100,354837,edison,>98%,>98% reported,edison,democrat,FALSE,2020-11-20T14:19:10Z,TRUE,40.29912,142997,D+40,Welch +40,democrat,"","",0,0,1604448212856
50005,Caledonia,15664,0,17,17,"",edison,9319,5486,245,155,261,90,85,23,0,0,0,0,0,0,0,0,2020-11-16T15:48:20Z,24.47012,D+24,Welch +24,democrat,VT-G-H-1-2020-11-03,vt-house-general-district-001-2020-11-03,https://www.nytimes.com/interactive/2020/11/03/us/elections/results-vermont-house-district-at-large.html,https://www.nytimes.com/interactive/2020/11/03/us/elections/results-vermont.html,https://www.nytimes.com/interactive/2020/11/03/us/elections/ap-polls-vermont.html,house,general,2020-11-03,FALSE,U.S. House At-Large,U.S. House,H,solid-dem,1,At-Large,VT,vermont,Vermont,Vt.,vertical,0.8,"",FALSE,TRUE,winner,AP,FALSE,"",354839,0,unknown,Polls close at 7 p.m. Eastern time.,Polls close in,Polls have closed.,2020-11-04T00:00:00.000Z,7 p.m.,272,275,99% reporting,99%,100,354837,edison,>98%,>98% reported,edison,democrat,FALSE,2020-11-20T14:19:10Z,TRUE,40.29912,142997,D+40,Welch +40,democrat,"","",0,0,1604448212856
50007,Chittenden,94531,0,31,32,"",edison,70658,19805,1068,1259,823,558,241,119,0,0,0,0,0,0,0,0,2020-11-16T21:24:12Z,53.79505,D+54,Welch +54,democrat,VT-G-H-1-2020-11-03,vt-house-general-district-001-2020-11-03,https://www.nytimes.com/interactive/2020/11/03/us/elections/results-vermont-house-district-at-large.html,https://www.nytimes.com/interactive/2020/11/03/us/elections/results-vermont.html,https://www.nytimes.com/interactive/2020/11/03/us/elections/ap-polls-vermont.html,house,general,2020-11-03,FALSE,U.S. House At-Large,U.S. House,H,solid-dem,1,At-Large,VT,vermont,Vermont,Vt.,vertical,0.8,"",FALSE,TRUE,winner,AP,FALSE,"",354839,0,unknown,Polls close at 7 p.m. Eastern time.,Polls close in,Polls have closed.,2020-11-04T00:00:00.000Z,7 p.m.,272,275,99% reporting,99%,100,354837,edison,>98%,>98% reported,edison,democrat,FALSE,2020-11-20T14:19:10Z,TRUE,40.29912,142997,D+40,Welch +40,democrat,"","",0,0,1604448212856
50009,Essex,3175,0,13,13,"",edison,1485,1438,130,16,70,13,18,5,0,0,0,0,0,0,0,0,2020-11-16T15:48:21Z,1.48031,D+1.5,Welch +1.5,democrat,VT-G-H-1-2020-11-03,vt-house-general-district-001-2020-11-03,https://www.nytimes.com/interactive/2020/11/03/us/elections/results-vermont-house-district-at-large.html,https://www.nytimes.com/interactive/2020/11/03/us/elections/results-vermont.html,https://www.nytimes.com/interactive/2020/11/03/us/elections/ap-polls-vermont.html,house,general,2020-11-03,FALSE,U.S. House At-Large,U.S. House,H,solid-dem,1,At-Large,VT,vermont,Vermont,Vt.,vertical,0.8,"",FALSE,TRUE,winner,AP,FALSE,"",354839,0,unknown,Polls close at 7 p.m. Eastern time.,Polls close in,Polls have closed.,2020-11-04T00:00:00.000Z,7 p.m.,272,275,99% reporting,99%,100,354837,edison,>98%,>98% reported,edison,democrat,FALSE,2020-11-20T14:19:10Z,TRUE,40.29912,142997,D+40,Welch +40,democrat,"","",0,0,1604448212856
50011,Franklin,25192,0,16,16,"",edison,14817,9202,411,111,251,215,143,42,0,0,0,0,0,0,0,0,2020-11-16T21:43:15Z,22.28882,D+22,Welch +22,democrat,VT-G-H-1-2020-11-03,vt-house-general-district-001-2020-11-03,https://www.nytimes.com/interactive/2020/11/03/us/elections/results-vermont-house-district-at-large.html,https://www.nytimes.com/interactive/2020/11/03/us/elections/results-vermont.html,https://www.nytimes.com/interactive/2020/11/03/us/elections/ap-polls-vermont.html,house,general,2020-11-03,FALSE,U.S. House At-Large,U.S. House,H,solid-dem,1,At-Large,VT,vermont,Vermont,Vt.,vertical,0.8,"",FALSE,TRUE,winner,AP,FALSE,"",354839,0,unknown,Polls close at 7 p.m. Eastern time.,Polls close in,Polls have closed.,2020-11-04T00:00:00.000Z,7 p.m.,272,275,99% reporting,99%,100,354837,edison,>98%,>98% reported,edison,democrat,FALSE,2020-11-20T14:19:10Z,TRUE,40.29912,142997,D+40,Welch +40,democrat,"","",0,0,1604448212856
50013,Grand Isle,4766,0,5,5,"",edison,3031,1540,60,22,35,46,23,9,0,0,0,0,0,0,0,0,2020-11-17T00:12:47Z,31.2841,D+31,Welch +31,democrat,VT-G-H-1-2020-11-03,vt-house-general-district-001-2020-11-03,https://www.nytimes.com/interactive/2020/11/03/us/elections/results-vermont-house-district-at-large.html,https://www.nytimes.com/interactive/2020/11/03/us/elections/results-vermont.html,https://www.nytimes.com/interactive/2020/11/03/us/elections/ap-polls-vermont.html,house,general,2020-11-03,FALSE,U.S. House At-Large,U.S. House,H,solid-dem,1,At-Large,VT,vermont,Vermont,Vt.,vertical,0.8,"",FALSE,TRUE,winner,AP,FALSE,"",354839,0,unknown,Polls close at 7 p.m. Eastern time.,Polls close in,Polls have closed.,2020-11-04T00:00:00.000Z,7 p.m.,272,275,99% reporting,99%,100,354837,edison,>98%,>98% reported,edison,democrat,FALSE,2020-11-20T14:19:10Z,TRUE,40.29912,142997,D+40,Welch +40,democrat,"","",0,0,1604448212856
50015,Lamoille,14485,0,10,10,"",edison,10178,3638,219,99,161,94,67,29,0,0,0,0,0,0,0,0,2020-11-17T00:06:19Z,45.15016,D+45,Welch +45,democrat,VT-G-H-1-2020-11-03,vt-house-general-district-001-2020-11-03,https://www.nytimes.com/interactive/2020/11/03/us/elections/results-vermont-house-district-at-large.html,https://www.nytimes.com/interactive/2020/11/03/us/elections/results-vermont.html,https://www.nytimes.com/interactive/2020/11/03/us/elections/ap-polls-vermont.html,house,general,2020-11-03,FALSE,U.S. House At-Large,U.S. House,H,solid-dem,1,At-Large,VT,vermont,Vermont,Vt.,vertical,0.8,"",FALSE,TRUE,winner,AP,FALSE,"",354839,0,unknown,Polls close at 7 p.m. Eastern time.,Polls close in,Polls have closed.,2020-11-04T00:00:00.000Z,7 p.m.,272,275,99% reporting,99%,100,354837,edison,>98%,>98% reported,edison,democrat,FALSE,2020-11-20T14:19:10Z,TRUE,40.29912,142997,D+40,Welch +40,democrat,"","",0,0,1604448212856
50017,Orange,16729,0,17,17,"",edison,10579,5132,292,227,344,71,60,24,0,0,0,0,0,0,0,0,2020-11-16T15:47:41Z,32.56022,D+33,Welch +33,democrat,VT-G-H-1-2020-11-03,vt-house-general-district-001-2020-11-03,https://www.nytimes.com/interactive/2020/11/03/us/elections/results-vermont-house-district-at-large.html,https://www.nytimes.com/interactive/2020/11/03/us/elections/results-vermont.html,https://www.nytimes.com/interactive/2020/11/03/us/elections/ap-polls-vermont.html,house,general,2020-11-03,FALSE,U.S. House At-Large,U.S. House,H,solid-dem,1,At-Large,VT,vermont,Vermont,Vt.,vertical,0.8,"",FALSE,TRUE,winner,AP,FALSE,"",354839,0,unknown,Polls close at 7 p.m. Eastern time.,Polls close in,Polls have closed.,2020-11-04T00:00:00.000Z,7 p.m.,272,275,99% reporting,99%,100,354837,edison,>98%,>98% reported,edison,democrat,FALSE,2020-11-20T14:19:10Z,TRUE,40.29912,142997,D+40,Welch +40,democrat,"","",0,0,1604448212856
50019,Orleans,13591,0,20,20,"",edison,7670,5203,267,83,207,72,59,30,0,0,0,0,0,0,0,0,2020-11-16T15:48:18Z,18.15172,D+18,Welch +18,democrat,VT-G-H-1-2020-11-03,vt-house-general-district-001-2020-11-03,https://www.nytimes.com/interactive/2020/11/03/us/elections/results-vermont-house-district-at-large.html,https://www.nytimes.com/interactive/2020/11/03/us/elections/results-vermont.html,https://www.nytimes.com/interactive/2020/11/03/us/elections/ap-polls-vermont.html,house,general,2020-11-03,FALSE,U.S. House At-Large,U.S. House,H,solid-dem,1,At-Large,VT,vermont,Vermont,Vt.,vertical,0.8,"",FALSE,TRUE,winner,AP,FALSE,"",354839,0,unknown,Polls close at 7 p.m. Eastern time.,Polls close in,Polls have closed.,2020-11-04T00:00:00.000Z,7 p.m.,272,275,99% reporting,99%,100,354837,edison,>98%,>98% reported,edison,democrat,FALSE,2020-11-20T14:19:10Z,TRUE,40.29912,142997,D+40,Welch +40,democrat,"","",0,0,1604448212856
50021,Rutland,32961,0,32,32,"",edison,18287,11559,2363,163,268,116,165,40,0,0,0,0,0,0,0,0,2020-11-16T15:48:27Z,20.412,D+20,Welch +20,democrat,VT-G-H-1-2020-11-03,vt-house-general-district-001-2020-11-03,https://www.nytimes.com/interactive/2020/11/03/us/elections/results-vermont-house-district-at-large.html,https://www.nytimes.com/interactive/2020/11/03/us/elections/results-vermont.html,https://www.nytimes.com/interactive/2020/11/03/us/elections/ap-polls-vermont.html,house,general,2020-11-03,FALSE,U.S. House At-Large,U.S. House,H,solid-dem,1,At-Large,VT,vermont,Vermont,Vt.,vertical,0.8,"",FALSE,TRUE,winner,AP,FALSE,"",354839,0,unknown,Polls close at 7 p.m. Eastern time.,Polls close in,Polls have closed.,2020-11-04T00:00:00.000Z,7 p.m.,272,275,99% reporting,99%,100,354837,edison,>98%,>98% reported,edison,democrat,FALSE,2020-11-20T14:19:10Z,TRUE,40.29912,142997,D+40,Welch +40,democrat,"","",0,0,1604448212856
50023,Washington,34400,0,20,20,"",edison,24734,7793,374,376,793,133,108,89,0,0,0,0,0,0,0,0,2020-11-16T21:25:29Z,49.24709,D+49,Welch +49,democrat,VT-G-H-1-2020-11-03,vt-house-general-district-001-2020-11-03,https://www.nytimes.com/interactive/2020/11/03/us/elections/results-vermont-house-district-at-large.html,https://www.nytimes.com/interactive/2020/11/03/us/elections/results-vermont.html,https://www.nytimes.com/interactive/2020/11/03/us/elections/ap-polls-vermont.html,house,general,2020-11-03,FALSE,U.S. House At-Large,U.S. House,H,solid-dem,1,At-Large,VT,vermont,Vermont,Vt.,vertical,0.8,"",FALSE,TRUE,winner,AP,FALSE,"",354839,0,unknown,Polls close at 7 p.m. Eastern time.,Polls close in,Polls have closed.,2020-11-04T00:00:00.000Z,7 p.m.,272,275,99% reporting,99%,100,354837,edison,>98%,>98% reported,edison,democrat,FALSE,2020-11-20T14:19:10Z,TRUE,40.29912,142997,D+40,Welch +40,democrat,"","",0,0,1604448212856
50025,Windham,25011,0,24,26,"",edison,18001,5379,607,315,317,106,257,29,0,0,0,0,0,0,0,0,2020-11-16T15:48:17Z,50.4658,D+50,Welch +50,democrat,VT-G-H-1-2020-11-03,vt-house-general-district-001-2020-11-03,https://www.nytimes.com/interactive/2020/11/03/us/elections/results-vermont-house-district-at-large.html,https://www.nytimes.com/interactive/2020/11/03/us/elections/results-vermont.html,https://www.nytimes.com/interactive/2020/11/03/us/elections/ap-polls-vermont.html,house,general,2020-11-03,FALSE,U.S. House At-Large,U.S. House,H,solid-dem,1,At-Large,VT,vermont,Vermont,Vt.,vertical,0.8,"",FALSE,TRUE,winner,AP,FALSE,"",354839,0,unknown,Polls close at 7 p.m. Eastern time.,Polls close in,Polls have closed.,2020-11-04T00:00:00.000Z,7 p.m.,272,275,99% reporting,99%,100,354837,edison,>98%,>98% reported,edison,democrat,FALSE,2020-11-20T14:19:10Z,TRUE,40.29912,142997,D+40,Welch +40,democrat,"","",0,0,1604448212856
50027,Windsor,33504,0,26,26,"",edison,23108,8355,785,279,392,121,422,42,0,0,0,0,0,0,0,0,2020-11-17T00:06:32Z,44.03355,D+44,Welch +44,democrat,VT-G-H-1-2020-11-03,vt-house-general-district-001-2020-11-03,https://www.nytimes.com/interactive/2020/11/03/us/elections/results-vermont-house-district-at-large.html,https://www.nytimes.com/interactive/2020/11/03/us/elections/results-vermont.html,https://www.nytimes.com/interactive/2020/11/03/us/elections/ap-polls-vermont.html,house,general,2020-11-03,FALSE,U.S. House At-Large,U.S. House,H,solid-dem,1,At-Large,VT,vermont,Vermont,Vt.,vertical,0.8,"",FALSE,TRUE,winner,AP,FALSE,"",354839,0,unknown,Polls close at 7 p.m. Eastern time.,Polls close in,Polls have closed.,2020-11-04T00:00:00.000Z,7 p.m.,272,275,99% reporting,99%,100,354837,edison,>98%,>98% reported,edison,democrat,FALSE,2020-11-20T14:19:10Z,TRUE,40.29912,142997,D+40,Welch +40,democrat,"","",0,0,1604448212856
