fips,name,votes,absentee_votes,reporting,precincts,absentee_method,eevp,tot_exp_vote,eevp_value,eevp_display,eevp_source,turnout_stage,absentee_count_progress,absentee_max_ballots,results_carbajals,results_caldwella,results_absentee_carbajals,results_absentee_caldwella,last_updated,leader_margin_value,leader_margin_display,leader_margin_name_display,leader_party_id,race_id_race,race_slug_race,url_race,state_page_url_race,ap_polls_page_race,edison_exit_polls_page_race,race_type_race,election_type_race,election_date_race,runoff_race,race_name_race,office_race,officeid_race,race_rating_race,seat_race,seat_name_race,state_id_race,state_slug_race,state_name_race,state_nyt_abbrev_race,state_shape_race,state_aspect_ratio_race,party_id_race,uncontested_race,report_race,result_race,result_source_race,gain_race,lost_seat_race,votes_race,absentee_votes_race,absentee_counties_race,absentee_count_progress_race,poll_display_race,poll_countdown_display_race,poll_waiting_display_race,poll_time_race,poll_time_short_race,precincts_reporting_race,precincts_total_race,reporting_display_race,reporting_value_race,eevp_race,tot_exp_vote_race,eevp_source_race,eevp_value_race,eevp_display_race,county_data_source_race,incumbent_party_race,no_forecast_race,last_updated_race,has_incumbent_race,leader_margin_value_race,leader_margin_votes_race,leader_margin_display_race,leader_margin_name_display_race,leader_party_id_race,expectations_text_race,expectations_text_short_race,absentee_ballot_deadline_race,absentee_postmark_deadline_race,winner_called_timestamp_race
06079,San Luis Obispo,154919,111021,112,112,Released as a separate subtotal as first report of the night,100,115252,>98%,>98% reported,edison,6,all,128384,83259,71660,65163,45858,2020-11-16T15:47:56Z,7.48714,D+7,Carbajal +7,democrat,CA-G-H-24-2020-11-03,ca-house-general-district-024-2020-11-03,https://www.nytimes.com/interactive/2020/11/03/us/elections/results-california-house-district-24.html,https://www.nytimes.com/interactive/2020/11/03/us/elections/results-california.html,https://www.nytimes.com/interactive/2020/11/03/us/elections/ap-polls-california.html,https://www.nytimes.com/interactive/2020/11/03/us/elections/exit-polls-california.html,house,general,2020-11-03,FALSE,U.S. House District 24,U.S. House,H,solid-dem,24,District 24,CA,california,California,Calif.,vertical,0.5,"",FALSE,TRUE,winner,AP,FALSE,"",353783,255169,2,unknown,Polls close at 11 p.m. Eastern time.,Polls close in,Polls have closed.,2020-11-04T04:00:00.000Z,11 p.m.,364,370,98% reporting,98%,99,356000,edison,>98%,>98% reported,edison,democrat,FALSE,2020-11-18T17:19:04Z,TRUE,17.5031,61923,D+18,Carbajal +18,democrat,"All active registered voters were sent mail ballots, and late-arriving mail ballots and provisional ballots will be counted in the days and weeks after the election.","All active registered voters were sent mail ballots, and late-arriving mail ballots and provisional ballots will be counted in the days and weeks after the election.",17,0,1604465463991
06083,Santa Barbara,193675,144148,220,226,Released as a separate subtotal as first report of the night,97,199120,97%,97% reported,edison,4,unknown,155496,121227,72448,95180,48968,2020-11-16T15:47:54Z,25.18601,D+25,Carbajal +25,democrat,CA-G-H-24-2020-11-03,ca-house-general-district-024-2020-11-03,https://www.nytimes.com/interactive/2020/11/03/us/elections/results-california-house-district-24.html,https://www.nytimes.com/interactive/2020/11/03/us/elections/results-california.html,https://www.nytimes.com/interactive/2020/11/03/us/elections/ap-polls-california.html,https://www.nytimes.com/interactive/2020/11/03/us/elections/exit-polls-california.html,house,general,2020-11-03,FALSE,U.S. House District 24,U.S. House,H,solid-dem,24,District 24,CA,california,California,Calif.,vertical,0.5,"",FALSE,TRUE,winner,AP,FALSE,"",353783,255169,2,unknown,Polls close at 11 p.m. Eastern time.,Polls close in,Polls have closed.,2020-11-04T04:00:00.000Z,11 p.m.,364,370,98% reporting,98%,99,356000,edison,>98%,>98% reported,edison,democrat,FALSE,2020-11-18T17:19:04Z,TRUE,17.5031,61923,D+18,Carbajal +18,democrat,"All active registered voters were sent mail ballots, and late-arriving mail ballots and provisional ballots will be counted in the days and weeks after the election.","All active registered voters were sent mail ballots, and late-arriving mail ballots and provisional ballots will be counted in the days and weeks after the election.",17,0,1604465463991
06111,Ventura,5189,0,32,32,Released as a separate subtotal as first report of the night,100,5103,>98%,>98% reported,edison,2,some,263890,3367,1822,0,0,2020-11-17T23:41:10Z,29.77452,D+30,Carbajal +30,democrat,CA-G-H-24-2020-11-03,ca-house-general-district-024-2020-11-03,https://www.nytimes.com/interactive/2020/11/03/us/elections/results-california-house-district-24.html,https://www.nytimes.com/interactive/2020/11/03/us/elections/results-california.html,https://www.nytimes.com/interactive/2020/11/03/us/elections/ap-polls-california.html,https://www.nytimes.com/interactive/2020/11/03/us/elections/exit-polls-california.html,house,general,2020-11-03,FALSE,U.S. House District 24,U.S. House,H,solid-dem,24,District 24,CA,california,California,Calif.,vertical,0.5,"",FALSE,TRUE,winner,AP,FALSE,"",353783,255169,2,unknown,Polls close at 11 p.m. Eastern time.,Polls close in,Polls have closed.,2020-11-04T04:00:00.000Z,11 p.m.,364,370,98% reporting,98%,99,356000,edison,>98%,>98% reported,edison,democrat,FALSE,2020-11-18T17:19:04Z,TRUE,17.5031,61923,D+18,Carbajal +18,democrat,"All active registered voters were sent mail ballots, and late-arriving mail ballots and provisional ballots will be counted in the days and weeks after the election.","All active registered voters were sent mail ballots, and late-arriving mail ballots and provisional ballots will be counted in the days and weeks after the election.",17,0,1604465463991
