fips,name,votes,absentee_votes,reporting,precincts,absentee_method,eevp,tot_exp_vote,eevp_value,eevp_display,eevp_source,turnout_stage,absentee_count_progress,absentee_max_ballots,results_omari,results_johnsonl,results_moorem,results_absentee_omari,results_absentee_johnsonl,results_absentee_moorem,last_updated,leader_margin_value,leader_margin_display,leader_margin_name_display,leader_party_id,race_id_race,race_slug_race,url_race,state_page_url_race,ap_polls_page_race,edison_exit_polls_page_race,race_type_race,election_type_race,election_date_race,runoff_race,race_name_race,office_race,officeid_race,race_rating_race,seat_race,seat_name_race,state_id_race,state_slug_race,state_name_race,state_nyt_abbrev_race,state_shape_race,state_aspect_ratio_race,party_id_race,uncontested_race,report_race,result_race,result_source_race,gain_race,lost_seat_race,votes_race,absentee_votes_race,absentee_count_progress_race,poll_display_race,poll_countdown_display_race,poll_waiting_display_race,poll_time_race,poll_time_short_race,precincts_reporting_race,precincts_total_race,reporting_display_race,reporting_value_race,eevp_race,tot_exp_vote_race,eevp_source_race,eevp_value_race,eevp_display_race,county_data_source_race,incumbent_party_race,no_forecast_race,last_updated_race,has_incumbent_race,leader_margin_value_race,leader_margin_votes_race,leader_margin_display_race,leader_margin_name_display_race,leader_party_id_race,absentee_ballot_deadline_race,absentee_postmark_deadline_race,winner_called_timestamp_race
27003,Anoka,29465,0,18,19,Merged into voters' home precincts and released with cumulative results,96,30852,96%,96% reported,edison,2,some,34809,14367,11214,3884,0,0,0,2020-11-16T15:48:26Z,10.70083,D+11,Omar +11,democrat,MN-G-H-5-2020-11-03,mn-house-general-district-005-2020-11-03,https://www.nytimes.com/interactive/2020/11/03/us/elections/results-minnesota-house-district-5.html,https://www.nytimes.com/interactive/2020/11/03/us/elections/results-minnesota.html,https://www.nytimes.com/interactive/2020/11/03/us/elections/ap-polls-minnesota.html,https://www.nytimes.com/interactive/2020/11/03/us/elections/exit-polls-minnesota.html,house,general,2020-11-03,FALSE,U.S. House District 5,U.S. House,H,solid-dem,5,District 5,MN,minnesota,Minnesota,Minn.,vertical,0.9,"",FALSE,TRUE,winner,AP,FALSE,"",396776,0,unknown,Polls close at 9 p.m. Eastern time.,Polls close in,Polls have closed.,2020-11-04T02:00:00.000Z,9 p.m.,220,236,93% reporting,93%,93,427000,edison,93%,93% reported,edison,democrat,FALSE,2020-11-18T17:18:17Z,TRUE,38.57139,153042,D+39,Omar +39,democrat,7,0,1604457888849
27053,Hennepin,365460,0,201,216,Merged into voters' home precincts and released with cumulative results,93,393447,93%,93% reported,edison,2,unknown,179553,240434,91101,33925,0,0,0,2020-11-16T15:47:41Z,40.86165,D+41,Omar +41,democrat,MN-G-H-5-2020-11-03,mn-house-general-district-005-2020-11-03,https://www.nytimes.com/interactive/2020/11/03/us/elections/results-minnesota-house-district-5.html,https://www.nytimes.com/interactive/2020/11/03/us/elections/results-minnesota.html,https://www.nytimes.com/interactive/2020/11/03/us/elections/ap-polls-minnesota.html,https://www.nytimes.com/interactive/2020/11/03/us/elections/exit-polls-minnesota.html,house,general,2020-11-03,FALSE,U.S. House District 5,U.S. House,H,solid-dem,5,District 5,MN,minnesota,Minnesota,Minn.,vertical,0.9,"",FALSE,TRUE,winner,AP,FALSE,"",396776,0,unknown,Polls close at 9 p.m. Eastern time.,Polls close in,Polls have closed.,2020-11-04T02:00:00.000Z,9 p.m.,220,236,93% reporting,93%,93,427000,edison,93%,93% reported,edison,democrat,FALSE,2020-11-18T17:18:17Z,TRUE,38.57139,153042,D+39,Omar +39,democrat,7,0,1604457888849
27123,Ramsey,1851,0,1,1,Merged into voters' home precincts and released with cumulative results,84,2200,84%,84% reported,edison,2,unknown,61280,1119,563,169,0,0,0,2020-11-16T15:47:44Z,30.03782,D+30,Omar +30,democrat,MN-G-H-5-2020-11-03,mn-house-general-district-005-2020-11-03,https://www.nytimes.com/interactive/2020/11/03/us/elections/results-minnesota-house-district-5.html,https://www.nytimes.com/interactive/2020/11/03/us/elections/results-minnesota.html,https://www.nytimes.com/interactive/2020/11/03/us/elections/ap-polls-minnesota.html,https://www.nytimes.com/interactive/2020/11/03/us/elections/exit-polls-minnesota.html,house,general,2020-11-03,FALSE,U.S. House District 5,U.S. House,H,solid-dem,5,District 5,MN,minnesota,Minnesota,Minn.,vertical,0.9,"",FALSE,TRUE,winner,AP,FALSE,"",396776,0,unknown,Polls close at 9 p.m. Eastern time.,Polls close in,Polls have closed.,2020-11-04T02:00:00.000Z,9 p.m.,220,236,93% reporting,93%,93,427000,edison,93%,93% reported,edison,democrat,FALSE,2020-11-18T17:18:17Z,TRUE,38.57139,153042,D+39,Omar +39,democrat,7,0,1604457888849
