fips,name,votes,absentee_votes,reporting,precincts,absentee_method,eevp,tot_exp_vote,eevp_value,eevp_display,eevp_source,turnout_stage,absentee_count_progress,results_malliotakisn,results_rosem,results_absentee_malliotakisn,results_absentee_rosem,last_updated,leader_margin_value,leader_margin_display,leader_margin_name_display,leader_party_id,race_id_race,race_slug_race,url_race,state_page_url_race,ap_polls_page_race,edison_exit_polls_page_race,race_type_race,election_type_race,election_date_race,runoff_race,race_name_race,office_race,officeid_race,nyt_race_description_race,race_rating_race,nyt_key_race_race,seat_race,seat_name_race,state_id_race,state_slug_race,state_name_race,state_nyt_abbrev_race,state_shape_race,party_id_race,uncontested_race,report_race,result_race,gain_race,lost_seat_race,votes_race,absentee_votes_race,absentee_count_progress_race,poll_display_race,poll_countdown_display_race,poll_waiting_display_race,poll_time_race,poll_time_short_race,precincts_reporting_race,precincts_total_race,reporting_display_race,reporting_value_race,eevp_race,tot_exp_vote_race,eevp_source_race,eevp_value_race,eevp_display_race,county_data_source_race,incumbent_party_race,no_forecast_race,last_updated_race,has_incumbent_race,leader_margin_value_race,leader_margin_votes_race,leader_margin_display_race,leader_margin_name_display_race,leader_party_id_race,expectations_text_race,expectations_text_short_race,absentee_ballot_deadline_race,absentee_postmark_deadline_race
36047,Brooklyn,59457,0,116,148,Merged into voters' home precincts AFTER election night,78,76100,78%,78% reported,edison,2,unknown,31756,27701,0,0,2020-11-16T15:48:08Z,6.82005,R+7,Malliotakis +7,republican,NY-G-H-11-2020-11-03,ny-house-general-district-011-2020-11-03,https://www.nytimes.com/interactive/2020/11/03/us/elections/results-new-york-house-district-11.html,https://www.nytimes.com/interactive/2020/11/03/us/elections/results-new-york.html,https://www.nytimes.com/interactive/2020/11/03/us/elections/ap-polls-new-york.html,https://www.nytimes.com/interactive/2020/11/03/us/elections/exit-polls-new-york.html,house,general,2020-11-03,FALSE,U.S. House District 11,U.S. House,H,"Nicole Malliotakis, a Republican endorsed by President Trump, aims to unseat Representative Max Rose, the incumbent who became, in 2018, the first Democrat to win over this Staten Island district since 2010. ",tossup,TRUE,11,District 11,NY,new-york,New York,N.Y.,horizontal,"",FALSE,TRUE,"",FALSE,"",235606,0,unknown,Polls close at 9 p.m. Eastern time.,Polls close in,Polls have closed.,2020-11-04T02:00:00.000Z,9 p.m.,371,437,85% reporting,85%,85,276000,edison,85%,85% reported,edison,democrat,FALSE,2020-11-18T17:17:49Z,TRUE,15.77125,37158,R+16,Malliotakis +16,republican,"Only unofficial results from in-person early and Election Day voting were released on election night. Mail ballots, which had until Nov. 10 to arrive if postmarked by Election Day, are still being counted. It took weeks to finish counting ballots during the state's June primary.",Only unofficial results from in-person early and Election Day voting were released on election night. Mail ballots are still being counted.,7,0
36085,Staten Island,176149,0,255,289,Merged into voters' home precincts AFTER election night,88,199687,88%,88% reported,edison,2,unknown,104626,71523,0,0,2020-11-16T15:48:09Z,18.79261,R+19,Malliotakis +19,republican,NY-G-H-11-2020-11-03,ny-house-general-district-011-2020-11-03,https://www.nytimes.com/interactive/2020/11/03/us/elections/results-new-york-house-district-11.html,https://www.nytimes.com/interactive/2020/11/03/us/elections/results-new-york.html,https://www.nytimes.com/interactive/2020/11/03/us/elections/ap-polls-new-york.html,https://www.nytimes.com/interactive/2020/11/03/us/elections/exit-polls-new-york.html,house,general,2020-11-03,FALSE,U.S. House District 11,U.S. House,H,"Nicole Malliotakis, a Republican endorsed by President Trump, aims to unseat Representative Max Rose, the incumbent who became, in 2018, the first Democrat to win over this Staten Island district since 2010. ",tossup,TRUE,11,District 11,NY,new-york,New York,N.Y.,horizontal,"",FALSE,TRUE,"",FALSE,"",235606,0,unknown,Polls close at 9 p.m. Eastern time.,Polls close in,Polls have closed.,2020-11-04T02:00:00.000Z,9 p.m.,371,437,85% reporting,85%,85,276000,edison,85%,85% reported,edison,democrat,FALSE,2020-11-18T17:17:49Z,TRUE,15.77125,37158,R+16,Malliotakis +16,republican,"Only unofficial results from in-person early and Election Day voting were released on election night. Mail ballots, which had until Nov. 10 to arrive if postmarked by Election Day, are still being counted. It took weeks to finish counting ballots during the state's June primary.",Only unofficial results from in-person early and Election Day voting were released on election night. Mail ballots are still being counted.,7,0
