fips,name,votes,absentee_votes,reporting,precincts,absentee_method,eevp,tot_exp_vote,eevp_value,eevp_display,eevp_source,turnout_stage,absentee_count_progress,absentee_max_ballots,results_pflugera,results_hoggj,results_codyw,results_absentee_pflugera,results_absentee_hoggj,results_absentee_codyw,last_updated,leader_margin_value,leader_margin_display,leader_margin_name_display,leader_party_id,race_id_race,race_slug_race,url_race,state_page_url_race,ap_polls_page_race,edison_exit_polls_page_race,race_type_race,election_type_race,election_date_race,runoff_race,race_name_race,office_race,officeid_race,race_rating_race,seat_race,seat_name_race,state_id_race,state_slug_race,state_name_race,state_nyt_abbrev_race,state_shape_race,party_id_race,uncontested_race,report_race,result_race,result_source_race,gain_race,lost_seat_race,votes_race,absentee_votes_race,absentee_counties_race,absentee_count_progress_race,poll_display_race,poll_countdown_display_race,poll_waiting_display_race,poll_time_race,poll_time_short_race,precincts_reporting_race,precincts_total_race,reporting_display_race,reporting_value_race,eevp_race,tot_exp_vote_race,eevp_source_race,eevp_value_race,eevp_display_race,county_data_source_race,incumbent_party_race,no_forecast_race,last_updated_race,has_incumbent_race,leader_margin_value_race,leader_margin_votes_race,leader_margin_display_race,leader_margin_name_display_race,leader_party_id_race,expectations_text_race,expectations_text_short_race,absentee_ballot_deadline_race,absentee_postmark_deadline_race,winner_called_timestamp_race
48003,Andrews,5800,4735,5,5,Released as a precinct as first report of the night,91,6357,91%,91% reported,edison,2,unknown,4805,4893,798,109,4003,653,79,2020-11-19T21:51:03Z,70.60345,R+71,Pfluger +71,republican,TX-G-H-11-2020-11-03,tx-house-general-district-011-2020-11-03,https://www.nytimes.com/interactive/2020/11/03/us/elections/results-texas-house-district-11.html,https://www.nytimes.com/interactive/2020/11/03/us/elections/results-texas.html,https://www.nytimes.com/interactive/2020/11/03/us/elections/ap-polls-texas.html,https://www.nytimes.com/interactive/2020/11/03/us/elections/exit-polls-texas.html,house,general,2020-11-03,FALSE,U.S. House District 11,U.S. House,H,solid-rep,11,District 11,TX,texas,Texas,Texas,horizontal,"",FALSE,TRUE,winner,AP,FALSE,"",291572,232084,29,unknown,Most polls close at 8 p.m. Eastern time.,Polls close in,Polls have closed.,2020-11-04T01:00:00.000Z,8 p.m.,318,353,90% reporting,90%,92,321000,edison,92%,92% reported,edison,republican,FALSE,2020-11-19T21:51:15Z,FALSE,61.38209,178973,R+61,Pfluger +61,republican,"","",1,0,1604457873285
48049,Brown,15632,12288,16,19,Released as a precinct as first report of the night,87,18003,87%,87% reported,edison,2,some,14372,13470,1911,251,10581,1537,170,2020-11-19T21:51:06Z,73.94447,R+74,Pfluger +74,republican,TX-G-H-11-2020-11-03,tx-house-general-district-011-2020-11-03,https://www.nytimes.com/interactive/2020/11/03/us/elections/results-texas-house-district-11.html,https://www.nytimes.com/interactive/2020/11/03/us/elections/results-texas.html,https://www.nytimes.com/interactive/2020/11/03/us/elections/ap-polls-texas.html,https://www.nytimes.com/interactive/2020/11/03/us/elections/exit-polls-texas.html,house,general,2020-11-03,FALSE,U.S. House District 11,U.S. House,H,solid-rep,11,District 11,TX,texas,Texas,Texas,horizontal,"",FALSE,TRUE,winner,AP,FALSE,"",291572,232084,29,unknown,Most polls close at 8 p.m. Eastern time.,Polls close in,Polls have closed.,2020-11-04T01:00:00.000Z,8 p.m.,318,353,90% reporting,90%,92,321000,edison,92%,92% reported,edison,republican,FALSE,2020-11-19T21:51:15Z,FALSE,61.38209,178973,R+61,Pfluger +61,republican,"","",1,0,1604457873285
48059,Callahan,6613,5327,7,8,Released as a precinct as first report of the night,92,7178,92%,92% reported,edison,2,unknown,4184,5840,653,120,4702,544,81,2020-11-19T21:51:03Z,78.43641,R+78,Pfluger +78,republican,TX-G-H-11-2020-11-03,tx-house-general-district-011-2020-11-03,https://www.nytimes.com/interactive/2020/11/03/us/elections/results-texas-house-district-11.html,https://www.nytimes.com/interactive/2020/11/03/us/elections/results-texas.html,https://www.nytimes.com/interactive/2020/11/03/us/elections/ap-polls-texas.html,https://www.nytimes.com/interactive/2020/11/03/us/elections/exit-polls-texas.html,house,general,2020-11-03,FALSE,U.S. House District 11,U.S. House,H,solid-rep,11,District 11,TX,texas,Texas,Texas,horizontal,"",FALSE,TRUE,winner,AP,FALSE,"",291572,232084,29,unknown,Most polls close at 8 p.m. Eastern time.,Polls close in,Polls have closed.,2020-11-04T01:00:00.000Z,8 p.m.,318,353,90% reporting,90%,92,321000,edison,92%,92% reported,edison,republican,FALSE,2020-11-19T21:51:15Z,FALSE,61.38209,178973,R+61,Pfluger +61,republican,"","",1,0,1604457873285
48081,Coke,1738,1209,5,5,Released as a precinct as first report of the night,95,1836,95%,95% reported,edison,2,unknown,1206,1534,158,46,1064,118,27,2020-11-19T21:51:04Z,79.17146,R+79,Pfluger +79,republican,TX-G-H-11-2020-11-03,tx-house-general-district-011-2020-11-03,https://www.nytimes.com/interactive/2020/11/03/us/elections/results-texas-house-district-11.html,https://www.nytimes.com/interactive/2020/11/03/us/elections/results-texas.html,https://www.nytimes.com/interactive/2020/11/03/us/elections/ap-polls-texas.html,https://www.nytimes.com/interactive/2020/11/03/us/elections/exit-polls-texas.html,house,general,2020-11-03,FALSE,U.S. House District 11,U.S. House,H,solid-rep,11,District 11,TX,texas,Texas,Texas,horizontal,"",FALSE,TRUE,winner,AP,FALSE,"",291572,232084,29,unknown,Most polls close at 8 p.m. Eastern time.,Polls close in,Polls have closed.,2020-11-04T01:00:00.000Z,8 p.m.,318,353,90% reporting,90%,92,321000,edison,92%,92% reported,edison,republican,FALSE,2020-11-19T21:51:15Z,FALSE,61.38209,178973,R+61,Pfluger +61,republican,"","",1,0,1604457873285
48083,Coleman,4054,3494,4,5,Released as a precinct as first report of the night,86,4690,86%,86% reported,edison,2,some,3691,3611,400,43,3108,351,35,2020-11-19T21:51:03Z,79.20572,R+79,Pfluger +79,republican,TX-G-H-11-2020-11-03,tx-house-general-district-011-2020-11-03,https://www.nytimes.com/interactive/2020/11/03/us/elections/results-texas-house-district-11.html,https://www.nytimes.com/interactive/2020/11/03/us/elections/results-texas.html,https://www.nytimes.com/interactive/2020/11/03/us/elections/ap-polls-texas.html,https://www.nytimes.com/interactive/2020/11/03/us/elections/exit-polls-texas.html,house,general,2020-11-03,FALSE,U.S. House District 11,U.S. House,H,solid-rep,11,District 11,TX,texas,Texas,Texas,horizontal,"",FALSE,TRUE,winner,AP,FALSE,"",291572,232084,29,unknown,Most polls close at 8 p.m. Eastern time.,Polls close in,Polls have closed.,2020-11-04T01:00:00.000Z,8 p.m.,318,353,90% reporting,90%,92,321000,edison,92%,92% reported,edison,republican,FALSE,2020-11-19T21:51:15Z,FALSE,61.38209,178973,R+61,Pfluger +61,republican,"","",1,0,1604457873285
48093,Comanche,5911,4550,13,15,Released as a precinct as first report of the night,88,6748,88%,88% reported,edison,2,unknown,4034,5006,805,100,3839,646,65,2020-11-19T21:51:01Z,71.07088,R+71,Pfluger +71,republican,TX-G-H-11-2020-11-03,tx-house-general-district-011-2020-11-03,https://www.nytimes.com/interactive/2020/11/03/us/elections/results-texas-house-district-11.html,https://www.nytimes.com/interactive/2020/11/03/us/elections/results-texas.html,https://www.nytimes.com/interactive/2020/11/03/us/elections/ap-polls-texas.html,https://www.nytimes.com/interactive/2020/11/03/us/elections/exit-polls-texas.html,house,general,2020-11-03,FALSE,U.S. House District 11,U.S. House,H,solid-rep,11,District 11,TX,texas,Texas,Texas,horizontal,"",FALSE,TRUE,winner,AP,FALSE,"",291572,232084,29,unknown,Most polls close at 8 p.m. Eastern time.,Polls close in,Polls have closed.,2020-11-04T01:00:00.000Z,8 p.m.,318,353,90% reporting,90%,92,321000,edison,92%,92% reported,edison,republican,FALSE,2020-11-19T21:51:15Z,FALSE,61.38209,178973,R+61,Pfluger +61,republican,"","",1,0,1604457873285
48095,Concho,1246,773,8,9,Released as a precinct as first report of the night,91,1376,91%,91% reported,edison,2,unknown,569,1052,172,22,637,121,15,2020-11-16T15:48:29Z,70.626,R+71,Pfluger +71,republican,TX-G-H-11-2020-11-03,tx-house-general-district-011-2020-11-03,https://www.nytimes.com/interactive/2020/11/03/us/elections/results-texas-house-district-11.html,https://www.nytimes.com/interactive/2020/11/03/us/elections/results-texas.html,https://www.nytimes.com/interactive/2020/11/03/us/elections/ap-polls-texas.html,https://www.nytimes.com/interactive/2020/11/03/us/elections/exit-polls-texas.html,house,general,2020-11-03,FALSE,U.S. House District 11,U.S. House,H,solid-rep,11,District 11,TX,texas,Texas,Texas,horizontal,"",FALSE,TRUE,winner,AP,FALSE,"",291572,232084,29,unknown,Most polls close at 8 p.m. Eastern time.,Polls close in,Polls have closed.,2020-11-04T01:00:00.000Z,8 p.m.,318,353,90% reporting,90%,92,321000,edison,92%,92% reported,edison,republican,FALSE,2020-11-19T21:51:15Z,FALSE,61.38209,178973,R+61,Pfluger +61,republican,"","",1,0,1604457873285
48115,Dawson,3574,2773,8,10,Released as a precinct as first report of the night,78,4595,78%,78% reported,edison,2,unknown,3346,2697,826,51,2157,584,32,2020-11-16T15:48:30Z,52.35031,R+52,Pfluger +52,republican,TX-G-H-11-2020-11-03,tx-house-general-district-011-2020-11-03,https://www.nytimes.com/interactive/2020/11/03/us/elections/results-texas-house-district-11.html,https://www.nytimes.com/interactive/2020/11/03/us/elections/results-texas.html,https://www.nytimes.com/interactive/2020/11/03/us/elections/ap-polls-texas.html,https://www.nytimes.com/interactive/2020/11/03/us/elections/exit-polls-texas.html,house,general,2020-11-03,FALSE,U.S. House District 11,U.S. House,H,solid-rep,11,District 11,TX,texas,Texas,Texas,horizontal,"",FALSE,TRUE,winner,AP,FALSE,"",291572,232084,29,unknown,Most polls close at 8 p.m. Eastern time.,Polls close in,Polls have closed.,2020-11-04T01:00:00.000Z,8 p.m.,318,353,90% reporting,90%,92,321000,edison,92%,92% reported,edison,republican,FALSE,2020-11-19T21:51:15Z,FALSE,61.38209,178973,R+61,Pfluger +61,republican,"","",1,0,1604457873285
48133,Eastland,8020,6311,9,10,Released as a precinct as first report of the night,90,8950,90%,90% reported,edison,2,unknown,5907,6979,899,142,5498,720,93,2020-11-19T21:51:00Z,75.81047,R+76,Pfluger +76,republican,TX-G-H-11-2020-11-03,tx-house-general-district-011-2020-11-03,https://www.nytimes.com/interactive/2020/11/03/us/elections/results-texas-house-district-11.html,https://www.nytimes.com/interactive/2020/11/03/us/elections/results-texas.html,https://www.nytimes.com/interactive/2020/11/03/us/elections/ap-polls-texas.html,https://www.nytimes.com/interactive/2020/11/03/us/elections/exit-polls-texas.html,house,general,2020-11-03,FALSE,U.S. House District 11,U.S. House,H,solid-rep,11,District 11,TX,texas,Texas,Texas,horizontal,"",FALSE,TRUE,winner,AP,FALSE,"",291572,232084,29,unknown,Most polls close at 8 p.m. Eastern time.,Polls close in,Polls have closed.,2020-11-04T01:00:00.000Z,8 p.m.,318,353,90% reporting,90%,92,321000,edison,92%,92% reported,edison,republican,FALSE,2020-11-19T21:51:15Z,FALSE,61.38209,178973,R+61,Pfluger +61,republican,"","",1,0,1604457873285
48135,Ector,43330,34486,38,41,Released as a precinct as first report of the night,92,47014,92%,92% reported,edison,2,unknown,35298,31848,10501,981,25396,8428,662,2020-11-19T21:50:57Z,49.2661,R+49,Pfluger +49,republican,TX-G-H-11-2020-11-03,tx-house-general-district-011-2020-11-03,https://www.nytimes.com/interactive/2020/11/03/us/elections/results-texas-house-district-11.html,https://www.nytimes.com/interactive/2020/11/03/us/elections/results-texas.html,https://www.nytimes.com/interactive/2020/11/03/us/elections/ap-polls-texas.html,https://www.nytimes.com/interactive/2020/11/03/us/elections/exit-polls-texas.html,house,general,2020-11-03,FALSE,U.S. House District 11,U.S. House,H,solid-rep,11,District 11,TX,texas,Texas,Texas,horizontal,"",FALSE,TRUE,winner,AP,FALSE,"",291572,232084,29,unknown,Most polls close at 8 p.m. Eastern time.,Polls close in,Polls have closed.,2020-11-04T01:00:00.000Z,8 p.m.,318,353,90% reporting,90%,92,321000,edison,92%,92% reported,edison,republican,FALSE,2020-11-19T21:51:15Z,FALSE,61.38209,178973,R+61,Pfluger +61,republican,"","",1,0,1604457873285
48143,Erath,9030,7130,11,12,Released as a precinct as first report of the night,94,9561,94%,94% reported,edison,2,unknown,13085,7453,1351,226,5895,1084,151,2020-11-19T21:51:03Z,67.57475,R+68,Pfluger +68,republican,TX-G-H-11-2020-11-03,tx-house-general-district-011-2020-11-03,https://www.nytimes.com/interactive/2020/11/03/us/elections/results-texas-house-district-11.html,https://www.nytimes.com/interactive/2020/11/03/us/elections/results-texas.html,https://www.nytimes.com/interactive/2020/11/03/us/elections/ap-polls-texas.html,https://www.nytimes.com/interactive/2020/11/03/us/elections/exit-polls-texas.html,house,general,2020-11-03,FALSE,U.S. House District 11,U.S. House,H,solid-rep,11,District 11,TX,texas,Texas,Texas,horizontal,"",FALSE,TRUE,winner,AP,FALSE,"",291572,232084,29,unknown,Most polls close at 8 p.m. Eastern time.,Polls close in,Polls have closed.,2020-11-04T01:00:00.000Z,8 p.m.,318,353,90% reporting,90%,92,321000,edison,92%,92% reported,edison,republican,FALSE,2020-11-19T21:51:15Z,FALSE,61.38209,178973,R+61,Pfluger +61,republican,"","",1,0,1604457873285
48173,Glasscock,649,486,4,5,Released as a precinct as first report of the night,84,777,84%,84% reported,edison,2,unknown,495,612,32,5,454,28,4,2020-11-16T15:48:31Z,89.36826,R+89,Pfluger +89,republican,TX-G-H-11-2020-11-03,tx-house-general-district-011-2020-11-03,https://www.nytimes.com/interactive/2020/11/03/us/elections/results-texas-house-district-11.html,https://www.nytimes.com/interactive/2020/11/03/us/elections/results-texas.html,https://www.nytimes.com/interactive/2020/11/03/us/elections/ap-polls-texas.html,https://www.nytimes.com/interactive/2020/11/03/us/elections/exit-polls-texas.html,house,general,2020-11-03,FALSE,U.S. House District 11,U.S. House,H,solid-rep,11,District 11,TX,texas,Texas,Texas,horizontal,"",FALSE,TRUE,winner,AP,FALSE,"",291572,232084,29,unknown,Most polls close at 8 p.m. Eastern time.,Polls close in,Polls have closed.,2020-11-04T01:00:00.000Z,8 p.m.,318,353,90% reporting,90%,92,321000,edison,92%,92% reported,edison,republican,FALSE,2020-11-19T21:51:15Z,FALSE,61.38209,178973,R+61,Pfluger +61,republican,"","",1,0,1604457873285
48221,Hood,31596,25057,15,16,Released as a precinct as first report of the night,100,31581,>98%,>98% reported,edison,6,some,23816,25967,5066,563,20445,4267,345,2020-11-19T21:51:10Z,66.15078,R+66,Pfluger +66,republican,TX-G-H-11-2020-11-03,tx-house-general-district-011-2020-11-03,https://www.nytimes.com/interactive/2020/11/03/us/elections/results-texas-house-district-11.html,https://www.nytimes.com/interactive/2020/11/03/us/elections/results-texas.html,https://www.nytimes.com/interactive/2020/11/03/us/elections/ap-polls-texas.html,https://www.nytimes.com/interactive/2020/11/03/us/elections/exit-polls-texas.html,house,general,2020-11-03,FALSE,U.S. House District 11,U.S. House,H,solid-rep,11,District 11,TX,texas,Texas,Texas,horizontal,"",FALSE,TRUE,winner,AP,FALSE,"",291572,232084,29,unknown,Most polls close at 8 p.m. Eastern time.,Polls close in,Polls have closed.,2020-11-04T01:00:00.000Z,8 p.m.,318,353,90% reporting,90%,92,321000,edison,92%,92% reported,edison,republican,FALSE,2020-11-19T21:51:15Z,FALSE,61.38209,178973,R+61,Pfluger +61,republican,"","",1,0,1604457873285
48235,Irion,879,663,4,5,Released as a precinct as first report of the night,90,980,90%,90% reported,edison,2,unknown,640,757,109,13,567,86,10,2020-11-16T15:48:32Z,73.72014,R+74,Pfluger +74,republican,TX-G-H-11-2020-11-03,tx-house-general-district-011-2020-11-03,https://www.nytimes.com/interactive/2020/11/03/us/elections/results-texas-house-district-11.html,https://www.nytimes.com/interactive/2020/11/03/us/elections/results-texas.html,https://www.nytimes.com/interactive/2020/11/03/us/elections/ap-polls-texas.html,https://www.nytimes.com/interactive/2020/11/03/us/elections/exit-polls-texas.html,house,general,2020-11-03,FALSE,U.S. House District 11,U.S. House,H,solid-rep,11,District 11,TX,texas,Texas,Texas,horizontal,"",FALSE,TRUE,winner,AP,FALSE,"",291572,232084,29,unknown,Most polls close at 8 p.m. Eastern time.,Polls close in,Polls have closed.,2020-11-04T01:00:00.000Z,8 p.m.,318,353,90% reporting,90%,92,321000,edison,92%,92% reported,edison,republican,FALSE,2020-11-19T21:51:15Z,FALSE,61.38209,178973,R+61,Pfluger +61,republican,"","",1,0,1604457873285
48267,Kimble,2234,1763,7,8,Released as a precinct as first report of the night,89,2509,89%,89% reported,edison,2,unknown,1950,1963,231,40,1548,187,28,2020-11-16T15:48:32Z,77.5291,R+78,Pfluger +78,republican,TX-G-H-11-2020-11-03,tx-house-general-district-011-2020-11-03,https://www.nytimes.com/interactive/2020/11/03/us/elections/results-texas-house-district-11.html,https://www.nytimes.com/interactive/2020/11/03/us/elections/results-texas.html,https://www.nytimes.com/interactive/2020/11/03/us/elections/ap-polls-texas.html,https://www.nytimes.com/interactive/2020/11/03/us/elections/exit-polls-texas.html,house,general,2020-11-03,FALSE,U.S. House District 11,U.S. House,H,solid-rep,11,District 11,TX,texas,Texas,Texas,horizontal,"",FALSE,TRUE,winner,AP,FALSE,"",291572,232084,29,unknown,Most polls close at 8 p.m. Eastern time.,Polls close in,Polls have closed.,2020-11-04T01:00:00.000Z,8 p.m.,318,353,90% reporting,90%,92,321000,edison,92%,92% reported,edison,republican,FALSE,2020-11-19T21:51:15Z,FALSE,61.38209,178973,R+61,Pfluger +61,republican,"","",1,0,1604457873285
48299,Llano,12388,10986,9,10,Released as a precinct as first report of the night,92,13408,92%,92% reported,edison,2,unknown,11573,9986,2208,194,8819,2025,142,2020-11-19T21:51:04Z,62.78657,R+63,Pfluger +63,republican,TX-G-H-11-2020-11-03,tx-house-general-district-011-2020-11-03,https://www.nytimes.com/interactive/2020/11/03/us/elections/results-texas-house-district-11.html,https://www.nytimes.com/interactive/2020/11/03/us/elections/results-texas.html,https://www.nytimes.com/interactive/2020/11/03/us/elections/ap-polls-texas.html,https://www.nytimes.com/interactive/2020/11/03/us/elections/exit-polls-texas.html,house,general,2020-11-03,FALSE,U.S. House District 11,U.S. House,H,solid-rep,11,District 11,TX,texas,Texas,Texas,horizontal,"",FALSE,TRUE,winner,AP,FALSE,"",291572,232084,29,unknown,Most polls close at 8 p.m. Eastern time.,Polls close in,Polls have closed.,2020-11-04T01:00:00.000Z,8 p.m.,318,353,90% reporting,90%,92,321000,edison,92%,92% reported,edison,republican,FALSE,2020-11-19T21:51:15Z,FALSE,61.38209,178973,R+61,Pfluger +61,republican,"","",1,0,1604457873285
48317,Martin,2109,1669,6,6,Released as a precinct as first report of the night,93,2267,93%,93% reported,edison,2,unknown,738,1811,266,32,1446,201,22,2020-11-16T15:48:34Z,73.25747,R+73,Pfluger +73,republican,TX-G-H-11-2020-11-03,tx-house-general-district-011-2020-11-03,https://www.nytimes.com/interactive/2020/11/03/us/elections/results-texas-house-district-11.html,https://www.nytimes.com/interactive/2020/11/03/us/elections/results-texas.html,https://www.nytimes.com/interactive/2020/11/03/us/elections/ap-polls-texas.html,https://www.nytimes.com/interactive/2020/11/03/us/elections/exit-polls-texas.html,house,general,2020-11-03,FALSE,U.S. House District 11,U.S. House,H,solid-rep,11,District 11,TX,texas,Texas,Texas,horizontal,"",FALSE,TRUE,winner,AP,FALSE,"",291572,232084,29,unknown,Most polls close at 8 p.m. Eastern time.,Polls close in,Polls have closed.,2020-11-04T01:00:00.000Z,8 p.m.,318,353,90% reporting,90%,92,321000,edison,92%,92% reported,edison,republican,FALSE,2020-11-19T21:51:15Z,FALSE,61.38209,178973,R+61,Pfluger +61,republican,"","",1,0,1604457873285
48319,Mason,2538,2266,5,5,Released as a precinct as first report of the night,96,2650,96%,96% reported,edison,2,unknown,2092,1979,530,29,1768,474,24,2020-11-16T15:48:34Z,57.0922,R+57,Pfluger +57,republican,TX-G-H-11-2020-11-03,tx-house-general-district-011-2020-11-03,https://www.nytimes.com/interactive/2020/11/03/us/elections/results-texas-house-district-11.html,https://www.nytimes.com/interactive/2020/11/03/us/elections/results-texas.html,https://www.nytimes.com/interactive/2020/11/03/us/elections/ap-polls-texas.html,https://www.nytimes.com/interactive/2020/11/03/us/elections/exit-polls-texas.html,house,general,2020-11-03,FALSE,U.S. House District 11,U.S. House,H,solid-rep,11,District 11,TX,texas,Texas,Texas,horizontal,"",FALSE,TRUE,winner,AP,FALSE,"",291572,232084,29,unknown,Most polls close at 8 p.m. Eastern time.,Polls close in,Polls have closed.,2020-11-04T01:00:00.000Z,8 p.m.,318,353,90% reporting,90%,92,321000,edison,92%,92% reported,edison,republican,FALSE,2020-11-19T21:51:15Z,FALSE,61.38209,178973,R+61,Pfluger +61,republican,"","",1,0,1604457873285
48307,McCulloch,3371,2620,3,4,Released as a precinct as first report of the night,84,3991,84%,84% reported,edison,2,unknown,3128,2839,444,88,2190,366,64,2020-11-19T21:51:00Z,71.04717,R+71,Pfluger +71,republican,TX-G-H-11-2020-11-03,tx-house-general-district-011-2020-11-03,https://www.nytimes.com/interactive/2020/11/03/us/elections/results-texas-house-district-11.html,https://www.nytimes.com/interactive/2020/11/03/us/elections/results-texas.html,https://www.nytimes.com/interactive/2020/11/03/us/elections/ap-polls-texas.html,https://www.nytimes.com/interactive/2020/11/03/us/elections/exit-polls-texas.html,house,general,2020-11-03,FALSE,U.S. House District 11,U.S. House,H,solid-rep,11,District 11,TX,texas,Texas,Texas,horizontal,"",FALSE,TRUE,winner,AP,FALSE,"",291572,232084,29,unknown,Most polls close at 8 p.m. Eastern time.,Polls close in,Polls have closed.,2020-11-04T01:00:00.000Z,8 p.m.,318,353,90% reporting,90%,92,321000,edison,92%,92% reported,edison,republican,FALSE,2020-11-19T21:51:15Z,FALSE,61.38209,178973,R+61,Pfluger +61,republican,"","",1,0,1604457873285
48327,Menard,1003,781,6,7,Released as a precinct as first report of the night,90,1112,90%,90% reported,edison,2,unknown,813,800,186,17,621,148,12,2020-11-19T21:50:58Z,61.21635,R+61,Pfluger +61,republican,TX-G-H-11-2020-11-03,tx-house-general-district-011-2020-11-03,https://www.nytimes.com/interactive/2020/11/03/us/elections/results-texas-house-district-11.html,https://www.nytimes.com/interactive/2020/11/03/us/elections/results-texas.html,https://www.nytimes.com/interactive/2020/11/03/us/elections/ap-polls-texas.html,https://www.nytimes.com/interactive/2020/11/03/us/elections/exit-polls-texas.html,house,general,2020-11-03,FALSE,U.S. House District 11,U.S. House,H,solid-rep,11,District 11,TX,texas,Texas,Texas,horizontal,"",FALSE,TRUE,winner,AP,FALSE,"",291572,232084,29,unknown,Most polls close at 8 p.m. Eastern time.,Polls close in,Polls have closed.,2020-11-04T01:00:00.000Z,8 p.m.,318,353,90% reporting,90%,92,321000,edison,92%,92% reported,edison,republican,FALSE,2020-11-19T21:51:15Z,FALSE,61.38209,178973,R+61,Pfluger +61,republican,"","",1,0,1604457873285
48329,Midland,58238,49316,41,45,Released as a precinct as first report of the night,92,63040,92%,92% reported,edison,2,some,52107,45847,11141,1250,38896,9493,927,2020-11-19T21:51:14Z,59.59339,R+60,Pfluger +60,republican,TX-G-H-11-2020-11-03,tx-house-general-district-011-2020-11-03,https://www.nytimes.com/interactive/2020/11/03/us/elections/results-texas-house-district-11.html,https://www.nytimes.com/interactive/2020/11/03/us/elections/results-texas.html,https://www.nytimes.com/interactive/2020/11/03/us/elections/ap-polls-texas.html,https://www.nytimes.com/interactive/2020/11/03/us/elections/exit-polls-texas.html,house,general,2020-11-03,FALSE,U.S. House District 11,U.S. House,H,solid-rep,11,District 11,TX,texas,Texas,Texas,horizontal,"",FALSE,TRUE,winner,AP,FALSE,"",291572,232084,29,unknown,Most polls close at 8 p.m. Eastern time.,Polls close in,Polls have closed.,2020-11-04T01:00:00.000Z,8 p.m.,318,353,90% reporting,90%,92,321000,edison,92%,92% reported,edison,republican,FALSE,2020-11-19T21:51:15Z,FALSE,61.38209,178973,R+61,Pfluger +61,republican,"","",1,0,1604457873285
48333,Mills,2464,1915,7,8,Released as a precinct as first report of the night,85,2891,85%,85% reported,edison,2,unknown,2437,2189,240,35,1683,204,28,2020-11-19T21:51:13Z,79.09903,R+79,Pfluger +79,republican,TX-G-H-11-2020-11-03,tx-house-general-district-011-2020-11-03,https://www.nytimes.com/interactive/2020/11/03/us/elections/results-texas-house-district-11.html,https://www.nytimes.com/interactive/2020/11/03/us/elections/results-texas.html,https://www.nytimes.com/interactive/2020/11/03/us/elections/ap-polls-texas.html,https://www.nytimes.com/interactive/2020/11/03/us/elections/exit-polls-texas.html,house,general,2020-11-03,FALSE,U.S. House District 11,U.S. House,H,solid-rep,11,District 11,TX,texas,Texas,Texas,horizontal,"",FALSE,TRUE,winner,AP,FALSE,"",291572,232084,29,unknown,Most polls close at 8 p.m. Eastern time.,Polls close in,Polls have closed.,2020-11-04T01:00:00.000Z,8 p.m.,318,353,90% reporting,90%,92,321000,edison,92%,92% reported,edison,republican,FALSE,2020-11-19T21:51:15Z,FALSE,61.38209,178973,R+61,Pfluger +61,republican,"","",1,0,1604457873285
48335,Mitchell,2526,1858,6,7,Released as a precinct as first report of the night,89,2826,89%,89% reported,edison,2,some,2166,2132,354,40,1563,267,28,2020-11-19T21:51:13Z,70.38797,R+70,Pfluger +70,republican,TX-G-H-11-2020-11-03,tx-house-general-district-011-2020-11-03,https://www.nytimes.com/interactive/2020/11/03/us/elections/results-texas-house-district-11.html,https://www.nytimes.com/interactive/2020/11/03/us/elections/results-texas.html,https://www.nytimes.com/interactive/2020/11/03/us/elections/ap-polls-texas.html,https://www.nytimes.com/interactive/2020/11/03/us/elections/exit-polls-texas.html,house,general,2020-11-03,FALSE,U.S. House District 11,U.S. House,H,solid-rep,11,District 11,TX,texas,Texas,Texas,horizontal,"",FALSE,TRUE,winner,AP,FALSE,"",291572,232084,29,unknown,Most polls close at 8 p.m. Eastern time.,Polls close in,Polls have closed.,2020-11-04T01:00:00.000Z,8 p.m.,318,353,90% reporting,90%,92,321000,edison,92%,92% reported,edison,republican,FALSE,2020-11-19T21:51:15Z,FALSE,61.38209,178973,R+61,Pfluger +61,republican,"","",1,0,1604457873285
48363,Palo Pinto,12214,9423,26,28,Released as a precinct as first report of the night,92,13223,92%,92% reported,edison,2,unknown,7232,9995,2008,211,7599,1684,140,2020-11-19T21:51:04Z,65.39217,R+65,Pfluger +65,republican,TX-G-H-11-2020-11-03,tx-house-general-district-011-2020-11-03,https://www.nytimes.com/interactive/2020/11/03/us/elections/results-texas-house-district-11.html,https://www.nytimes.com/interactive/2020/11/03/us/elections/results-texas.html,https://www.nytimes.com/interactive/2020/11/03/us/elections/ap-polls-texas.html,https://www.nytimes.com/interactive/2020/11/03/us/elections/exit-polls-texas.html,house,general,2020-11-03,FALSE,U.S. House District 11,U.S. House,H,solid-rep,11,District 11,TX,texas,Texas,Texas,horizontal,"",FALSE,TRUE,winner,AP,FALSE,"",291572,232084,29,unknown,Most polls close at 8 p.m. Eastern time.,Polls close in,Polls have closed.,2020-11-04T01:00:00.000Z,8 p.m.,318,353,90% reporting,90%,92,321000,edison,92%,92% reported,edison,republican,FALSE,2020-11-19T21:51:15Z,FALSE,61.38209,178973,R+61,Pfluger +61,republican,"","",1,0,1604457873285
48399,Runnels,4311,3015,9,11,Released as a precinct as first report of the night,89,4871,89%,89% reported,edison,2,unknown,,3742,494,75,2629,343,43,2020-11-19T21:51:00Z,75.34215,R+75,Pfluger +75,republican,TX-G-H-11-2020-11-03,tx-house-general-district-011-2020-11-03,https://www.nytimes.com/interactive/2020/11/03/us/elections/results-texas-house-district-11.html,https://www.nytimes.com/interactive/2020/11/03/us/elections/results-texas.html,https://www.nytimes.com/interactive/2020/11/03/us/elections/ap-polls-texas.html,https://www.nytimes.com/interactive/2020/11/03/us/elections/exit-polls-texas.html,house,general,2020-11-03,FALSE,U.S. House District 11,U.S. House,H,solid-rep,11,District 11,TX,texas,Texas,Texas,horizontal,"",FALSE,TRUE,winner,AP,FALSE,"",291572,232084,29,unknown,Most polls close at 8 p.m. Eastern time.,Polls close in,Polls have closed.,2020-11-04T01:00:00.000Z,8 p.m.,318,353,90% reporting,90%,92,321000,edison,92%,92% reported,edison,republican,FALSE,2020-11-19T21:51:15Z,FALSE,61.38209,178973,R+61,Pfluger +61,republican,"","",1,0,1604457873285
48411,San Saba,2542,1829,3,4,Released as a precinct as first report of the night,84,3037,84%,84% reported,edison,2,unknown,1940,2258,259,25,1616,198,15,2020-11-16T15:48:35Z,78.63887,R+79,Pfluger +79,republican,TX-G-H-11-2020-11-03,tx-house-general-district-011-2020-11-03,https://www.nytimes.com/interactive/2020/11/03/us/elections/results-texas-house-district-11.html,https://www.nytimes.com/interactive/2020/11/03/us/elections/results-texas.html,https://www.nytimes.com/interactive/2020/11/03/us/elections/ap-polls-texas.html,https://www.nytimes.com/interactive/2020/11/03/us/elections/exit-polls-texas.html,house,general,2020-11-03,FALSE,U.S. House District 11,U.S. House,H,solid-rep,11,District 11,TX,texas,Texas,Texas,horizontal,"",FALSE,TRUE,winner,AP,FALSE,"",291572,232084,29,unknown,Most polls close at 8 p.m. Eastern time.,Polls close in,Polls have closed.,2020-11-04T01:00:00.000Z,8 p.m.,318,353,90% reporting,90%,92,321000,edison,92%,92% reported,edison,republican,FALSE,2020-11-19T21:51:15Z,FALSE,61.38209,178973,R+61,Pfluger +61,republican,"","",1,0,1604457873285
48429,Stephens,2583,2000,5,6,Released as a precinct as first report of the night,81,3207,81%,81% reported,edison,2,unknown,3737,2290,264,29,1758,221,21,2020-11-19T21:50:53Z,78.43593,R+78,Pfluger +78,republican,TX-G-H-11-2020-11-03,tx-house-general-district-011-2020-11-03,https://www.nytimes.com/interactive/2020/11/03/us/elections/results-texas-house-district-11.html,https://www.nytimes.com/interactive/2020/11/03/us/elections/results-texas.html,https://www.nytimes.com/interactive/2020/11/03/us/elections/ap-polls-texas.html,https://www.nytimes.com/interactive/2020/11/03/us/elections/exit-polls-texas.html,house,general,2020-11-03,FALSE,U.S. House District 11,U.S. House,H,solid-rep,11,District 11,TX,texas,Texas,Texas,horizontal,"",FALSE,TRUE,winner,AP,FALSE,"",291572,232084,29,unknown,Most polls close at 8 p.m. Eastern time.,Polls close in,Polls have closed.,2020-11-04T01:00:00.000Z,8 p.m.,318,353,90% reporting,90%,92,321000,edison,92%,92% reported,edison,republican,FALSE,2020-11-19T21:51:15Z,FALSE,61.38209,178973,R+61,Pfluger +61,republican,"","",1,0,1604457873285
48431,Sterling,623,475,3,4,Released as a precinct as first report of the night,76,817,76%,76% reported,edison,2,unknown,408,570,47,6,437,34,4,2020-11-16T15:48:36Z,83.94864,R+84,Pfluger +84,republican,TX-G-H-11-2020-11-03,tx-house-general-district-011-2020-11-03,https://www.nytimes.com/interactive/2020/11/03/us/elections/results-texas-house-district-11.html,https://www.nytimes.com/interactive/2020/11/03/us/elections/results-texas.html,https://www.nytimes.com/interactive/2020/11/03/us/elections/ap-polls-texas.html,https://www.nytimes.com/interactive/2020/11/03/us/elections/exit-polls-texas.html,house,general,2020-11-03,FALSE,U.S. House District 11,U.S. House,H,solid-rep,11,District 11,TX,texas,Texas,Texas,horizontal,"",FALSE,TRUE,winner,AP,FALSE,"",291572,232084,29,unknown,Most polls close at 8 p.m. Eastern time.,Polls close in,Polls have closed.,2020-11-04T01:00:00.000Z,8 p.m.,318,353,90% reporting,90%,92,321000,edison,92%,92% reported,edison,republican,FALSE,2020-11-19T21:51:15Z,FALSE,61.38209,178973,R+61,Pfluger +61,republican,"","",1,0,1604457873285
48451,Tom Green,44356,32886,35,35,Released as a precinct as first report of the night,90,49390,90%,90% reported,edison,2,unknown,37998,32252,11046,1058,23443,8791,652,2020-11-16T15:48:36Z,47.80864,R+48,Pfluger +48,republican,TX-G-H-11-2020-11-03,tx-house-general-district-011-2020-11-03,https://www.nytimes.com/interactive/2020/11/03/us/elections/results-texas-house-district-11.html,https://www.nytimes.com/interactive/2020/11/03/us/elections/results-texas.html,https://www.nytimes.com/interactive/2020/11/03/us/elections/ap-polls-texas.html,https://www.nytimes.com/interactive/2020/11/03/us/elections/exit-polls-texas.html,house,general,2020-11-03,FALSE,U.S. House District 11,U.S. House,H,solid-rep,11,District 11,TX,texas,Texas,Texas,horizontal,"",FALSE,TRUE,winner,AP,FALSE,"",291572,232084,29,unknown,Most polls close at 8 p.m. Eastern time.,Polls close in,Polls have closed.,2020-11-04T01:00:00.000Z,8 p.m.,318,353,90% reporting,90%,92,321000,edison,92%,92% reported,edison,republican,FALSE,2020-11-19T21:51:15Z,FALSE,61.38209,178973,R+61,Pfluger +61,republican,"","",1,0,1604457873285
