fips,name,votes,absentee_votes,reporting,precincts,absentee_method,eevp,tot_exp_vote,eevp_value,eevp_display,eevp_source,turnout_stage,absentee_count_progress,absentee_max_ballots,results_brownleyj,results_baldwin_kennedyr,results_absentee_brownleyj,results_absentee_baldwin_kennedyr,last_updated,leader_margin_value,leader_margin_display,leader_margin_name_display,leader_party_id,race_id_race,race_slug_race,url_race,state_page_url_race,ap_polls_page_race,edison_exit_polls_page_race,race_type_race,election_type_race,election_date_race,runoff_race,race_name_race,office_race,officeid_race,race_rating_race,seat_race,seat_name_race,state_id_race,state_slug_race,state_name_race,state_nyt_abbrev_race,state_shape_race,state_aspect_ratio_race,party_id_race,uncontested_race,report_race,result_race,result_source_race,gain_race,lost_seat_race,votes_race,absentee_votes_race,absentee_counties_race,absentee_count_progress_race,poll_display_race,poll_countdown_display_race,poll_waiting_display_race,poll_time_race,poll_time_short_race,precincts_reporting_race,precincts_total_race,reporting_display_race,reporting_value_race,eevp_race,tot_exp_vote_race,eevp_source_race,eevp_value_race,eevp_display_race,county_data_source_race,incumbent_party_race,no_forecast_race,last_updated_race,has_incumbent_race,leader_margin_value_race,leader_margin_votes_race,leader_margin_display_race,leader_margin_name_display_race,leader_party_id_race,expectations_text_race,expectations_text_short_race,absentee_ballot_deadline_race,absentee_postmark_deadline_race,winner_called_timestamp_race
06037,Los Angeles,5185,4095,5,5,Released as a separate subtotal as first report of the night,97,5320,97%,97% reported,edison,4,all,1561325,2789,2396,2381,1714,2020-11-17T22:30:56Z,7.57956,D+8,Brownley +8,democrat,CA-G-H-26-2020-11-03,ca-house-general-district-026-2020-11-03,https://www.nytimes.com/interactive/2020/11/03/us/elections/results-california-house-district-26.html,https://www.nytimes.com/interactive/2020/11/03/us/elections/results-california.html,https://www.nytimes.com/interactive/2020/11/03/us/elections/ap-polls-california.html,https://www.nytimes.com/interactive/2020/11/03/us/elections/exit-polls-california.html,house,general,2020-11-03,FALSE,U.S. House District 26,U.S. House,H,solid-dem,26,District 26,CA,california,California,Calif.,vertical,0.5,"",FALSE,TRUE,winner,AP,FALSE,"",343453,4095,1,unknown,Polls close at 11 p.m. Eastern time.,Polls close in,Polls have closed.,2020-11-04T04:00:00.000Z,11 p.m.,652,652,100% reporting,100%,99,334000,edison,>98%,>98% reported,edison,democrat,FALSE,2020-11-17T23:41:13Z,TRUE,21.20261,72821,D+21,Brownley +21,democrat,"All active registered voters were sent mail ballots, and late-arriving mail ballots and provisional ballots will be counted in the days and weeks after the election.","All active registered voters were sent mail ballots, and late-arriving mail ballots and provisional ballots will be counted in the days and weeks after the election.",17,0,1604464230105
06111,Ventura,338268,0,647,647,Released as a separate subtotal as first report of the night,100,327824,>98%,>98% reported,edison,2,some,263890,205348,132920,0,0,2020-11-17T23:41:09Z,21.41143,D+21,Brownley +21,democrat,CA-G-H-26-2020-11-03,ca-house-general-district-026-2020-11-03,https://www.nytimes.com/interactive/2020/11/03/us/elections/results-california-house-district-26.html,https://www.nytimes.com/interactive/2020/11/03/us/elections/results-california.html,https://www.nytimes.com/interactive/2020/11/03/us/elections/ap-polls-california.html,https://www.nytimes.com/interactive/2020/11/03/us/elections/exit-polls-california.html,house,general,2020-11-03,FALSE,U.S. House District 26,U.S. House,H,solid-dem,26,District 26,CA,california,California,Calif.,vertical,0.5,"",FALSE,TRUE,winner,AP,FALSE,"",343453,4095,1,unknown,Polls close at 11 p.m. Eastern time.,Polls close in,Polls have closed.,2020-11-04T04:00:00.000Z,11 p.m.,652,652,100% reporting,100%,99,334000,edison,>98%,>98% reported,edison,democrat,FALSE,2020-11-17T23:41:13Z,TRUE,21.20261,72821,D+21,Brownley +21,democrat,"All active registered voters were sent mail ballots, and late-arriving mail ballots and provisional ballots will be counted in the days and weeks after the election.","All active registered voters were sent mail ballots, and late-arriving mail ballots and provisional ballots will be counted in the days and weeks after the election.",17,0,1604464230105
